i ; campaign ; serie ; sample ; slake ; time ; mass 
1 ; Les Fonds ; 25NT ; LF-25NT-2019-DH-B ; 559 ; 2019-07-11 09:07:29.848667 ; 134.16 
2 ; Les Fonds ; 25NT ; LF-25NT-2019-DH-B ; 559 ; 2019-07-11 09:07:30.829520 ; 134.16 
3 ; Les Fonds ; 25NT ; LF-25NT-2019-DH-B ; 559 ; 2019-07-11 09:07:31.925241 ; 134.16 
4 ; Les Fonds ; 25NT ; LF-25NT-2019-DH-B ; 559 ; 2019-07-11 09:07:32.857228 ; 134.16 
5 ; Les Fonds ; 25NT ; LF-25NT-2019-DH-B ; 559 ; 2019-07-11 09:07:33.705222 ; 134.16 
6 ; Les Fonds ; 25NT ; LF-25NT-2019-DH-B ; 559 ; 2019-07-11 09:07:34.560512 ; 134.16 
7 ; Les Fonds ; 25NT ; LF-25NT-2019-DH-B ; 559 ; 2019-07-11 09:07:35.411199 ; 134.16 
8 ; Les Fonds ; 25NT ; LF-25NT-2019-DH-B ; 559 ; 2019-07-11 09:07:36.267067 ; 117.18 
9 ; Les Fonds ; 25NT ; LF-25NT-2019-DH-B ; 559 ; 2019-07-11 09:07:37.127245 ; 55.45 
10 ; Les Fonds ; 25NT ; LF-25NT-2019-DH-B ; 559 ; 2019-07-11 09:07:37.866518 ; 50.04 
11 ; Les Fonds ; 25NT ; LF-25NT-2019-DH-B ; 559 ; 2019-07-11 09:07:38.622584 ; 51.17 
12 ; Les Fonds ; 25NT ; LF-25NT-2019-DH-B ; 559 ; 2019-07-11 09:07:39.474249 ; 52.23 
13 ; Les Fonds ; 25NT ; LF-25NT-2019-DH-B ; 559 ; 2019-07-11 09:07:40.430381 ; 53.5 
14 ; Les Fonds ; 25NT ; LF-25NT-2019-DH-B ; 559 ; 2019-07-11 09:07:41.394095 ; 54.17 
15 ; Les Fonds ; 25NT ; LF-25NT-2019-DH-B ; 559 ; 2019-07-11 09:07:42.351521 ; 54.9 
16 ; Les Fonds ; 25NT ; LF-25NT-2019-DH-B ; 559 ; 2019-07-11 09:07:43.310774 ; 55.35 
17 ; Les Fonds ; 25NT ; LF-25NT-2019-DH-B ; 559 ; 2019-07-11 09:07:44.277063 ; 55.81 
18 ; Les Fonds ; 25NT ; LF-25NT-2019-DH-B ; 559 ; 2019-07-11 09:07:45.230088 ; 56.14 
19 ; Les Fonds ; 25NT ; LF-25NT-2019-DH-B ; 559 ; 2019-07-11 09:07:46.185389 ; 56.55 
20 ; Les Fonds ; 25NT ; LF-25NT-2019-DH-B ; 559 ; 2019-07-11 09:07:47.150009 ; 56.87 
21 ; Les Fonds ; 25NT ; LF-25NT-2019-DH-B ; 559 ; 2019-07-11 09:07:48.113620 ; 57.23 
22 ; Les Fonds ; 25NT ; LF-25NT-2019-DH-B ; 559 ; 2019-07-11 09:07:49.069947 ; 57.53 
23 ; Les Fonds ; 25NT ; LF-25NT-2019-DH-B ; 559 ; 2019-07-11 09:07:50.035059 ; 57.84 
24 ; Les Fonds ; 25NT ; LF-25NT-2019-DH-B ; 559 ; 2019-07-11 09:07:50.996615 ; 58.06 
25 ; Les Fonds ; 25NT ; LF-25NT-2019-DH-B ; 559 ; 2019-07-11 09:07:51.946771 ; 58.18 
26 ; Les Fonds ; 25NT ; LF-25NT-2019-DH-B ; 559 ; 2019-07-11 09:07:52.913862 ; 58.2 
27 ; Les Fonds ; 25NT ; LF-25NT-2019-DH-B ; 559 ; 2019-07-11 09:07:53.869716 ; 58.12 
28 ; Les Fonds ; 25NT ; LF-25NT-2019-DH-B ; 559 ; 2019-07-11 09:07:54.734395 ; 58.07 
29 ; Les Fonds ; 25NT ; LF-25NT-2019-DH-B ; 559 ; 2019-07-11 09:07:55.525765 ; 58.09 
30 ; Les Fonds ; 25NT ; LF-25NT-2019-DH-B ; 559 ; 2019-07-11 09:07:56.380539 ; 58.21 
31 ; Les Fonds ; 25NT ; LF-25NT-2019-DH-B ; 559 ; 2019-07-11 09:07:57.229693 ; 58.25 
32 ; Les Fonds ; 25NT ; LF-25NT-2019-DH-B ; 559 ; 2019-07-11 09:07:58.084232 ; 58.26 
33 ; Les Fonds ; 25NT ; LF-25NT-2019-DH-B ; 559 ; 2019-07-11 09:07:58.938029 ; 58.24 
34 ; Les Fonds ; 25NT ; LF-25NT-2019-DH-B ; 559 ; 2019-07-11 09:07:59.789411 ; 58.22 
35 ; Les Fonds ; 25NT ; LF-25NT-2019-DH-B ; 559 ; 2019-07-11 09:08:00.644987 ; 58.22 
36 ; Les Fonds ; 25NT ; LF-25NT-2019-DH-B ; 559 ; 2019-07-11 09:08:01.494215 ; 58.22 
37 ; Les Fonds ; 25NT ; LF-25NT-2019-DH-B ; 559 ; 2019-07-11 09:08:02.349995 ; 58.22 
38 ; Les Fonds ; 25NT ; LF-25NT-2019-DH-B ; 559 ; 2019-07-11 09:08:03.144905 ; 58.19 
39 ; Les Fonds ; 25NT ; LF-25NT-2019-DH-B ; 559 ; 2019-07-11 09:08:04.000683 ; 58.11 
40 ; Les Fonds ; 25NT ; LF-25NT-2019-DH-B ; 559 ; 2019-07-11 09:08:04.964187 ; 58.13 
41 ; Les Fonds ; 25NT ; LF-25NT-2019-DH-B ; 559 ; 2019-07-11 09:08:05.767261 ; 58.12 
42 ; Les Fonds ; 25NT ; LF-25NT-2019-DH-B ; 559 ; 2019-07-11 09:08:06.512440 ; 58.13 
43 ; Les Fonds ; 25NT ; LF-25NT-2019-DH-B ; 559 ; 2019-07-11 09:08:07.368030 ; 58.04 
44 ; Les Fonds ; 25NT ; LF-25NT-2019-DH-B ; 559 ; 2019-07-11 09:08:08.166401 ; 57.97 
45 ; Les Fonds ; 25NT ; LF-25NT-2019-DH-B ; 559 ; 2019-07-11 09:08:08.962560 ; 57.83 
46 ; Les Fonds ; 25NT ; LF-25NT-2019-DH-B ; 559 ; 2019-07-11 09:08:09.872723 ; 57.57 
47 ; Les Fonds ; 25NT ; LF-25NT-2019-DH-B ; 559 ; 2019-07-11 09:08:10.833885 ; 57.25 
48 ; Les Fonds ; 25NT ; LF-25NT-2019-DH-B ; 559 ; 2019-07-11 09:08:11.739242 ; 57.15 
49 ; Les Fonds ; 25NT ; LF-25NT-2019-DH-B ; 559 ; 2019-07-11 09:08:12.642964 ; 57.15 
50 ; Les Fonds ; 25NT ; LF-25NT-2019-DH-B ; 559 ; 2019-07-11 09:08:13.496778 ; 57.15 
51 ; Les Fonds ; 25NT ; LF-25NT-2019-DH-B ; 559 ; 2019-07-11 09:08:14.346472 ; 57.14 
52 ; Les Fonds ; 25NT ; LF-25NT-2019-DH-B ; 559 ; 2019-07-11 09:08:15.204229 ; 57.13 
53 ; Les Fonds ; 25NT ; LF-25NT-2019-DH-B ; 559 ; 2019-07-11 09:08:16.107522 ; 57.12 
54 ; Les Fonds ; 25NT ; LF-25NT-2019-DH-B ; 559 ; 2019-07-11 09:08:16.913023 ; 57.08 
55 ; Les Fonds ; 25NT ; LF-25NT-2019-DH-B ; 559 ; 2019-07-11 09:08:17.765950 ; 57.06 
56 ; Les Fonds ; 25NT ; LF-25NT-2019-DH-B ; 559 ; 2019-07-11 09:08:18.622935 ; 56.74 
57 ; Les Fonds ; 25NT ; LF-25NT-2019-DH-B ; 559 ; 2019-07-11 09:08:19.583940 ; 56.35 
58 ; Les Fonds ; 25NT ; LF-25NT-2019-DH-B ; 559 ; 2019-07-11 09:08:20.431546 ; 55.91 
59 ; Les Fonds ; 25NT ; LF-25NT-2019-DH-B ; 559 ; 2019-07-11 09:08:21.176511 ; 55.75 
60 ; Les Fonds ; 25NT ; LF-25NT-2019-DH-B ; 559 ; 2019-07-11 09:08:22.028369 ; 55.67 
61 ; Les Fonds ; 25NT ; LF-25NT-2019-DH-B ; 559 ; 2019-07-11 09:08:22.887406 ; 55.66 
62 ; Les Fonds ; 25NT ; LF-25NT-2019-DH-B ; 559 ; 2019-07-11 09:08:23.744833 ; 55.56 
63 ; Les Fonds ; 25NT ; LF-25NT-2019-DH-B ; 559 ; 2019-07-11 09:08:24.537711 ; 55.42 
64 ; Les Fonds ; 25NT ; LF-25NT-2019-DH-B ; 559 ; 2019-07-11 09:08:25.338371 ; 55.18 
65 ; Les Fonds ; 25NT ; LF-25NT-2019-DH-B ; 559 ; 2019-07-11 09:08:26.138978 ; 54.95 
66 ; Les Fonds ; 25NT ; LF-25NT-2019-DH-B ; 559 ; 2019-07-11 09:08:26.933796 ; 54.88 
67 ; Les Fonds ; 25NT ; LF-25NT-2019-DH-B ; 559 ; 2019-07-11 09:08:27.752687 ; 54.65 
68 ; Les Fonds ; 25NT ; LF-25NT-2019-DH-B ; 559 ; 2019-07-11 09:08:28.536673 ; 54.07 
69 ; Les Fonds ; 25NT ; LF-25NT-2019-DH-B ; 559 ; 2019-07-11 09:08:29.396452 ; 53.79 
70 ; Les Fonds ; 25NT ; LF-25NT-2019-DH-B ; 559 ; 2019-07-11 09:08:30.189728 ; 53.73 
71 ; Les Fonds ; 25NT ; LF-25NT-2019-DH-B ; 559 ; 2019-07-11 09:08:30.986276 ; 53.45 
72 ; Les Fonds ; 25NT ; LF-25NT-2019-DH-B ; 559 ; 2019-07-11 09:08:31.844535 ; 52.88 
73 ; Les Fonds ; 25NT ; LF-25NT-2019-DH-B ; 559 ; 2019-07-11 09:08:32.703453 ; 52.68 
74 ; Les Fonds ; 25NT ; LF-25NT-2019-DH-B ; 559 ; 2019-07-11 09:08:33.552476 ; 52.29 
75 ; Les Fonds ; 25NT ; LF-25NT-2019-DH-B ; 559 ; 2019-07-11 09:08:34.409618 ; 51.96 
76 ; Les Fonds ; 25NT ; LF-25NT-2019-DH-B ; 559 ; 2019-07-11 09:08:35.256646 ; 51.6 
77 ; Les Fonds ; 25NT ; LF-25NT-2019-DH-B ; 559 ; 2019-07-11 09:08:36.113901 ; 51.43 
78 ; Les Fonds ; 25NT ; LF-25NT-2019-DH-B ; 559 ; 2019-07-11 09:08:36.960228 ; 51.22 
79 ; Les Fonds ; 25NT ; LF-25NT-2019-DH-B ; 559 ; 2019-07-11 09:08:37.815929 ; 50.7 
80 ; Les Fonds ; 25NT ; LF-25NT-2019-DH-B ; 559 ; 2019-07-11 09:08:38.671972 ; 50.43 
81 ; Les Fonds ; 25NT ; LF-25NT-2019-DH-B ; 559 ; 2019-07-11 09:08:39.529833 ; 50.23 
82 ; Les Fonds ; 25NT ; LF-25NT-2019-DH-B ; 559 ; 2019-07-11 09:08:40.377479 ; 49.93 
83 ; Les Fonds ; 25NT ; LF-25NT-2019-DH-B ; 559 ; 2019-07-11 09:08:41.230568 ; 49.6 
84 ; Les Fonds ; 25NT ; LF-25NT-2019-DH-B ; 559 ; 2019-07-11 09:08:42.078939 ; 49.41 
85 ; Les Fonds ; 25NT ; LF-25NT-2019-DH-B ; 559 ; 2019-07-11 09:08:42.935273 ; 49.3 
86 ; Les Fonds ; 25NT ; LF-25NT-2019-DH-B ; 559 ; 2019-07-11 09:08:43.789548 ; 49.19 
87 ; Les Fonds ; 25NT ; LF-25NT-2019-DH-B ; 559 ; 2019-07-11 09:08:44.648204 ; 48.84 
88 ; Les Fonds ; 25NT ; LF-25NT-2019-DH-B ; 559 ; 2019-07-11 09:08:45.496054 ; 48.31 
89 ; Les Fonds ; 25NT ; LF-25NT-2019-DH-B ; 559 ; 2019-07-11 09:08:46.352567 ; 48.02 
90 ; Les Fonds ; 25NT ; LF-25NT-2019-DH-B ; 559 ; 2019-07-11 09:08:47.204327 ; 47.81 
91 ; Les Fonds ; 25NT ; LF-25NT-2019-DH-B ; 559 ; 2019-07-11 09:08:48.052805 ; 47.63 
92 ; Les Fonds ; 25NT ; LF-25NT-2019-DH-B ; 559 ; 2019-07-11 09:08:48.913110 ; 47.53 
93 ; Les Fonds ; 25NT ; LF-25NT-2019-DH-B ; 559 ; 2019-07-11 09:08:49.769407 ; 47.42 
94 ; Les Fonds ; 25NT ; LF-25NT-2019-DH-B ; 559 ; 2019-07-11 09:08:50.617521 ; 47.15 
95 ; Les Fonds ; 25NT ; LF-25NT-2019-DH-B ; 559 ; 2019-07-11 09:08:51.476071 ; 46.83 
96 ; Les Fonds ; 25NT ; LF-25NT-2019-DH-B ; 559 ; 2019-07-11 09:08:52.322834 ; 46.22 
97 ; Les Fonds ; 25NT ; LF-25NT-2019-DH-B ; 559 ; 2019-07-11 09:08:53.176405 ; 45.5 
98 ; Les Fonds ; 25NT ; LF-25NT-2019-DH-B ; 559 ; 2019-07-11 09:08:54.028061 ; 45.16 
99 ; Les Fonds ; 25NT ; LF-25NT-2019-DH-B ; 559 ; 2019-07-11 09:08:54.883670 ; 44.91 
100 ; Les Fonds ; 25NT ; LF-25NT-2019-DH-B ; 559 ; 2019-07-11 09:08:55.755291 ; 44.57 
101 ; Les Fonds ; 25NT ; LF-25NT-2019-DH-B ; 559 ; 2019-07-11 09:08:56.591590 ; 44.08 
102 ; Les Fonds ; 25NT ; LF-25NT-2019-DH-B ; 559 ; 2019-07-11 09:08:57.444689 ; 43.63 
103 ; Les Fonds ; 25NT ; LF-25NT-2019-DH-B ; 559 ; 2019-07-11 09:08:58.298715 ; 42.64 
104 ; Les Fonds ; 25NT ; LF-25NT-2019-DH-B ; 559 ; 2019-07-11 09:08:59.152882 ; 41.62 
105 ; Les Fonds ; 25NT ; LF-25NT-2019-DH-B ; 559 ; 2019-07-11 09:09:00.000540 ; 41.28 
106 ; Les Fonds ; 25NT ; LF-25NT-2019-DH-B ; 559 ; 2019-07-11 09:09:00.866240 ; 41.06 
107 ; Les Fonds ; 25NT ; LF-25NT-2019-DH-B ; 559 ; 2019-07-11 09:09:01.710780 ; 40.94 
108 ; Les Fonds ; 25NT ; LF-25NT-2019-DH-B ; 559 ; 2019-07-11 09:09:02.569725 ; 40.85 
109 ; Les Fonds ; 25NT ; LF-25NT-2019-DH-B ; 559 ; 2019-07-11 09:09:03.421387 ; 40.82 
110 ; Les Fonds ; 25NT ; LF-25NT-2019-DH-B ; 559 ; 2019-07-11 09:09:04.219927 ; 40.77 
111 ; Les Fonds ; 25NT ; LF-25NT-2019-DH-B ; 559 ; 2019-07-11 09:09:04.961569 ; 40.73 
112 ; Les Fonds ; 25NT ; LF-25NT-2019-DH-B ; 559 ; 2019-07-11 09:09:05.819476 ; 40.65 
113 ; Les Fonds ; 25NT ; LF-25NT-2019-DH-B ; 559 ; 2019-07-11 09:09:06.745574 ; 40.58 
114 ; Les Fonds ; 25NT ; LF-25NT-2019-DH-B ; 559 ; 2019-07-11 09:09:07.472537 ; 40.35 
115 ; Les Fonds ; 25NT ; LF-25NT-2019-DH-B ; 559 ; 2019-07-11 09:09:08.217443 ; 39.92 
116 ; Les Fonds ; 25NT ; LF-25NT-2019-DH-B ; 559 ; 2019-07-11 09:09:08.963790 ; 39.66 
117 ; Les Fonds ; 25NT ; LF-25NT-2019-DH-B ; 559 ; 2019-07-11 09:09:09.712912 ; 39.58 
118 ; Les Fonds ; 25NT ; LF-25NT-2019-DH-B ; 559 ; 2019-07-11 09:09:10.457587 ; 39.54 
119 ; Les Fonds ; 25NT ; LF-25NT-2019-DH-B ; 559 ; 2019-07-11 09:09:11.214029 ; 39.42 
120 ; Les Fonds ; 25NT ; LF-25NT-2019-DH-B ; 559 ; 2019-07-11 09:09:12.055304 ; 39.34 
121 ; Les Fonds ; 25NT ; LF-25NT-2019-DH-B ; 559 ; 2019-07-11 09:09:13.021166 ; 39.28 
122 ; Les Fonds ; 25NT ; LF-25NT-2019-DH-B ; 559 ; 2019-07-11 09:09:13.819836 ; 39.2 
123 ; Les Fonds ; 25NT ; LF-25NT-2019-DH-B ; 559 ; 2019-07-11 09:09:14.779814 ; 39.13 
124 ; Les Fonds ; 25NT ; LF-25NT-2019-DH-B ; 559 ; 2019-07-11 09:09:15.630534 ; 39.13 
125 ; Les Fonds ; 25NT ; LF-25NT-2019-DH-B ; 559 ; 2019-07-11 09:09:16.482472 ; 39.01 
126 ; Les Fonds ; 25NT ; LF-25NT-2019-DH-B ; 559 ; 2019-07-11 09:09:17.344552 ; 38.94 
127 ; Les Fonds ; 25NT ; LF-25NT-2019-DH-B ; 559 ; 2019-07-11 09:09:18.196151 ; 38.85 
128 ; Les Fonds ; 25NT ; LF-25NT-2019-DH-B ; 559 ; 2019-07-11 09:09:19.039649 ; 38.76 
129 ; Les Fonds ; 25NT ; LF-25NT-2019-DH-B ; 559 ; 2019-07-11 09:09:19.901985 ; 38.66 
130 ; Les Fonds ; 25NT ; LF-25NT-2019-DH-B ; 559 ; 2019-07-11 09:09:20.860982 ; 38.61 
131 ; Les Fonds ; 25NT ; LF-25NT-2019-DH-B ; 559 ; 2019-07-11 09:09:21.780355 ; 38.3 
132 ; Les Fonds ; 25NT ; LF-25NT-2019-DH-B ; 559 ; 2019-07-11 09:09:22.623405 ; 37.86 
133 ; Les Fonds ; 25NT ; LF-25NT-2019-DH-B ; 559 ; 2019-07-11 09:09:23.474595 ; 37.7 
134 ; Les Fonds ; 25NT ; LF-25NT-2019-DH-B ; 559 ; 2019-07-11 09:09:24.324264 ; 37.56 
135 ; Les Fonds ; 25NT ; LF-25NT-2019-DH-B ; 559 ; 2019-07-11 09:09:25.179798 ; 37.44 
136 ; Les Fonds ; 25NT ; LF-25NT-2019-DH-B ; 559 ; 2019-07-11 09:09:26.031491 ; 37.35 
137 ; Les Fonds ; 25NT ; LF-25NT-2019-DH-B ; 559 ; 2019-07-11 09:09:26.886289 ; 37.25 
138 ; Les Fonds ; 25NT ; LF-25NT-2019-DH-B ; 559 ; 2019-07-11 09:09:27.754943 ; 37.16 
139 ; Les Fonds ; 25NT ; LF-25NT-2019-DH-B ; 559 ; 2019-07-11 09:09:28.597263 ; 37.09 
140 ; Les Fonds ; 25NT ; LF-25NT-2019-DH-B ; 559 ; 2019-07-11 09:09:29.390210 ; 37.01 
141 ; Les Fonds ; 25NT ; LF-25NT-2019-DH-B ; 559 ; 2019-07-11 09:09:30.245179 ; 36.92 
142 ; Les Fonds ; 25NT ; LF-25NT-2019-DH-B ; 559 ; 2019-07-11 09:09:31.046757 ; 36.83 
143 ; Les Fonds ; 25NT ; LF-25NT-2019-DH-B ; 559 ; 2019-07-11 09:09:31.783918 ; 36.65 
144 ; Les Fonds ; 25NT ; LF-25NT-2019-DH-B ; 559 ; 2019-07-11 09:09:32.547844 ; 35.93 
145 ; Les Fonds ; 25NT ; LF-25NT-2019-DH-B ; 559 ; 2019-07-11 09:09:33.294387 ; 34.95 
146 ; Les Fonds ; 25NT ; LF-25NT-2019-DH-B ; 559 ; 2019-07-11 09:09:34.034524 ; 34.03 
147 ; Les Fonds ; 25NT ; LF-25NT-2019-DH-B ; 559 ; 2019-07-11 09:09:34.773535 ; 33.77 
148 ; Les Fonds ; 25NT ; LF-25NT-2019-DH-B ; 559 ; 2019-07-11 09:09:35.526079 ; 33.64 
149 ; Les Fonds ; 25NT ; LF-25NT-2019-DH-B ; 559 ; 2019-07-11 09:09:36.275752 ; 33.56 
150 ; Les Fonds ; 25NT ; LF-25NT-2019-DH-B ; 559 ; 2019-07-11 09:09:37.128373 ; 33.41 
151 ; Les Fonds ; 25NT ; LF-25NT-2019-DH-B ; 559 ; 2019-07-11 09:09:37.979038 ; 33.33 
152 ; Les Fonds ; 25NT ; LF-25NT-2019-DH-B ; 559 ; 2019-07-11 09:09:38.834556 ; 33.31 
153 ; Les Fonds ; 25NT ; LF-25NT-2019-DH-B ; 559 ; 2019-07-11 09:09:39.681844 ; 33.31 
154 ; Les Fonds ; 25NT ; LF-25NT-2019-DH-B ; 559 ; 2019-07-11 09:09:40.427608 ; 33.28 
155 ; Les Fonds ; 25NT ; LF-25NT-2019-DH-B ; 559 ; 2019-07-11 09:09:41.287094 ; 33.19 
156 ; Les Fonds ; 25NT ; LF-25NT-2019-DH-B ; 559 ; 2019-07-11 09:09:42.192360 ; 33.05 
157 ; Les Fonds ; 25NT ; LF-25NT-2019-DH-B ; 559 ; 2019-07-11 09:09:43.040684 ; 32.97 
158 ; Les Fonds ; 25NT ; LF-25NT-2019-DH-B ; 559 ; 2019-07-11 09:09:43.802876 ; 32.97 
159 ; Les Fonds ; 25NT ; LF-25NT-2019-DH-B ; 559 ; 2019-07-11 09:09:44.640730 ; 32.93 
160 ; Les Fonds ; 25NT ; LF-25NT-2019-DH-B ; 559 ; 2019-07-11 09:09:45.551573 ; 32.91 
161 ; Les Fonds ; 25NT ; LF-25NT-2019-DH-B ; 559 ; 2019-07-11 09:09:46.407889 ; 32.81 
162 ; Les Fonds ; 25NT ; LF-25NT-2019-DH-B ; 559 ; 2019-07-11 09:09:47.264607 ; 32.65 
163 ; Les Fonds ; 25NT ; LF-25NT-2019-DH-B ; 559 ; 2019-07-11 09:09:48.007965 ; 32.6 
164 ; Les Fonds ; 25NT ; LF-25NT-2019-DH-B ; 559 ; 2019-07-11 09:09:48.800902 ; 32.58 
165 ; Les Fonds ; 25NT ; LF-25NT-2019-DH-B ; 559 ; 2019-07-11 09:09:49.653082 ; 32.54 
166 ; Les Fonds ; 25NT ; LF-25NT-2019-DH-B ; 559 ; 2019-07-11 09:09:50.523661 ; 32.53 
167 ; Les Fonds ; 25NT ; LF-25NT-2019-DH-B ; 559 ; 2019-07-11 09:09:51.362914 ; 32.41 
168 ; Les Fonds ; 25NT ; LF-25NT-2019-DH-B ; 559 ; 2019-07-11 09:09:52.317874 ; 32.15 
169 ; Les Fonds ; 25NT ; LF-25NT-2019-DH-B ; 559 ; 2019-07-11 09:09:53.121076 ; 31.9 
170 ; Les Fonds ; 25NT ; LF-25NT-2019-DH-B ; 559 ; 2019-07-11 09:09:53.919161 ; 31.8 
171 ; Les Fonds ; 25NT ; LF-25NT-2019-DH-B ; 559 ; 2019-07-11 09:09:54.739420 ; 31.73 
172 ; Les Fonds ; 25NT ; LF-25NT-2019-DH-B ; 559 ; 2019-07-11 09:09:55.627069 ; 31.64 
173 ; Les Fonds ; 25NT ; LF-25NT-2019-DH-B ; 559 ; 2019-07-11 09:09:56.429585 ; 31.63 
174 ; Les Fonds ; 25NT ; LF-25NT-2019-DH-B ; 559 ; 2019-07-11 09:09:57.284162 ; 31.61 
175 ; Les Fonds ; 25NT ; LF-25NT-2019-DH-B ; 559 ; 2019-07-11 09:09:58.081420 ; 31.6 
176 ; Les Fonds ; 25NT ; LF-25NT-2019-DH-B ; 559 ; 2019-07-11 09:09:58.932986 ; 31.55 
177 ; Les Fonds ; 25NT ; LF-25NT-2019-DH-B ; 559 ; 2019-07-11 09:09:59.794926 ; 31.41 
178 ; Les Fonds ; 25NT ; LF-25NT-2019-DH-B ; 559 ; 2019-07-11 09:10:00.772230 ; 31.31 
179 ; Les Fonds ; 25NT ; LF-25NT-2019-DH-B ; 559 ; 2019-07-11 09:10:01.707574 ; 31.22 
180 ; Les Fonds ; 25NT ; LF-25NT-2019-DH-B ; 559 ; 2019-07-11 09:10:02.669737 ; 31.19 
181 ; Les Fonds ; 25NT ; LF-25NT-2019-DH-B ; 559 ; 2019-07-11 09:10:03.579154 ; 31.14 
182 ; Les Fonds ; 25NT ; LF-25NT-2019-DH-B ; 559 ; 2019-07-11 09:10:04.482640 ; 31.12 
183 ; Les Fonds ; 25NT ; LF-25NT-2019-DH-B ; 559 ; 2019-07-11 09:10:05.291376 ; 31.13 
184 ; Les Fonds ; 25NT ; LF-25NT-2019-DH-B ; 559 ; 2019-07-11 09:10:06.029427 ; 30.95 
185 ; Les Fonds ; 25NT ; LF-25NT-2019-DH-B ; 559 ; 2019-07-11 09:10:06.827078 ; 30.92 
186 ; Les Fonds ; 25NT ; LF-25NT-2019-DH-B ; 559 ; 2019-07-11 09:10:07.630249 ; 30.91 
187 ; Les Fonds ; 25NT ; LF-25NT-2019-DH-B ; 559 ; 2019-07-11 09:10:08.482249 ; 30.84 
188 ; Les Fonds ; 25NT ; LF-25NT-2019-DH-B ; 559 ; 2019-07-11 09:10:09.440124 ; 30.64 
189 ; Les Fonds ; 25NT ; LF-25NT-2019-DH-B ; 559 ; 2019-07-11 09:10:10.305212 ; 30.55 
190 ; Les Fonds ; 25NT ; LF-25NT-2019-DH-B ; 559 ; 2019-07-11 09:10:11.145864 ; 30.47 
191 ; Les Fonds ; 25NT ; LF-25NT-2019-DH-B ; 559 ; 2019-07-11 09:10:12.052671 ; 30.44 
192 ; Les Fonds ; 25NT ; LF-25NT-2019-DH-B ; 559 ; 2019-07-11 09:10:12.858491 ; 30.42 
193 ; Les Fonds ; 25NT ; LF-25NT-2019-DH-B ; 559 ; 2019-07-11 09:10:13.707423 ; 30.43 
194 ; Les Fonds ; 25NT ; LF-25NT-2019-DH-B ; 559 ; 2019-07-11 09:10:14.560141 ; 30.34 
195 ; Les Fonds ; 25NT ; LF-25NT-2019-DH-B ; 559 ; 2019-07-11 09:10:15.363940 ; 30.27 
196 ; Les Fonds ; 25NT ; LF-25NT-2019-DH-B ; 559 ; 2019-07-11 09:10:16.277028 ; 30.23 
197 ; Les Fonds ; 25NT ; LF-25NT-2019-DH-B ; 559 ; 2019-07-11 09:10:17.073123 ; 30.13 
198 ; Les Fonds ; 25NT ; LF-25NT-2019-DH-B ; 559 ; 2019-07-11 09:10:17.972144 ; 30.07 
199 ; Les Fonds ; 25NT ; LF-25NT-2019-DH-B ; 559 ; 2019-07-11 09:10:18.791610 ; 29.94 
200 ; Les Fonds ; 25NT ; LF-25NT-2019-DH-B ; 559 ; 2019-07-11 09:10:19.629784 ; 29.76 
201 ; Les Fonds ; 25NT ; LF-25NT-2019-DH-B ; 559 ; 2019-07-11 09:10:20.480020 ; 29.45 
202 ; Les Fonds ; 25NT ; LF-25NT-2019-DH-B ; 559 ; 2019-07-11 09:10:21.340066 ; 29.2 
203 ; Les Fonds ; 25NT ; LF-25NT-2019-DH-B ; 559 ; 2019-07-11 09:10:22.188871 ; 29.07 
204 ; Les Fonds ; 25NT ; LF-25NT-2019-DH-B ; 559 ; 2019-07-11 09:10:23.034988 ; 29.02 
205 ; Les Fonds ; 25NT ; LF-25NT-2019-DH-B ; 559 ; 2019-07-11 09:10:23.843375 ; 28.83 
206 ; Les Fonds ; 25NT ; LF-25NT-2019-DH-B ; 559 ; 2019-07-11 09:10:24.693697 ; 28.62 
207 ; Les Fonds ; 25NT ; LF-25NT-2019-DH-B ; 559 ; 2019-07-11 09:10:25.493496 ; 28.49 
208 ; Les Fonds ; 25NT ; LF-25NT-2019-DH-B ; 559 ; 2019-07-11 09:10:26.299844 ; 28.46 
209 ; Les Fonds ; 25NT ; LF-25NT-2019-DH-B ; 559 ; 2019-07-11 09:10:27.042113 ; 28.42 
210 ; Les Fonds ; 25NT ; LF-25NT-2019-DH-B ; 559 ; 2019-07-11 09:10:27.892054 ; 28.4 
211 ; Les Fonds ; 25NT ; LF-25NT-2019-DH-B ; 559 ; 2019-07-11 09:10:28.855574 ; 28.38 
212 ; Les Fonds ; 25NT ; LF-25NT-2019-DH-B ; 559 ; 2019-07-11 09:10:29.761875 ; 28.34 
213 ; Les Fonds ; 25NT ; LF-25NT-2019-DH-B ; 559 ; 2019-07-11 09:10:30.667814 ; 28.25 
214 ; Les Fonds ; 25NT ; LF-25NT-2019-DH-B ; 559 ; 2019-07-11 09:10:41.588804 ; 27.99 
215 ; Les Fonds ; 25NT ; LF-25NT-2019-DH-B ; 559 ; 2019-07-11 09:10:52.356856 ; 25.61 
216 ; Les Fonds ; 25NT ; LF-25NT-2019-DH-B ; 559 ; 2019-07-11 09:11:03.239792 ; 25.1 
217 ; Les Fonds ; 25NT ; LF-25NT-2019-DH-B ; 559 ; 2019-07-11 09:11:14.066104 ; 24.8 
218 ; Les Fonds ; 25NT ; LF-25NT-2019-DH-B ; 559 ; 2019-07-11 09:11:25.048304 ; 24.7 
219 ; Les Fonds ; 25NT ; LF-25NT-2019-DH-B ; 559 ; 2019-07-11 09:11:35.983045 ; 24.62 
220 ; Les Fonds ; 25NT ; LF-25NT-2019-DH-B ; 559 ; 2019-07-11 09:11:46.974580 ; 24.26 
221 ; Les Fonds ; 25NT ; LF-25NT-2019-DH-B ; 559 ; 2019-07-11 09:11:57.904782 ; 23.93 
222 ; Les Fonds ; 25NT ; LF-25NT-2019-DH-B ; 559 ; 2019-07-11 09:12:08.782072 ; 23.9 
223 ; Les Fonds ; 25NT ; LF-25NT-2019-DH-B ; 559 ; 2019-07-11 09:12:19.613531 ; 23.84 
224 ; Les Fonds ; 25NT ; LF-25NT-2019-DH-B ; 559 ; 2019-07-11 09:12:30.543819 ; 23.8 
225 ; Les Fonds ; 25NT ; LF-25NT-2019-DH-B ; 559 ; 2019-07-11 09:12:41.422817 ; 23.76 
226 ; Les Fonds ; 25NT ; LF-25NT-2019-DH-B ; 559 ; 2019-07-11 09:12:52.358016 ; 23.68 
227 ; Les Fonds ; 25NT ; LF-25NT-2019-DH-B ; 559 ; 2019-07-11 09:13:03.345868 ; 23.65 
228 ; Les Fonds ; 25NT ; LF-25NT-2019-DH-B ; 559 ; 2019-07-11 09:13:14.224617 ; 23.62 
229 ; Les Fonds ; 25NT ; LF-25NT-2019-DH-B ; 559 ; 2019-07-11 09:13:25.155744 ; 23.55 
230 ; Les Fonds ; 25NT ; LF-25NT-2019-DH-B ; 559 ; 2019-07-11 09:13:35.983439 ; 23.5 
231 ; Les Fonds ; 25NT ; LF-25NT-2019-DH-B ; 559 ; 2019-07-11 09:13:46.971524 ; 23.35 
232 ; Les Fonds ; 25NT ; LF-25NT-2019-DH-B ; 559 ; 2019-07-11 09:13:57.918773 ; 23.33 
233 ; Les Fonds ; 25NT ; LF-25NT-2019-DH-B ; 559 ; 2019-07-11 09:14:08.782801 ; 23.28 
234 ; Les Fonds ; 25NT ; LF-25NT-2019-DH-B ; 559 ; 2019-07-11 09:14:19.662786 ; 23.2 
235 ; Les Fonds ; 25NT ; LF-25NT-2019-DH-B ; 559 ; 2019-07-11 09:14:30.493192 ; 23.17 
236 ; Les Fonds ; 25NT ; LF-25NT-2019-DH-B ; 559 ; 2019-07-11 09:14:41.476971 ; 23.08 
237 ; Les Fonds ; 25NT ; LF-25NT-2019-DH-B ; 559 ; 2019-07-11 09:14:52.411010 ; 23.06 
238 ; Les Fonds ; 25NT ; LF-25NT-2019-DH-B ; 559 ; 2019-07-11 09:15:03.300245 ; 23 
239 ; Les Fonds ; 25NT ; LF-25NT-2019-DH-B ; 559 ; 2019-07-11 09:15:14.119004 ; 22.96 
240 ; Les Fonds ; 25NT ; LF-25NT-2019-DH-B ; 559 ; 2019-07-11 09:15:24.999830 ; 22.94 
241 ; Les Fonds ; 25NT ; LF-25NT-2019-DH-B ; 559 ; 2019-07-11 09:15:35.989449 ; 22.85 
242 ; Les Fonds ; 25NT ; LF-25NT-2019-DH-B ; 559 ; 2019-07-11 09:15:46.920731 ; 22.51 
243 ; Les Fonds ; 25NT ; LF-25NT-2019-DH-B ; 559 ; 2019-07-11 09:15:57.854067 ; 22.46 
244 ; Les Fonds ; 25NT ; LF-25NT-2019-DH-B ; 559 ; 2019-07-11 09:16:08.792574 ; 21.76 
245 ; Les Fonds ; 25NT ; LF-25NT-2019-DH-B ; 559 ; 2019-07-11 09:16:19.665259 ; 21.66 
246 ; Les Fonds ; 25NT ; LF-25NT-2019-DH-B ; 559 ; 2019-07-11 09:16:30.490306 ; 21.64 
247 ; Les Fonds ; 25NT ; LF-25NT-2019-DH-B ; 559 ; 2019-07-11 09:16:41.370330 ; 21.63 
248 ; Les Fonds ; 25NT ; LF-25NT-2019-DH-B ; 559 ; 2019-07-11 09:16:52.360780 ; 21.62 
249 ; Les Fonds ; 25NT ; LF-25NT-2019-DH-B ; 559 ; 2019-07-11 09:17:03.237057 ; 21.6 
250 ; Les Fonds ; 25NT ; LF-25NT-2019-DH-B ; 559 ; 2019-07-11 09:17:14.179268 ; 21.58 
251 ; Les Fonds ; 25NT ; LF-25NT-2019-DH-B ; 559 ; 2019-07-11 09:17:25.053020 ; 21.57 
252 ; Les Fonds ; 25NT ; LF-25NT-2019-DH-B ; 559 ; 2019-07-11 09:17:35.929498 ; 21.54 
253 ; Les Fonds ; 25NT ; LF-25NT-2019-DH-B ; 559 ; 2019-07-11 09:18:06.867253 ; 21.52 
254 ; Les Fonds ; 25NT ; LF-25NT-2019-DH-B ; 559 ; 2019-07-11 09:18:37.822429 ; 21.46 
255 ; Les Fonds ; 25NT ; LF-25NT-2019-DH-B ; 559 ; 2019-07-11 09:19:08.706299 ; 21.36 
256 ; Les Fonds ; 25NT ; LF-25NT-2019-DH-B ; 559 ; 2019-07-11 09:19:39.590324 ; 21.22 
257 ; Les Fonds ; 25NT ; LF-25NT-2019-DH-B ; 559 ; 2019-07-11 09:20:10.570390 ; 20.81 
258 ; Les Fonds ; 25NT ; LF-25NT-2019-DH-B ; 559 ; 2019-07-11 09:20:41.448688 ; 20.38 
259 ; Les Fonds ; 25NT ; LF-25NT-2019-DH-B ; 559 ; 2019-07-11 09:21:12.387916 ; 20.35 
260 ; Les Fonds ; 25NT ; LF-25NT-2019-DH-B ; 559 ; 2019-07-11 09:21:43.371356 ; 20.27 
261 ; Les Fonds ; 25NT ; LF-25NT-2019-DH-B ; 559 ; 2019-07-11 09:22:14.309141 ; 19.92 
262 ; Les Fonds ; 25NT ; LF-25NT-2019-DH-B ; 559 ; 2019-07-11 09:22:45.236721 ; 19.84 
263 ; Les Fonds ; 25NT ; LF-25NT-2019-DH-B ; 559 ; 2019-07-11 09:23:16.174259 ; 19.8 
264 ; Les Fonds ; 25NT ; LF-25NT-2019-DH-B ; 559 ; 2019-07-11 09:23:47.156089 ; 19.75 
265 ; Les Fonds ; 25NT ; LF-25NT-2019-DH-B ; 559 ; 2019-07-11 09:24:18.036184 ; 19.69 
266 ; Les Fonds ; 25NT ; LF-25NT-2019-DH-B ; 559 ; 2019-07-11 09:24:49.026875 ; 19.66 
267 ; Les Fonds ; 25NT ; LF-25NT-2019-DH-B ; 559 ; 2019-07-11 09:25:19.962011 ; 19.53 
268 ; Les Fonds ; 25NT ; LF-25NT-2019-DH-B ; 559 ; 2019-07-11 09:25:50.784739 ; 19.18 
269 ; Les Fonds ; 25NT ; LF-25NT-2019-DH-B ; 559 ; 2019-07-11 09:26:21.612319 ; 19.15 
270 ; Les Fonds ; 25NT ; LF-25NT-2019-DH-B ; 559 ; 2019-07-11 09:26:52.548773 ; 19.15 
271 ; Les Fonds ; 25NT ; LF-25NT-2019-DH-B ; 559 ; 2019-07-11 09:27:23.424008 ; 19.1 
272 ; Les Fonds ; 25NT ; LF-25NT-2019-DH-B ; 559 ; 2019-07-11 09:27:54.361197 ; 19.06 
273 ; Les Fonds ; 25NT ; LF-25NT-2019-DH-B ; 559 ; 2019-07-11 09:28:25.203098 ; 19.02 
274 ; Les Fonds ; 25NT ; LF-25NT-2019-DH-B ; 559 ; 2019-07-11 09:28:56.116283 ; 18.88 
275 ; Les Fonds ; 25NT ; LF-25NT-2019-DH-B ; 559 ; 2019-07-11 09:29:26.999615 ; 18.84 
276 ; Les Fonds ; 25NT ; LF-25NT-2019-DH-B ; 559 ; 2019-07-11 09:29:57.882014 ; 18.76 
277 ; Les Fonds ; 25NT ; LF-25NT-2019-DH-B ; 559 ; 2019-07-11 09:30:28.840911 ; 18.75 
