i ; campaign ; serie ; sample ; slake ; time ; mass 
1 ; Les Fonds ; 21NT ; LF-21NT-2019-DH-MB-C ; 725 ; 2019-07-23 13:27:41.880773 ; 164.41 
2 ; Les Fonds ; 21NT ; LF-21NT-2019-DH-MB-C ; 725 ; 2019-07-23 13:27:42.908633 ; 164.36 
3 ; Les Fonds ; 21NT ; LF-21NT-2019-DH-MB-C ; 725 ; 2019-07-23 13:27:43.946494 ; 164.28 
4 ; Les Fonds ; 21NT ; LF-21NT-2019-DH-MB-C ; 725 ; 2019-07-23 13:27:44.982452 ; 164.24 
5 ; Les Fonds ; 21NT ; LF-21NT-2019-DH-MB-C ; 725 ; 2019-07-23 13:27:46.053839 ; 164.24 
6 ; Les Fonds ; 21NT ; LF-21NT-2019-DH-MB-C ; 725 ; 2019-07-23 13:27:47.096245 ; 164.24 
7 ; Les Fonds ; 21NT ; LF-21NT-2019-DH-MB-C ; 725 ; 2019-07-23 13:27:48.133527 ; NA 
8 ; Les Fonds ; 21NT ; LF-21NT-2019-DH-MB-C ; 725 ; 2019-07-23 13:27:49.196863 ; 102.78 
9 ; Les Fonds ; 21NT ; LF-21NT-2019-DH-MB-C ; 725 ; 2019-07-23 13:27:50.232872 ; 63.04 
10 ; Les Fonds ; 21NT ; LF-21NT-2019-DH-MB-C ; 725 ; 2019-07-23 13:27:51.276599 ; 66.47 
11 ; Les Fonds ; 21NT ; LF-21NT-2019-DH-MB-C ; 725 ; 2019-07-23 13:27:52.342562 ; 66.65 
12 ; Les Fonds ; 21NT ; LF-21NT-2019-DH-MB-C ; 725 ; 2019-07-23 13:27:53.389991 ; 68.18 
13 ; Les Fonds ; 21NT ; LF-21NT-2019-DH-MB-C ; 725 ; 2019-07-23 13:27:54.423171 ; 69.14 
14 ; Les Fonds ; 21NT ; LF-21NT-2019-DH-MB-C ; 725 ; 2019-07-23 13:27:55.460804 ; 69.81 
15 ; Les Fonds ; 21NT ; LF-21NT-2019-DH-MB-C ; 725 ; 2019-07-23 13:27:56.527719 ; 70.09 
16 ; Les Fonds ; 21NT ; LF-21NT-2019-DH-MB-C ; 725 ; 2019-07-23 13:27:57.572579 ; 70.59 
17 ; Les Fonds ; 21NT ; LF-21NT-2019-DH-MB-C ; 725 ; 2019-07-23 13:27:58.625389 ; 70.66 
18 ; Les Fonds ; 21NT ; LF-21NT-2019-DH-MB-C ; 725 ; 2019-07-23 13:27:59.679838 ; 70.69 
19 ; Les Fonds ; 21NT ; LF-21NT-2019-DH-MB-C ; 725 ; 2019-07-23 13:28:00.718238 ; 70.42 
20 ; Les Fonds ; 21NT ; LF-21NT-2019-DH-MB-C ; 725 ; 2019-07-23 13:28:01.753219 ; 70.17 
21 ; Les Fonds ; 21NT ; LF-21NT-2019-DH-MB-C ; 725 ; 2019-07-23 13:28:02.820384 ; 69.84 
22 ; Les Fonds ; 21NT ; LF-21NT-2019-DH-MB-C ; 725 ; 2019-07-23 13:28:03.873376 ; 68.84 
23 ; Les Fonds ; 21NT ; LF-21NT-2019-DH-MB-C ; 725 ; 2019-07-23 13:28:04.901306 ; 68.74 
24 ; Les Fonds ; 21NT ; LF-21NT-2019-DH-MB-C ; 725 ; 2019-07-23 13:28:05.968352 ; 68.46 
25 ; Les Fonds ; 21NT ; LF-21NT-2019-DH-MB-C ; 725 ; 2019-07-23 13:28:07.011569 ; 68.35 
26 ; Les Fonds ; 21NT ; LF-21NT-2019-DH-MB-C ; 725 ; 2019-07-23 13:28:08.048756 ; 68.09 
27 ; Les Fonds ; 21NT ; LF-21NT-2019-DH-MB-C ; 725 ; 2019-07-23 13:28:09.127836 ; NA 
28 ; Les Fonds ; 21NT ; LF-21NT-2019-DH-MB-C ; 725 ; 2019-07-23 13:28:10.161573 ; 67.17 
29 ; Les Fonds ; 21NT ; LF-21NT-2019-DH-MB-C ; 725 ; 2019-07-23 13:28:11.195374 ; 66.95 
30 ; Les Fonds ; 21NT ; LF-21NT-2019-DH-MB-C ; 725 ; 2019-07-23 13:28:12.261161 ; 66.87 
31 ; Les Fonds ; 21NT ; LF-21NT-2019-DH-MB-C ; 725 ; 2019-07-23 13:28:13.302216 ; 66.39 
32 ; Les Fonds ; 21NT ; LF-21NT-2019-DH-MB-C ; 725 ; 2019-07-23 13:28:14.354003 ; 66.12 
33 ; Les Fonds ; 21NT ; LF-21NT-2019-DH-MB-C ; 725 ; 2019-07-23 13:28:15.411005 ; 65.98 
34 ; Les Fonds ; 21NT ; LF-21NT-2019-DH-MB-C ; 725 ; 2019-07-23 13:28:16.447452 ; 65.84 
35 ; Les Fonds ; 21NT ; LF-21NT-2019-DH-MB-C ; 725 ; 2019-07-23 13:28:17.489926 ; 65.72 
36 ; Les Fonds ; 21NT ; LF-21NT-2019-DH-MB-C ; 725 ; 2019-07-23 13:28:18.555334 ; 65.37 
37 ; Les Fonds ; 21NT ; LF-21NT-2019-DH-MB-C ; 725 ; 2019-07-23 13:28:19.609909 ; 64.77 
38 ; Les Fonds ; 21NT ; LF-21NT-2019-DH-MB-C ; 725 ; 2019-07-23 13:28:20.635442 ; 64.53 
39 ; Les Fonds ; 21NT ; LF-21NT-2019-DH-MB-C ; 725 ; 2019-07-23 13:28:21.703224 ; 64.29 
40 ; Les Fonds ; 21NT ; LF-21NT-2019-DH-MB-C ; 725 ; 2019-07-23 13:28:22.744401 ; 64.04 
41 ; Les Fonds ; 21NT ; LF-21NT-2019-DH-MB-C ; 725 ; 2019-07-23 13:28:23.779884 ; 63.55 
42 ; Les Fonds ; 21NT ; LF-21NT-2019-DH-MB-C ; 725 ; 2019-07-23 13:28:24.832747 ; 63.29 
43 ; Les Fonds ; 21NT ; LF-21NT-2019-DH-MB-C ; 725 ; 2019-07-23 13:28:25.891853 ; 63.02 
44 ; Les Fonds ; 21NT ; LF-21NT-2019-DH-MB-C ; 725 ; 2019-07-23 13:28:26.928988 ; 62.69 
45 ; Les Fonds ; 21NT ; LF-21NT-2019-DH-MB-C ; 725 ; 2019-07-23 13:28:27.970617 ; 62.39 
46 ; Les Fonds ; 21NT ; LF-21NT-2019-DH-MB-C ; 725 ; 2019-07-23 13:28:29.036262 ; 62.33 
47 ; Les Fonds ; 21NT ; LF-21NT-2019-DH-MB-C ; 725 ; 2019-07-23 13:28:30.087193 ; 62.04 
48 ; Les Fonds ; 21NT ; LF-21NT-2019-DH-MB-C ; 725 ; 2019-07-23 13:28:31.117563 ; 61.8 
49 ; Les Fonds ; 21NT ; LF-21NT-2019-DH-MB-C ; 725 ; 2019-07-23 13:28:32.178442 ; 61.74 
50 ; Les Fonds ; 21NT ; LF-21NT-2019-DH-MB-C ; 725 ; 2019-07-23 13:28:33.225214 ; 61.65 
51 ; Les Fonds ; 21NT ; LF-21NT-2019-DH-MB-C ; 725 ; 2019-07-23 13:28:34.261925 ; 61.56 
52 ; Les Fonds ; 21NT ; LF-21NT-2019-DH-MB-C ; 725 ; 2019-07-23 13:28:35.337807 ; 61.25 
53 ; Les Fonds ; 21NT ; LF-21NT-2019-DH-MB-C ; 725 ; 2019-07-23 13:28:36.371433 ; 60.96 
54 ; Les Fonds ; 21NT ; LF-21NT-2019-DH-MB-C ; 725 ; 2019-07-23 13:28:37.409793 ; 60.94 
55 ; Les Fonds ; 21NT ; LF-21NT-2019-DH-MB-C ; 725 ; 2019-07-23 13:28:38.478264 ; 60.87 
56 ; Les Fonds ; 21NT ; LF-21NT-2019-DH-MB-C ; 725 ; 2019-07-23 13:28:39.515403 ; 60.77 
57 ; Les Fonds ; 21NT ; LF-21NT-2019-DH-MB-C ; 725 ; 2019-07-23 13:28:40.576624 ; 60.43 
58 ; Les Fonds ; 21NT ; LF-21NT-2019-DH-MB-C ; 725 ; 2019-07-23 13:28:41.623460 ; 60.1 
59 ; Les Fonds ; 21NT ; LF-21NT-2019-DH-MB-C ; 725 ; 2019-07-23 13:28:42.660370 ; 59.56 
60 ; Les Fonds ; 21NT ; LF-21NT-2019-DH-MB-C ; 725 ; 2019-07-23 13:28:43.709419 ; 59.48 
61 ; Les Fonds ; 21NT ; LF-21NT-2019-DH-MB-C ; 725 ; 2019-07-23 13:28:44.768474 ; 59.36 
62 ; Les Fonds ; 21NT ; LF-21NT-2019-DH-MB-C ; 725 ; 2019-07-23 13:28:45.821109 ; 59.25 
63 ; Les Fonds ; 21NT ; LF-21NT-2019-DH-MB-C ; 725 ; 2019-07-23 13:28:46.849220 ; 59.14 
64 ; Les Fonds ; 21NT ; LF-21NT-2019-DH-MB-C ; 725 ; 2019-07-23 13:28:47.913820 ; 58.81 
65 ; Les Fonds ; 21NT ; LF-21NT-2019-DH-MB-C ; 725 ; 2019-07-23 13:28:48.954823 ; 58.77 
66 ; Les Fonds ; 21NT ; LF-21NT-2019-DH-MB-C ; 725 ; 2019-07-23 13:28:49.995318 ; 58.67 
67 ; Les Fonds ; 21NT ; LF-21NT-2019-DH-MB-C ; 725 ; 2019-07-23 13:28:51.072219 ; 58.08 
68 ; Les Fonds ; 21NT ; LF-21NT-2019-DH-MB-C ; 725 ; 2019-07-23 13:28:52.104669 ; 57.72 
69 ; Les Fonds ; 21NT ; LF-21NT-2019-DH-MB-C ; 725 ; 2019-07-23 13:28:53.144623 ; 57.26 
70 ; Les Fonds ; 21NT ; LF-21NT-2019-DH-MB-C ; 725 ; 2019-07-23 13:28:54.207419 ; 56.86 
71 ; Les Fonds ; 21NT ; LF-21NT-2019-DH-MB-C ; 725 ; 2019-07-23 13:28:55.264324 ; 56.61 
72 ; Les Fonds ; 21NT ; LF-21NT-2019-DH-MB-C ; 725 ; 2019-07-23 13:28:56.294201 ; 56.38 
73 ; Les Fonds ; 21NT ; LF-21NT-2019-DH-MB-C ; 725 ; 2019-07-23 13:28:57.332475 ; 56.28 
74 ; Les Fonds ; 21NT ; LF-21NT-2019-DH-MB-C ; 725 ; 2019-07-23 13:28:58.399408 ; 56.12 
75 ; Les Fonds ; 21NT ; LF-21NT-2019-DH-MB-C ; 725 ; 2019-07-23 13:28:59.436653 ; 55.98 
76 ; Les Fonds ; 21NT ; LF-21NT-2019-DH-MB-C ; 725 ; 2019-07-23 13:29:00.477929 ; 55.85 
77 ; Les Fonds ; 21NT ; LF-21NT-2019-DH-MB-C ; 725 ; 2019-07-23 13:29:01.552176 ; 55.78 
78 ; Les Fonds ; 21NT ; LF-21NT-2019-DH-MB-C ; 725 ; 2019-07-23 13:29:02.584992 ; 55.52 
79 ; Les Fonds ; 21NT ; LF-21NT-2019-DH-MB-C ; 725 ; 2019-07-23 13:29:03.620984 ; 55.5 
80 ; Les Fonds ; 21NT ; LF-21NT-2019-DH-MB-C ; 725 ; 2019-07-23 13:29:04.687739 ; 55.48 
81 ; Les Fonds ; 21NT ; LF-21NT-2019-DH-MB-C ; 725 ; 2019-07-23 13:29:05.727516 ; 55.39 
82 ; Les Fonds ; 21NT ; LF-21NT-2019-DH-MB-C ; 725 ; 2019-07-23 13:29:06.797625 ; 55.22 
83 ; Les Fonds ; 21NT ; LF-21NT-2019-DH-MB-C ; 725 ; 2019-07-23 13:29:07.834896 ; 55.06 
84 ; Les Fonds ; 21NT ; LF-21NT-2019-DH-MB-C ; 725 ; 2019-07-23 13:29:08.877983 ; 54.93 
85 ; Les Fonds ; 21NT ; LF-21NT-2019-DH-MB-C ; 725 ; 2019-07-23 13:29:09.918781 ; 54.15 
86 ; Les Fonds ; 21NT ; LF-21NT-2019-DH-MB-C ; 725 ; 2019-07-23 13:29:10.981739 ; 53.72 
87 ; Les Fonds ; 21NT ; LF-21NT-2019-DH-MB-C ; 725 ; 2019-07-23 13:29:12.031798 ; 53.61 
88 ; Les Fonds ; 21NT ; LF-21NT-2019-DH-MB-C ; 725 ; 2019-07-23 13:29:13.057493 ; 53.56 
89 ; Les Fonds ; 21NT ; LF-21NT-2019-DH-MB-C ; 725 ; 2019-07-23 13:29:14.123853 ; 53.31 
90 ; Les Fonds ; 21NT ; LF-21NT-2019-DH-MB-C ; 725 ; 2019-07-23 13:29:15.159404 ; 53.24 
91 ; Les Fonds ; 21NT ; LF-21NT-2019-DH-MB-C ; 725 ; 2019-07-23 13:29:16.204061 ; 52.94 
92 ; Les Fonds ; 21NT ; LF-21NT-2019-DH-MB-C ; 725 ; 2019-07-23 13:29:17.280814 ; 52.66 
93 ; Les Fonds ; 21NT ; LF-21NT-2019-DH-MB-C ; 725 ; 2019-07-23 13:29:18.309740 ; 52.39 
94 ; Les Fonds ; 21NT ; LF-21NT-2019-DH-MB-C ; 725 ; 2019-07-23 13:29:19.350433 ; 52.33 
95 ; Les Fonds ; 21NT ; LF-21NT-2019-DH-MB-C ; 725 ; 2019-07-23 13:29:20.418629 ; 52.2 
96 ; Les Fonds ; 21NT ; LF-21NT-2019-DH-MB-C ; 725 ; 2019-07-23 13:29:21.467333 ; 51.51 
97 ; Les Fonds ; 21NT ; LF-21NT-2019-DH-MB-C ; 725 ; 2019-07-23 13:29:22.500196 ; 50.31 
98 ; Les Fonds ; 21NT ; LF-21NT-2019-DH-MB-C ; 725 ; 2019-07-23 13:29:23.538057 ; 49.15 
99 ; Les Fonds ; 21NT ; LF-21NT-2019-DH-MB-C ; 725 ; 2019-07-23 13:29:24.605620 ; 48.67 
100 ; Les Fonds ; 21NT ; LF-21NT-2019-DH-MB-C ; 725 ; 2019-07-23 13:29:25.648712 ; 48.36 
101 ; Les Fonds ; 21NT ; LF-21NT-2019-DH-MB-C ; 725 ; 2019-07-23 13:29:26.692784 ; 48.02 
102 ; Les Fonds ; 21NT ; LF-21NT-2019-DH-MB-C ; 725 ; 2019-07-23 13:29:27.767614 ; 47.39 
103 ; Les Fonds ; 21NT ; LF-21NT-2019-DH-MB-C ; 725 ; 2019-07-23 13:29:28.794639 ; 47.28 
104 ; Les Fonds ; 21NT ; LF-21NT-2019-DH-MB-C ; 725 ; 2019-07-23 13:29:29.828870 ; 47.19 
105 ; Les Fonds ; 21NT ; LF-21NT-2019-DH-MB-C ; 725 ; 2019-07-23 13:29:30.898538 ; 47.15 
106 ; Les Fonds ; 21NT ; LF-21NT-2019-DH-MB-C ; 725 ; 2019-07-23 13:29:31.948886 ; 46.61 
107 ; Les Fonds ; 21NT ; LF-21NT-2019-DH-MB-C ; 725 ; 2019-07-23 13:29:32.980573 ; 45.43 
108 ; Les Fonds ; 21NT ; LF-21NT-2019-DH-MB-C ; 725 ; 2019-07-23 13:29:34.047746 ; 44.57 
109 ; Les Fonds ; 21NT ; LF-21NT-2019-DH-MB-C ; 725 ; 2019-07-23 13:29:35.083464 ; 44.46 
110 ; Les Fonds ; 21NT ; LF-21NT-2019-DH-MB-C ; 725 ; 2019-07-23 13:29:36.127785 ; NA 
111 ; Les Fonds ; 21NT ; LF-21NT-2019-DH-MB-C ; 725 ; 2019-07-23 13:29:37.205917 ; 44.27 
112 ; Les Fonds ; 21NT ; LF-21NT-2019-DH-MB-C ; 725 ; 2019-07-23 13:29:38.232981 ; 44.23 
113 ; Les Fonds ; 21NT ; LF-21NT-2019-DH-MB-C ; 725 ; 2019-07-23 13:29:39.271535 ; 44.14 
114 ; Les Fonds ; 21NT ; LF-21NT-2019-DH-MB-C ; 725 ; 2019-07-23 13:29:40.337432 ; 44 
115 ; Les Fonds ; 21NT ; LF-21NT-2019-DH-MB-C ; 725 ; 2019-07-23 13:29:41.378180 ; 43.85 
116 ; Les Fonds ; 21NT ; LF-21NT-2019-DH-MB-C ; 725 ; 2019-07-23 13:29:42.432151 ; 43.74 
117 ; Les Fonds ; 21NT ; LF-21NT-2019-DH-MB-C ; 725 ; 2019-07-23 13:29:43.486954 ; 43.64 
118 ; Les Fonds ; 21NT ; LF-21NT-2019-DH-MB-C ; 725 ; 2019-07-23 13:29:44.525037 ; 43.54 
119 ; Les Fonds ; 21NT ; LF-21NT-2019-DH-MB-C ; 725 ; 2019-07-23 13:29:45.566636 ; 43.46 
120 ; Les Fonds ; 21NT ; LF-21NT-2019-DH-MB-C ; 725 ; 2019-07-23 13:29:46.630302 ; 43.41 
121 ; Les Fonds ; 21NT ; LF-21NT-2019-DH-MB-C ; 725 ; 2019-07-23 13:29:47.680673 ; 43.33 
122 ; Les Fonds ; 21NT ; LF-21NT-2019-DH-MB-C ; 725 ; 2019-07-23 13:29:48.710727 ; 43.25 
123 ; Les Fonds ; 21NT ; LF-21NT-2019-DH-MB-C ; 725 ; 2019-07-23 13:29:49.779023 ; 43.14 
124 ; Les Fonds ; 21NT ; LF-21NT-2019-DH-MB-C ; 725 ; 2019-07-23 13:29:50.819770 ; 42.86 
125 ; Les Fonds ; 21NT ; LF-21NT-2019-DH-MB-C ; 725 ; 2019-07-23 13:29:51.860662 ; 42.76 
126 ; Les Fonds ; 21NT ; LF-21NT-2019-DH-MB-C ; 725 ; 2019-07-23 13:29:52.935970 ; 42.69 
127 ; Les Fonds ; 21NT ; LF-21NT-2019-DH-MB-C ; 725 ; 2019-07-23 13:29:53.964980 ; 42.64 
128 ; Les Fonds ; 21NT ; LF-21NT-2019-DH-MB-C ; 725 ; 2019-07-23 13:29:55.007333 ; 42.59 
129 ; Les Fonds ; 21NT ; LF-21NT-2019-DH-MB-C ; 725 ; 2019-07-23 13:29:56.074487 ; 42.55 
130 ; Les Fonds ; 21NT ; LF-21NT-2019-DH-MB-C ; 725 ; 2019-07-23 13:29:57.111213 ; 42.51 
131 ; Les Fonds ; 21NT ; LF-21NT-2019-DH-MB-C ; 725 ; 2019-07-23 13:29:58.169324 ; 42.46 
132 ; Les Fonds ; 21NT ; LF-21NT-2019-DH-MB-C ; 725 ; 2019-07-23 13:29:59.193354 ; 42.42 
133 ; Les Fonds ; 21NT ; LF-21NT-2019-DH-MB-C ; 725 ; 2019-07-23 13:30:00.257804 ; 42.4 
134 ; Les Fonds ; 21NT ; LF-21NT-2019-DH-MB-C ; 725 ; 2019-07-23 13:30:01.297742 ; 42.38 
135 ; Les Fonds ; 21NT ; LF-21NT-2019-DH-MB-C ; 725 ; 2019-07-23 13:30:02.339791 ; 42.38 
136 ; Les Fonds ; 21NT ; LF-21NT-2019-DH-MB-C ; 725 ; 2019-07-23 13:30:03.410305 ; 42.34 
137 ; Les Fonds ; 21NT ; LF-21NT-2019-DH-MB-C ; 725 ; 2019-07-23 13:30:04.444539 ; 42.31 
138 ; Les Fonds ; 21NT ; LF-21NT-2019-DH-MB-C ; 725 ; 2019-07-23 13:30:05.485429 ; 42.36 
139 ; Les Fonds ; 21NT ; LF-21NT-2019-DH-MB-C ; 725 ; 2019-07-23 13:30:06.550600 ; 42.42 
140 ; Les Fonds ; 21NT ; LF-21NT-2019-DH-MB-C ; 725 ; 2019-07-23 13:30:07.625536 ; 42.39 
141 ; Les Fonds ; 21NT ; LF-21NT-2019-DH-MB-C ; 725 ; 2019-07-23 13:30:08.633220 ; 42.27 
142 ; Les Fonds ; 21NT ; LF-21NT-2019-DH-MB-C ; 725 ; 2019-07-23 13:30:09.697050 ; 42.12 
143 ; Les Fonds ; 21NT ; LF-21NT-2019-DH-MB-C ; 725 ; 2019-07-23 13:30:10.741316 ; 42.03 
144 ; Les Fonds ; 21NT ; LF-21NT-2019-DH-MB-C ; 725 ; 2019-07-23 13:30:11.776737 ; 41.99 
145 ; Les Fonds ; 21NT ; LF-21NT-2019-DH-MB-C ; 725 ; 2019-07-23 13:30:12.854537 ; 41.89 
146 ; Les Fonds ; 21NT ; LF-21NT-2019-DH-MB-C ; 725 ; 2019-07-23 13:30:13.885828 ; 41.74 
147 ; Les Fonds ; 21NT ; LF-21NT-2019-DH-MB-C ; 725 ; 2019-07-23 13:30:14.924626 ; 41.6 
148 ; Les Fonds ; 21NT ; LF-21NT-2019-DH-MB-C ; 725 ; 2019-07-23 13:30:15.990245 ; 41.5 
149 ; Les Fonds ; 21NT ; LF-21NT-2019-DH-MB-C ; 725 ; 2019-07-23 13:30:17.032021 ; 41.42 
150 ; Les Fonds ; 21NT ; LF-21NT-2019-DH-MB-C ; 725 ; 2019-07-23 13:30:18.081855 ; 41.36 
151 ; Les Fonds ; 21NT ; LF-21NT-2019-DH-MB-C ; 725 ; 2019-07-23 13:30:19.137605 ; 41.32 
152 ; Les Fonds ; 21NT ; LF-21NT-2019-DH-MB-C ; 725 ; 2019-07-23 13:30:20.179748 ; 41.3 
153 ; Les Fonds ; 21NT ; LF-21NT-2019-DH-MB-C ; 725 ; 2019-07-23 13:30:21.219845 ; NA 
154 ; Les Fonds ; 21NT ; LF-21NT-2019-DH-MB-C ; 725 ; 2019-07-23 13:30:22.289849 ; 41.27 
155 ; Les Fonds ; 21NT ; LF-21NT-2019-DH-MB-C ; 725 ; 2019-07-23 13:30:23.341608 ; 41.25 
156 ; Les Fonds ; 21NT ; LF-21NT-2019-DH-MB-C ; 725 ; 2019-07-23 13:30:24.368829 ; 41.21 
157 ; Les Fonds ; 21NT ; LF-21NT-2019-DH-MB-C ; 725 ; 2019-07-23 13:30:25.431180 ; 41.16 
158 ; Les Fonds ; 21NT ; LF-21NT-2019-DH-MB-C ; 725 ; 2019-07-23 13:30:26.469779 ; 41.12 
159 ; Les Fonds ; 21NT ; LF-21NT-2019-DH-MB-C ; 725 ; 2019-07-23 13:30:27.514554 ; 41.05 
160 ; Les Fonds ; 21NT ; LF-21NT-2019-DH-MB-C ; 725 ; 2019-07-23 13:30:28.563535 ; 41.02 
161 ; Les Fonds ; 21NT ; LF-21NT-2019-DH-MB-C ; 725 ; 2019-07-23 13:30:29.617118 ; 41.01 
162 ; Les Fonds ; 21NT ; LF-21NT-2019-DH-MB-C ; 725 ; 2019-07-23 13:30:30.658084 ; 41.01 
163 ; Les Fonds ; 21NT ; LF-21NT-2019-DH-MB-C ; 725 ; 2019-07-23 13:30:31.694207 ; 40.98 
164 ; Les Fonds ; 21NT ; LF-21NT-2019-DH-MB-C ; 725 ; 2019-07-23 13:30:32.776384 ; 40.96 
165 ; Les Fonds ; 21NT ; LF-21NT-2019-DH-MB-C ; 725 ; 2019-07-23 13:30:33.805923 ; 40.94 
166 ; Les Fonds ; 21NT ; LF-21NT-2019-DH-MB-C ; 725 ; 2019-07-23 13:30:34.842993 ; 40.92 
167 ; Les Fonds ; 21NT ; LF-21NT-2019-DH-MB-C ; 725 ; 2019-07-23 13:30:35.909898 ; 40.9 
168 ; Les Fonds ; 21NT ; LF-21NT-2019-DH-MB-C ; 725 ; 2019-07-23 13:30:36.953372 ; 40.88 
169 ; Les Fonds ; 21NT ; LF-21NT-2019-DH-MB-C ; 725 ; 2019-07-23 13:30:38.002300 ; 40.87 
