i ; campaign ; serie ; sample ; slake ; time ; mass 
1 ; Les Fonds ; 21NT ; LF-21NT-2019-DH-C ; 607 ; 2019-07-12 13:24:30.774139 ; 134.83 
2 ; Les Fonds ; 21NT ; LF-21NT-2019-DH-C ; 607 ; 2019-07-12 13:24:31.676804 ; 134.82 
3 ; Les Fonds ; 21NT ; LF-21NT-2019-DH-C ; 607 ; 2019-07-12 13:24:32.506176 ; 134.83 
4 ; Les Fonds ; 21NT ; LF-21NT-2019-DH-C ; 607 ; 2019-07-12 13:24:33.358728 ; 134.83 
5 ; Les Fonds ; 21NT ; LF-21NT-2019-DH-C ; 607 ; 2019-07-12 13:24:34.237200 ; 134.83 
6 ; Les Fonds ; 21NT ; LF-21NT-2019-DH-C ; 607 ; 2019-07-12 13:24:35.063208 ; 134.82 
7 ; Les Fonds ; 21NT ; LF-21NT-2019-DH-C ; 607 ; 2019-07-12 13:24:35.912548 ; 119.9 
8 ; Les Fonds ; 21NT ; LF-21NT-2019-DH-C ; 607 ; 2019-07-12 13:24:36.665734 ; 50.98 
9 ; Les Fonds ; 21NT ; LF-21NT-2019-DH-C ; 607 ; 2019-07-12 13:24:37.411003 ; 48.95 
10 ; Les Fonds ; 21NT ; LF-21NT-2019-DH-C ; 607 ; 2019-07-12 13:24:38.296334 ; 50.21 
11 ; Les Fonds ; 21NT ; LF-21NT-2019-DH-C ; 607 ; 2019-07-12 13:24:39.227099 ; 51.54 
12 ; Les Fonds ; 21NT ; LF-21NT-2019-DH-C ; 607 ; 2019-07-12 13:24:40.185085 ; 52.21 
13 ; Les Fonds ; 21NT ; LF-21NT-2019-DH-C ; 607 ; 2019-07-12 13:24:41.137902 ; 52.95 
14 ; Les Fonds ; 21NT ; LF-21NT-2019-DH-C ; 607 ; 2019-07-12 13:24:42.105095 ; 53.24 
15 ; Les Fonds ; 21NT ; LF-21NT-2019-DH-C ; 607 ; 2019-07-12 13:24:43.065737 ; 53.58 
16 ; Les Fonds ; 21NT ; LF-21NT-2019-DH-C ; 607 ; 2019-07-12 13:24:44.026360 ; 53.94 
17 ; Les Fonds ; 21NT ; LF-21NT-2019-DH-C ; 607 ; 2019-07-12 13:24:45.015556 ; 54.26 
18 ; Les Fonds ; 21NT ; LF-21NT-2019-DH-C ; 607 ; 2019-07-12 13:24:45.946268 ; 54.41 
19 ; Les Fonds ; 21NT ; LF-21NT-2019-DH-C ; 607 ; 2019-07-12 13:24:46.906295 ; 54.3 
20 ; Les Fonds ; 21NT ; LF-21NT-2019-DH-C ; 607 ; 2019-07-12 13:24:47.811233 ; 53.85 
21 ; Les Fonds ; 21NT ; LF-21NT-2019-DH-C ; 607 ; 2019-07-12 13:24:48.665770 ; 53.64 
22 ; Les Fonds ; 21NT ; LF-21NT-2019-DH-C ; 607 ; 2019-07-12 13:24:49.521254 ; 53.67 
23 ; Les Fonds ; 21NT ; LF-21NT-2019-DH-C ; 607 ; 2019-07-12 13:24:50.371692 ; 53.68 
24 ; Les Fonds ; 21NT ; LF-21NT-2019-DH-C ; 607 ; 2019-07-12 13:24:51.254506 ; 53.67 
25 ; Les Fonds ; 21NT ; LF-21NT-2019-DH-C ; 607 ; 2019-07-12 13:24:52.077852 ; 53.66 
26 ; Les Fonds ; 21NT ; LF-21NT-2019-DH-C ; 607 ; 2019-07-12 13:24:52.927890 ; 53.63 
27 ; Les Fonds ; 21NT ; LF-21NT-2019-DH-C ; 607 ; 2019-07-12 13:24:53.785540 ; 53.43 
28 ; Les Fonds ; 21NT ; LF-21NT-2019-DH-C ; 607 ; 2019-07-12 13:24:54.529609 ; 53.29 
29 ; Les Fonds ; 21NT ; LF-21NT-2019-DH-C ; 607 ; 2019-07-12 13:24:55.387045 ; 53.12 
30 ; Les Fonds ; 21NT ; LF-21NT-2019-DH-C ; 607 ; 2019-07-12 13:24:56.240177 ; 52.99 
31 ; Les Fonds ; 21NT ; LF-21NT-2019-DH-C ; 607 ; 2019-07-12 13:24:57.130490 ; 52.79 
32 ; Les Fonds ; 21NT ; LF-21NT-2019-DH-C ; 607 ; 2019-07-12 13:24:57.939915 ; 52.79 
33 ; Les Fonds ; 21NT ; LF-21NT-2019-DH-C ; 607 ; 2019-07-12 13:24:58.793905 ; 52.76 
34 ; Les Fonds ; 21NT ; LF-21NT-2019-DH-C ; 607 ; 2019-07-12 13:24:59.605386 ; 52.59 
35 ; Les Fonds ; 21NT ; LF-21NT-2019-DH-C ; 607 ; 2019-07-12 13:25:00.563058 ; 52.35 
36 ; Les Fonds ; 21NT ; LF-21NT-2019-DH-C ; 607 ; 2019-07-12 13:25:01.410749 ; 52.2 
37 ; Les Fonds ; 21NT ; LF-21NT-2019-DH-C ; 607 ; 2019-07-12 13:25:02.267173 ; 52.06 
38 ; Les Fonds ; 21NT ; LF-21NT-2019-DH-C ; 607 ; 2019-07-12 13:25:03.120267 ; 51.76 
39 ; Les Fonds ; 21NT ; LF-21NT-2019-DH-C ; 607 ; 2019-07-12 13:25:04.049517 ; 51.41 
40 ; Les Fonds ; 21NT ; LF-21NT-2019-DH-C ; 607 ; 2019-07-12 13:25:04.933316 ; 50.95 
41 ; Les Fonds ; 21NT ; LF-21NT-2019-DH-C ; 607 ; 2019-07-12 13:25:05.840248 ; 50.75 
42 ; Les Fonds ; 21NT ; LF-21NT-2019-DH-C ; 607 ; 2019-07-12 13:25:06.758490 ; 50.3 
43 ; Les Fonds ; 21NT ; LF-21NT-2019-DH-C ; 607 ; 2019-07-12 13:25:07.651035 ; 49.72 
44 ; Les Fonds ; 21NT ; LF-21NT-2019-DH-C ; 607 ; 2019-07-12 13:25:08.562940 ; 48.86 
45 ; Les Fonds ; 21NT ; LF-21NT-2019-DH-C ; 607 ; 2019-07-12 13:25:09.474685 ; 48.02 
46 ; Les Fonds ; 21NT ; LF-21NT-2019-DH-C ; 607 ; 2019-07-12 13:25:10.401574 ; 47.64 
47 ; Les Fonds ; 21NT ; LF-21NT-2019-DH-C ; 607 ; 2019-07-12 13:25:11.274297 ; 47.42 
48 ; Les Fonds ; 21NT ; LF-21NT-2019-DH-C ; 607 ; 2019-07-12 13:25:12.182959 ; 47.29 
49 ; Les Fonds ; 21NT ; LF-21NT-2019-DH-C ; 607 ; 2019-07-12 13:25:13.081810 ; 46.73 
50 ; Les Fonds ; 21NT ; LF-21NT-2019-DH-C ; 607 ; 2019-07-12 13:25:13.994394 ; 45.78 
51 ; Les Fonds ; 21NT ; LF-21NT-2019-DH-C ; 607 ; 2019-07-12 13:25:14.900391 ; 44.99 
52 ; Les Fonds ; 21NT ; LF-21NT-2019-DH-C ; 607 ; 2019-07-12 13:25:15.803153 ; 44.59 
53 ; Les Fonds ; 21NT ; LF-21NT-2019-DH-C ; 607 ; 2019-07-12 13:25:16.746985 ; 44.34 
54 ; Les Fonds ; 21NT ; LF-21NT-2019-DH-C ; 607 ; 2019-07-12 13:25:17.619942 ; 43.89 
55 ; Les Fonds ; 21NT ; LF-21NT-2019-DH-C ; 607 ; 2019-07-12 13:25:18.528002 ; 43.14 
56 ; Les Fonds ; 21NT ; LF-21NT-2019-DH-C ; 607 ; 2019-07-12 13:25:19.436771 ; 42.48 
57 ; Les Fonds ; 21NT ; LF-21NT-2019-DH-C ; 607 ; 2019-07-12 13:25:20.339797 ; 40.86 
58 ; Les Fonds ; 21NT ; LF-21NT-2019-DH-C ; 607 ; 2019-07-12 13:25:21.250982 ; 39.84 
59 ; Les Fonds ; 21NT ; LF-21NT-2019-DH-C ; 607 ; 2019-07-12 13:25:22.154735 ; 39.51 
60 ; Les Fonds ; 21NT ; LF-21NT-2019-DH-C ; 607 ; 2019-07-12 13:25:23.086264 ; 39.32 
61 ; Les Fonds ; 21NT ; LF-21NT-2019-DH-C ; 607 ; 2019-07-12 13:25:23.970481 ; 39.05 
62 ; Les Fonds ; 21NT ; LF-21NT-2019-DH-C ; 607 ; 2019-07-12 13:25:24.875591 ; 38.72 
63 ; Les Fonds ; 21NT ; LF-21NT-2019-DH-C ; 607 ; 2019-07-12 13:25:25.783055 ; 38.52 
64 ; Les Fonds ; 21NT ; LF-21NT-2019-DH-C ; 607 ; 2019-07-12 13:25:26.687765 ; 38.11 
65 ; Les Fonds ; 21NT ; LF-21NT-2019-DH-C ; 607 ; 2019-07-12 13:25:27.597598 ; 37.94 
66 ; Les Fonds ; 21NT ; LF-21NT-2019-DH-C ; 607 ; 2019-07-12 13:25:28.502799 ; 37.73 
67 ; Les Fonds ; 21NT ; LF-21NT-2019-DH-C ; 607 ; 2019-07-12 13:25:29.447336 ; 37.54 
68 ; Les Fonds ; 21NT ; LF-21NT-2019-DH-C ; 607 ; 2019-07-12 13:25:30.316772 ; 36.92 
69 ; Les Fonds ; 21NT ; LF-21NT-2019-DH-C ; 607 ; 2019-07-12 13:25:31.219365 ; 35.99 
70 ; Les Fonds ; 21NT ; LF-21NT-2019-DH-C ; 607 ; 2019-07-12 13:25:32.124476 ; 35.39 
71 ; Les Fonds ; 21NT ; LF-21NT-2019-DH-C ; 607 ; 2019-07-12 13:25:33.033174 ; 34.94 
72 ; Les Fonds ; 21NT ; LF-21NT-2019-DH-C ; 607 ; 2019-07-12 13:25:33.938179 ; 34.59 
73 ; Les Fonds ; 21NT ; LF-21NT-2019-DH-C ; 607 ; 2019-07-12 13:25:34.853214 ; 34.45 
74 ; Les Fonds ; 21NT ; LF-21NT-2019-DH-C ; 607 ; 2019-07-12 13:25:35.782902 ; 34.35 
75 ; Les Fonds ; 21NT ; LF-21NT-2019-DH-C ; 607 ; 2019-07-12 13:25:36.661673 ; 34.19 
76 ; Les Fonds ; 21NT ; LF-21NT-2019-DH-C ; 607 ; 2019-07-12 13:25:37.621232 ; 33.95 
77 ; Les Fonds ; 21NT ; LF-21NT-2019-DH-C ; 607 ; 2019-07-12 13:25:38.581764 ; 33.56 
78 ; Les Fonds ; 21NT ; LF-21NT-2019-DH-C ; 607 ; 2019-07-12 13:25:39.544211 ; 32.69 
79 ; Les Fonds ; 21NT ; LF-21NT-2019-DH-C ; 607 ; 2019-07-12 13:25:40.500966 ; 32.09 
80 ; Les Fonds ; 21NT ; LF-21NT-2019-DH-C ; 607 ; 2019-07-12 13:25:41.464151 ; 31.81 
81 ; Les Fonds ; 21NT ; LF-21NT-2019-DH-C ; 607 ; 2019-07-12 13:25:42.425130 ; 30.89 
82 ; Les Fonds ; 21NT ; LF-21NT-2019-DH-C ; 607 ; 2019-07-12 13:25:43.409238 ; 30.09 
83 ; Les Fonds ; 21NT ; LF-21NT-2019-DH-C ; 607 ; 2019-07-12 13:25:44.340238 ; 29.83 
84 ; Les Fonds ; 21NT ; LF-21NT-2019-DH-C ; 607 ; 2019-07-12 13:25:45.304916 ; 29.69 
85 ; Les Fonds ; 21NT ; LF-21NT-2019-DH-C ; 607 ; 2019-07-12 13:25:46.261997 ; 29.63 
86 ; Les Fonds ; 21NT ; LF-21NT-2019-DH-C ; 607 ; 2019-07-12 13:25:47.273671 ; 29.54 
87 ; Les Fonds ; 21NT ; LF-21NT-2019-DH-C ; 607 ; 2019-07-12 13:25:48.178454 ; 29.29 
88 ; Les Fonds ; 21NT ; LF-21NT-2019-DH-C ; 607 ; 2019-07-12 13:25:49.081867 ; 29.01 
89 ; Les Fonds ; 21NT ; LF-21NT-2019-DH-C ; 607 ; 2019-07-12 13:25:50.025850 ; 28.8 
90 ; Les Fonds ; 21NT ; LF-21NT-2019-DH-C ; 607 ; 2019-07-12 13:25:50.903051 ; 28.53 
91 ; Les Fonds ; 21NT ; LF-21NT-2019-DH-C ; 607 ; 2019-07-12 13:25:51.806712 ; 28.33 
92 ; Les Fonds ; 21NT ; LF-21NT-2019-DH-C ; 607 ; 2019-07-12 13:25:52.712543 ; 28.2 
93 ; Les Fonds ; 21NT ; LF-21NT-2019-DH-C ; 607 ; 2019-07-12 13:25:53.624465 ; 28.1 
94 ; Les Fonds ; 21NT ; LF-21NT-2019-DH-C ; 607 ; 2019-07-12 13:25:54.422564 ; 27.85 
95 ; Les Fonds ; 21NT ; LF-21NT-2019-DH-C ; 607 ; 2019-07-12 13:25:55.328241 ; 27.58 
96 ; Les Fonds ; 21NT ; LF-21NT-2019-DH-C ; 607 ; 2019-07-12 13:25:56.264663 ; 27.22 
97 ; Les Fonds ; 21NT ; LF-21NT-2019-DH-C ; 607 ; 2019-07-12 13:25:57.086350 ; 27.1 
98 ; Les Fonds ; 21NT ; LF-21NT-2019-DH-C ; 607 ; 2019-07-12 13:25:57.826915 ; 26.94 
99 ; Les Fonds ; 21NT ; LF-21NT-2019-DH-C ; 607 ; 2019-07-12 13:25:58.582767 ; 26.81 
100 ; Les Fonds ; 21NT ; LF-21NT-2019-DH-C ; 607 ; 2019-07-12 13:25:59.326383 ; 26.71 
101 ; Les Fonds ; 21NT ; LF-21NT-2019-DH-C ; 607 ; 2019-07-12 13:26:00.129739 ; 26.66 
102 ; Les Fonds ; 21NT ; LF-21NT-2019-DH-C ; 607 ; 2019-07-12 13:26:00.927145 ; 26.64 
103 ; Les Fonds ; 21NT ; LF-21NT-2019-DH-C ; 607 ; 2019-07-12 13:26:01.813461 ; 26.57 
104 ; Les Fonds ; 21NT ; LF-21NT-2019-DH-C ; 607 ; 2019-07-12 13:26:02.689042 ; 26.56 
105 ; Les Fonds ; 21NT ; LF-21NT-2019-DH-C ; 607 ; 2019-07-12 13:26:03.485264 ; 26.53 
106 ; Les Fonds ; 21NT ; LF-21NT-2019-DH-C ; 607 ; 2019-07-12 13:26:04.286809 ; 26.4 
107 ; Les Fonds ; 21NT ; LF-21NT-2019-DH-C ; 607 ; 2019-07-12 13:26:05.037643 ; 26.33 
108 ; Les Fonds ; 21NT ; LF-21NT-2019-DH-C ; 607 ; 2019-07-12 13:26:05.781733 ; 26.25 
109 ; Les Fonds ; 21NT ; LF-21NT-2019-DH-C ; 607 ; 2019-07-12 13:26:06.528203 ; 26.25 
110 ; Les Fonds ; 21NT ; LF-21NT-2019-DH-C ; 607 ; 2019-07-12 13:26:07.326023 ; 26.24 
111 ; Les Fonds ; 21NT ; LF-21NT-2019-DH-C ; 607 ; 2019-07-12 13:26:08.214017 ; 26.22 
112 ; Les Fonds ; 21NT ; LF-21NT-2019-DH-C ; 607 ; 2019-07-12 13:26:09.037039 ; 26.19 
113 ; Les Fonds ; 21NT ; LF-21NT-2019-DH-C ; 607 ; 2019-07-12 13:26:10.042247 ; 26.1 
114 ; Les Fonds ; 21NT ; LF-21NT-2019-DH-C ; 607 ; 2019-07-12 13:26:10.952855 ; 26.07 
115 ; Les Fonds ; 21NT ; LF-21NT-2019-DH-C ; 607 ; 2019-07-12 13:26:11.863634 ; 25.99 
116 ; Les Fonds ; 21NT ; LF-21NT-2019-DH-C ; 607 ; 2019-07-12 13:26:12.661221 ; 25.98 
117 ; Les Fonds ; 21NT ; LF-21NT-2019-DH-C ; 607 ; 2019-07-12 13:26:13.514307 ; 25.97 
118 ; Les Fonds ; 21NT ; LF-21NT-2019-DH-C ; 607 ; 2019-07-12 13:26:14.454417 ; 25.94 
119 ; Les Fonds ; 21NT ; LF-21NT-2019-DH-C ; 607 ; 2019-07-12 13:26:15.167883 ; 25.89 
120 ; Les Fonds ; 21NT ; LF-21NT-2019-DH-C ; 607 ; 2019-07-12 13:26:16.014355 ; 25.84 
121 ; Les Fonds ; 21NT ; LF-21NT-2019-DH-C ; 607 ; 2019-07-12 13:26:16.876572 ; 25.74 
122 ; Les Fonds ; 21NT ; LF-21NT-2019-DH-C ; 607 ; 2019-07-12 13:26:17.730257 ; 25.61 
123 ; Les Fonds ; 21NT ; LF-21NT-2019-DH-C ; 607 ; 2019-07-12 13:26:18.474443 ; 25.57 
124 ; Les Fonds ; 21NT ; LF-21NT-2019-DH-C ; 607 ; 2019-07-12 13:26:19.278590 ; 25.25 
125 ; Les Fonds ; 21NT ; LF-21NT-2019-DH-C ; 607 ; 2019-07-12 13:26:20.105662 ; 24.8 
126 ; Les Fonds ; 21NT ; LF-21NT-2019-DH-C ; 607 ; 2019-07-12 13:26:20.871337 ; 24.32 
127 ; Les Fonds ; 21NT ; LF-21NT-2019-DH-C ; 607 ; 2019-07-12 13:26:21.672636 ; 24.13 
128 ; Les Fonds ; 21NT ; LF-21NT-2019-DH-C ; 607 ; 2019-07-12 13:26:22.474720 ; 23.88 
129 ; Les Fonds ; 21NT ; LF-21NT-2019-DH-C ; 607 ; 2019-07-12 13:26:23.275283 ; 23.81 
130 ; Les Fonds ; 21NT ; LF-21NT-2019-DH-C ; 607 ; 2019-07-12 13:26:24.127658 ; 23.79 
131 ; Les Fonds ; 21NT ; LF-21NT-2019-DH-C ; 607 ; 2019-07-12 13:26:24.976084 ; 23.77 
132 ; Les Fonds ; 21NT ; LF-21NT-2019-DH-C ; 607 ; 2019-07-12 13:26:25.917576 ; 23.78 
133 ; Les Fonds ; 21NT ; LF-21NT-2019-DH-C ; 607 ; 2019-07-12 13:26:26.689485 ; 23.72 
134 ; Les Fonds ; 21NT ; LF-21NT-2019-DH-C ; 607 ; 2019-07-12 13:26:27.541524 ; 23.71 
135 ; Les Fonds ; 21NT ; LF-21NT-2019-DH-C ; 607 ; 2019-07-12 13:26:28.446438 ; 23.69 
136 ; Les Fonds ; 21NT ; LF-21NT-2019-DH-C ; 607 ; 2019-07-12 13:26:29.251272 ; 23.67 
137 ; Les Fonds ; 21NT ; LF-21NT-2019-DH-C ; 607 ; 2019-07-12 13:26:30.015275 ; 23.51 
138 ; Les Fonds ; 21NT ; LF-21NT-2019-DH-C ; 607 ; 2019-07-12 13:26:30.763182 ; 23.41 
139 ; Les Fonds ; 21NT ; LF-21NT-2019-DH-C ; 607 ; 2019-07-12 13:26:31.594349 ; 23.23 
140 ; Les Fonds ; 21NT ; LF-21NT-2019-DH-C ; 607 ; 2019-07-12 13:26:32.583750 ; 23.08 
141 ; Les Fonds ; 21NT ; LF-21NT-2019-DH-C ; 607 ; 2019-07-12 13:26:33.513403 ; 23.05 
142 ; Les Fonds ; 21NT ; LF-21NT-2019-DH-C ; 607 ; 2019-07-12 13:26:34.477093 ; 23.02 
143 ; Les Fonds ; 21NT ; LF-21NT-2019-DH-C ; 607 ; 2019-07-12 13:26:35.332176 ; 23 
144 ; Les Fonds ; 21NT ; LF-21NT-2019-DH-C ; 607 ; 2019-07-12 13:26:36.129031 ; 22.98 
145 ; Les Fonds ; 21NT ; LF-21NT-2019-DH-C ; 607 ; 2019-07-12 13:26:36.979853 ; 22.97 
146 ; Les Fonds ; 21NT ; LF-21NT-2019-DH-C ; 607 ; 2019-07-12 13:26:37.836939 ; 22.97 
147 ; Les Fonds ; 21NT ; LF-21NT-2019-DH-C ; 607 ; 2019-07-12 13:26:38.715251 ; 22.94 
148 ; Les Fonds ; 21NT ; LF-21NT-2019-DH-C ; 607 ; 2019-07-12 13:26:39.701625 ; 22.87 
149 ; Les Fonds ; 21NT ; LF-21NT-2019-DH-C ; 607 ; 2019-07-12 13:26:40.554434 ; 22.77 
150 ; Les Fonds ; 21NT ; LF-21NT-2019-DH-C ; 607 ; 2019-07-12 13:26:41.302088 ; 22.76 
151 ; Les Fonds ; 21NT ; LF-21NT-2019-DH-C ; 607 ; 2019-07-12 13:26:42.153395 ; 22.75 
152 ; Les Fonds ; 21NT ; LF-21NT-2019-DH-C ; 607 ; 2019-07-12 13:26:43.058402 ; 22.73 
153 ; Les Fonds ; 21NT ; LF-21NT-2019-DH-C ; 607 ; 2019-07-12 13:26:43.916758 ; 22.72 
154 ; Les Fonds ; 21NT ; LF-21NT-2019-DH-C ; 607 ; 2019-07-12 13:26:44.907389 ; 22.71 
155 ; Les Fonds ; 21NT ; LF-21NT-2019-DH-C ; 607 ; 2019-07-12 13:26:45.744763 ; 22.71 
156 ; Les Fonds ; 21NT ; LF-21NT-2019-DH-C ; 607 ; 2019-07-12 13:26:46.577885 ; 22.69 
157 ; Les Fonds ; 21NT ; LF-21NT-2019-DH-C ; 607 ; 2019-07-12 13:26:47.433264 ; 22.68 
158 ; Les Fonds ; 21NT ; LF-21NT-2019-DH-C ; 607 ; 2019-07-12 13:26:48.287083 ; 22.71 
159 ; Les Fonds ; 21NT ; LF-21NT-2019-DH-C ; 607 ; 2019-07-12 13:26:49.143154 ; 22.64 
160 ; Les Fonds ; 21NT ; LF-21NT-2019-DH-C ; 607 ; 2019-07-12 13:26:49.883709 ; 22.63 
161 ; Les Fonds ; 21NT ; LF-21NT-2019-DH-C ; 607 ; 2019-07-12 13:26:50.773131 ; 22.61 
162 ; Les Fonds ; 21NT ; LF-21NT-2019-DH-C ; 607 ; 2019-07-12 13:26:51.648971 ; 22.6 
163 ; Les Fonds ; 21NT ; LF-21NT-2019-DH-C ; 607 ; 2019-07-12 13:26:52.553228 ; 22.59 
164 ; Les Fonds ; 21NT ; LF-21NT-2019-DH-C ; 607 ; 2019-07-12 13:26:53.406099 ; 22.58 
165 ; Les Fonds ; 21NT ; LF-21NT-2019-DH-C ; 607 ; 2019-07-12 13:26:54.262202 ; 22.57 
166 ; Les Fonds ; 21NT ; LF-21NT-2019-DH-C ; 607 ; 2019-07-12 13:26:55.114368 ; 22.56 
167 ; Les Fonds ; 21NT ; LF-21NT-2019-DH-C ; 607 ; 2019-07-12 13:26:56.071954 ; 22.45 
168 ; Les Fonds ; 21NT ; LF-21NT-2019-DH-C ; 607 ; 2019-07-12 13:26:57.014895 ; 22.42 
169 ; Les Fonds ; 21NT ; LF-21NT-2019-DH-C ; 607 ; 2019-07-12 13:26:57.996030 ; 22.43 
170 ; Les Fonds ; 21NT ; LF-21NT-2019-DH-C ; 607 ; 2019-07-12 13:26:58.794507 ; 22.41 
171 ; Les Fonds ; 21NT ; LF-21NT-2019-DH-C ; 607 ; 2019-07-12 13:26:59.649592 ; 22.41 
172 ; Les Fonds ; 21NT ; LF-21NT-2019-DH-C ; 607 ; 2019-07-12 13:27:00.495443 ; 22.4 
173 ; Les Fonds ; 21NT ; LF-21NT-2019-DH-C ; 607 ; 2019-07-12 13:27:01.351451 ; 22.4 
174 ; Les Fonds ; 21NT ; LF-21NT-2019-DH-C ; 607 ; 2019-07-12 13:27:02.206645 ; 22.39 
175 ; Les Fonds ; 21NT ; LF-21NT-2019-DH-C ; 607 ; 2019-07-12 13:27:03.091652 ; 22.38 
176 ; Les Fonds ; 21NT ; LF-21NT-2019-DH-C ; 607 ; 2019-07-12 13:27:03.916284 ; 22.38 
177 ; Les Fonds ; 21NT ; LF-21NT-2019-DH-C ; 607 ; 2019-07-12 13:27:04.763959 ; 22.38 
178 ; Les Fonds ; 21NT ; LF-21NT-2019-DH-C ; 607 ; 2019-07-12 13:27:05.616550 ; 22.35 
179 ; Les Fonds ; 21NT ; LF-21NT-2019-DH-C ; 607 ; 2019-07-12 13:27:06.476619 ; 22.23 
180 ; Les Fonds ; 21NT ; LF-21NT-2019-DH-C ; 607 ; 2019-07-12 13:27:07.433551 ; 22.18 
181 ; Les Fonds ; 21NT ; LF-21NT-2019-DH-C ; 607 ; 2019-07-12 13:27:08.394263 ; 22.18 
182 ; Les Fonds ; 21NT ; LF-21NT-2019-DH-C ; 607 ; 2019-07-12 13:27:09.245742 ; 22.18 
183 ; Les Fonds ; 21NT ; LF-21NT-2019-DH-C ; 607 ; 2019-07-12 13:27:10.128596 ; 22.16 
184 ; Les Fonds ; 21NT ; LF-21NT-2019-DH-C ; 607 ; 2019-07-12 13:27:11.055152 ; 22.16 
185 ; Les Fonds ; 21NT ; LF-21NT-2019-DH-C ; 607 ; 2019-07-12 13:27:11.910281 ; 22.15 
186 ; Les Fonds ; 21NT ; LF-21NT-2019-DH-C ; 607 ; 2019-07-12 13:27:12.787245 ; 22.15 
187 ; Les Fonds ; 21NT ; LF-21NT-2019-DH-C ; 607 ; 2019-07-12 13:27:13.723387 ; 22.14 
188 ; Les Fonds ; 21NT ; LF-21NT-2019-DH-C ; 607 ; 2019-07-12 13:27:14.581175 ; 22.14 
189 ; Les Fonds ; 21NT ; LF-21NT-2019-DH-C ; 607 ; 2019-07-12 13:27:15.430884 ; 22.13 
190 ; Les Fonds ; 21NT ; LF-21NT-2019-DH-C ; 607 ; 2019-07-12 13:27:16.318785 ; 22.12 
191 ; Les Fonds ; 21NT ; LF-21NT-2019-DH-C ; 607 ; 2019-07-12 13:27:17.144778 ; 22.09 
192 ; Les Fonds ; 21NT ; LF-21NT-2019-DH-C ; 607 ; 2019-07-12 13:27:17.882866 ; 22.07 
193 ; Les Fonds ; 21NT ; LF-21NT-2019-DH-C ; 607 ; 2019-07-12 13:27:18.756238 ; 22.06 
194 ; Les Fonds ; 21NT ; LF-21NT-2019-DH-C ; 607 ; 2019-07-12 13:27:19.646003 ; 22.05 
195 ; Les Fonds ; 21NT ; LF-21NT-2019-DH-C ; 607 ; 2019-07-12 13:27:20.500218 ; 22.05 
196 ; Les Fonds ; 21NT ; LF-21NT-2019-DH-C ; 607 ; 2019-07-12 13:27:21.350033 ; 22.04 
197 ; Les Fonds ; 21NT ; LF-21NT-2019-DH-C ; 607 ; 2019-07-12 13:27:22.247920 ; 22.04 
198 ; Les Fonds ; 21NT ; LF-21NT-2019-DH-C ; 607 ; 2019-07-12 13:27:23.058151 ; 22.02 
199 ; Les Fonds ; 21NT ; LF-21NT-2019-DH-C ; 607 ; 2019-07-12 13:27:23.907639 ; 22 
200 ; Les Fonds ; 21NT ; LF-21NT-2019-DH-C ; 607 ; 2019-07-12 13:27:24.814779 ; 22.02 
201 ; Les Fonds ; 21NT ; LF-21NT-2019-DH-C ; 607 ; 2019-07-12 13:27:25.678111 ; 21.98 
202 ; Les Fonds ; 21NT ; LF-21NT-2019-DH-C ; 607 ; 2019-07-12 13:27:26.418004 ; 21.93 
203 ; Les Fonds ; 21NT ; LF-21NT-2019-DH-C ; 607 ; 2019-07-12 13:27:27.168075 ; 21.91 
204 ; Les Fonds ; 21NT ; LF-21NT-2019-DH-C ; 607 ; 2019-07-12 13:27:28.019333 ; 21.91 
205 ; Les Fonds ; 21NT ; LF-21NT-2019-DH-C ; 607 ; 2019-07-12 13:27:28.851308 ; 21.9 
206 ; Les Fonds ; 21NT ; LF-21NT-2019-DH-C ; 607 ; 2019-07-12 13:27:29.673949 ; 21.89 
207 ; Les Fonds ; 21NT ; LF-21NT-2019-DH-C ; 607 ; 2019-07-12 13:27:30.529826 ; 21.89 
208 ; Les Fonds ; 21NT ; LF-21NT-2019-DH-C ; 607 ; 2019-07-12 13:27:31.378791 ; 21.88 
209 ; Les Fonds ; 21NT ; LF-21NT-2019-DH-C ; 607 ; 2019-07-12 13:27:42.246776 ; 21.79 
210 ; Les Fonds ; 21NT ; LF-21NT-2019-DH-C ; 607 ; 2019-07-12 13:27:53.179316 ; 21.75 
211 ; Les Fonds ; 21NT ; LF-21NT-2019-DH-C ; 607 ; 2019-07-12 13:28:04.057940 ; 21.69 
212 ; Les Fonds ; 21NT ; LF-21NT-2019-DH-C ; 607 ; 2019-07-12 13:28:15.082986 ; 21.65 
213 ; Les Fonds ; 21NT ; LF-21NT-2019-DH-C ; 607 ; 2019-07-12 13:28:25.974123 ; 21.58 
214 ; Les Fonds ; 21NT ; LF-21NT-2019-DH-C ; 607 ; 2019-07-12 13:28:36.796204 ; 21.41 
215 ; Les Fonds ; 21NT ; LF-21NT-2019-DH-C ; 607 ; 2019-07-12 13:28:47.789914 ; 21.2 
216 ; Les Fonds ; 21NT ; LF-21NT-2019-DH-C ; 607 ; 2019-07-12 13:28:58.726802 ; 21.01 
217 ; Les Fonds ; 21NT ; LF-21NT-2019-DH-C ; 607 ; 2019-07-12 13:29:09.711663 ; 20.85 
218 ; Les Fonds ; 21NT ; LF-21NT-2019-DH-C ; 607 ; 2019-07-12 13:29:20.540817 ; 20.79 
219 ; Les Fonds ; 21NT ; LF-21NT-2019-DH-C ; 607 ; 2019-07-12 13:29:31.503918 ; 20.73 
220 ; Les Fonds ; 21NT ; LF-21NT-2019-DH-C ; 607 ; 2019-07-12 13:29:42.297250 ; 20.65 
221 ; Les Fonds ; 21NT ; LF-21NT-2019-DH-C ; 607 ; 2019-07-12 13:29:53.287067 ; 20.61 
222 ; Les Fonds ; 21NT ; LF-21NT-2019-DH-C ; 607 ; 2019-07-12 13:30:04.271064 ; 20.59 
223 ; Les Fonds ; 21NT ; LF-21NT-2019-DH-C ; 607 ; 2019-07-12 13:30:15.260117 ; 20.57 
224 ; Les Fonds ; 21NT ; LF-21NT-2019-DH-C ; 607 ; 2019-07-12 13:30:26.253818 ; 20.52 
225 ; Les Fonds ; 21NT ; LF-21NT-2019-DH-C ; 607 ; 2019-07-12 13:30:37.164488 ; 20.43 
226 ; Les Fonds ; 21NT ; LF-21NT-2019-DH-C ; 607 ; 2019-07-12 13:30:48.065819 ; 20.38 
227 ; Les Fonds ; 21NT ; LF-21NT-2019-DH-C ; 607 ; 2019-07-12 13:30:58.888599 ; 20.28 
228 ; Les Fonds ; 21NT ; LF-21NT-2019-DH-C ; 607 ; 2019-07-12 13:31:09.815956 ; 20.23 
229 ; Les Fonds ; 21NT ; LF-21NT-2019-DH-C ; 607 ; 2019-07-12 13:31:20.700088 ; 20.18 
230 ; Les Fonds ; 21NT ; LF-21NT-2019-DH-C ; 607 ; 2019-07-12 13:31:31.687117 ; 20.1 
231 ; Les Fonds ; 21NT ; LF-21NT-2019-DH-C ; 607 ; 2019-07-12 13:31:42.517008 ; 20.06 
232 ; Les Fonds ; 21NT ; LF-21NT-2019-DH-C ; 607 ; 2019-07-12 13:31:53.532403 ; 20.02 
233 ; Les Fonds ; 21NT ; LF-21NT-2019-DH-C ; 607 ; 2019-07-12 13:32:04.436977 ; 19.96 
234 ; Les Fonds ; 21NT ; LF-21NT-2019-DH-C ; 607 ; 2019-07-12 13:32:15.208424 ; 19.93 
235 ; Les Fonds ; 21NT ; LF-21NT-2019-DH-C ; 607 ; 2019-07-12 13:32:26.083163 ; 19.54 
236 ; Les Fonds ; 21NT ; LF-21NT-2019-DH-C ; 607 ; 2019-07-12 13:32:37.019436 ; 19.44 
237 ; Les Fonds ; 21NT ; LF-21NT-2019-DH-C ; 607 ; 2019-07-12 13:32:48.004502 ; 19.39 
238 ; Les Fonds ; 21NT ; LF-21NT-2019-DH-C ; 607 ; 2019-07-12 13:32:58.825965 ; 19.38 
239 ; Les Fonds ; 21NT ; LF-21NT-2019-DH-C ; 607 ; 2019-07-12 13:33:09.760327 ; 19.29 
240 ; Les Fonds ; 21NT ; LF-21NT-2019-DH-C ; 607 ; 2019-07-12 13:33:20.699515 ; 19.24 
241 ; Les Fonds ; 21NT ; LF-21NT-2019-DH-C ; 607 ; 2019-07-12 13:33:31.684176 ; 19.2 
242 ; Les Fonds ; 21NT ; LF-21NT-2019-DH-C ; 607 ; 2019-07-12 13:33:42.620945 ; 19.18 
243 ; Les Fonds ; 21NT ; LF-21NT-2019-DH-C ; 607 ; 2019-07-12 13:33:53.497801 ; 19.16 
244 ; Les Fonds ; 21NT ; LF-21NT-2019-DH-C ; 607 ; 2019-07-12 13:34:04.379223 ; 19.15 
245 ; Les Fonds ; 21NT ; LF-21NT-2019-DH-C ; 607 ; 2019-07-12 13:34:15.205306 ; 19.13 
246 ; Les Fonds ; 21NT ; LF-21NT-2019-DH-C ; 607 ; 2019-07-12 13:34:26.170238 ; 19.11 
247 ; Les Fonds ; 21NT ; LF-21NT-2019-DH-C ; 607 ; 2019-07-12 13:34:37.017372 ; 19.08 
248 ; Les Fonds ; 21NT ; LF-21NT-2019-DH-C ; 607 ; 2019-07-12 13:35:07.896212 ; 18.95 
249 ; Les Fonds ; 21NT ; LF-21NT-2019-DH-C ; 607 ; 2019-07-12 13:35:38.832771 ; 18.89 
250 ; Les Fonds ; 21NT ; LF-21NT-2019-DH-C ; 607 ; 2019-07-12 13:36:09.779752 ; 18.77 
251 ; Les Fonds ; 21NT ; LF-21NT-2019-DH-C ; 607 ; 2019-07-12 13:36:40.645712 ; 18.72 
252 ; Les Fonds ; 21NT ; LF-21NT-2019-DH-C ; 607 ; 2019-07-12 13:37:11.499317 ; 18.62 
253 ; Les Fonds ; 21NT ; LF-21NT-2019-DH-C ; 607 ; 2019-07-12 13:37:42.487143 ; 18.45 
254 ; Les Fonds ; 21NT ; LF-21NT-2019-DH-C ; 607 ; 2019-07-12 13:38:13.310953 ; 18.21 
255 ; Les Fonds ; 21NT ; LF-21NT-2019-DH-C ; 607 ; 2019-07-12 13:38:44.137406 ; 18.03 
256 ; Les Fonds ; 21NT ; LF-21NT-2019-DH-C ; 607 ; 2019-07-12 13:39:15.020138 ; 17.93 
257 ; Les Fonds ; 21NT ; LF-21NT-2019-DH-C ; 607 ; 2019-07-12 13:39:45.951187 ; 17.54 
258 ; Les Fonds ; 21NT ; LF-21NT-2019-DH-C ; 607 ; 2019-07-12 13:40:16.940298 ; 17.46 
259 ; Les Fonds ; 21NT ; LF-21NT-2019-DH-C ; 607 ; 2019-07-12 13:40:47.809171 ; 17.35 
260 ; Les Fonds ; 21NT ; LF-21NT-2019-DH-C ; 607 ; 2019-07-12 13:41:18.806188 ; 17.23 
261 ; Les Fonds ; 21NT ; LF-21NT-2019-DH-C ; 607 ; 2019-07-12 13:41:49.642353 ; 17.2 
262 ; Les Fonds ; 21NT ; LF-21NT-2019-DH-C ; 607 ; 2019-07-12 13:42:20.514433 ; 17.03 
263 ; Les Fonds ; 21NT ; LF-21NT-2019-DH-C ; 607 ; 2019-07-12 13:42:51.537408 ; 16.89 
