i ; campaign ; serie ; sample ; slake ; time ; mass 
1 ; Les Fonds ; 13NT ; LF-13NT-2019-DH-MB-A ; 679 ; 2019-07-19 10:54:47.530001 ; 205.87 
2 ; Les Fonds ; 13NT ; LF-13NT-2019-DH-MB-A ; 679 ; 2019-07-19 10:54:48.467596 ; 205.86 
3 ; Les Fonds ; 13NT ; LF-13NT-2019-DH-MB-A ; 679 ; 2019-07-19 10:54:49.509896 ; 205.86 
4 ; Les Fonds ; 13NT ; LF-13NT-2019-DH-MB-A ; 679 ; 2019-07-19 10:54:50.572351 ; 205.86 
5 ; Les Fonds ; 13NT ; LF-13NT-2019-DH-MB-A ; 679 ; 2019-07-19 10:54:51.621778 ; 205.86 
6 ; Les Fonds ; 13NT ; LF-13NT-2019-DH-MB-A ; 679 ; 2019-07-19 10:54:52.653874 ; 203 
7 ; Les Fonds ; 13NT ; LF-13NT-2019-DH-MB-A ; 679 ; 2019-07-19 10:54:53.695171 ; 95.02 
8 ; Les Fonds ; 13NT ; LF-13NT-2019-DH-MB-A ; 679 ; 2019-07-19 10:54:54.762659 ; 79.56 
9 ; Les Fonds ; 13NT ; LF-13NT-2019-DH-MB-A ; 679 ; 2019-07-19 10:54:55.802729 ; 81.67 
10 ; Les Fonds ; 13NT ; LF-13NT-2019-DH-MB-A ; 679 ; 2019-07-19 10:54:56.837443 ; 84.64 
11 ; Les Fonds ; 13NT ; LF-13NT-2019-DH-MB-A ; 679 ; 2019-07-19 10:54:57.922783 ; 87.1 
12 ; Les Fonds ; 13NT ; LF-13NT-2019-DH-MB-A ; 679 ; 2019-07-19 10:54:58.951871 ; 88.84 
13 ; Les Fonds ; 13NT ; LF-13NT-2019-DH-MB-A ; 679 ; 2019-07-19 10:54:59.994505 ; 90.66 
14 ; Les Fonds ; 13NT ; LF-13NT-2019-DH-MB-A ; 679 ; 2019-07-19 10:55:01.057241 ; 91.68 
15 ; Les Fonds ; 13NT ; LF-13NT-2019-DH-MB-A ; 679 ; 2019-07-19 10:55:02.096731 ; 92.87 
16 ; Les Fonds ; 13NT ; LF-13NT-2019-DH-MB-A ; 679 ; 2019-07-19 10:55:03.136952 ; 93.44 
17 ; Les Fonds ; 13NT ; LF-13NT-2019-DH-MB-A ; 679 ; 2019-07-19 10:55:04.209167 ; 94.21 
18 ; Les Fonds ; 13NT ; LF-13NT-2019-DH-MB-A ; 679 ; 2019-07-19 10:55:05.242943 ; 94.82 
19 ; Les Fonds ; 13NT ; LF-13NT-2019-DH-MB-A ; 679 ; 2019-07-19 10:55:06.282698 ; 95.05 
20 ; Les Fonds ; 13NT ; LF-13NT-2019-DH-MB-A ; 679 ; 2019-07-19 10:55:07.355131 ; 95.49 
21 ; Les Fonds ; 13NT ; LF-13NT-2019-DH-MB-A ; 679 ; 2019-07-19 10:55:08.390135 ; 95.56 
22 ; Les Fonds ; 13NT ; LF-13NT-2019-DH-MB-A ; 679 ; 2019-07-19 10:55:09.434656 ; 95.7 
23 ; Les Fonds ; 13NT ; LF-13NT-2019-DH-MB-A ; 679 ; 2019-07-19 10:55:10.510941 ; 95.79 
24 ; Les Fonds ; 13NT ; LF-13NT-2019-DH-MB-A ; 679 ; 2019-07-19 10:55:11.539870 ; 95.84 
25 ; Les Fonds ; 13NT ; LF-13NT-2019-DH-MB-A ; 679 ; 2019-07-19 10:55:12.577620 ; 95.85 
26 ; Les Fonds ; 13NT ; LF-13NT-2019-DH-MB-A ; 679 ; 2019-07-19 10:55:13.643527 ; 95.51 
27 ; Les Fonds ; 13NT ; LF-13NT-2019-DH-MB-A ; 679 ; 2019-07-19 10:55:14.687059 ; 95.29 
28 ; Les Fonds ; 13NT ; LF-13NT-2019-DH-MB-A ; 679 ; 2019-07-19 10:55:15.722654 ; 95.29 
29 ; Les Fonds ; 13NT ; LF-13NT-2019-DH-MB-A ; 679 ; 2019-07-19 10:55:16.791409 ; 95.25 
30 ; Les Fonds ; 13NT ; LF-13NT-2019-DH-MB-A ; 679 ; 2019-07-19 10:55:17.829156 ; 95.14 
31 ; Les Fonds ; 13NT ; LF-13NT-2019-DH-MB-A ; 679 ; 2019-07-19 10:55:18.870199 ; 95.03 
32 ; Les Fonds ; 13NT ; LF-13NT-2019-DH-MB-A ; 679 ; 2019-07-19 10:55:19.935714 ; 94.98 
33 ; Les Fonds ; 13NT ; LF-13NT-2019-DH-MB-A ; 679 ; 2019-07-19 10:55:20.974758 ; 94.96 
34 ; Les Fonds ; 13NT ; LF-13NT-2019-DH-MB-A ; 679 ; 2019-07-19 10:55:22.020031 ; 94.96 
35 ; Les Fonds ; 13NT ; LF-13NT-2019-DH-MB-A ; 679 ; 2019-07-19 10:55:23.087625 ; 94.87 
36 ; Les Fonds ; 13NT ; LF-13NT-2019-DH-MB-A ; 679 ; 2019-07-19 10:55:24.121837 ; 94.18 
37 ; Les Fonds ; 13NT ; LF-13NT-2019-DH-MB-A ; 679 ; 2019-07-19 10:55:25.162425 ; 93.87 
38 ; Les Fonds ; 13NT ; LF-13NT-2019-DH-MB-A ; 679 ; 2019-07-19 10:55:26.204785 ; 93.6 
39 ; Les Fonds ; 13NT ; LF-13NT-2019-DH-MB-A ; 679 ; 2019-07-19 10:55:27.274143 ; 93.52 
40 ; Les Fonds ; 13NT ; LF-13NT-2019-DH-MB-A ; 679 ; 2019-07-19 10:55:28.310185 ; 93.38 
41 ; Les Fonds ; 13NT ; LF-13NT-2019-DH-MB-A ; 679 ; 2019-07-19 10:55:29.382854 ; 93.26 
42 ; Les Fonds ; 13NT ; LF-13NT-2019-DH-MB-A ; 679 ; 2019-07-19 10:55:30.417702 ; 93.15 
43 ; Les Fonds ; 13NT ; LF-13NT-2019-DH-MB-A ; 679 ; 2019-07-19 10:55:31.457466 ; 92.81 
44 ; Les Fonds ; 13NT ; LF-13NT-2019-DH-MB-A ; 679 ; 2019-07-19 10:55:32.497894 ; 92.58 
45 ; Les Fonds ; 13NT ; LF-13NT-2019-DH-MB-A ; 679 ; 2019-07-19 10:55:33.564516 ; 92.29 
46 ; Les Fonds ; 13NT ; LF-13NT-2019-DH-MB-A ; 679 ; 2019-07-19 10:55:34.609395 ; 91.99 
47 ; Les Fonds ; 13NT ; LF-13NT-2019-DH-MB-A ; 679 ; 2019-07-19 10:55:35.654071 ; 91.66 
48 ; Les Fonds ; 13NT ; LF-13NT-2019-DH-MB-A ; 679 ; 2019-07-19 10:55:36.711100 ; 91.6 
49 ; Les Fonds ; 13NT ; LF-13NT-2019-DH-MB-A ; 679 ; 2019-07-19 10:55:37.749037 ; 91.48 
50 ; Les Fonds ; 13NT ; LF-13NT-2019-DH-MB-A ; 679 ; 2019-07-19 10:55:38.803606 ; 91.35 
51 ; Les Fonds ; 13NT ; LF-13NT-2019-DH-MB-A ; 679 ; 2019-07-19 10:55:39.860569 ; 90.99 
52 ; Les Fonds ; 13NT ; LF-13NT-2019-DH-MB-A ; 679 ; 2019-07-19 10:55:40.895721 ; 90.68 
53 ; Les Fonds ; 13NT ; LF-13NT-2019-DH-MB-A ; 679 ; 2019-07-19 10:55:41.948156 ; 90.33 
54 ; Les Fonds ; 13NT ; LF-13NT-2019-DH-MB-A ; 679 ; 2019-07-19 10:55:43.008541 ; 90.22 
55 ; Les Fonds ; 13NT ; LF-13NT-2019-DH-MB-A ; 679 ; 2019-07-19 10:55:44.052498 ; 90.1 
56 ; Les Fonds ; 13NT ; LF-13NT-2019-DH-MB-A ; 679 ; 2019-07-19 10:55:45.207513 ; 90.01 
57 ; Les Fonds ; 13NT ; LF-13NT-2019-DH-MB-A ; 679 ; 2019-07-19 10:55:46.151247 ; 89.92 
58 ; Les Fonds ; 13NT ; LF-13NT-2019-DH-MB-A ; 679 ; 2019-07-19 10:55:47.189312 ; 89.63 
59 ; Les Fonds ; 13NT ; LF-13NT-2019-DH-MB-A ; 679 ; 2019-07-19 10:55:48.236730 ; 89.37 
60 ; Les Fonds ; 13NT ; LF-13NT-2019-DH-MB-A ; 679 ; 2019-07-19 10:55:49.299765 ; 89.26 
61 ; Les Fonds ; 13NT ; LF-13NT-2019-DH-MB-A ; 679 ; 2019-07-19 10:55:50.338572 ; 88.97 
62 ; Les Fonds ; 13NT ; LF-13NT-2019-DH-MB-A ; 679 ; 2019-07-19 10:55:51.379405 ; 88.72 
63 ; Les Fonds ; 13NT ; LF-13NT-2019-DH-MB-A ; 679 ; 2019-07-19 10:55:52.448009 ; 88.66 
64 ; Les Fonds ; 13NT ; LF-13NT-2019-DH-MB-A ; 679 ; 2019-07-19 10:55:53.485564 ; 88.53 
65 ; Les Fonds ; 13NT ; LF-13NT-2019-DH-MB-A ; 679 ; 2019-07-19 10:55:54.530076 ; 88.39 
66 ; Les Fonds ; 13NT ; LF-13NT-2019-DH-MB-A ; 679 ; 2019-07-19 10:55:55.598140 ; 88.26 
67 ; Les Fonds ; 13NT ; LF-13NT-2019-DH-MB-A ; 679 ; 2019-07-19 10:55:56.629822 ; 88.12 
68 ; Les Fonds ; 13NT ; LF-13NT-2019-DH-MB-A ; 679 ; 2019-07-19 10:55:57.671162 ; 88 
69 ; Les Fonds ; 13NT ; LF-13NT-2019-DH-MB-A ; 679 ; 2019-07-19 10:55:58.735922 ; 87.9 
70 ; Les Fonds ; 13NT ; LF-13NT-2019-DH-MB-A ; 679 ; 2019-07-19 10:55:59.795690 ; 87.77 
71 ; Les Fonds ; 13NT ; LF-13NT-2019-DH-MB-A ; 679 ; 2019-07-19 10:56:00.825400 ; 87.46 
72 ; Les Fonds ; 13NT ; LF-13NT-2019-DH-MB-A ; 679 ; 2019-07-19 10:56:01.886499 ; 87.22 
73 ; Les Fonds ; 13NT ; LF-13NT-2019-DH-MB-A ; 679 ; 2019-07-19 10:56:02.926590 ; 86.95 
74 ; Les Fonds ; 13NT ; LF-13NT-2019-DH-MB-A ; 679 ; 2019-07-19 10:56:03.963694 ; 86.43 
75 ; Les Fonds ; 13NT ; LF-13NT-2019-DH-MB-A ; 679 ; 2019-07-19 10:56:05.003086 ; 86.19 
76 ; Les Fonds ; 13NT ; LF-13NT-2019-DH-MB-A ; 679 ; 2019-07-19 10:56:06.071004 ; 86.12 
77 ; Les Fonds ; 13NT ; LF-13NT-2019-DH-MB-A ; 679 ; 2019-07-19 10:56:07.115075 ; 85.8 
78 ; Les Fonds ; 13NT ; LF-13NT-2019-DH-MB-A ; 679 ; 2019-07-19 10:56:08.150313 ; 85.75 
79 ; Les Fonds ; 13NT ; LF-13NT-2019-DH-MB-A ; 679 ; 2019-07-19 10:56:09.217503 ; 85.63 
80 ; Les Fonds ; 13NT ; LF-13NT-2019-DH-MB-A ; 679 ; 2019-07-19 10:56:10.259043 ; 85.54 
81 ; Les Fonds ; 13NT ; LF-13NT-2019-DH-MB-A ; 679 ; 2019-07-19 10:56:11.298156 ; 85.49 
82 ; Les Fonds ; 13NT ; LF-13NT-2019-DH-MB-A ; 679 ; 2019-07-19 10:56:12.369545 ; 85.44 
83 ; Les Fonds ; 13NT ; LF-13NT-2019-DH-MB-A ; 679 ; 2019-07-19 10:56:13.404205 ; NA 
84 ; Les Fonds ; 13NT ; LF-13NT-2019-DH-MB-A ; 679 ; 2019-07-19 10:56:14.445304 ; 85.33 
85 ; Les Fonds ; 13NT ; LF-13NT-2019-DH-MB-A ; 679 ; 2019-07-19 10:56:15.512154 ; 84.97 
86 ; Les Fonds ; 13NT ; LF-13NT-2019-DH-MB-A ; 679 ; 2019-07-19 10:56:16.550537 ; 84.89 
87 ; Les Fonds ; 13NT ; LF-13NT-2019-DH-MB-A ; 679 ; 2019-07-19 10:56:17.589140 ; NA 
88 ; Les Fonds ; 13NT ; LF-13NT-2019-DH-MB-A ; 679 ; 2019-07-19 10:56:18.665466 ; 84.63 
89 ; Les Fonds ; 13NT ; LF-13NT-2019-DH-MB-A ; 679 ; 2019-07-19 10:56:19.700467 ; 84.38 
90 ; Les Fonds ; 13NT ; LF-13NT-2019-DH-MB-A ; 679 ; 2019-07-19 10:56:20.736526 ; 84.31 
91 ; Les Fonds ; 13NT ; LF-13NT-2019-DH-MB-A ; 679 ; 2019-07-19 10:56:21.801629 ; 84.25 
92 ; Les Fonds ; 13NT ; LF-13NT-2019-DH-MB-A ; 679 ; 2019-07-19 10:56:22.844416 ; 84.2 
93 ; Les Fonds ; 13NT ; LF-13NT-2019-DH-MB-A ; 679 ; 2019-07-19 10:56:23.888407 ; 84.16 
94 ; Les Fonds ; 13NT ; LF-13NT-2019-DH-MB-A ; 679 ; 2019-07-19 10:56:24.958885 ; 84.11 
95 ; Les Fonds ; 13NT ; LF-13NT-2019-DH-MB-A ; 679 ; 2019-07-19 10:56:25.988868 ; 84.06 
96 ; Les Fonds ; 13NT ; LF-13NT-2019-DH-MB-A ; 679 ; 2019-07-19 10:56:27.030961 ; 84.02 
97 ; Les Fonds ; 13NT ; LF-13NT-2019-DH-MB-A ; 679 ; 2019-07-19 10:56:28.097854 ; 83.89 
98 ; Les Fonds ; 13NT ; LF-13NT-2019-DH-MB-A ; 679 ; 2019-07-19 10:56:29.136864 ; 83.67 
99 ; Les Fonds ; 13NT ; LF-13NT-2019-DH-MB-A ; 679 ; 2019-07-19 10:56:30.178785 ; 83.6 
100 ; Les Fonds ; 13NT ; LF-13NT-2019-DH-MB-A ; 679 ; 2019-07-19 10:56:31.250720 ; 83.56 
101 ; Les Fonds ; 13NT ; LF-13NT-2019-DH-MB-A ; 679 ; 2019-07-19 10:56:32.284695 ; 83.54 
102 ; Les Fonds ; 13NT ; LF-13NT-2019-DH-MB-A ; 679 ; 2019-07-19 10:56:33.322729 ; 83.48 
103 ; Les Fonds ; 13NT ; LF-13NT-2019-DH-MB-A ; 679 ; 2019-07-19 10:56:34.367131 ; 83.41 
104 ; Les Fonds ; 13NT ; LF-13NT-2019-DH-MB-A ; 679 ; 2019-07-19 10:56:35.434424 ; 83.33 
105 ; Les Fonds ; 13NT ; LF-13NT-2019-DH-MB-A ; 679 ; 2019-07-19 10:56:36.484374 ; 83.25 
106 ; Les Fonds ; 13NT ; LF-13NT-2019-DH-MB-A ; 679 ; 2019-07-19 10:56:37.510945 ; NA 
107 ; Les Fonds ; 13NT ; LF-13NT-2019-DH-MB-A ; 679 ; 2019-07-19 10:56:38.575550 ; 83.12 
108 ; Les Fonds ; 13NT ; LF-13NT-2019-DH-MB-A ; 679 ; 2019-07-19 10:56:39.615808 ; 83.05 
109 ; Les Fonds ; 13NT ; LF-13NT-2019-DH-MB-A ; 679 ; 2019-07-19 10:56:40.658085 ; 82.96 
110 ; Les Fonds ; 13NT ; LF-13NT-2019-DH-MB-A ; 679 ; 2019-07-19 10:56:41.722486 ; 82.87 
111 ; Les Fonds ; 13NT ; LF-13NT-2019-DH-MB-A ; 679 ; 2019-07-19 10:56:42.769451 ; 82.76 
112 ; Les Fonds ; 13NT ; LF-13NT-2019-DH-MB-A ; 679 ; 2019-07-19 10:56:43.803183 ; 82.64 
113 ; Les Fonds ; 13NT ; LF-13NT-2019-DH-MB-A ; 679 ; 2019-07-19 10:56:44.867832 ; 82.5 
114 ; Les Fonds ; 13NT ; LF-13NT-2019-DH-MB-A ; 679 ; 2019-07-19 10:56:45.910329 ; 82.43 
115 ; Les Fonds ; 13NT ; LF-13NT-2019-DH-MB-A ; 679 ; 2019-07-19 10:56:46.949846 ; 82.38 
116 ; Les Fonds ; 13NT ; LF-13NT-2019-DH-MB-A ; 679 ; 2019-07-19 10:56:48.018922 ; 82.34 
117 ; Les Fonds ; 13NT ; LF-13NT-2019-DH-MB-A ; 679 ; 2019-07-19 10:56:49.064652 ; 82.31 
118 ; Les Fonds ; 13NT ; LF-13NT-2019-DH-MB-A ; 679 ; 2019-07-19 10:56:50.096874 ; NA 
119 ; Les Fonds ; 13NT ; LF-13NT-2019-DH-MB-A ; 679 ; 2019-07-19 10:56:51.170855 ; 82.24 
120 ; Les Fonds ; 13NT ; LF-13NT-2019-DH-MB-A ; 679 ; 2019-07-19 10:56:52.202702 ; 82.15 
121 ; Les Fonds ; 13NT ; LF-13NT-2019-DH-MB-A ; 679 ; 2019-07-19 10:56:53.245720 ; NA 
122 ; Les Fonds ; 13NT ; LF-13NT-2019-DH-MB-A ; 679 ; 2019-07-19 10:56:54.311868 ; 81.96 
123 ; Les Fonds ; 13NT ; LF-13NT-2019-DH-MB-A ; 679 ; 2019-07-19 10:56:55.358945 ; 81.94 
124 ; Les Fonds ; 13NT ; LF-13NT-2019-DH-MB-A ; 679 ; 2019-07-19 10:56:56.392149 ; 81.92 
125 ; Les Fonds ; 13NT ; LF-13NT-2019-DH-MB-A ; 679 ; 2019-07-19 10:56:57.457766 ; 81.88 
126 ; Les Fonds ; 13NT ; LF-13NT-2019-DH-MB-A ; 679 ; 2019-07-19 10:56:58.500030 ; 81.84 
127 ; Les Fonds ; 13NT ; LF-13NT-2019-DH-MB-A ; 679 ; 2019-07-19 10:56:59.536939 ; 81.77 
128 ; Les Fonds ; 13NT ; LF-13NT-2019-DH-MB-A ; 679 ; 2019-07-19 10:57:00.602661 ; 81.7 
129 ; Les Fonds ; 13NT ; LF-13NT-2019-DH-MB-A ; 679 ; 2019-07-19 10:57:01.652908 ; 81.63 
130 ; Les Fonds ; 13NT ; LF-13NT-2019-DH-MB-A ; 679 ; 2019-07-19 10:57:02.683307 ; 81.54 
131 ; Les Fonds ; 13NT ; LF-13NT-2019-DH-MB-A ; 679 ; 2019-07-19 10:57:03.748774 ; 81.46 
132 ; Les Fonds ; 13NT ; LF-13NT-2019-DH-MB-A ; 679 ; 2019-07-19 10:57:04.790606 ; 81.41 
133 ; Les Fonds ; 13NT ; LF-13NT-2019-DH-MB-A ; 679 ; 2019-07-19 10:57:05.832247 ; 81.37 
134 ; Les Fonds ; 13NT ; LF-13NT-2019-DH-MB-A ; 679 ; 2019-07-19 10:57:06.870256 ; 81.35 
135 ; Les Fonds ; 13NT ; LF-13NT-2019-DH-MB-A ; 679 ; 2019-07-19 10:57:07.947245 ; 81.3 
136 ; Les Fonds ; 13NT ; LF-13NT-2019-DH-MB-A ; 679 ; 2019-07-19 10:57:08.978413 ; 81.28 
137 ; Les Fonds ; 13NT ; LF-13NT-2019-DH-MB-A ; 679 ; 2019-07-19 10:57:10.016607 ; 81.24 
138 ; Les Fonds ; 13NT ; LF-13NT-2019-DH-MB-A ; 679 ; 2019-07-19 10:57:11.082428 ; 81.2 
139 ; Les Fonds ; 13NT ; LF-13NT-2019-DH-MB-A ; 679 ; 2019-07-19 10:57:12.122382 ; 81.18 
140 ; Les Fonds ; 13NT ; LF-13NT-2019-DH-MB-A ; 679 ; 2019-07-19 10:57:13.165891 ; 81.16 
141 ; Les Fonds ; 13NT ; LF-13NT-2019-DH-MB-A ; 679 ; 2019-07-19 10:57:14.238850 ; 81.15 
142 ; Les Fonds ; 13NT ; LF-13NT-2019-DH-MB-A ; 679 ; 2019-07-19 10:57:15.271415 ; 81.11 
143 ; Les Fonds ; 13NT ; LF-13NT-2019-DH-MB-A ; 679 ; 2019-07-19 10:57:16.309679 ; 81.09 
144 ; Les Fonds ; 13NT ; LF-13NT-2019-DH-MB-A ; 679 ; 2019-07-19 10:57:17.378013 ; 81.09 
145 ; Les Fonds ; 13NT ; LF-13NT-2019-DH-MB-A ; 679 ; 2019-07-19 10:57:18.412394 ; 81.06 
146 ; Les Fonds ; 13NT ; LF-13NT-2019-DH-MB-A ; 679 ; 2019-07-19 10:57:19.458100 ; 80.99 
147 ; Les Fonds ; 13NT ; LF-13NT-2019-DH-MB-A ; 679 ; 2019-07-19 10:57:20.523763 ; 80.9 
148 ; Les Fonds ; 13NT ; LF-13NT-2019-DH-MB-A ; 679 ; 2019-07-19 10:57:21.565013 ; 80.74 
149 ; Les Fonds ; 13NT ; LF-13NT-2019-DH-MB-A ; 679 ; 2019-07-19 10:57:22.604511 ; 80.63 
150 ; Les Fonds ; 13NT ; LF-13NT-2019-DH-MB-A ; 679 ; 2019-07-19 10:57:23.669257 ; 80.58 
151 ; Les Fonds ; 13NT ; LF-13NT-2019-DH-MB-A ; 679 ; 2019-07-19 10:57:24.712131 ; 80.47 
152 ; Les Fonds ; 13NT ; LF-13NT-2019-DH-MB-A ; 679 ; 2019-07-19 10:57:25.757178 ; 79.95 
153 ; Les Fonds ; 13NT ; LF-13NT-2019-DH-MB-A ; 679 ; 2019-07-19 10:57:26.829628 ; 79.72 
154 ; Les Fonds ; 13NT ; LF-13NT-2019-DH-MB-A ; 679 ; 2019-07-19 10:57:27.856832 ; 79.64 
155 ; Les Fonds ; 13NT ; LF-13NT-2019-DH-MB-A ; 679 ; 2019-07-19 10:57:28.901187 ; 79.59 
156 ; Les Fonds ; 13NT ; LF-13NT-2019-DH-MB-A ; 679 ; 2019-07-19 10:57:29.967969 ; 79.55 
157 ; Les Fonds ; 13NT ; LF-13NT-2019-DH-MB-A ; 679 ; 2019-07-19 10:57:31.005903 ; 79.5 
158 ; Les Fonds ; 13NT ; LF-13NT-2019-DH-MB-A ; 679 ; 2019-07-19 10:57:32.052909 ; 79.44 
159 ; Les Fonds ; 13NT ; LF-13NT-2019-DH-MB-A ; 679 ; 2019-07-19 10:57:33.086358 ; 79.41 
160 ; Les Fonds ; 13NT ; LF-13NT-2019-DH-MB-A ; 679 ; 2019-07-19 10:57:34.149217 ; 79.41 
161 ; Les Fonds ; 13NT ; LF-13NT-2019-DH-MB-A ; 679 ; 2019-07-19 10:57:35.187799 ; NA 
162 ; Les Fonds ; 13NT ; LF-13NT-2019-DH-MB-A ; 679 ; 2019-07-19 10:57:36.234765 ; 79.44 
163 ; Les Fonds ; 13NT ; LF-13NT-2019-DH-MB-A ; 679 ; 2019-07-19 10:57:37.297072 ; 79.47 
