i ; campaign ; serie ; sample ; slake ; time ; mass 
1 ; Les Fonds ; 27NT ; LF-27NT-2019-H-F ; 582 ; 2019-07-11 14:46:51.766303 ; 131.13 
2 ; Les Fonds ; 27NT ; LF-27NT-2019-H-F ; 582 ; 2019-07-11 14:46:52.667675 ; 131.18 
3 ; Les Fonds ; 27NT ; LF-27NT-2019-H-F ; 582 ; 2019-07-11 14:46:53.713546 ; 131.18 
4 ; Les Fonds ; 27NT ; LF-27NT-2019-H-F ; 582 ; 2019-07-11 14:46:54.763540 ; 131.18 
5 ; Les Fonds ; 27NT ; LF-27NT-2019-H-F ; 582 ; 2019-07-11 14:46:55.826450 ; 127.07 
6 ; Les Fonds ; 27NT ; LF-27NT-2019-H-F ; 582 ; 2019-07-11 14:46:56.859039 ; 55.75 
7 ; Les Fonds ; 27NT ; LF-27NT-2019-H-F ; 582 ; 2019-07-11 14:46:57.901897 ; 47.62 
8 ; Les Fonds ; 27NT ; LF-27NT-2019-H-F ; 582 ; 2019-07-11 14:46:58.966515 ; 48.68 
9 ; Les Fonds ; 27NT ; LF-27NT-2019-H-F ; 582 ; 2019-07-11 14:47:00.015575 ; 49.5 
10 ; Les Fonds ; 27NT ; LF-27NT-2019-H-F ; 582 ; 2019-07-11 14:47:01.045249 ; 50.37 
11 ; Les Fonds ; 27NT ; LF-27NT-2019-H-F ; 582 ; 2019-07-11 14:47:02.107745 ; 51.01 
12 ; Les Fonds ; 27NT ; LF-27NT-2019-H-F ; 582 ; 2019-07-11 14:47:03.154675 ; 51.65 
13 ; Les Fonds ; 27NT ; LF-27NT-2019-H-F ; 582 ; 2019-07-11 14:47:04.202552 ; 52.14 
14 ; Les Fonds ; 27NT ; LF-27NT-2019-H-F ; 582 ; 2019-07-11 14:47:05.257252 ; 52.56 
15 ; Les Fonds ; 27NT ; LF-27NT-2019-H-F ; 582 ; 2019-07-11 14:47:06.298660 ; 52.88 
16 ; Les Fonds ; 27NT ; LF-27NT-2019-H-F ; 582 ; 2019-07-11 14:47:07.338312 ; 53.19 
17 ; Les Fonds ; 27NT ; LF-27NT-2019-H-F ; 582 ; 2019-07-11 14:47:08.416697 ; 53.72 
18 ; Les Fonds ; 27NT ; LF-27NT-2019-H-F ; 582 ; 2019-07-11 14:47:09.442465 ; NA 
19 ; Les Fonds ; 27NT ; LF-27NT-2019-H-F ; 582 ; 2019-07-11 14:47:10.486646 ; 54.25 
20 ; Les Fonds ; 27NT ; LF-27NT-2019-H-F ; 582 ; 2019-07-11 14:47:11.549823 ; NA 
21 ; Les Fonds ; 27NT ; LF-27NT-2019-H-F ; 582 ; 2019-07-11 14:47:12.607574 ; 54.6 
22 ; Les Fonds ; 27NT ; LF-27NT-2019-H-F ; 582 ; 2019-07-11 14:47:13.628904 ; 54.85 
23 ; Les Fonds ; 27NT ; LF-27NT-2019-H-F ; 582 ; 2019-07-11 14:47:14.692599 ; 55.14 
24 ; Les Fonds ; 27NT ; LF-27NT-2019-H-F ; 582 ; 2019-07-11 14:47:15.749325 ; 55.24 
25 ; Les Fonds ; 27NT ; LF-27NT-2019-H-F ; 582 ; 2019-07-11 14:47:16.787960 ; 55.49 
26 ; Les Fonds ; 27NT ; LF-27NT-2019-H-F ; 582 ; 2019-07-11 14:47:17.841101 ; 55.6 
27 ; Les Fonds ; 27NT ; LF-27NT-2019-H-F ; 582 ; 2019-07-11 14:47:18.885171 ; 55.84 
28 ; Les Fonds ; 27NT ; LF-27NT-2019-H-F ; 582 ; 2019-07-11 14:47:19.922120 ; 55.94 
29 ; Les Fonds ; 27NT ; LF-27NT-2019-H-F ; 582 ; 2019-07-11 14:47:20.971282 ; 56.07 
30 ; Les Fonds ; 27NT ; LF-27NT-2019-H-F ; 582 ; 2019-07-11 14:47:22.031226 ; 56.18 
31 ; Les Fonds ; 27NT ; LF-27NT-2019-H-F ; 582 ; 2019-07-11 14:47:23.070311 ; 56.28 
32 ; Les Fonds ; 27NT ; LF-27NT-2019-H-F ; 582 ; 2019-07-11 14:47:24.108943 ; NA 
33 ; Les Fonds ; 27NT ; LF-27NT-2019-H-F ; 582 ; 2019-07-11 14:47:25.176236 ; 56.47 
34 ; Les Fonds ; 27NT ; LF-27NT-2019-H-F ; 582 ; 2019-07-11 14:47:26.225277 ; 56.55 
35 ; Les Fonds ; 27NT ; LF-27NT-2019-H-F ; 582 ; 2019-07-11 14:47:27.253916 ; 56.62 
36 ; Les Fonds ; 27NT ; LF-27NT-2019-H-F ; 582 ; 2019-07-11 14:47:28.319670 ; 56.69 
37 ; Les Fonds ; 27NT ; LF-27NT-2019-H-F ; 582 ; 2019-07-11 14:47:29.362291 ; 56.77 
38 ; Les Fonds ; 27NT ; LF-27NT-2019-H-F ; 582 ; 2019-07-11 14:47:30.411467 ; 56.86 
39 ; Les Fonds ; 27NT ; LF-27NT-2019-H-F ; 582 ; 2019-07-11 14:47:31.469224 ; 56.95 
40 ; Les Fonds ; 27NT ; LF-27NT-2019-H-F ; 582 ; 2019-07-11 14:47:32.504321 ; 57.01 
41 ; Les Fonds ; 27NT ; LF-27NT-2019-H-F ; 582 ; 2019-07-11 14:47:33.552242 ; 57.05 
42 ; Les Fonds ; 27NT ; LF-27NT-2019-H-F ; 582 ; 2019-07-11 14:47:34.624023 ; 57.08 
43 ; Les Fonds ; 27NT ; LF-27NT-2019-H-F ; 582 ; 2019-07-11 14:47:35.654402 ; 57.13 
44 ; Les Fonds ; 27NT ; LF-27NT-2019-H-F ; 582 ; 2019-07-11 14:47:36.694021 ; 57.21 
45 ; Les Fonds ; 27NT ; LF-27NT-2019-H-F ; 582 ; 2019-07-11 14:47:37.762509 ; 57.28 
46 ; Les Fonds ; 27NT ; LF-27NT-2019-H-F ; 582 ; 2019-07-11 14:47:38.812570 ; 57.36 
47 ; Les Fonds ; 27NT ; LF-27NT-2019-H-F ; 582 ; 2019-07-11 14:47:39.844514 ; 57.45 
48 ; Les Fonds ; 27NT ; LF-27NT-2019-H-F ; 582 ; 2019-07-11 14:47:40.911321 ; 57.5 
49 ; Les Fonds ; 27NT ; LF-27NT-2019-H-F ; 582 ; 2019-07-11 14:47:41.951306 ; 57.54 
50 ; Les Fonds ; 27NT ; LF-27NT-2019-H-F ; 582 ; 2019-07-11 14:47:42.990622 ; 57.59 
51 ; Les Fonds ; 27NT ; LF-27NT-2019-H-F ; 582 ; 2019-07-11 14:47:44.071067 ; 57.63 
52 ; Les Fonds ; 27NT ; LF-27NT-2019-H-F ; 582 ; 2019-07-11 14:47:45.098796 ; 57.65 
53 ; Les Fonds ; 27NT ; LF-27NT-2019-H-F ; 582 ; 2019-07-11 14:47:46.138226 ; 57.67 
54 ; Les Fonds ; 27NT ; LF-27NT-2019-H-F ; 582 ; 2019-07-11 14:47:47.205990 ; 57.71 
55 ; Les Fonds ; 27NT ; LF-27NT-2019-H-F ; 582 ; 2019-07-11 14:47:48.257575 ; 57.74 
56 ; Les Fonds ; 27NT ; LF-27NT-2019-H-F ; 582 ; 2019-07-11 14:47:49.282583 ; 57.76 
57 ; Les Fonds ; 27NT ; LF-27NT-2019-H-F ; 582 ; 2019-07-11 14:47:50.328177 ; 57.8 
58 ; Les Fonds ; 27NT ; LF-27NT-2019-H-F ; 582 ; 2019-07-11 14:47:51.389621 ; 57.82 
59 ; Les Fonds ; 27NT ; LF-27NT-2019-H-F ; 582 ; 2019-07-11 14:47:52.446847 ; 57.8 
60 ; Les Fonds ; 27NT ; LF-27NT-2019-H-F ; 582 ; 2019-07-11 14:47:53.470615 ; 57.85 
61 ; Les Fonds ; 27NT ; LF-27NT-2019-H-F ; 582 ; 2019-07-11 14:47:54.538455 ; 57.9 
62 ; Les Fonds ; 27NT ; LF-27NT-2019-H-F ; 582 ; 2019-07-11 14:47:55.578312 ; 57.92 
63 ; Les Fonds ; 27NT ; LF-27NT-2019-H-F ; 582 ; 2019-07-11 14:47:56.630990 ; 57.92 
64 ; Les Fonds ; 27NT ; LF-27NT-2019-H-F ; 582 ; 2019-07-11 14:47:57.679550 ; 57.95 
65 ; Les Fonds ; 27NT ; LF-27NT-2019-H-F ; 582 ; 2019-07-11 14:47:58.725090 ; 58.03 
66 ; Les Fonds ; 27NT ; LF-27NT-2019-H-F ; 582 ; 2019-07-11 14:47:59.762905 ; 58.07 
67 ; Les Fonds ; 27NT ; LF-27NT-2019-H-F ; 582 ; 2019-07-11 14:48:00.841451 ; 58.11 
68 ; Les Fonds ; 27NT ; LF-27NT-2019-H-F ; 582 ; 2019-07-11 14:48:01.871868 ; 58.18 
69 ; Les Fonds ; 27NT ; LF-27NT-2019-H-F ; 582 ; 2019-07-11 14:48:02.916184 ; 58.26 
70 ; Les Fonds ; 27NT ; LF-27NT-2019-H-F ; 582 ; 2019-07-11 14:48:03.975264 ; 58.3 
71 ; Les Fonds ; 27NT ; LF-27NT-2019-H-F ; 582 ; 2019-07-11 14:48:05.026236 ; 58.24 
72 ; Les Fonds ; 27NT ; LF-27NT-2019-H-F ; 582 ; 2019-07-11 14:48:06.058514 ; 58.14 
73 ; Les Fonds ; 27NT ; LF-27NT-2019-H-F ; 582 ; 2019-07-11 14:48:07.122985 ; 58.12 
74 ; Les Fonds ; 27NT ; LF-27NT-2019-H-F ; 582 ; 2019-07-11 14:48:08.162730 ; 58.12 
75 ; Les Fonds ; 27NT ; LF-27NT-2019-H-F ; 582 ; 2019-07-11 14:48:09.202458 ; 58.12 
76 ; Les Fonds ; 27NT ; LF-27NT-2019-H-F ; 582 ; 2019-07-11 14:48:10.279366 ; 58.12 
77 ; Les Fonds ; 27NT ; LF-27NT-2019-H-F ; 582 ; 2019-07-11 14:48:11.305682 ; 58.12 
78 ; Les Fonds ; 27NT ; LF-27NT-2019-H-F ; 582 ; 2019-07-11 14:48:12.345080 ; 58.17 
79 ; Les Fonds ; 27NT ; LF-27NT-2019-H-F ; 582 ; 2019-07-11 14:48:13.420329 ; 58.26 
80 ; Les Fonds ; 27NT ; LF-27NT-2019-H-F ; 582 ; 2019-07-11 14:48:14.470713 ; 58.26 
81 ; Les Fonds ; 27NT ; LF-27NT-2019-H-F ; 582 ; 2019-07-11 14:48:15.492354 ; 58.2 
82 ; Les Fonds ; 27NT ; LF-27NT-2019-H-F ; 582 ; 2019-07-11 14:48:16.563962 ; 58.18 
83 ; Les Fonds ; 27NT ; LF-27NT-2019-H-F ; 582 ; 2019-07-11 14:48:17.603325 ; 58.18 
84 ; Les Fonds ; 27NT ; LF-27NT-2019-H-F ; 582 ; 2019-07-11 14:48:18.653346 ; 58.17 
85 ; Les Fonds ; 27NT ; LF-27NT-2019-H-F ; 582 ; 2019-07-11 14:48:19.716554 ; 58.17 
86 ; Les Fonds ; 27NT ; LF-27NT-2019-H-F ; 582 ; 2019-07-11 14:48:20.746087 ; 58.17 
87 ; Les Fonds ; 27NT ; LF-27NT-2019-H-F ; 582 ; 2019-07-11 14:48:21.797147 ; 58.17 
88 ; Les Fonds ; 27NT ; LF-27NT-2019-H-F ; 582 ; 2019-07-11 14:48:22.826370 ; 58.17 
89 ; Les Fonds ; 27NT ; LF-27NT-2019-H-F ; 582 ; 2019-07-11 14:48:23.907692 ; 58.2 
90 ; Les Fonds ; 27NT ; LF-27NT-2019-H-F ; 582 ; 2019-07-11 14:48:24.937286 ; 58.25 
91 ; Les Fonds ; 27NT ; LF-27NT-2019-H-F ; 582 ; 2019-07-11 14:48:25.978782 ; 58.3 
92 ; Les Fonds ; 27NT ; LF-27NT-2019-H-F ; 582 ; 2019-07-11 14:48:27.046112 ; 58.3 
93 ; Les Fonds ; 27NT ; LF-27NT-2019-H-F ; 582 ; 2019-07-11 14:48:28.092572 ; 58.3 
94 ; Les Fonds ; 27NT ; LF-27NT-2019-H-F ; 582 ; 2019-07-11 14:48:29.117974 ; 58.32 
95 ; Les Fonds ; 27NT ; LF-27NT-2019-H-F ; 582 ; 2019-07-11 14:48:30.191747 ; 58.32 
96 ; Les Fonds ; 27NT ; LF-27NT-2019-H-F ; 582 ; 2019-07-11 14:48:31.226173 ; 58.37 
97 ; Les Fonds ; 27NT ; LF-27NT-2019-H-F ; 582 ; 2019-07-11 14:48:32.284495 ; 58.33 
98 ; Les Fonds ; 27NT ; LF-27NT-2019-H-F ; 582 ; 2019-07-11 14:48:33.339454 ; 58.28 
99 ; Les Fonds ; 27NT ; LF-27NT-2019-H-F ; 582 ; 2019-07-11 14:48:34.378877 ; 58.23 
100 ; Les Fonds ; 27NT ; LF-27NT-2019-H-F ; 582 ; 2019-07-11 14:48:35.419110 ; 58.21 
101 ; Les Fonds ; 27NT ; LF-27NT-2019-H-F ; 582 ; 2019-07-11 14:48:36.497594 ; 58.19 
102 ; Les Fonds ; 27NT ; LF-27NT-2019-H-F ; 582 ; 2019-07-11 14:48:37.525016 ; 58.22 
103 ; Les Fonds ; 27NT ; LF-27NT-2019-H-F ; 582 ; 2019-07-11 14:48:38.567735 ; 58.32 
104 ; Les Fonds ; 27NT ; LF-27NT-2019-H-F ; 582 ; 2019-07-11 14:48:39.633209 ; 58.38 
105 ; Les Fonds ; 27NT ; LF-27NT-2019-H-F ; 582 ; 2019-07-11 14:48:40.685241 ; 58.33 
106 ; Les Fonds ; 27NT ; LF-27NT-2019-H-F ; 582 ; 2019-07-11 14:48:41.712202 ; 58.22 
107 ; Les Fonds ; 27NT ; LF-27NT-2019-H-F ; 582 ; 2019-07-11 14:48:42.795583 ; 58.18 
108 ; Les Fonds ; 27NT ; LF-27NT-2019-H-F ; 582 ; 2019-07-11 14:48:43.815354 ; 58.18 
109 ; Les Fonds ; 27NT ; LF-27NT-2019-H-F ; 582 ; 2019-07-11 14:48:44.866872 ; 58.18 
110 ; Les Fonds ; 27NT ; LF-27NT-2019-H-F ; 582 ; 2019-07-11 14:48:45.923306 ; 58.18 
111 ; Les Fonds ; 27NT ; LF-27NT-2019-H-F ; 582 ; 2019-07-11 14:48:46.962068 ; 58.18 
112 ; Les Fonds ; 27NT ; LF-27NT-2019-H-F ; 582 ; 2019-07-11 14:48:47.999021 ; 58.18 
113 ; Les Fonds ; 27NT ; LF-27NT-2019-H-F ; 582 ; 2019-07-11 14:48:49.065860 ; 58.18 
114 ; Les Fonds ; 27NT ; LF-27NT-2019-H-F ; 582 ; 2019-07-11 14:48:50.126346 ; 58.18 
115 ; Les Fonds ; 27NT ; LF-27NT-2019-H-F ; 582 ; 2019-07-11 14:48:51.145882 ; 58.18 
116 ; Les Fonds ; 27NT ; LF-27NT-2019-H-F ; 582 ; 2019-07-11 14:48:52.190950 ; 58.18 
117 ; Les Fonds ; 27NT ; LF-27NT-2019-H-F ; 582 ; 2019-07-11 14:48:53.255815 ; 58.15 
118 ; Les Fonds ; 27NT ; LF-27NT-2019-H-F ; 582 ; 2019-07-11 14:48:54.308472 ; 58.06 
119 ; Les Fonds ; 27NT ; LF-27NT-2019-H-F ; 582 ; 2019-07-11 14:48:55.338810 ; 57.99 
120 ; Les Fonds ; 27NT ; LF-27NT-2019-H-F ; 582 ; 2019-07-11 14:48:56.406278 ; 57.99 
121 ; Les Fonds ; 27NT ; LF-27NT-2019-H-F ; 582 ; 2019-07-11 14:48:57.440791 ; 57.95 
122 ; Les Fonds ; 27NT ; LF-27NT-2019-H-F ; 582 ; 2019-07-11 14:48:58.489871 ; 57.9 
123 ; Les Fonds ; 27NT ; LF-27NT-2019-H-F ; 582 ; 2019-07-11 14:48:59.563164 ; 57.88 
124 ; Les Fonds ; 27NT ; LF-27NT-2019-H-F ; 582 ; 2019-07-11 14:49:00.587330 ; 57.88 
125 ; Les Fonds ; 27NT ; LF-27NT-2019-H-F ; 582 ; 2019-07-11 14:49:01.625387 ; 57.88 
126 ; Les Fonds ; 27NT ; LF-27NT-2019-H-F ; 582 ; 2019-07-11 14:49:02.691521 ; 57.88 
127 ; Les Fonds ; 27NT ; LF-27NT-2019-H-F ; 582 ; 2019-07-11 14:49:03.761793 ; 57.88 
128 ; Les Fonds ; 27NT ; LF-27NT-2019-H-F ; 582 ; 2019-07-11 14:49:04.771745 ; 57.88 
129 ; Les Fonds ; 27NT ; LF-27NT-2019-H-F ; 582 ; 2019-07-11 14:49:05.836983 ; 57.88 
130 ; Les Fonds ; 27NT ; LF-27NT-2019-H-F ; 582 ; 2019-07-11 14:49:06.876487 ; 57.85 
131 ; Les Fonds ; 27NT ; LF-27NT-2019-H-F ; 582 ; 2019-07-11 14:49:07.931543 ; 57.83 
132 ; Les Fonds ; 27NT ; LF-27NT-2019-H-F ; 582 ; 2019-07-11 14:49:08.987789 ; 57.81 
133 ; Les Fonds ; 27NT ; LF-27NT-2019-H-F ; 582 ; 2019-07-11 14:49:10.026370 ; 57.81 
134 ; Les Fonds ; 27NT ; LF-27NT-2019-H-F ; 582 ; 2019-07-11 14:49:11.062130 ; 57.81 
135 ; Les Fonds ; 27NT ; LF-27NT-2019-H-F ; 582 ; 2019-07-11 14:49:12.128718 ; 57.82 
136 ; Les Fonds ; 27NT ; LF-27NT-2019-H-F ; 582 ; 2019-07-11 14:49:13.187853 ; 57.82 
137 ; Les Fonds ; 27NT ; LF-27NT-2019-H-F ; 582 ; 2019-07-11 14:49:14.209669 ; 57.82 
138 ; Les Fonds ; 27NT ; LF-27NT-2019-H-F ; 582 ; 2019-07-11 14:49:15.275233 ; 57.82 
139 ; Les Fonds ; 27NT ; LF-27NT-2019-H-F ; 582 ; 2019-07-11 14:49:16.315638 ; 57.77 
140 ; Les Fonds ; 27NT ; LF-27NT-2019-H-F ; 582 ; 2019-07-11 14:49:17.372392 ; 57.69 
141 ; Les Fonds ; 27NT ; LF-27NT-2019-H-F ; 582 ; 2019-07-11 14:49:18.430197 ; 57.64 
142 ; Les Fonds ; 27NT ; LF-27NT-2019-H-F ; 582 ; 2019-07-11 14:49:19.467850 ; 57.64 
143 ; Les Fonds ; 27NT ; LF-27NT-2019-H-F ; 582 ; 2019-07-11 14:49:20.502510 ; 57.64 
144 ; Les Fonds ; 27NT ; LF-27NT-2019-H-F ; 582 ; 2019-07-11 14:49:21.555799 ; NA 
145 ; Les Fonds ; 27NT ; LF-27NT-2019-H-F ; 582 ; 2019-07-11 14:49:22.616107 ; 57.63 
146 ; Les Fonds ; 27NT ; LF-27NT-2019-H-F ; 582 ; 2019-07-11 14:49:23.652431 ; 57.63 
147 ; Les Fonds ; 27NT ; LF-27NT-2019-H-F ; 582 ; 2019-07-11 14:49:24.689460 ; 57.63 
148 ; Les Fonds ; 27NT ; LF-27NT-2019-H-F ; 582 ; 2019-07-11 14:49:25.755089 ; 57.63 
149 ; Les Fonds ; 27NT ; LF-27NT-2019-H-F ; 582 ; 2019-07-11 14:49:26.811317 ; 57.63 
150 ; Les Fonds ; 27NT ; LF-27NT-2019-H-F ; 582 ; 2019-07-11 14:49:27.838998 ; 57.63 
151 ; Les Fonds ; 27NT ; LF-27NT-2019-H-F ; 582 ; 2019-07-11 14:49:28.904850 ; 57.66 
152 ; Les Fonds ; 27NT ; LF-27NT-2019-H-F ; 582 ; 2019-07-11 14:49:29.948712 ; 57.7 
153 ; Les Fonds ; 27NT ; LF-27NT-2019-H-F ; 582 ; 2019-07-11 14:49:30.998982 ; 57.72 
154 ; Les Fonds ; 27NT ; LF-27NT-2019-H-F ; 582 ; 2019-07-11 14:49:32.062067 ; 57.74 
155 ; Les Fonds ; 27NT ; LF-27NT-2019-H-F ; 582 ; 2019-07-11 14:49:33.095255 ; 57.77 
156 ; Les Fonds ; 27NT ; LF-27NT-2019-H-F ; 582 ; 2019-07-11 14:49:34.178525 ; 57.79 
157 ; Les Fonds ; 27NT ; LF-27NT-2019-H-F ; 582 ; 2019-07-11 14:49:35.213514 ; 57.81 
158 ; Les Fonds ; 27NT ; LF-27NT-2019-H-F ; 582 ; 2019-07-11 14:49:36.239019 ; 57.81 
159 ; Les Fonds ; 27NT ; LF-27NT-2019-H-F ; 582 ; 2019-07-11 14:49:37.276651 ; 57.82 
160 ; Les Fonds ; 27NT ; LF-27NT-2019-H-F ; 582 ; 2019-07-11 14:49:38.346205 ; 57.78 
161 ; Les Fonds ; 27NT ; LF-27NT-2019-H-F ; 582 ; 2019-07-11 14:49:39.403997 ; 57.69 
162 ; Les Fonds ; 27NT ; LF-27NT-2019-H-F ; 582 ; 2019-07-11 14:49:40.430474 ; 57.63 
163 ; Les Fonds ; 27NT ; LF-27NT-2019-H-F ; 582 ; 2019-07-11 14:49:41.497894 ; 57.58 
164 ; Les Fonds ; 27NT ; LF-27NT-2019-H-F ; 582 ; 2019-07-11 14:49:42.535552 ; 57.57 
165 ; Les Fonds ; 27NT ; LF-27NT-2019-H-F ; 582 ; 2019-07-11 14:49:43.587490 ; 57.57 
166 ; Les Fonds ; 27NT ; LF-27NT-2019-H-F ; 582 ; 2019-07-11 14:49:44.636177 ; 57.57 
167 ; Les Fonds ; 27NT ; LF-27NT-2019-H-F ; 582 ; 2019-07-11 14:49:45.676486 ; 57.56 
168 ; Les Fonds ; 27NT ; LF-27NT-2019-H-F ; 582 ; 2019-07-11 14:49:46.719191 ; 57.56 
169 ; Les Fonds ; 27NT ; LF-27NT-2019-H-F ; 582 ; 2019-07-11 14:49:47.797930 ; 57.56 
170 ; Les Fonds ; 27NT ; LF-27NT-2019-H-F ; 582 ; 2019-07-11 14:49:48.822046 ; 57.56 
171 ; Les Fonds ; 27NT ; LF-27NT-2019-H-F ; 582 ; 2019-07-11 14:49:49.861128 ; NA 
172 ; Les Fonds ; 27NT ; LF-27NT-2019-H-F ; 582 ; 2019-07-11 14:49:50.939106 ; 57.25 
173 ; Les Fonds ; 27NT ; LF-27NT-2019-H-F ; 582 ; 2019-07-11 14:49:51.984539 ; 57.12 
174 ; Les Fonds ; 27NT ; LF-27NT-2019-H-F ; 582 ; 2019-07-11 14:49:53.015294 ; 56.98 
175 ; Les Fonds ; 27NT ; LF-27NT-2019-H-F ; 582 ; 2019-07-11 14:50:04.065388 ; 56.82 
176 ; Les Fonds ; 27NT ; LF-27NT-2019-H-F ; 582 ; 2019-07-11 14:50:15.077769 ; 56.75 
177 ; Les Fonds ; 27NT ; LF-27NT-2019-H-F ; 582 ; 2019-07-11 14:50:26.109891 ; 56.61 
178 ; Les Fonds ; 27NT ; LF-27NT-2019-H-F ; 582 ; 2019-07-11 14:50:37.102087 ; 56.43 
179 ; Les Fonds ; 27NT ; LF-27NT-2019-H-F ; 582 ; 2019-07-11 14:50:48.115774 ; 56.42 
180 ; Les Fonds ; 27NT ; LF-27NT-2019-H-F ; 582 ; 2019-07-11 14:50:59.132941 ; 56.33 
181 ; Les Fonds ; 27NT ; LF-27NT-2019-H-F ; 582 ; 2019-07-11 14:51:10.159404 ; 56.26 
182 ; Les Fonds ; 27NT ; LF-27NT-2019-H-F ; 582 ; 2019-07-11 14:51:21.156519 ; 56.26 
183 ; Les Fonds ; 27NT ; LF-27NT-2019-H-F ; 582 ; 2019-07-11 14:51:32.140390 ; 56.26 
184 ; Les Fonds ; 27NT ; LF-27NT-2019-H-F ; 582 ; 2019-07-11 14:51:43.152012 ; 56.26 
185 ; Les Fonds ; 27NT ; LF-27NT-2019-H-F ; 582 ; 2019-07-11 14:51:54.180412 ; 56.26 
186 ; Les Fonds ; 27NT ; LF-27NT-2019-H-F ; 582 ; 2019-07-11 14:52:05.181047 ; 56.26 
187 ; Les Fonds ; 27NT ; LF-27NT-2019-H-F ; 582 ; 2019-07-11 14:52:16.192195 ; 56.21 
188 ; Les Fonds ; 27NT ; LF-27NT-2019-H-F ; 582 ; 2019-07-11 14:52:27.213848 ; NA 
189 ; Les Fonds ; 27NT ; LF-27NT-2019-H-F ; 582 ; 2019-07-11 14:52:38.248470 ; 56.2 
190 ; Les Fonds ; 27NT ; LF-27NT-2019-H-F ; 582 ; 2019-07-11 14:52:49.238376 ; 56.15 
191 ; Les Fonds ; 27NT ; LF-27NT-2019-H-F ; 582 ; 2019-07-11 14:53:00.250046 ; 56.15 
192 ; Les Fonds ; 27NT ; LF-27NT-2019-H-F ; 582 ; 2019-07-11 14:53:11.234095 ; 56.15 
193 ; Les Fonds ; 27NT ; LF-27NT-2019-H-F ; 582 ; 2019-07-11 14:53:22.263818 ; 55.89 
194 ; Les Fonds ; 27NT ; LF-27NT-2019-H-F ; 582 ; 2019-07-11 14:53:33.267031 ; 55.65 
195 ; Les Fonds ; 27NT ; LF-27NT-2019-H-F ; 582 ; 2019-07-11 14:53:44.276799 ; 55.67 
196 ; Les Fonds ; 27NT ; LF-27NT-2019-H-F ; 582 ; 2019-07-11 14:53:55.293522 ; 55.67 
197 ; Les Fonds ; 27NT ; LF-27NT-2019-H-F ; 582 ; 2019-07-11 14:54:06.316796 ; 55.67 
198 ; Les Fonds ; 27NT ; LF-27NT-2019-H-F ; 582 ; 2019-07-11 14:54:17.312298 ; 55.67 
199 ; Les Fonds ; 27NT ; LF-27NT-2019-H-F ; 582 ; 2019-07-11 14:54:28.326236 ; 55.5 
200 ; Les Fonds ; 27NT ; LF-27NT-2019-H-F ; 582 ; 2019-07-11 14:54:39.319247 ; 55.4 
201 ; Les Fonds ; 27NT ; LF-27NT-2019-H-F ; 582 ; 2019-07-11 14:54:50.355299 ; 55.4 
202 ; Les Fonds ; 27NT ; LF-27NT-2019-H-F ; 582 ; 2019-07-11 14:55:01.341047 ; 55.4 
203 ; Les Fonds ; 27NT ; LF-27NT-2019-H-F ; 582 ; 2019-07-11 14:55:12.354595 ; 55.4 
204 ; Les Fonds ; 27NT ; LF-27NT-2019-H-F ; 582 ; 2019-07-11 14:55:23.364709 ; 55.4 
205 ; Les Fonds ; 27NT ; LF-27NT-2019-H-F ; 582 ; 2019-07-11 14:55:34.395666 ; 55.4 
206 ; Les Fonds ; 27NT ; LF-27NT-2019-H-F ; 582 ; 2019-07-11 14:55:45.394925 ; 55.34 
207 ; Les Fonds ; 27NT ; LF-27NT-2019-H-F ; 582 ; 2019-07-11 14:55:56.412174 ; 55.34 
208 ; Les Fonds ; 27NT ; LF-27NT-2019-H-F ; 582 ; 2019-07-11 14:56:07.393717 ; 55.34 
209 ; Les Fonds ; 27NT ; LF-27NT-2019-H-F ; 582 ; 2019-07-11 14:56:18.420665 ; 55.34 
210 ; Les Fonds ; 27NT ; LF-27NT-2019-H-F ; 582 ; 2019-07-11 14:56:29.423259 ; 55.04 
211 ; Les Fonds ; 27NT ; LF-27NT-2019-H-F ; 582 ; 2019-07-11 14:56:40.437901 ; 55.03 
212 ; Les Fonds ; 27NT ; LF-27NT-2019-H-F ; 582 ; 2019-07-11 14:56:51.448563 ; 55.03 
213 ; Les Fonds ; 27NT ; LF-27NT-2019-H-F ; 582 ; 2019-07-11 14:57:22.469626 ; 55.03 
214 ; Les Fonds ; 27NT ; LF-27NT-2019-H-F ; 582 ; 2019-07-11 14:57:53.394261 ; 55.03 
215 ; Les Fonds ; 27NT ; LF-27NT-2019-H-F ; 582 ; 2019-07-11 14:58:24.326511 ; 54.94 
216 ; Les Fonds ; 27NT ; LF-27NT-2019-H-F ; 582 ; 2019-07-11 14:58:55.262418 ; 54.33 
217 ; Les Fonds ; 27NT ; LF-27NT-2019-H-F ; 582 ; 2019-07-11 14:59:26.211066 ; 54.33 
218 ; Les Fonds ; 27NT ; LF-27NT-2019-H-F ; 582 ; 2019-07-11 14:59:57.127862 ; 54.33 
219 ; Les Fonds ; 27NT ; LF-27NT-2019-H-F ; 582 ; 2019-07-11 15:00:28.060209 ; 54.06 
220 ; Les Fonds ; 27NT ; LF-27NT-2019-H-F ; 582 ; 2019-07-11 15:00:58.996539 ; 54.06 
221 ; Les Fonds ; 27NT ; LF-27NT-2019-H-F ; 582 ; 2019-07-11 15:01:29.924898 ; 54.01 
222 ; Les Fonds ; 27NT ; LF-27NT-2019-H-F ; 582 ; 2019-07-11 15:02:00.888560 ; 54.01 
223 ; Les Fonds ; 27NT ; LF-27NT-2019-H-F ; 582 ; 2019-07-11 15:02:32.097920 ; 54.01 
