i ; campaign ; serie ; sample ; slake ; time ; mass 
1 ; Ernage A ; 47 ; PK-47-P1K0-2019-D-A ; 438 ; 2019-07-01 16:34:58.460885 ; 138.6 
2 ; Ernage A ; 47 ; PK-47-P1K0-2019-D-A ; 438 ; 2019-07-01 16:34:59.472158 ; 138.58 
3 ; Ernage A ; 47 ; PK-47-P1K0-2019-D-A ; 438 ; 2019-07-01 16:35:00.508220 ; 138.58 
4 ; Ernage A ; 47 ; PK-47-P1K0-2019-D-A ; 438 ; 2019-07-01 16:35:01.570893 ; 138.58 
5 ; Ernage A ; 47 ; PK-47-P1K0-2019-D-A ; 438 ; 2019-07-01 16:35:02.610468 ; 138.58 
6 ; Ernage A ; 47 ; PK-47-P1K0-2019-D-A ; 438 ; 2019-07-01 16:35:03.650816 ; 138.58 
7 ; Ernage A ; 47 ; PK-47-P1K0-2019-D-A ; 438 ; 2019-07-01 16:35:04.725649 ; 117.57 
8 ; Ernage A ; 47 ; PK-47-P1K0-2019-D-A ; 438 ; 2019-07-01 16:35:05.765222 ; 54.6 
9 ; Ernage A ; 47 ; PK-47-P1K0-2019-D-A ; 438 ; 2019-07-01 16:35:06.822822 ; 54.35 
10 ; Ernage A ; 47 ; PK-47-P1K0-2019-D-A ; 438 ; 2019-07-01 16:35:07.841344 ; 57.44 
11 ; Ernage A ; 47 ; PK-47-P1K0-2019-D-A ; 438 ; 2019-07-01 16:35:08.905705 ; 59.44 
12 ; Ernage A ; 47 ; PK-47-P1K0-2019-D-A ; 438 ; 2019-07-01 16:35:09.950890 ; 60.29 
13 ; Ernage A ; 47 ; PK-47-P1K0-2019-D-A ; 438 ; 2019-07-01 16:35:10.998343 ; 60.79 
14 ; Ernage A ; 47 ; PK-47-P1K0-2019-D-A ; 438 ; 2019-07-01 16:35:12.054577 ; 61.39 
15 ; Ernage A ; 47 ; PK-47-P1K0-2019-D-A ; 438 ; 2019-07-01 16:35:13.098036 ; 61.66 
16 ; Ernage A ; 47 ; PK-47-P1K0-2019-D-A ; 438 ; 2019-07-01 16:35:14.134296 ; 62.22 
17 ; Ernage A ; 47 ; PK-47-P1K0-2019-D-A ; 438 ; 2019-07-01 16:35:15.204668 ; 62.29 
18 ; Ernage A ; 47 ; PK-47-P1K0-2019-D-A ; 438 ; 2019-07-01 16:35:16.251767 ; 62.56 
19 ; Ernage A ; 47 ; PK-47-P1K0-2019-D-A ; 438 ; 2019-07-01 16:35:17.284609 ; 62.87 
20 ; Ernage A ; 47 ; PK-47-P1K0-2019-D-A ; 438 ; 2019-07-01 16:35:18.349359 ; 62.94 
21 ; Ernage A ; 47 ; PK-47-P1K0-2019-D-A ; 438 ; 2019-07-01 16:35:19.393368 ; 63.21 
22 ; Ernage A ; 47 ; PK-47-P1K0-2019-D-A ; 438 ; 2019-07-01 16:35:20.430051 ; 63.52 
23 ; Ernage A ; 47 ; PK-47-P1K0-2019-D-A ; 438 ; 2019-07-01 16:35:21.504624 ; 63.57 
24 ; Ernage A ; 47 ; PK-47-P1K0-2019-D-A ; 438 ; 2019-07-01 16:35:22.534567 ; 63.68 
25 ; Ernage A ; 47 ; PK-47-P1K0-2019-D-A ; 438 ; 2019-07-01 16:35:23.576139 ; 63.79 
26 ; Ernage A ; 47 ; PK-47-P1K0-2019-D-A ; 438 ; 2019-07-01 16:35:24.642765 ; 63.88 
27 ; Ernage A ; 47 ; PK-47-P1K0-2019-D-A ; 438 ; 2019-07-01 16:35:25.684285 ; 63.86 
28 ; Ernage A ; 47 ; PK-47-P1K0-2019-D-A ; 438 ; 2019-07-01 16:35:26.731440 ; 63.79 
29 ; Ernage A ; 47 ; PK-47-P1K0-2019-D-A ; 438 ; 2019-07-01 16:35:27.802852 ; 63.84 
30 ; Ernage A ; 47 ; PK-47-P1K0-2019-D-A ; 438 ; 2019-07-01 16:35:28.828998 ; 63.94 
31 ; Ernage A ; 47 ; PK-47-P1K0-2019-D-A ; 438 ; 2019-07-01 16:35:29.870770 ; 63.96 
32 ; Ernage A ; 47 ; PK-47-P1K0-2019-D-A ; 438 ; 2019-07-01 16:35:30.936818 ; 63.9 
33 ; Ernage A ; 47 ; PK-47-P1K0-2019-D-A ; 438 ; 2019-07-01 16:35:31.983123 ; 63.84 
34 ; Ernage A ; 47 ; PK-47-P1K0-2019-D-A ; 438 ; 2019-07-01 16:35:33.015719 ; 63.82 
35 ; Ernage A ; 47 ; PK-47-P1K0-2019-D-A ; 438 ; 2019-07-01 16:35:34.082371 ; 63.79 
36 ; Ernage A ; 47 ; PK-47-P1K0-2019-D-A ; 438 ; 2019-07-01 16:35:35.121491 ; 63.71 
37 ; Ernage A ; 47 ; PK-47-P1K0-2019-D-A ; 438 ; 2019-07-01 16:35:36.163407 ; NA 
38 ; Ernage A ; 47 ; PK-47-P1K0-2019-D-A ; 438 ; 2019-07-01 16:35:37.220582 ; 63.6 
39 ; Ernage A ; 47 ; PK-47-P1K0-2019-D-A ; 438 ; 2019-07-01 16:35:38.270140 ; 63.52 
40 ; Ernage A ; 47 ; PK-47-P1K0-2019-D-A ; 438 ; 2019-07-01 16:35:39.310482 ; 63.43 
41 ; Ernage A ; 47 ; PK-47-P1K0-2019-D-A ; 438 ; 2019-07-01 16:35:40.350051 ; 63.39 
42 ; Ernage A ; 47 ; PK-47-P1K0-2019-D-A ; 438 ; 2019-07-01 16:35:41.419220 ; 63.3 
43 ; Ernage A ; 47 ; PK-47-P1K0-2019-D-A ; 438 ; 2019-07-01 16:35:42.467737 ; 63.19 
44 ; Ernage A ; 47 ; PK-47-P1K0-2019-D-A ; 438 ; 2019-07-01 16:35:43.497169 ; 63.09 
45 ; Ernage A ; 47 ; PK-47-P1K0-2019-D-A ; 438 ; 2019-07-01 16:35:44.561986 ; 62.97 
46 ; Ernage A ; 47 ; PK-47-P1K0-2019-D-A ; 438 ; 2019-07-01 16:35:45.601916 ; 62.87 
47 ; Ernage A ; 47 ; PK-47-P1K0-2019-D-A ; 438 ; 2019-07-01 16:35:46.640892 ; 62.87 
48 ; Ernage A ; 47 ; PK-47-P1K0-2019-D-A ; 438 ; 2019-07-01 16:35:47.714252 ; 62.87 
49 ; Ernage A ; 47 ; PK-47-P1K0-2019-D-A ; 438 ; 2019-07-01 16:35:48.749215 ; 62.8 
50 ; Ernage A ; 47 ; PK-47-P1K0-2019-D-A ; 438 ; 2019-07-01 16:35:49.788091 ; 62.71 
51 ; Ernage A ; 47 ; PK-47-P1K0-2019-D-A ; 438 ; 2019-07-01 16:35:50.854500 ; 62.65 
52 ; Ernage A ; 47 ; PK-47-P1K0-2019-D-A ; 438 ; 2019-07-01 16:35:51.908218 ; 62.53 
53 ; Ernage A ; 47 ; PK-47-P1K0-2019-D-A ; 438 ; 2019-07-01 16:35:52.935894 ; 62.43 
54 ; Ernage A ; 47 ; PK-47-P1K0-2019-D-A ; 438 ; 2019-07-01 16:35:54.011692 ; 62.35 
55 ; Ernage A ; 47 ; PK-47-P1K0-2019-D-A ; 438 ; 2019-07-01 16:35:55.039950 ; 62.23 
56 ; Ernage A ; 47 ; PK-47-P1K0-2019-D-A ; 438 ; 2019-07-01 16:35:56.086159 ; 61.94 
57 ; Ernage A ; 47 ; PK-47-P1K0-2019-D-A ; 438 ; 2019-07-01 16:35:57.150459 ; NA 
58 ; Ernage A ; 47 ; PK-47-P1K0-2019-D-A ; 438 ; 2019-07-01 16:35:58.191205 ; 61.67 
59 ; Ernage A ; 47 ; PK-47-P1K0-2019-D-A ; 438 ; 2019-07-01 16:35:59.240028 ; 61.4 
60 ; Ernage A ; 47 ; PK-47-P1K0-2019-D-A ; 438 ; 2019-07-01 16:36:00.295942 ; 61.34 
61 ; Ernage A ; 47 ; PK-47-P1K0-2019-D-A ; 438 ; 2019-07-01 16:36:01.334020 ; 61.06 
62 ; Ernage A ; 47 ; PK-47-P1K0-2019-D-A ; 438 ; 2019-07-01 16:36:02.374585 ; 61.04 
63 ; Ernage A ; 47 ; PK-47-P1K0-2019-D-A ; 438 ; 2019-07-01 16:36:03.442545 ; 60.94 
64 ; Ernage A ; 47 ; PK-47-P1K0-2019-D-A ; 438 ; 2019-07-01 16:36:04.493835 ; 60.79 
65 ; Ernage A ; 47 ; PK-47-P1K0-2019-D-A ; 438 ; 2019-07-01 16:36:05.521416 ; 60.33 
66 ; Ernage A ; 47 ; PK-47-P1K0-2019-D-A ; 438 ; 2019-07-01 16:36:06.562929 ; 60.09 
67 ; Ernage A ; 47 ; PK-47-P1K0-2019-D-A ; 438 ; 2019-07-01 16:36:07.629836 ; 59.79 
68 ; Ernage A ; 47 ; PK-47-P1K0-2019-D-A ; 438 ; 2019-07-01 16:36:08.666784 ; 59.77 
69 ; Ernage A ; 47 ; PK-47-P1K0-2019-D-A ; 438 ; 2019-07-01 16:36:09.723861 ; 59.68 
70 ; Ernage A ; 47 ; PK-47-P1K0-2019-D-A ; 438 ; 2019-07-01 16:36:10.773409 ; 59.59 
71 ; Ernage A ; 47 ; PK-47-P1K0-2019-D-A ; 438 ; 2019-07-01 16:36:11.816463 ; 59.31 
72 ; Ernage A ; 47 ; PK-47-P1K0-2019-D-A ; 438 ; 2019-07-01 16:36:12.853792 ; NA 
73 ; Ernage A ; 47 ; PK-47-P1K0-2019-D-A ; 438 ; 2019-07-01 16:36:13.926393 ; 58.96 
74 ; Ernage A ; 47 ; PK-47-P1K0-2019-D-A ; 438 ; 2019-07-01 16:36:14.979230 ; 58.69 
75 ; Ernage A ; 47 ; PK-47-P1K0-2019-D-A ; 438 ; 2019-07-01 16:36:16.004894 ; 58.43 
76 ; Ernage A ; 47 ; PK-47-P1K0-2019-D-A ; 438 ; 2019-07-01 16:36:17.066687 ; 58.16 
77 ; Ernage A ; 47 ; PK-47-P1K0-2019-D-A ; 438 ; 2019-07-01 16:36:18.108824 ; 57.62 
78 ; Ernage A ; 47 ; PK-47-P1K0-2019-D-A ; 438 ; 2019-07-01 16:36:19.150867 ; 57.05 
79 ; Ernage A ; 47 ; PK-47-P1K0-2019-D-A ; 438 ; 2019-07-01 16:36:20.226129 ; 56.53 
80 ; Ernage A ; 47 ; PK-47-P1K0-2019-D-A ; 438 ; 2019-07-01 16:36:21.255224 ; 56.25 
81 ; Ernage A ; 47 ; PK-47-P1K0-2019-D-A ; 438 ; 2019-07-01 16:36:22.299492 ; 55.93 
82 ; Ernage A ; 47 ; PK-47-P1K0-2019-D-A ; 438 ; 2019-07-01 16:36:23.365928 ; 55.68 
83 ; Ernage A ; 47 ; PK-47-P1K0-2019-D-A ; 438 ; 2019-07-01 16:36:24.401828 ; 55.39 
84 ; Ernage A ; 47 ; PK-47-P1K0-2019-D-A ; 438 ; 2019-07-01 16:36:25.447789 ; 55.09 
85 ; Ernage A ; 47 ; PK-47-P1K0-2019-D-A ; 438 ; 2019-07-01 16:36:26.508464 ; 55.01 
86 ; Ernage A ; 47 ; PK-47-P1K0-2019-D-A ; 438 ; 2019-07-01 16:36:27.551906 ; 54.51 
87 ; Ernage A ; 47 ; PK-47-P1K0-2019-D-A ; 438 ; 2019-07-01 16:36:28.588658 ; 54.26 
88 ; Ernage A ; 47 ; PK-47-P1K0-2019-D-A ; 438 ; 2019-07-01 16:36:29.655132 ; 54.16 
89 ; Ernage A ; 47 ; PK-47-P1K0-2019-D-A ; 438 ; 2019-07-01 16:36:30.707863 ; 53.87 
90 ; Ernage A ; 47 ; PK-47-P1K0-2019-D-A ; 438 ; 2019-07-01 16:36:31.735949 ; 53.6 
91 ; Ernage A ; 47 ; PK-47-P1K0-2019-D-A ; 438 ; 2019-07-01 16:36:32.801224 ; 53.31 
92 ; Ernage A ; 47 ; PK-47-P1K0-2019-D-A ; 438 ; 2019-07-01 16:36:33.838301 ; 53.02 
93 ; Ernage A ; 47 ; PK-47-P1K0-2019-D-A ; 438 ; 2019-07-01 16:36:34.882000 ; 52.78 
94 ; Ernage A ; 47 ; PK-47-P1K0-2019-D-A ; 438 ; 2019-07-01 16:36:35.960804 ; 52.52 
95 ; Ernage A ; 47 ; PK-47-P1K0-2019-D-A ; 438 ; 2019-07-01 16:36:36.991250 ; 52.24 
96 ; Ernage A ; 47 ; PK-47-P1K0-2019-D-A ; 438 ; 2019-07-01 16:36:38.029382 ; 51.98 
97 ; Ernage A ; 47 ; PK-47-P1K0-2019-D-A ; 438 ; 2019-07-01 16:36:39.072419 ; 51.57 
98 ; Ernage A ; 47 ; PK-47-P1K0-2019-D-A ; 438 ; 2019-07-01 16:36:40.135284 ; 51.25 
99 ; Ernage A ; 47 ; PK-47-P1K0-2019-D-A ; 438 ; 2019-07-01 16:36:41.186840 ; 50.92 
100 ; Ernage A ; 47 ; PK-47-P1K0-2019-D-A ; 438 ; 2019-07-01 16:36:42.219828 ; 50.35 
101 ; Ernage A ; 47 ; PK-47-P1K0-2019-D-A ; 438 ; 2019-07-01 16:36:43.283251 ; 50.07 
102 ; Ernage A ; 47 ; PK-47-P1K0-2019-D-A ; 438 ; 2019-07-01 16:36:44.322319 ; 50.01 
103 ; Ernage A ; 47 ; PK-47-P1K0-2019-D-A ; 438 ; 2019-07-01 16:36:45.362943 ; 49.74 
104 ; Ernage A ; 47 ; PK-47-P1K0-2019-D-A ; 438 ; 2019-07-01 16:36:46.439805 ; 48.92 
105 ; Ernage A ; 47 ; PK-47-P1K0-2019-D-A ; 438 ; 2019-07-01 16:36:47.472332 ; 48.02 
106 ; Ernage A ; 47 ; PK-47-P1K0-2019-D-A ; 438 ; 2019-07-01 16:36:48.508423 ; 47.43 
107 ; Ernage A ; 47 ; PK-47-P1K0-2019-D-A ; 438 ; 2019-07-01 16:36:49.576057 ; 47.17 
108 ; Ernage A ; 47 ; PK-47-P1K0-2019-D-A ; 438 ; 2019-07-01 16:36:50.618580 ; 46.88 
109 ; Ernage A ; 47 ; PK-47-P1K0-2019-D-A ; 438 ; 2019-07-01 16:36:51.665204 ; 46.38 
110 ; Ernage A ; 47 ; PK-47-P1K0-2019-D-A ; 438 ; 2019-07-01 16:36:52.725315 ; 46.31 
111 ; Ernage A ; 47 ; PK-47-P1K0-2019-D-A ; 438 ; 2019-07-01 16:36:53.762912 ; 45.99 
112 ; Ernage A ; 47 ; PK-47-P1K0-2019-D-A ; 438 ; 2019-07-01 16:36:54.820477 ; 45.92 
113 ; Ernage A ; 47 ; PK-47-P1K0-2019-D-A ; 438 ; 2019-07-01 16:36:55.868122 ; 45.69 
114 ; Ernage A ; 47 ; PK-47-P1K0-2019-D-A ; 438 ; 2019-07-01 16:36:56.917430 ; 45.58 
115 ; Ernage A ; 47 ; PK-47-P1K0-2019-D-A ; 438 ; 2019-07-01 16:36:57.961330 ; 45.3 
116 ; Ernage A ; 47 ; PK-47-P1K0-2019-D-A ; 438 ; 2019-07-01 16:36:59.016862 ; 45.23 
117 ; Ernage A ; 47 ; PK-47-P1K0-2019-D-A ; 438 ; 2019-07-01 16:37:00.055292 ; 45.09 
118 ; Ernage A ; 47 ; PK-47-P1K0-2019-D-A ; 438 ; 2019-07-01 16:37:01.092585 ; 44.93 
119 ; Ernage A ; 47 ; PK-47-P1K0-2019-D-A ; 438 ; 2019-07-01 16:37:02.166731 ; 44.65 
120 ; Ernage A ; 47 ; PK-47-P1K0-2019-D-A ; 438 ; 2019-07-01 16:37:03.205724 ; 44.37 
121 ; Ernage A ; 47 ; PK-47-P1K0-2019-D-A ; 438 ; 2019-07-01 16:37:04.237983 ; 44.08 
122 ; Ernage A ; 47 ; PK-47-P1K0-2019-D-A ; 438 ; 2019-07-01 16:37:05.280143 ; 44.01 
123 ; Ernage A ; 47 ; PK-47-P1K0-2019-D-A ; 438 ; 2019-07-01 16:37:06.344886 ; 43.89 
124 ; Ernage A ; 47 ; PK-47-P1K0-2019-D-A ; 438 ; 2019-07-01 16:37:07.394768 ; 43.8 
125 ; Ernage A ; 47 ; PK-47-P1K0-2019-D-A ; 438 ; 2019-07-01 16:37:08.456681 ; 43.3 
126 ; Ernage A ; 47 ; PK-47-P1K0-2019-D-A ; 438 ; 2019-07-01 16:37:09.494626 ; 42.69 
127 ; Ernage A ; 47 ; PK-47-P1K0-2019-D-A ; 438 ; 2019-07-01 16:37:10.531179 ; 41.53 
128 ; Ernage A ; 47 ; PK-47-P1K0-2019-D-A ; 438 ; 2019-07-01 16:37:11.571998 ; 39.62 
129 ; Ernage A ; 47 ; PK-47-P1K0-2019-D-A ; 438 ; 2019-07-01 16:37:12.647383 ; 39.16 
130 ; Ernage A ; 47 ; PK-47-P1K0-2019-D-A ; 438 ; 2019-07-01 16:37:13.681875 ; 38.93 
131 ; Ernage A ; 47 ; PK-47-P1K0-2019-D-A ; 438 ; 2019-07-01 16:37:14.721083 ; 38.65 
132 ; Ernage A ; 47 ; PK-47-P1K0-2019-D-A ; 438 ; 2019-07-01 16:37:15.819255 ; 38.58 
133 ; Ernage A ; 47 ; PK-47-P1K0-2019-D-A ; 438 ; 2019-07-01 16:37:16.832947 ; 38.5 
134 ; Ernage A ; 47 ; PK-47-P1K0-2019-D-A ; 438 ; 2019-07-01 16:37:17.879106 ; 38.44 
135 ; Ernage A ; 47 ; PK-47-P1K0-2019-D-A ; 438 ; 2019-07-01 16:37:18.945927 ; 38.16 
136 ; Ernage A ; 47 ; PK-47-P1K0-2019-D-A ; 438 ; 2019-07-01 16:37:19.974363 ; 37.91 
137 ; Ernage A ; 47 ; PK-47-P1K0-2019-D-A ; 438 ; 2019-07-01 16:37:21.015585 ; 37.8 
138 ; Ernage A ; 47 ; PK-47-P1K0-2019-D-A ; 438 ; 2019-07-01 16:37:22.083434 ; 37.64 
139 ; Ernage A ; 47 ; PK-47-P1K0-2019-D-A ; 438 ; 2019-07-01 16:37:23.132633 ; 37.19 
140 ; Ernage A ; 47 ; PK-47-P1K0-2019-D-A ; 438 ; 2019-07-01 16:37:24.165132 ; 36.68 
141 ; Ernage A ; 47 ; PK-47-P1K0-2019-D-A ; 438 ; 2019-07-01 16:37:25.230595 ; 36.06 
142 ; Ernage A ; 47 ; PK-47-P1K0-2019-D-A ; 438 ; 2019-07-01 16:37:26.270859 ; 35.52 
143 ; Ernage A ; 47 ; PK-47-P1K0-2019-D-A ; 438 ; 2019-07-01 16:37:27.309372 ; 35.27 
144 ; Ernage A ; 47 ; PK-47-P1K0-2019-D-A ; 438 ; 2019-07-01 16:37:28.395133 ; 35.18 
145 ; Ernage A ; 47 ; PK-47-P1K0-2019-D-A ; 438 ; 2019-07-01 16:37:29.419713 ; 35.07 
146 ; Ernage A ; 47 ; PK-47-P1K0-2019-D-A ; 438 ; 2019-07-01 16:37:30.453653 ; 34.98 
147 ; Ernage A ; 47 ; PK-47-P1K0-2019-D-A ; 438 ; 2019-07-01 16:37:31.520650 ; 34.86 
148 ; Ernage A ; 47 ; PK-47-P1K0-2019-D-A ; 438 ; 2019-07-01 16:37:32.565109 ; 34.76 
149 ; Ernage A ; 47 ; PK-47-P1K0-2019-D-A ; 438 ; 2019-07-01 16:37:33.611848 ; 34.72 
150 ; Ernage A ; 47 ; PK-47-P1K0-2019-D-A ; 438 ; 2019-07-01 16:37:34.669778 ; 34.67 
151 ; Ernage A ; 47 ; PK-47-P1K0-2019-D-A ; 438 ; 2019-07-01 16:37:35.707438 ; 34.63 
152 ; Ernage A ; 47 ; PK-47-P1K0-2019-D-A ; 438 ; 2019-07-01 16:37:36.755639 ; 34.59 
153 ; Ernage A ; 47 ; PK-47-P1K0-2019-D-A ; 438 ; 2019-07-01 16:37:37.821922 ; 34.52 
154 ; Ernage A ; 47 ; PK-47-P1K0-2019-D-A ; 438 ; 2019-07-01 16:37:38.865276 ; 34.43 
155 ; Ernage A ; 47 ; PK-47-P1K0-2019-D-A ; 438 ; 2019-07-01 16:37:39.900511 ; 34.34 
156 ; Ernage A ; 47 ; PK-47-P1K0-2019-D-A ; 438 ; 2019-07-01 16:37:40.937365 ; 34.3 
157 ; Ernage A ; 47 ; PK-47-P1K0-2019-D-A ; 438 ; 2019-07-01 16:37:42.004473 ; 34.23 
158 ; Ernage A ; 47 ; PK-47-P1K0-2019-D-A ; 438 ; 2019-07-01 16:37:43.041820 ; 34.16 
159 ; Ernage A ; 47 ; PK-47-P1K0-2019-D-A ; 438 ; 2019-07-01 16:37:44.092732 ; 34.05 
160 ; Ernage A ; 47 ; PK-47-P1K0-2019-D-A ; 438 ; 2019-07-01 16:37:45.155257 ; 33.91 
161 ; Ernage A ; 47 ; PK-47-P1K0-2019-D-A ; 438 ; 2019-07-01 16:37:46.188328 ; 33.76 
162 ; Ernage A ; 47 ; PK-47-P1K0-2019-D-A ; 438 ; 2019-07-01 16:37:47.233212 ; 33.68 
163 ; Ernage A ; 47 ; PK-47-P1K0-2019-D-A ; 438 ; 2019-07-01 16:37:48.296300 ; 33.66 
164 ; Ernage A ; 47 ; PK-47-P1K0-2019-D-A ; 438 ; 2019-07-01 16:37:49.345681 ; 33.62 
165 ; Ernage A ; 47 ; PK-47-P1K0-2019-D-A ; 438 ; 2019-07-01 16:37:50.380161 ; 33.59 
166 ; Ernage A ; 47 ; PK-47-P1K0-2019-D-A ; 438 ; 2019-07-01 16:37:51.446637 ; 33.51 
167 ; Ernage A ; 47 ; PK-47-P1K0-2019-D-A ; 438 ; 2019-07-01 16:37:52.485590 ; 33.45 
168 ; Ernage A ; 47 ; PK-47-P1K0-2019-D-A ; 438 ; 2019-07-01 16:37:53.525111 ; 33.12 
169 ; Ernage A ; 47 ; PK-47-P1K0-2019-D-A ; 438 ; 2019-07-01 16:37:54.598644 ; 33.06 
170 ; Ernage A ; 47 ; PK-47-P1K0-2019-D-A ; 438 ; 2019-07-01 16:37:55.635286 ; 32.76 
171 ; Ernage A ; 47 ; PK-47-P1K0-2019-D-A ; 438 ; 2019-07-01 16:37:56.668528 ; 32.73 
172 ; Ernage A ; 47 ; PK-47-P1K0-2019-D-A ; 438 ; 2019-07-01 16:37:57.738745 ; 32.65 
173 ; Ernage A ; 47 ; PK-47-P1K0-2019-D-A ; 438 ; 2019-07-01 16:37:58.772232 ; 32.59 
174 ; Ernage A ; 47 ; PK-47-P1K0-2019-D-A ; 438 ; 2019-07-01 16:37:59.827560 ; 32.54 
175 ; Ernage A ; 47 ; PK-47-P1K0-2019-D-A ; 438 ; 2019-07-01 16:38:10.892718 ; 32.08 
176 ; Ernage A ; 47 ; PK-47-P1K0-2019-D-A ; 438 ; 2019-07-01 16:38:21.874972 ; 31.28 
177 ; Ernage A ; 47 ; PK-47-P1K0-2019-D-A ; 438 ; 2019-07-01 16:38:32.891438 ; 30.97 
178 ; Ernage A ; 47 ; PK-47-P1K0-2019-D-A ; 438 ; 2019-07-01 16:38:43.908297 ; 30.97 
179 ; Ernage A ; 47 ; PK-47-P1K0-2019-D-A ; 438 ; 2019-07-01 16:38:54.922566 ; 30.75 
180 ; Ernage A ; 47 ; PK-47-P1K0-2019-D-A ; 438 ; 2019-07-01 16:39:05.930997 ; 30.57 
181 ; Ernage A ; 47 ; PK-47-P1K0-2019-D-A ; 438 ; 2019-07-01 16:39:16.942077 ; 30.48 
182 ; Ernage A ; 47 ; PK-47-P1K0-2019-D-A ; 438 ; 2019-07-01 16:39:27.953262 ; 30.48 
183 ; Ernage A ; 47 ; PK-47-P1K0-2019-D-A ; 438 ; 2019-07-01 16:39:38.967197 ; 28.7 
184 ; Ernage A ; 47 ; PK-47-P1K0-2019-D-A ; 438 ; 2019-07-01 16:39:49.970585 ; 28.67 
185 ; Ernage A ; 47 ; PK-47-P1K0-2019-D-A ; 438 ; 2019-07-01 16:40:00.972179 ; 28.67 
186 ; Ernage A ; 47 ; PK-47-P1K0-2019-D-A ; 438 ; 2019-07-01 16:40:11.980789 ; 28.49 
187 ; Ernage A ; 47 ; PK-47-P1K0-2019-D-A ; 438 ; 2019-07-01 16:40:22.996945 ; 28.48 
188 ; Ernage A ; 47 ; PK-47-P1K0-2019-D-A ; 438 ; 2019-07-01 16:40:34.006206 ; 28.48 
189 ; Ernage A ; 47 ; PK-47-P1K0-2019-D-A ; 438 ; 2019-07-01 16:40:45.029814 ; 28.48 
190 ; Ernage A ; 47 ; PK-47-P1K0-2019-D-A ; 438 ; 2019-07-01 16:40:56.031354 ; 28.48 
191 ; Ernage A ; 47 ; PK-47-P1K0-2019-D-A ; 438 ; 2019-07-01 16:41:07.045242 ; 28.21 
192 ; Ernage A ; 47 ; PK-47-P1K0-2019-D-A ; 438 ; 2019-07-01 16:41:18.036239 ; 28.12 
193 ; Ernage A ; 47 ; PK-47-P1K0-2019-D-A ; 438 ; 2019-07-01 16:41:29.052486 ; 28.07 
194 ; Ernage A ; 47 ; PK-47-P1K0-2019-D-A ; 438 ; 2019-07-01 16:41:40.073610 ; 27.96 
195 ; Ernage A ; 47 ; PK-47-P1K0-2019-D-A ; 438 ; 2019-07-01 16:41:51.076400 ; 27.88 
196 ; Ernage A ; 47 ; PK-47-P1K0-2019-D-A ; 438 ; 2019-07-01 16:42:02.090257 ; 27.88 
197 ; Ernage A ; 47 ; PK-47-P1K0-2019-D-A ; 438 ; 2019-07-01 16:42:13.101200 ; 27.88 
198 ; Ernage A ; 47 ; PK-47-P1K0-2019-D-A ; 438 ; 2019-07-01 16:42:24.119427 ; 27.48 
199 ; Ernage A ; 47 ; PK-47-P1K0-2019-D-A ; 438 ; 2019-07-01 16:42:35.141555 ; 27.34 
200 ; Ernage A ; 47 ; PK-47-P1K0-2019-D-A ; 438 ; 2019-07-01 16:42:46.141651 ; 27.33 
201 ; Ernage A ; 47 ; PK-47-P1K0-2019-D-A ; 438 ; 2019-07-01 16:42:57.132794 ; 27.33 
202 ; Ernage A ; 47 ; PK-47-P1K0-2019-D-A ; 438 ; 2019-07-01 16:43:08.138699 ; 27.33 
203 ; Ernage A ; 47 ; PK-47-P1K0-2019-D-A ; 438 ; 2019-07-01 16:43:19.152097 ; 27.33 
204 ; Ernage A ; 47 ; PK-47-P1K0-2019-D-A ; 438 ; 2019-07-01 16:43:30.176434 ; 27.33 
205 ; Ernage A ; 47 ; PK-47-P1K0-2019-D-A ; 438 ; 2019-07-01 16:43:41.174516 ; 27.21 
206 ; Ernage A ; 47 ; PK-47-P1K0-2019-D-A ; 438 ; 2019-07-01 16:43:52.201022 ; 26.97 
207 ; Ernage A ; 47 ; PK-47-P1K0-2019-D-A ; 438 ; 2019-07-01 16:44:03.209872 ; 26.97 
208 ; Ernage A ; 47 ; PK-47-P1K0-2019-D-A ; 438 ; 2019-07-01 16:44:14.218318 ; 26.97 
209 ; Ernage A ; 47 ; PK-47-P1K0-2019-D-A ; 438 ; 2019-07-01 16:44:25.216865 ; 26.97 
210 ; Ernage A ; 47 ; PK-47-P1K0-2019-D-A ; 438 ; 2019-07-01 16:44:36.221206 ; 26.97 
211 ; Ernage A ; 47 ; PK-47-P1K0-2019-D-A ; 438 ; 2019-07-01 16:44:47.234484 ; 26.97 
212 ; Ernage A ; 47 ; PK-47-P1K0-2019-D-A ; 438 ; 2019-07-01 16:44:58.247852 ; 26.97 
213 ; Ernage A ; 47 ; PK-47-P1K0-2019-D-A ; 438 ; 2019-07-01 16:45:29.255992 ; 26.97 
214 ; Ernage A ; 47 ; PK-47-P1K0-2019-D-A ; 438 ; 2019-07-01 16:46:00.204137 ; 26.97 
215 ; Ernage A ; 47 ; PK-47-P1K0-2019-D-A ; 438 ; 2019-07-01 16:46:31.127777 ; 26.97 
216 ; Ernage A ; 47 ; PK-47-P1K0-2019-D-A ; 438 ; 2019-07-01 16:47:02.060991 ; 26.97 
217 ; Ernage A ; 47 ; PK-47-P1K0-2019-D-A ; 438 ; 2019-07-01 16:47:32.993005 ; 26.97 
218 ; Ernage A ; 47 ; PK-47-P1K0-2019-D-A ; 438 ; 2019-07-01 16:48:03.928406 ; 26.87 
219 ; Ernage A ; 47 ; PK-47-P1K0-2019-D-A ; 438 ; 2019-07-01 16:48:34.871033 ; 26.87 
220 ; Ernage A ; 47 ; PK-47-P1K0-2019-D-A ; 438 ; 2019-07-01 16:49:05.793567 ; 26.87 
221 ; Ernage A ; 47 ; PK-47-P1K0-2019-D-A ; 438 ; 2019-07-01 16:49:36.724741 ; 26.87 
222 ; Ernage A ; 47 ; PK-47-P1K0-2019-D-A ; 438 ; 2019-07-01 16:50:07.655154 ; 26.87 
223 ; Ernage A ; 47 ; PK-47-P1K0-2019-D-A ; 438 ; 2019-07-01 16:50:38.592129 ; 26.87 
224 ; Ernage A ; 47 ; PK-47-P1K0-2019-D-A ; 438 ; 2019-07-01 16:51:09.538216 ; 26.73 
225 ; Ernage A ; 47 ; PK-47-P1K0-2019-D-A ; 438 ; 2019-07-01 16:51:40.464060 ; 26.72 
226 ; Ernage A ; 47 ; PK-47-P1K0-2019-D-A ; 438 ; 2019-07-01 16:52:11.392502 ; 26.66 
227 ; Ernage A ; 47 ; PK-47-P1K0-2019-D-A ; 438 ; 2019-07-01 16:52:42.328330 ; 26.66 
228 ; Ernage A ; 47 ; PK-47-P1K0-2019-D-A ; 438 ; 2019-07-01 16:53:13.256592 ; 26.52 
229 ; Ernage A ; 47 ; PK-47-P1K0-2019-D-A ; 438 ; 2019-07-01 16:53:44.207925 ; 26.52 
230 ; Ernage A ; 47 ; PK-47-P1K0-2019-D-A ; 438 ; 2019-07-01 16:54:15.128722 ; 26.52 
231 ; Ernage A ; 47 ; PK-47-P1K0-2019-D-A ; 438 ; 2019-07-01 16:54:46.056606 ; 26.52 
232 ; Ernage A ; 47 ; PK-47-P1K0-2019-D-A ; 438 ; 2019-07-01 16:55:16.991200 ; 26.52 
233 ; Ernage A ; 47 ; PK-47-P1K0-2019-D-A ; 438 ; 2019-07-01 16:55:47.926059 ; 26.52 
234 ; Ernage A ; 47 ; PK-47-P1K0-2019-D-A ; 438 ; 2019-07-01 16:56:18.862864 ; 26.52 
235 ; Ernage A ; 47 ; PK-47-P1K0-2019-D-A ; 438 ; 2019-07-01 16:56:49.793765 ; 26.52 
236 ; Ernage A ; 47 ; PK-47-P1K0-2019-D-A ; 438 ; 2019-07-01 16:57:20.725801 ; 26.42 
237 ; Ernage A ; 47 ; PK-47-P1K0-2019-D-A ; 438 ; 2019-07-01 16:57:51.659182 ; 26.38 
238 ; Ernage A ; 47 ; PK-47-P1K0-2019-D-A ; 438 ; 2019-07-01 16:58:22.592269 ; 26.32 
239 ; Ernage A ; 47 ; PK-47-P1K0-2019-D-A ; 438 ; 2019-07-01 16:58:53.538760 ; 26.24 
240 ; Ernage A ; 47 ; PK-47-P1K0-2019-D-A ; 438 ; 2019-07-01 16:59:24.462059 ; 26.24 
241 ; Ernage A ; 47 ; PK-47-P1K0-2019-D-A ; 438 ; 2019-07-01 16:59:55.388269 ; 26.24 
242 ; Ernage A ; 47 ; PK-47-P1K0-2019-D-A ; 438 ; 2019-07-01 17:00:26.323034 ; 26.24 
243 ; Ernage A ; 47 ; PK-47-P1K0-2019-D-A ; 438 ; 2019-07-01 17:00:57.258503 ; 26.24 
244 ; Ernage A ; 47 ; PK-47-P1K0-2019-D-A ; 438 ; 2019-07-01 17:01:28.203179 ; 26.24 
245 ; Ernage A ; 47 ; PK-47-P1K0-2019-D-A ; 438 ; 2019-07-01 17:01:59.122501 ; 26.19 
246 ; Ernage A ; 47 ; PK-47-P1K0-2019-D-A ; 438 ; 2019-07-01 17:02:30.064440 ; 26.19 
247 ; Ernage A ; 47 ; PK-47-P1K0-2019-D-A ; 438 ; 2019-07-01 17:03:00.989693 ; 26.19 
248 ; Ernage A ; 47 ; PK-47-P1K0-2019-D-A ; 438 ; 2019-07-01 17:03:31.927213 ; 26.19 
249 ; Ernage A ; 47 ; PK-47-P1K0-2019-D-A ; 438 ; 2019-07-01 17:04:02.876330 ; 26.19 
250 ; Ernage A ; 47 ; PK-47-P1K0-2019-D-A ; 438 ; 2019-07-01 17:04:33.806266 ; 26.19 
251 ; Ernage A ; 47 ; PK-47-P1K0-2019-D-A ; 438 ; 2019-07-01 17:05:04.702086 ; 26.19 
252 ; Ernage A ; 47 ; PK-47-P1K0-2019-D-A ; 438 ; 2019-07-01 17:05:35.632609 ; 26.19 
253 ; Ernage A ; 47 ; PK-47-P1K0-2019-D-A ; 438 ; 2019-07-01 17:06:06.566985 ; 26.19 
254 ; Ernage A ; 47 ; PK-47-P1K0-2019-D-A ; 438 ; 2019-07-01 17:06:37.510443 ; 26.19 
255 ; Ernage A ; 47 ; PK-47-P1K0-2019-D-A ; 438 ; 2019-07-01 17:07:08.437783 ; 26.19 
256 ; Ernage A ; 47 ; PK-47-P1K0-2019-D-A ; 438 ; 2019-07-01 17:07:39.365346 ; 26.19 
257 ; Ernage A ; 47 ; PK-47-P1K0-2019-D-A ; 438 ; 2019-07-01 17:08:10.300487 ; 26.19 
258 ; Ernage A ; 47 ; PK-47-P1K0-2019-D-A ; 438 ; 2019-07-01 17:08:41.235981 ; 26.19 
259 ; Ernage A ; 47 ; PK-47-P1K0-2019-D-A ; 438 ; 2019-07-01 17:09:12.176683 ; 26.19 
260 ; Ernage A ; 47 ; PK-47-P1K0-2019-D-A ; 438 ; 2019-07-01 17:09:43.107491 ; 26.19 
261 ; Ernage A ; 47 ; PK-47-P1K0-2019-D-A ; 438 ; 2019-07-01 17:10:14.031605 ; 26.19 
262 ; Ernage A ; 47 ; PK-47-P1K0-2019-D-A ; 438 ; 2019-07-01 17:10:44.965813 ; 26.19 
263 ; Ernage A ; 47 ; PK-47-P1K0-2019-D-A ; 438 ; 2019-07-01 17:11:15.901033 ; 26.1 
264 ; Ernage A ; 47 ; PK-47-P1K0-2019-D-A ; 438 ; 2019-07-01 17:11:46.844256 ; 26.09 
265 ; Ernage A ; 47 ; PK-47-P1K0-2019-D-A ; 438 ; 2019-07-01 17:12:17.772199 ; 26.09 
266 ; Ernage A ; 47 ; PK-47-P1K0-2019-D-A ; 438 ; 2019-07-01 17:12:48.702440 ; 26.09 
267 ; Ernage A ; 47 ; PK-47-P1K0-2019-D-A ; 438 ; 2019-07-01 17:13:19.630682 ; 26.09 
268 ; Ernage A ; 47 ; PK-47-P1K0-2019-D-A ; 438 ; 2019-07-01 17:13:50.567265 ; 26.09 
269 ; Ernage A ; 47 ; PK-47-P1K0-2019-D-A ; 438 ; 2019-07-01 17:14:21.510985 ; 26.09 
270 ; Ernage A ; 47 ; PK-47-P1K0-2019-D-A ; 438 ; 2019-07-01 17:14:52.437766 ; 26.09 
271 ; Ernage A ; 47 ; PK-47-P1K0-2019-D-A ; 438 ; 2019-07-01 17:15:23.366391 ; 26.09 
272 ; Ernage A ; 47 ; PK-47-P1K0-2019-D-A ; 438 ; 2019-07-01 17:15:54.301405 ; 26.09 
273 ; Ernage A ; 47 ; PK-47-P1K0-2019-D-A ; 438 ; 2019-07-01 17:16:25.231122 ; 26.09 
274 ; Ernage A ; 47 ; PK-47-P1K0-2019-D-A ; 438 ; 2019-07-01 17:16:56.168139 ; 26.09 
275 ; Ernage A ; 47 ; PK-47-P1K0-2019-D-A ; 438 ; 2019-07-01 17:17:27.110077 ; 26.09 
276 ; Ernage A ; 47 ; PK-47-P1K0-2019-D-A ; 438 ; 2019-07-01 17:17:58.032046 ; 26.09 
277 ; Ernage A ; 47 ; PK-47-P1K0-2019-D-A ; 438 ; 2019-07-01 17:18:28.967112 ; 26.09 
278 ; Ernage A ; 47 ; PK-47-P1K0-2019-D-A ; 438 ; 2019-07-01 17:18:59.900729 ; 26.09 
279 ; Ernage A ; 47 ; PK-47-P1K0-2019-D-A ; 438 ; 2019-07-01 17:19:30.826503 ; 26.09 
280 ; Ernage A ; 47 ; PK-47-P1K0-2019-D-A ; 438 ; 2019-07-01 17:20:01.776405 ; 26.09 
281 ; Ernage A ; 47 ; PK-47-P1K0-2019-D-A ; 438 ; 2019-07-01 17:20:32.702473 ; 26.09 
282 ; Ernage A ; 47 ; PK-47-P1K0-2019-D-A ; 438 ; 2019-07-01 17:21:03.632416 ; 26.09 
283 ; Ernage A ; 47 ; PK-47-P1K0-2019-D-A ; 438 ; 2019-07-01 17:21:34.563837 ; 26.09 
284 ; Ernage A ; 47 ; PK-47-P1K0-2019-D-A ; 438 ; 2019-07-01 17:22:05.498410 ; 26.09 
285 ; Ernage A ; 47 ; PK-47-P1K0-2019-D-A ; 438 ; 2019-07-01 17:22:36.443318 ; 26.09 
286 ; Ernage A ; 47 ; PK-47-P1K0-2019-D-A ; 438 ; 2019-07-01 17:23:07.367923 ; 26.09 
287 ; Ernage A ; 47 ; PK-47-P1K0-2019-D-A ; 438 ; 2019-07-01 17:23:38.298409 ; 26.09 
288 ; Ernage A ; 47 ; PK-47-P1K0-2019-D-A ; 438 ; 2019-07-01 17:24:09.233445 ; 26.09 
289 ; Ernage A ; 47 ; PK-47-P1K0-2019-D-A ; 438 ; 2019-07-01 17:24:40.163493 ; 26.09 
290 ; Ernage A ; 47 ; PK-47-P1K0-2019-D-A ; 438 ; 2019-07-01 17:25:11.109168 ; 26.09 
291 ; Ernage A ; 47 ; PK-47-P1K0-2019-D-A ; 438 ; 2019-07-01 17:25:42.035754 ; 26.09 
292 ; Ernage A ; 47 ; PK-47-P1K0-2019-D-A ; 438 ; 2019-07-01 17:26:12.966301 ; 26.09 
293 ; Ernage A ; 47 ; PK-47-P1K0-2019-D-A ; 438 ; 2019-07-01 17:26:43.898705 ; 26.09 
294 ; Ernage A ; 47 ; PK-47-P1K0-2019-D-A ; 438 ; 2019-07-01 17:27:14.833246 ; 26.09 
295 ; Ernage A ; 47 ; PK-47-P1K0-2019-D-A ; 438 ; 2019-07-01 17:27:45.790481 ; 26.09 
296 ; Ernage A ; 47 ; PK-47-P1K0-2019-D-A ; 438 ; 2019-07-01 17:28:16.703928 ; 26.09 
297 ; Ernage A ; 47 ; PK-47-P1K0-2019-D-A ; 438 ; 2019-07-01 17:28:47.631118 ; 26.09 
298 ; Ernage A ; 47 ; PK-47-P1K0-2019-D-A ; 438 ; 2019-07-01 17:29:18.565670 ; 26.09 
299 ; Ernage A ; 47 ; PK-47-P1K0-2019-D-A ; 438 ; 2019-07-01 17:29:49.497774 ; 26.09 
300 ; Ernage A ; 47 ; PK-47-P1K0-2019-D-A ; 438 ; 2019-07-01 17:30:20.440100 ; 26.09 
301 ; Ernage A ; 47 ; PK-47-P1K0-2019-D-A ; 438 ; 2019-07-01 17:30:51.368258 ; 26.09 
302 ; Ernage A ; 47 ; PK-47-P1K0-2019-D-A ; 438 ; 2019-07-01 17:31:22.296767 ; 26.09 
303 ; Ernage A ; 47 ; PK-47-P1K0-2019-D-A ; 438 ; 2019-07-01 17:31:53.234229 ; 26.09 
304 ; Ernage A ; 47 ; PK-47-P1K0-2019-D-A ; 438 ; 2019-07-01 17:32:24.167497 ; 26.09 
305 ; Ernage A ; 47 ; PK-47-P1K0-2019-D-A ; 438 ; 2019-07-01 17:32:55.105387 ; 26.09 
306 ; Ernage A ; 47 ; PK-47-P1K0-2019-D-A ; 438 ; 2019-07-01 17:33:26.047471 ; 26.09 
307 ; Ernage A ; 47 ; PK-47-P1K0-2019-D-A ; 438 ; 2019-07-01 17:33:56.968516 ; 26.09 
308 ; Ernage A ; 47 ; PK-47-P1K0-2019-D-A ; 438 ; 2019-07-01 17:34:27.903581 ; 26.09 
309 ; Ernage A ; 47 ; PK-47-P1K0-2019-D-A ; 438 ; 2019-07-01 17:34:58.832649 ; 26.09 
310 ; Ernage A ; 47 ; PK-47-P1K0-2019-D-A ; 438 ; 2019-07-01 17:35:29.763865 ; 26.09 
311 ; Ernage A ; 47 ; PK-47-P1K0-2019-D-A ; 438 ; 2019-07-01 17:36:00.713512 ; 26.09 
312 ; Ernage A ; 47 ; PK-47-P1K0-2019-D-A ; 438 ; 2019-07-01 17:36:31.632470 ; 26.09 
313 ; Ernage A ; 47 ; PK-47-P1K0-2019-D-A ; 438 ; 2019-07-01 17:37:02.564129 ; 26.09 
314 ; Ernage A ; 47 ; PK-47-P1K0-2019-D-A ; 438 ; 2019-07-01 17:37:33.497362 ; 26.09 
315 ; Ernage A ; 47 ; PK-47-P1K0-2019-D-A ; 438 ; 2019-07-01 17:38:04.437188 ; 26.09 
316 ; Ernage A ; 47 ; PK-47-P1K0-2019-D-A ; 438 ; 2019-07-01 17:38:35.379857 ; 26.09 
317 ; Ernage A ; 47 ; PK-47-P1K0-2019-D-A ; 438 ; 2019-07-01 17:39:06.299885 ; 26.14 
318 ; Ernage A ; 47 ; PK-47-P1K0-2019-D-A ; 438 ; 2019-07-01 17:39:37.238374 ; 26.14 
319 ; Ernage A ; 47 ; PK-47-P1K0-2019-D-A ; 438 ; 2019-07-01 17:40:08.166253 ; 26.14 
320 ; Ernage A ; 47 ; PK-47-P1K0-2019-D-A ; 438 ; 2019-07-01 17:40:39.099210 ; 26.14 
321 ; Ernage A ; 47 ; PK-47-P1K0-2019-D-A ; 438 ; 2019-07-01 17:41:10.157356 ; 26.14 
322 ; Ernage A ; 47 ; PK-47-P1K0-2019-D-A ; 438 ; 2019-07-01 17:41:41.233164 ; 26.14 
323 ; Ernage A ; 47 ; PK-47-P1K0-2019-D-A ; 438 ; 2019-07-01 17:42:12.163969 ; 26.14 
324 ; Ernage A ; 47 ; PK-47-P1K0-2019-D-A ; 438 ; 2019-07-01 17:42:43.099691 ; 26.14 
325 ; Ernage A ; 47 ; PK-47-P1K0-2019-D-A ; 438 ; 2019-07-01 17:43:14.033968 ; 26.14 
326 ; Ernage A ; 47 ; PK-47-P1K0-2019-D-A ; 438 ; 2019-07-01 17:43:44.975574 ; 26.14 
327 ; Ernage A ; 47 ; PK-47-P1K0-2019-D-A ; 438 ; 2019-07-01 17:44:15.902931 ; 26.14 
328 ; Ernage A ; 47 ; PK-47-P1K0-2019-D-A ; 438 ; 2019-07-01 17:44:46.803121 ; 26.14 
329 ; Ernage A ; 47 ; PK-47-P1K0-2019-D-A ; 438 ; 2019-07-01 17:45:17.737142 ; 26.14 
330 ; Ernage A ; 47 ; PK-47-P1K0-2019-D-A ; 438 ; 2019-07-01 17:45:48.669625 ; 26.14 
331 ; Ernage A ; 47 ; PK-47-P1K0-2019-D-A ; 438 ; 2019-07-01 17:46:19.611280 ; 26.14 
332 ; Ernage A ; 47 ; PK-47-P1K0-2019-D-A ; 438 ; 2019-07-01 17:46:50.538148 ; 26.14 
333 ; Ernage A ; 47 ; PK-47-P1K0-2019-D-A ; 438 ; 2019-07-01 17:47:21.470795 ; 26.14 
334 ; Ernage A ; 47 ; PK-47-P1K0-2019-D-A ; 438 ; 2019-07-01 17:47:52.402770 ; 26.14 
335 ; Ernage A ; 47 ; PK-47-P1K0-2019-D-A ; 438 ; 2019-07-01 17:48:23.336486 ; 26.14 
336 ; Ernage A ; 47 ; PK-47-P1K0-2019-D-A ; 438 ; 2019-07-01 17:48:54.273909 ; 26.14 
337 ; Ernage A ; 47 ; PK-47-P1K0-2019-D-A ; 438 ; 2019-07-01 17:49:25.214370 ; 26.14 
338 ; Ernage A ; 47 ; PK-47-P1K0-2019-D-A ; 438 ; 2019-07-01 17:49:56.136296 ; 26.14 
339 ; Ernage A ; 47 ; PK-47-P1K0-2019-D-A ; 438 ; 2019-07-01 17:50:27.068969 ; 26.14 
340 ; Ernage A ; 47 ; PK-47-P1K0-2019-D-A ; 438 ; 2019-07-01 17:50:58.007652 ; 26.14 
341 ; Ernage A ; 47 ; PK-47-P1K0-2019-D-A ; 438 ; 2019-07-01 17:51:28.936806 ; 26.14 
342 ; Ernage A ; 47 ; PK-47-P1K0-2019-D-A ; 438 ; 2019-07-01 17:51:59.878535 ; 26.14 
343 ; Ernage A ; 47 ; PK-47-P1K0-2019-D-A ; 438 ; 2019-07-01 17:52:30.810968 ; 26.11 
344 ; Ernage A ; 47 ; PK-47-P1K0-2019-D-A ; 438 ; 2019-07-01 17:53:01.740047 ; 26.11 
345 ; Ernage A ; 47 ; PK-47-P1K0-2019-D-A ; 438 ; 2019-07-01 17:53:32.670159 ; 26.11 
346 ; Ernage A ; 47 ; PK-47-P1K0-2019-D-A ; 438 ; 2019-07-01 17:54:03.606530 ; 26.11 
347 ; Ernage A ; 47 ; PK-47-P1K0-2019-D-A ; 438 ; 2019-07-01 17:54:34.544612 ; 26.11 
348 ; Ernage A ; 47 ; PK-47-P1K0-2019-D-A ; 438 ; 2019-07-01 17:55:05.472807 ; 26.11 
349 ; Ernage A ; 47 ; PK-47-P1K0-2019-D-A ; 438 ; 2019-07-01 17:55:36.405807 ; 26.11 
350 ; Ernage A ; 47 ; PK-47-P1K0-2019-D-A ; 438 ; 2019-07-01 17:56:07.338377 ; 26.11 
351 ; Ernage A ; 47 ; PK-47-P1K0-2019-D-A ; 438 ; 2019-07-01 17:56:38.270925 ; 26.11 
352 ; Ernage A ; 47 ; PK-47-P1K0-2019-D-A ; 438 ; 2019-07-01 17:57:09.212549 ; 26.11 
353 ; Ernage A ; 47 ; PK-47-P1K0-2019-D-A ; 438 ; 2019-07-01 17:57:40.136464 ; 26.11 
354 ; Ernage A ; 47 ; PK-47-P1K0-2019-D-A ; 438 ; 2019-07-01 17:58:11.070398 ; 26.11 
355 ; Ernage A ; 47 ; PK-47-P1K0-2019-D-A ; 438 ; 2019-07-01 17:58:42.003791 ; 26.11 
356 ; Ernage A ; 47 ; PK-47-P1K0-2019-D-A ; 438 ; 2019-07-01 17:59:12.939922 ; 26.11 
357 ; Ernage A ; 47 ; PK-47-P1K0-2019-D-A ; 438 ; 2019-07-01 17:59:43.871192 ; 26.11 
358 ; Ernage A ; 47 ; PK-47-P1K0-2019-D-A ; 438 ; 2019-07-01 18:00:14.816456 ; 26.11 
359 ; Ernage A ; 47 ; PK-47-P1K0-2019-D-A ; 438 ; 2019-07-01 18:00:45.752160 ; 26.11 
360 ; Ernage A ; 47 ; PK-47-P1K0-2019-D-A ; 438 ; 2019-07-01 18:01:16.671192 ; 26.11 
361 ; Ernage A ; 47 ; PK-47-P1K0-2019-D-A ; 438 ; 2019-07-01 18:01:47.605215 ; 26.11 
362 ; Ernage A ; 47 ; PK-47-P1K0-2019-D-A ; 438 ; 2019-07-01 18:02:18.536578 ; 26.11 
363 ; Ernage A ; 47 ; PK-47-P1K0-2019-D-A ; 438 ; 2019-07-01 18:02:49.480317 ; 26.11 
364 ; Ernage A ; 47 ; PK-47-P1K0-2019-D-A ; 438 ; 2019-07-01 18:03:20.403925 ; 26.11 
365 ; Ernage A ; 47 ; PK-47-P1K0-2019-D-A ; 438 ; 2019-07-01 18:03:51.338089 ; 26.11 
366 ; Ernage A ; 47 ; PK-47-P1K0-2019-D-A ; 438 ; 2019-07-01 18:04:22.271656 ; 26.11 
367 ; Ernage A ; 47 ; PK-47-P1K0-2019-D-A ; 438 ; 2019-07-01 18:04:53.203194 ; 26.11 
368 ; Ernage A ; 47 ; PK-47-P1K0-2019-D-A ; 438 ; 2019-07-01 18:05:24.144993 ; 26.11 
369 ; Ernage A ; 47 ; PK-47-P1K0-2019-D-A ; 438 ; 2019-07-01 18:05:55.070337 ; 26.11 
370 ; Ernage A ; 47 ; PK-47-P1K0-2019-D-A ; 438 ; 2019-07-01 18:06:26.003052 ; 26.11 
371 ; Ernage A ; 47 ; PK-47-P1K0-2019-D-A ; 438 ; 2019-07-01 18:06:56.937787 ; 26.11 
372 ; Ernage A ; 47 ; PK-47-P1K0-2019-D-A ; 438 ; 2019-07-01 18:07:27.867900 ; 26.11 
373 ; Ernage A ; 47 ; PK-47-P1K0-2019-D-A ; 438 ; 2019-07-01 18:07:58.815068 ; 26.11 
374 ; Ernage A ; 47 ; PK-47-P1K0-2019-D-A ; 438 ; 2019-07-01 18:08:29.738033 ; 26.11 
375 ; Ernage A ; 47 ; PK-47-P1K0-2019-D-A ; 438 ; 2019-07-01 18:09:00.671710 ; 26.11 
376 ; Ernage A ; 47 ; PK-47-P1K0-2019-D-A ; 438 ; 2019-07-01 18:09:31.603014 ; 26.11 
377 ; Ernage A ; 47 ; PK-47-P1K0-2019-D-A ; 438 ; 2019-07-01 18:10:02.536235 ; 26.11 
378 ; Ernage A ; 47 ; PK-47-P1K0-2019-D-A ; 438 ; 2019-07-01 18:10:33.470914 ; 26.11 
379 ; Ernage A ; 47 ; PK-47-P1K0-2019-D-A ; 438 ; 2019-07-01 18:11:04.414333 ; 26.11 
380 ; Ernage A ; 47 ; PK-47-P1K0-2019-D-A ; 438 ; 2019-07-01 18:11:35.334696 ; 26.11 
381 ; Ernage A ; 47 ; PK-47-P1K0-2019-D-A ; 438 ; 2019-07-01 18:12:06.270652 ; 26.11 
382 ; Ernage A ; 47 ; PK-47-P1K0-2019-D-A ; 438 ; 2019-07-01 18:12:37.203591 ; 26.11 
383 ; Ernage A ; 47 ; PK-47-P1K0-2019-D-A ; 438 ; 2019-07-01 18:13:08.136230 ; 26.11 
384 ; Ernage A ; 47 ; PK-47-P1K0-2019-D-A ; 438 ; 2019-07-01 18:13:39.077831 ; 26.11 
385 ; Ernage A ; 47 ; PK-47-P1K0-2019-D-A ; 438 ; 2019-07-01 18:14:10.004297 ; 26.11 
386 ; Ernage A ; 47 ; PK-47-P1K0-2019-D-A ; 438 ; 2019-07-01 18:14:40.938714 ; 26.11 
387 ; Ernage A ; 47 ; PK-47-P1K0-2019-D-A ; 438 ; 2019-07-01 18:15:11.869611 ; 26.11 
388 ; Ernage A ; 47 ; PK-47-P1K0-2019-D-A ; 438 ; 2019-07-01 18:15:42.810420 ; 26.11 
389 ; Ernage A ; 47 ; PK-47-P1K0-2019-D-A ; 438 ; 2019-07-01 18:16:13.744628 ; 26.11 
390 ; Ernage A ; 47 ; PK-47-P1K0-2019-D-A ; 438 ; 2019-07-01 18:16:44.671302 ; 26.11 
391 ; Ernage A ; 47 ; PK-47-P1K0-2019-D-A ; 438 ; 2019-07-01 18:17:15.602738 ; 26.11 
392 ; Ernage A ; 47 ; PK-47-P1K0-2019-D-A ; 438 ; 2019-07-01 18:17:46.538238 ; 26.11 
393 ; Ernage A ; 47 ; PK-47-P1K0-2019-D-A ; 438 ; 2019-07-01 18:18:17.470787 ; 26.11 
394 ; Ernage A ; 47 ; PK-47-P1K0-2019-D-A ; 438 ; 2019-07-01 18:18:48.418035 ; 26.11 
395 ; Ernage A ; 47 ; PK-47-P1K0-2019-D-A ; 438 ; 2019-07-01 18:19:19.338859 ; 26.11 
396 ; Ernage A ; 47 ; PK-47-P1K0-2019-D-A ; 438 ; 2019-07-01 18:19:50.270410 ; 26.11 
397 ; Ernage A ; 47 ; PK-47-P1K0-2019-D-A ; 438 ; 2019-07-01 18:20:21.204432 ; 26.11 
398 ; Ernage A ; 47 ; PK-47-P1K0-2019-D-A ; 438 ; 2019-07-01 18:20:52.136152 ; 26.11 
399 ; Ernage A ; 47 ; PK-47-P1K0-2019-D-A ; 438 ; 2019-07-01 18:21:23.073125 ; 26.11 
400 ; Ernage A ; 47 ; PK-47-P1K0-2019-D-A ; 438 ; 2019-07-01 18:21:54.013065 ; 26.11 
401 ; Ernage A ; 47 ; PK-47-P1K0-2019-D-A ; 438 ; 2019-07-01 18:22:24.933164 ; 26.11 
402 ; Ernage A ; 47 ; PK-47-P1K0-2019-D-A ; 438 ; 2019-07-01 18:22:55.869695 ; 26.11 
403 ; Ernage A ; 47 ; PK-47-P1K0-2019-D-A ; 438 ; 2019-07-01 18:23:26.804722 ; 26.11 
404 ; Ernage A ; 47 ; PK-47-P1K0-2019-D-A ; 438 ; 2019-07-01 18:23:57.737147 ; 26.11 
405 ; Ernage A ; 47 ; PK-47-P1K0-2019-D-A ; 438 ; 2019-07-01 18:24:28.676752 ; 26.11 
406 ; Ernage A ; 47 ; PK-47-P1K0-2019-D-A ; 438 ; 2019-07-01 18:24:59.604342 ; 26.11 
407 ; Ernage A ; 47 ; PK-47-P1K0-2019-D-A ; 438 ; 2019-07-01 18:25:30.536912 ; 26.11 
408 ; Ernage A ; 47 ; PK-47-P1K0-2019-D-A ; 438 ; 2019-07-01 18:26:01.467385 ; 26.11 
409 ; Ernage A ; 47 ; PK-47-P1K0-2019-D-A ; 438 ; 2019-07-01 18:26:32.405128 ; 26.11 
410 ; Ernage A ; 47 ; PK-47-P1K0-2019-D-A ; 438 ; 2019-07-01 18:27:03.345476 ; 26.11 
411 ; Ernage A ; 47 ; PK-47-P1K0-2019-D-A ; 438 ; 2019-07-01 18:27:34.270237 ; 26.11 
412 ; Ernage A ; 47 ; PK-47-P1K0-2019-D-A ; 438 ; 2019-07-01 18:28:05.201168 ; 26.11 
413 ; Ernage A ; 47 ; PK-47-P1K0-2019-D-A ; 438 ; 2019-07-01 18:28:36.137000 ; 26.11 
414 ; Ernage A ; 47 ; PK-47-P1K0-2019-D-A ; 438 ; 2019-07-01 18:29:07.071021 ; 26.11 
415 ; Ernage A ; 47 ; PK-47-P1K0-2019-D-A ; 438 ; 2019-07-01 18:29:38.011702 ; 26.11 
416 ; Ernage A ; 47 ; PK-47-P1K0-2019-D-A ; 438 ; 2019-07-01 18:30:08.936134 ; 26.11 
417 ; Ernage A ; 47 ; PK-47-P1K0-2019-D-A ; 438 ; 2019-07-01 18:30:39.870853 ; 26.11 
418 ; Ernage A ; 47 ; PK-47-P1K0-2019-D-A ; 438 ; 2019-07-01 18:31:10.802599 ; 26.11 
419 ; Ernage A ; 47 ; PK-47-P1K0-2019-D-A ; 438 ; 2019-07-01 18:31:41.710388 ; 26.11 
420 ; Ernage A ; 47 ; PK-47-P1K0-2019-D-A ; 438 ; 2019-07-01 18:32:12.656234 ; 26.11 
421 ; Ernage A ; 47 ; PK-47-P1K0-2019-D-A ; 438 ; 2019-07-01 18:32:43.579912 ; 26.11 
422 ; Ernage A ; 47 ; PK-47-P1K0-2019-D-A ; 438 ; 2019-07-01 18:33:14.512974 ; 26.11 
423 ; Ernage A ; 47 ; PK-47-P1K0-2019-D-A ; 438 ; 2019-07-01 18:33:45.443284 ; 26.11 
424 ; Ernage A ; 47 ; PK-47-P1K0-2019-D-A ; 438 ; 2019-07-01 18:34:16.379385 ; 26.11 
425 ; Ernage A ; 47 ; PK-47-P1K0-2019-D-A ; 438 ; 2019-07-01 18:34:47.322092 ; 26.11 
426 ; Ernage A ; 47 ; PK-47-P1K0-2019-D-A ; 438 ; 2019-07-01 18:35:18.244311 ; 26.11 
