i ; campaign ; serie ; sample ; slake ; time ; mass 
1 ; Longs Tours ; 6 ; LT-6-2019-D-E ; 491 ; 2019-07-03 13:40:35.821451 ; 136.92 
2 ; Longs Tours ; 6 ; LT-6-2019-D-E ; 491 ; 2019-07-03 13:40:36.937919 ; 136.92 
3 ; Longs Tours ; 6 ; LT-6-2019-D-E ; 491 ; 2019-07-03 13:40:37.986697 ; 136.92 
4 ; Longs Tours ; 6 ; LT-6-2019-D-E ; 491 ; 2019-07-03 13:40:39.052352 ; 136.92 
5 ; Longs Tours ; 6 ; LT-6-2019-D-E ; 491 ; 2019-07-03 13:40:40.091091 ; 136.92 
6 ; Longs Tours ; 6 ; LT-6-2019-D-E ; 491 ; 2019-07-03 13:40:41.128539 ; 136.92 
7 ; Longs Tours ; 6 ; LT-6-2019-D-E ; 491 ; 2019-07-03 13:40:42.193653 ; 136.92 
8 ; Longs Tours ; 6 ; LT-6-2019-D-E ; 491 ; 2019-07-03 13:40:43.237260 ; 136.92 
9 ; Longs Tours ; 6 ; LT-6-2019-D-E ; 491 ; 2019-07-03 13:40:44.273852 ; 134.6 
10 ; Longs Tours ; 6 ; LT-6-2019-D-E ; 491 ; 2019-07-03 13:40:45.346462 ; 77.96 
11 ; Longs Tours ; 6 ; LT-6-2019-D-E ; 491 ; 2019-07-03 13:40:46.391464 ; 63.77 
12 ; Longs Tours ; 6 ; LT-6-2019-D-E ; 491 ; 2019-07-03 13:40:47.429292 ; 64.01 
13 ; Longs Tours ; 6 ; LT-6-2019-D-E ; 491 ; 2019-07-03 13:40:48.493884 ; 63.31 
14 ; Longs Tours ; 6 ; LT-6-2019-D-E ; 491 ; 2019-07-03 13:40:49.532922 ; 62.37 
15 ; Longs Tours ; 6 ; LT-6-2019-D-E ; 491 ; 2019-07-03 13:40:50.573178 ; 61.55 
16 ; Longs Tours ; 6 ; LT-6-2019-D-E ; 491 ; 2019-07-03 13:40:51.639105 ; 60.25 
17 ; Longs Tours ; 6 ; LT-6-2019-D-E ; 491 ; 2019-07-03 13:40:52.686192 ; 59.43 
18 ; Longs Tours ; 6 ; LT-6-2019-D-E ; 491 ; 2019-07-03 13:40:53.719856 ; 58.4 
19 ; Longs Tours ; 6 ; LT-6-2019-D-E ; 491 ; 2019-07-03 13:40:54.762738 ; 57.24 
20 ; Longs Tours ; 6 ; LT-6-2019-D-E ; 491 ; 2019-07-03 13:40:55.830841 ; 55.52 
21 ; Longs Tours ; 6 ; LT-6-2019-D-E ; 491 ; 2019-07-03 13:40:56.869407 ; 54.64 
22 ; Longs Tours ; 6 ; LT-6-2019-D-E ; 491 ; 2019-07-03 13:40:57.910174 ; 53.29 
23 ; Longs Tours ; 6 ; LT-6-2019-D-E ; 491 ; 2019-07-03 13:40:58.982191 ; 52.46 
24 ; Longs Tours ; 6 ; LT-6-2019-D-E ; 491 ; 2019-07-03 13:41:00.014660 ; 51.36 
25 ; Longs Tours ; 6 ; LT-6-2019-D-E ; 491 ; 2019-07-03 13:41:01.054961 ; 50.51 
26 ; Longs Tours ; 6 ; LT-6-2019-D-E ; 491 ; 2019-07-03 13:41:02.120572 ; 49.76 
27 ; Longs Tours ; 6 ; LT-6-2019-D-E ; 491 ; 2019-07-03 13:41:03.162306 ; 48.71 
28 ; Longs Tours ; 6 ; LT-6-2019-D-E ; 491 ; 2019-07-03 13:41:04.199455 ; NA 
29 ; Longs Tours ; 6 ; LT-6-2019-D-E ; 491 ; 2019-07-03 13:41:05.277954 ; 46.9 
30 ; Longs Tours ; 6 ; LT-6-2019-D-E ; 491 ; 2019-07-03 13:41:06.307737 ; 45.72 
31 ; Longs Tours ; 6 ; LT-6-2019-D-E ; 491 ; 2019-07-03 13:41:07.345350 ; 44.21 
32 ; Longs Tours ; 6 ; LT-6-2019-D-E ; 491 ; 2019-07-03 13:41:08.413941 ; 43.31 
33 ; Longs Tours ; 6 ; LT-6-2019-D-E ; 491 ; 2019-07-03 13:41:09.453556 ; 42.74 
34 ; Longs Tours ; 6 ; LT-6-2019-D-E ; 491 ; 2019-07-03 13:41:10.491931 ; 42.51 
35 ; Longs Tours ; 6 ; LT-6-2019-D-E ; 491 ; 2019-07-03 13:41:11.568634 ; 42.18 
36 ; Longs Tours ; 6 ; LT-6-2019-D-E ; 491 ; 2019-07-03 13:41:12.596793 ; 41.92 
37 ; Longs Tours ; 6 ; LT-6-2019-D-E ; 491 ; 2019-07-03 13:41:13.637696 ; 41.38 
38 ; Longs Tours ; 6 ; LT-6-2019-D-E ; 491 ; 2019-07-03 13:41:14.702661 ; 41.1 
39 ; Longs Tours ; 6 ; LT-6-2019-D-E ; 491 ; 2019-07-03 13:41:15.751515 ; 40.75 
40 ; Longs Tours ; 6 ; LT-6-2019-D-E ; 491 ; 2019-07-03 13:41:16.799048 ; 40.23 
41 ; Longs Tours ; 6 ; LT-6-2019-D-E ; 491 ; 2019-07-03 13:41:17.855908 ; 39.68 
42 ; Longs Tours ; 6 ; LT-6-2019-D-E ; 491 ; 2019-07-03 13:41:18.890868 ; 39.41 
43 ; Longs Tours ; 6 ; LT-6-2019-D-E ; 491 ; 2019-07-03 13:41:19.932091 ; 39.16 
44 ; Longs Tours ; 6 ; LT-6-2019-D-E ; 491 ; 2019-07-03 13:41:21.000074 ; 38.67 
45 ; Longs Tours ; 6 ; LT-6-2019-D-E ; 491 ; 2019-07-03 13:41:22.039630 ; 38.11 
46 ; Longs Tours ; 6 ; LT-6-2019-D-E ; 491 ; 2019-07-03 13:41:23.082718 ; 37.73 
47 ; Longs Tours ; 6 ; LT-6-2019-D-E ; 491 ; 2019-07-03 13:41:24.143297 ; 37.2 
48 ; Longs Tours ; 6 ; LT-6-2019-D-E ; 491 ; 2019-07-03 13:41:25.185059 ; 36.67 
49 ; Longs Tours ; 6 ; LT-6-2019-D-E ; 491 ; 2019-07-03 13:41:26.223301 ; 36.15 
50 ; Longs Tours ; 6 ; LT-6-2019-D-E ; 491 ; 2019-07-03 13:41:27.266683 ; 35.67 
51 ; Longs Tours ; 6 ; LT-6-2019-D-E ; 491 ; 2019-07-03 13:41:28.330621 ; 35.4 
52 ; Longs Tours ; 6 ; LT-6-2019-D-E ; 491 ; 2019-07-03 13:41:29.375868 ; 35.07 
53 ; Longs Tours ; 6 ; LT-6-2019-D-E ; 491 ; 2019-07-03 13:41:30.408249 ; 34.42 
54 ; Longs Tours ; 6 ; LT-6-2019-D-E ; 491 ; 2019-07-03 13:41:31.483541 ; 33.95 
55 ; Longs Tours ; 6 ; LT-6-2019-D-E ; 491 ; 2019-07-03 13:41:32.519707 ; 33.68 
56 ; Longs Tours ; 6 ; LT-6-2019-D-E ; 491 ; 2019-07-03 13:41:33.555082 ; 33.37 
57 ; Longs Tours ; 6 ; LT-6-2019-D-E ; 491 ; 2019-07-03 13:41:34.624073 ; 33.08 
58 ; Longs Tours ; 6 ; LT-6-2019-D-E ; 491 ; 2019-07-03 13:41:35.673727 ; 32.5 
59 ; Longs Tours ; 6 ; LT-6-2019-D-E ; 491 ; 2019-07-03 13:41:36.707418 ; 32.2 
60 ; Longs Tours ; 6 ; LT-6-2019-D-E ; 491 ; 2019-07-03 13:41:37.785835 ; 31.9 
61 ; Longs Tours ; 6 ; LT-6-2019-D-E ; 491 ; 2019-07-03 13:41:38.810981 ; 31.65 
62 ; Longs Tours ; 6 ; LT-6-2019-D-E ; 491 ; 2019-07-03 13:41:39.852067 ; 31.37 
63 ; Longs Tours ; 6 ; LT-6-2019-D-E ; 491 ; 2019-07-03 13:41:40.920886 ; 31.13 
64 ; Longs Tours ; 6 ; LT-6-2019-D-E ; 491 ; 2019-07-03 13:41:41.962765 ; 30.84 
65 ; Longs Tours ; 6 ; LT-6-2019-D-E ; 491 ; 2019-07-03 13:41:42.995787 ; 30.52 
66 ; Longs Tours ; 6 ; LT-6-2019-D-E ; 491 ; 2019-07-03 13:41:44.057863 ; 29.93 
67 ; Longs Tours ; 6 ; LT-6-2019-D-E ; 491 ; 2019-07-03 13:41:45.102766 ; 29.65 
68 ; Longs Tours ; 6 ; LT-6-2019-D-E ; 491 ; 2019-07-03 13:41:46.145482 ; 29.58 
69 ; Longs Tours ; 6 ; LT-6-2019-D-E ; 491 ; 2019-07-03 13:41:47.215050 ; 29.28 
70 ; Longs Tours ; 6 ; LT-6-2019-D-E ; 491 ; 2019-07-03 13:41:48.266375 ; 29.21 
71 ; Longs Tours ; 6 ; LT-6-2019-D-E ; 491 ; 2019-07-03 13:41:49.292947 ; 28.95 
72 ; Longs Tours ; 6 ; LT-6-2019-D-E ; 491 ; 2019-07-03 13:41:50.359758 ; 28.67 
73 ; Longs Tours ; 6 ; LT-6-2019-D-E ; 491 ; 2019-07-03 13:41:51.397598 ; 27.99 
74 ; Longs Tours ; 6 ; LT-6-2019-D-E ; 491 ; 2019-07-03 13:41:52.444616 ; 27.5 
75 ; Longs Tours ; 6 ; LT-6-2019-D-E ; 491 ; 2019-07-03 13:41:53.475803 ; 26.69 
76 ; Longs Tours ; 6 ; LT-6-2019-D-E ; 491 ; 2019-07-03 13:41:54.549468 ; 26.36 
77 ; Longs Tours ; 6 ; LT-6-2019-D-E ; 491 ; 2019-07-03 13:41:55.584980 ; 25.8 
78 ; Longs Tours ; 6 ; LT-6-2019-D-E ; 491 ; 2019-07-03 13:41:56.626754 ; 25.56 
79 ; Longs Tours ; 6 ; LT-6-2019-D-E ; 491 ; 2019-07-03 13:41:57.689569 ; 25.3 
80 ; Longs Tours ; 6 ; LT-6-2019-D-E ; 491 ; 2019-07-03 13:41:58.732085 ; 25.06 
81 ; Longs Tours ; 6 ; LT-6-2019-D-E ; 491 ; 2019-07-03 13:41:59.775362 ; 24.96 
82 ; Longs Tours ; 6 ; LT-6-2019-D-E ; 491 ; 2019-07-03 13:42:00.839149 ; 24.8 
83 ; Longs Tours ; 6 ; LT-6-2019-D-E ; 491 ; 2019-07-03 13:42:01.881678 ; 24.66 
84 ; Longs Tours ; 6 ; LT-6-2019-D-E ; 491 ; 2019-07-03 13:42:02.918679 ; 24.36 
85 ; Longs Tours ; 6 ; LT-6-2019-D-E ; 491 ; 2019-07-03 13:42:03.985853 ; 24.07 
86 ; Longs Tours ; 6 ; LT-6-2019-D-E ; 491 ; 2019-07-03 13:42:05.025044 ; 24.02 
87 ; Longs Tours ; 6 ; LT-6-2019-D-E ; 491 ; 2019-07-03 13:42:06.069356 ; 23.92 
88 ; Longs Tours ; 6 ; LT-6-2019-D-E ; 491 ; 2019-07-03 13:42:07.132577 ; NA 
89 ; Longs Tours ; 6 ; LT-6-2019-D-E ; 491 ; 2019-07-03 13:42:08.175846 ; 23.32 
90 ; Longs Tours ; 6 ; LT-6-2019-D-E ; 491 ; 2019-07-03 13:42:09.210152 ; 23.07 
91 ; Longs Tours ; 6 ; LT-6-2019-D-E ; 491 ; 2019-07-03 13:42:10.278988 ; 22.99 
92 ; Longs Tours ; 6 ; LT-6-2019-D-E ; 491 ; 2019-07-03 13:42:11.316288 ; 22.48 
93 ; Longs Tours ; 6 ; LT-6-2019-D-E ; 491 ; 2019-07-03 13:42:12.363074 ; 22.43 
94 ; Longs Tours ; 6 ; LT-6-2019-D-E ; 491 ; 2019-07-03 13:42:13.426189 ; 22.3 
95 ; Longs Tours ; 6 ; LT-6-2019-D-E ; 491 ; 2019-07-03 13:42:14.463505 ; 22.18 
96 ; Longs Tours ; 6 ; LT-6-2019-D-E ; 491 ; 2019-07-03 13:42:15.506909 ; 22.08 
97 ; Longs Tours ; 6 ; LT-6-2019-D-E ; 491 ; 2019-07-03 13:42:16.568590 ; 21.99 
98 ; Longs Tours ; 6 ; LT-6-2019-D-E ; 491 ; 2019-07-03 13:42:17.613060 ; 21.88 
99 ; Longs Tours ; 6 ; LT-6-2019-D-E ; 491 ; 2019-07-03 13:42:18.657862 ; 21.78 
100 ; Longs Tours ; 6 ; LT-6-2019-D-E ; 491 ; 2019-07-03 13:42:19.717597 ; 21.68 
101 ; Longs Tours ; 6 ; LT-6-2019-D-E ; 491 ; 2019-07-03 13:42:20.756835 ; 21.58 
102 ; Longs Tours ; 6 ; LT-6-2019-D-E ; 491 ; 2019-07-03 13:42:21.795251 ; 21.31 
103 ; Longs Tours ; 6 ; LT-6-2019-D-E ; 491 ; 2019-07-03 13:42:22.860836 ; 21.22 
104 ; Longs Tours ; 6 ; LT-6-2019-D-E ; 491 ; 2019-07-03 13:42:23.911359 ; 21.08 
105 ; Longs Tours ; 6 ; LT-6-2019-D-E ; 491 ; 2019-07-03 13:42:24.947007 ; 20.97 
106 ; Longs Tours ; 6 ; LT-6-2019-D-E ; 491 ; 2019-07-03 13:42:26.009088 ; 20.88 
107 ; Longs Tours ; 6 ; LT-6-2019-D-E ; 491 ; 2019-07-03 13:42:27.049796 ; 20.76 
108 ; Longs Tours ; 6 ; LT-6-2019-D-E ; 491 ; 2019-07-03 13:42:28.093565 ; 20.66 
109 ; Longs Tours ; 6 ; LT-6-2019-D-E ; 491 ; 2019-07-03 13:42:29.129129 ; 20.58 
110 ; Longs Tours ; 6 ; LT-6-2019-D-E ; 491 ; 2019-07-03 13:42:30.205177 ; 20.5 
111 ; Longs Tours ; 6 ; LT-6-2019-D-E ; 491 ; 2019-07-03 13:42:31.236373 ; 20.4 
112 ; Longs Tours ; 6 ; LT-6-2019-D-E ; 491 ; 2019-07-03 13:42:32.274952 ; 20.28 
113 ; Longs Tours ; 6 ; LT-6-2019-D-E ; 491 ; 2019-07-03 13:42:33.347473 ; 20.16 
114 ; Longs Tours ; 6 ; LT-6-2019-D-E ; 491 ; 2019-07-03 13:42:34.383217 ; 20.03 
115 ; Longs Tours ; 6 ; LT-6-2019-D-E ; 491 ; 2019-07-03 13:42:35.426846 ; 19.9 
116 ; Longs Tours ; 6 ; LT-6-2019-D-E ; 491 ; 2019-07-03 13:42:36.507738 ; 19.75 
117 ; Longs Tours ; 6 ; LT-6-2019-D-E ; 491 ; 2019-07-03 13:42:37.533952 ; 19.47 
118 ; Longs Tours ; 6 ; LT-6-2019-D-E ; 491 ; 2019-07-03 13:42:38.572114 ; 19.38 
119 ; Longs Tours ; 6 ; LT-6-2019-D-E ; 491 ; 2019-07-03 13:42:39.636379 ; 18.84 
120 ; Longs Tours ; 6 ; LT-6-2019-D-E ; 491 ; 2019-07-03 13:42:40.676342 ; 18.59 
121 ; Longs Tours ; 6 ; LT-6-2019-D-E ; 491 ; 2019-07-03 13:42:41.717055 ; 18.35 
122 ; Longs Tours ; 6 ; LT-6-2019-D-E ; 491 ; 2019-07-03 13:42:42.791752 ; 18.24 
123 ; Longs Tours ; 6 ; LT-6-2019-D-E ; 491 ; 2019-07-03 13:42:43.832020 ; 18.11 
124 ; Longs Tours ; 6 ; LT-6-2019-D-E ; 491 ; 2019-07-03 13:42:44.868533 ; 18.01 
125 ; Longs Tours ; 6 ; LT-6-2019-D-E ; 491 ; 2019-07-03 13:42:45.935776 ; 17.93 
126 ; Longs Tours ; 6 ; LT-6-2019-D-E ; 491 ; 2019-07-03 13:42:46.975465 ; 17.88 
127 ; Longs Tours ; 6 ; LT-6-2019-D-E ; 491 ; 2019-07-03 13:42:48.024434 ; 17.79 
128 ; Longs Tours ; 6 ; LT-6-2019-D-E ; 491 ; 2019-07-03 13:42:49.081410 ; 17.68 
129 ; Longs Tours ; 6 ; LT-6-2019-D-E ; 491 ; 2019-07-03 13:42:50.120926 ; 17.53 
130 ; Longs Tours ; 6 ; LT-6-2019-D-E ; 491 ; 2019-07-03 13:42:51.157563 ; 17.43 
131 ; Longs Tours ; 6 ; LT-6-2019-D-E ; 491 ; 2019-07-03 13:42:52.222644 ; NA 
132 ; Longs Tours ; 6 ; LT-6-2019-D-E ; 491 ; 2019-07-03 13:42:53.268862 ; 17.27 
133 ; Longs Tours ; 6 ; LT-6-2019-D-E ; 491 ; 2019-07-03 13:42:54.313778 ; 17.14 
134 ; Longs Tours ; 6 ; LT-6-2019-D-E ; 491 ; 2019-07-03 13:42:55.373614 ; 16.99 
135 ; Longs Tours ; 6 ; LT-6-2019-D-E ; 491 ; 2019-07-03 13:42:56.412440 ; 16.88 
136 ; Longs Tours ; 6 ; LT-6-2019-D-E ; 491 ; 2019-07-03 13:42:57.465209 ; 16.77 
137 ; Longs Tours ; 6 ; LT-6-2019-D-E ; 491 ; 2019-07-03 13:42:58.490753 ; 16.51 
138 ; Longs Tours ; 6 ; LT-6-2019-D-E ; 491 ; 2019-07-03 13:42:59.559035 ; 16.27 
139 ; Longs Tours ; 6 ; LT-6-2019-D-E ; 491 ; 2019-07-03 13:43:00.606525 ; 16.02 
140 ; Longs Tours ; 6 ; LT-6-2019-D-E ; 491 ; 2019-07-03 13:43:01.631960 ; 15.72 
141 ; Longs Tours ; 6 ; LT-6-2019-D-E ; 491 ; 2019-07-03 13:43:02.700918 ; 15.69 
142 ; Longs Tours ; 6 ; LT-6-2019-D-E ; 491 ; 2019-07-03 13:43:03.742957 ; 15.17 
143 ; Longs Tours ; 6 ; LT-6-2019-D-E ; 491 ; 2019-07-03 13:43:04.814937 ; 15.08 
144 ; Longs Tours ; 6 ; LT-6-2019-D-E ; 491 ; 2019-07-03 13:43:05.849617 ; 14.59 
145 ; Longs Tours ; 6 ; LT-6-2019-D-E ; 491 ; 2019-07-03 13:43:06.902754 ; 14.28 
146 ; Longs Tours ; 6 ; LT-6-2019-D-E ; 491 ; 2019-07-03 13:43:07.926037 ; 13.95 
147 ; Longs Tours ; 6 ; LT-6-2019-D-E ; 491 ; 2019-07-03 13:43:08.994281 ; 13.69 
148 ; Longs Tours ; 6 ; LT-6-2019-D-E ; 491 ; 2019-07-03 13:43:10.039285 ; 13.44 
149 ; Longs Tours ; 6 ; LT-6-2019-D-E ; 491 ; 2019-07-03 13:43:11.084951 ; 13.38 
150 ; Longs Tours ; 6 ; LT-6-2019-D-E ; 491 ; 2019-07-03 13:43:12.144438 ; 13.29 
151 ; Longs Tours ; 6 ; LT-6-2019-D-E ; 491 ; 2019-07-03 13:43:13.192557 ; NA 
152 ; Longs Tours ; 6 ; LT-6-2019-D-E ; 491 ; 2019-07-03 13:43:14.231413 ; 13.14 
153 ; Longs Tours ; 6 ; LT-6-2019-D-E ; 491 ; 2019-07-03 13:43:15.291425 ; 13.02 
154 ; Longs Tours ; 6 ; LT-6-2019-D-E ; 491 ; 2019-07-03 13:43:16.333214 ; 12.86 
155 ; Longs Tours ; 6 ; LT-6-2019-D-E ; 491 ; 2019-07-03 13:43:17.368618 ; 12.77 
156 ; Longs Tours ; 6 ; LT-6-2019-D-E ; 491 ; 2019-07-03 13:43:18.442934 ; 12.73 
157 ; Longs Tours ; 6 ; LT-6-2019-D-E ; 491 ; 2019-07-03 13:43:19.477825 ; 12.69 
158 ; Longs Tours ; 6 ; LT-6-2019-D-E ; 491 ; 2019-07-03 13:43:20.520073 ; 12.63 
159 ; Longs Tours ; 6 ; LT-6-2019-D-E ; 491 ; 2019-07-03 13:43:21.587281 ; 12.58 
160 ; Longs Tours ; 6 ; LT-6-2019-D-E ; 491 ; 2019-07-03 13:43:22.623459 ; 12.54 
161 ; Longs Tours ; 6 ; LT-6-2019-D-E ; 491 ; 2019-07-03 13:43:23.667124 ; 12.52 
162 ; Longs Tours ; 6 ; LT-6-2019-D-E ; 491 ; 2019-07-03 13:43:24.711961 ; 12.5 
163 ; Longs Tours ; 6 ; LT-6-2019-D-E ; 491 ; 2019-07-03 13:43:25.784831 ; 12.46 
164 ; Longs Tours ; 6 ; LT-6-2019-D-E ; 491 ; 2019-07-03 13:43:26.812219 ; 12.39 
165 ; Longs Tours ; 6 ; LT-6-2019-D-E ; 491 ; 2019-07-03 13:43:27.849269 ; 12.35 
166 ; Longs Tours ; 6 ; LT-6-2019-D-E ; 491 ; 2019-07-03 13:43:28.919409 ; 12.33 
167 ; Longs Tours ; 6 ; LT-6-2019-D-E ; 491 ; 2019-07-03 13:43:29.956690 ; 12.31 
168 ; Longs Tours ; 6 ; LT-6-2019-D-E ; 491 ; 2019-07-03 13:43:31.004151 ; 12.29 
169 ; Longs Tours ; 6 ; LT-6-2019-D-E ; 491 ; 2019-07-03 13:43:32.062135 ; 12.22 
170 ; Longs Tours ; 6 ; LT-6-2019-D-E ; 491 ; 2019-07-03 13:43:33.103671 ; 12.13 
171 ; Longs Tours ; 6 ; LT-6-2019-D-E ; 491 ; 2019-07-03 13:43:34.144254 ; 11.8 
172 ; Longs Tours ; 6 ; LT-6-2019-D-E ; 491 ; 2019-07-03 13:43:35.209110 ; 11.74 
173 ; Longs Tours ; 6 ; LT-6-2019-D-E ; 491 ; 2019-07-03 13:43:36.255047 ; 11.63 
174 ; Longs Tours ; 6 ; LT-6-2019-D-E ; 491 ; 2019-07-03 13:43:37.290729 ; 11.56 
175 ; Longs Tours ; 6 ; LT-6-2019-D-E ; 491 ; 2019-07-03 13:43:48.367936 ; 10.54 
176 ; Longs Tours ; 6 ; LT-6-2019-D-E ; 491 ; 2019-07-03 13:43:59.376316 ; 10.4 
177 ; Longs Tours ; 6 ; LT-6-2019-D-E ; 491 ; 2019-07-03 13:44:10.364713 ; 10.31 
178 ; Longs Tours ; 6 ; LT-6-2019-D-E ; 491 ; 2019-07-03 13:44:21.378510 ; 10.2 
179 ; Longs Tours ; 6 ; LT-6-2019-D-E ; 491 ; 2019-07-03 13:44:32.400760 ; 10.2 
180 ; Longs Tours ; 6 ; LT-6-2019-D-E ; 491 ; 2019-07-03 13:44:43.400763 ; 10.2 
181 ; Longs Tours ; 6 ; LT-6-2019-D-E ; 491 ; 2019-07-03 13:44:54.413034 ; 10.2 
182 ; Longs Tours ; 6 ; LT-6-2019-D-E ; 491 ; 2019-07-03 13:45:05.430011 ; 10.2 
183 ; Longs Tours ; 6 ; LT-6-2019-D-E ; 491 ; 2019-07-03 13:45:16.445784 ; 10.2 
184 ; Longs Tours ; 6 ; LT-6-2019-D-E ; 491 ; 2019-07-03 13:45:27.456689 ; 9.97 
185 ; Longs Tours ; 6 ; LT-6-2019-D-E ; 491 ; 2019-07-03 13:45:38.454212 ; 9.7 
186 ; Longs Tours ; 6 ; LT-6-2019-D-E ; 491 ; 2019-07-03 13:45:49.463977 ; 9.7 
187 ; Longs Tours ; 6 ; LT-6-2019-D-E ; 491 ; 2019-07-03 13:46:00.470960 ; 9.7 
188 ; Longs Tours ; 6 ; LT-6-2019-D-E ; 491 ; 2019-07-03 13:46:11.482442 ; 9.59 
189 ; Longs Tours ; 6 ; LT-6-2019-D-E ; 491 ; 2019-07-03 13:46:22.500741 ; 9.59 
190 ; Longs Tours ; 6 ; LT-6-2019-D-E ; 491 ; 2019-07-03 13:46:33.510948 ; 9.59 
191 ; Longs Tours ; 6 ; LT-6-2019-D-E ; 491 ; 2019-07-03 13:46:44.530119 ; 9.59 
192 ; Longs Tours ; 6 ; LT-6-2019-D-E ; 491 ; 2019-07-03 13:46:55.536210 ; 9.59 
193 ; Longs Tours ; 6 ; LT-6-2019-D-E ; 491 ; 2019-07-03 13:47:06.525806 ; 9.59 
194 ; Longs Tours ; 6 ; LT-6-2019-D-E ; 491 ; 2019-07-03 13:47:17.550977 ; 9.59 
195 ; Longs Tours ; 6 ; LT-6-2019-D-E ; 491 ; 2019-07-03 13:47:28.543620 ; 9.59 
196 ; Longs Tours ; 6 ; LT-6-2019-D-E ; 491 ; 2019-07-03 13:47:39.565505 ; 9.59 
197 ; Longs Tours ; 6 ; LT-6-2019-D-E ; 491 ; 2019-07-03 13:47:50.585448 ; 9.59 
198 ; Longs Tours ; 6 ; LT-6-2019-D-E ; 491 ; 2019-07-03 13:48:01.590813 ; 9.59 
199 ; Longs Tours ; 6 ; LT-6-2019-D-E ; 491 ; 2019-07-03 13:48:12.604016 ; 9.59 
200 ; Longs Tours ; 6 ; LT-6-2019-D-E ; 491 ; 2019-07-03 13:48:23.619151 ; 9.59 
201 ; Longs Tours ; 6 ; LT-6-2019-D-E ; 491 ; 2019-07-03 13:48:34.630186 ; 9.59 
202 ; Longs Tours ; 6 ; LT-6-2019-D-E ; 491 ; 2019-07-03 13:48:45.617187 ; 9.59 
203 ; Longs Tours ; 6 ; LT-6-2019-D-E ; 491 ; 2019-07-03 13:48:56.638084 ; 9.59 
204 ; Longs Tours ; 6 ; LT-6-2019-D-E ; 491 ; 2019-07-03 13:49:07.640315 ; 9.59 
205 ; Longs Tours ; 6 ; LT-6-2019-D-E ; 491 ; 2019-07-03 13:49:18.657033 ; 9.59 
206 ; Longs Tours ; 6 ; LT-6-2019-D-E ; 491 ; 2019-07-03 13:49:29.668983 ; 9.59 
207 ; Longs Tours ; 6 ; LT-6-2019-D-E ; 491 ; 2019-07-03 13:49:40.683416 ; 9.59 
208 ; Longs Tours ; 6 ; LT-6-2019-D-E ; 491 ; 2019-07-03 13:49:51.697622 ; 9.59 
209 ; Longs Tours ; 6 ; LT-6-2019-D-E ; 491 ; 2019-07-03 13:50:02.725341 ; 9.59 
210 ; Longs Tours ; 6 ; LT-6-2019-D-E ; 491 ; 2019-07-03 13:50:13.699732 ; 9.59 
211 ; Longs Tours ; 6 ; LT-6-2019-D-E ; 491 ; 2019-07-03 13:50:24.713593 ; 9.59 
212 ; Longs Tours ; 6 ; LT-6-2019-D-E ; 491 ; 2019-07-03 13:50:35.725732 ; 9.59 
213 ; Longs Tours ; 6 ; LT-6-2019-D-E ; 491 ; 2019-07-03 13:51:06.736742 ; 9.59 
214 ; Longs Tours ; 6 ; LT-6-2019-D-E ; 491 ; 2019-07-03 13:51:37.673767 ; 9.59 
215 ; Longs Tours ; 6 ; LT-6-2019-D-E ; 491 ; 2019-07-03 13:52:08.610051 ; 9.59 
216 ; Longs Tours ; 6 ; LT-6-2019-D-E ; 491 ; 2019-07-03 13:52:39.535845 ; 9.55 
217 ; Longs Tours ; 6 ; LT-6-2019-D-E ; 491 ; 2019-07-03 13:53:10.479516 ; 9.46 
218 ; Longs Tours ; 6 ; LT-6-2019-D-E ; 491 ; 2019-07-03 13:53:41.405936 ; 9.46 
219 ; Longs Tours ; 6 ; LT-6-2019-D-E ; 491 ; 2019-07-03 13:54:12.337402 ; 9.46 
220 ; Longs Tours ; 6 ; LT-6-2019-D-E ; 491 ; 2019-07-03 13:54:43.270548 ; 9.46 
221 ; Longs Tours ; 6 ; LT-6-2019-D-E ; 491 ; 2019-07-03 13:55:14.213563 ; 9.46 
222 ; Longs Tours ; 6 ; LT-6-2019-D-E ; 491 ; 2019-07-03 13:55:45.171657 ; 9.46 
