i ; campaign ; serie ; sample ; slake ; time ; mass 
1 ; Ernage A ; 20 ; PK-20-P1K2-2019-D-A ; 449 ; 2019-07-02 13:15:05.013701 ; 136.02 
2 ; Ernage A ; 20 ; PK-20-P1K2-2019-D-A ; 449 ; 2019-07-02 13:15:05.911195 ; 136.02 
3 ; Ernage A ; 20 ; PK-20-P1K2-2019-D-A ; 449 ; 2019-07-02 13:15:06.951229 ; 136.02 
4 ; Ernage A ; 20 ; PK-20-P1K2-2019-D-A ; 449 ; 2019-07-02 13:15:07.992580 ; 136.02 
5 ; Ernage A ; 20 ; PK-20-P1K2-2019-D-A ; 449 ; 2019-07-02 13:15:09.055778 ; 136.02 
6 ; Ernage A ; 20 ; PK-20-P1K2-2019-D-A ; 449 ; 2019-07-02 13:15:10.105900 ; 104.46 
7 ; Ernage A ; 20 ; PK-20-P1K2-2019-D-A ; 449 ; 2019-07-02 13:15:11.141664 ; 54.48 
8 ; Ernage A ; 20 ; PK-20-P1K2-2019-D-A ; 449 ; 2019-07-02 13:15:12.210566 ; 58.59 
9 ; Ernage A ; 20 ; PK-20-P1K2-2019-D-A ; 449 ; 2019-07-02 13:15:13.250177 ; 61.28 
10 ; Ernage A ; 20 ; PK-20-P1K2-2019-D-A ; 449 ; 2019-07-02 13:15:14.289861 ; 61.56 
11 ; Ernage A ; 20 ; PK-20-P1K2-2019-D-A ; 449 ; 2019-07-02 13:15:15.364005 ; 62 
12 ; Ernage A ; 20 ; PK-20-P1K2-2019-D-A ; 449 ; 2019-07-02 13:15:16.399099 ; 62.27 
13 ; Ernage A ; 20 ; PK-20-P1K2-2019-D-A ; 449 ; 2019-07-02 13:15:17.451304 ; 62.53 
14 ; Ernage A ; 20 ; PK-20-P1K2-2019-D-A ; 449 ; 2019-07-02 13:15:18.500213 ; 62.6 
15 ; Ernage A ; 20 ; PK-20-P1K2-2019-D-A ; 449 ; 2019-07-02 13:15:19.541993 ; 62.72 
16 ; Ernage A ; 20 ; PK-20-P1K2-2019-D-A ; 449 ; 2019-07-02 13:15:20.589362 ; 62.81 
17 ; Ernage A ; 20 ; PK-20-P1K2-2019-D-A ; 449 ; 2019-07-02 13:15:21.654122 ; 62.85 
18 ; Ernage A ; 20 ; PK-20-P1K2-2019-D-A ; 449 ; 2019-07-02 13:15:22.683079 ; 62.83 
19 ; Ernage A ; 20 ; PK-20-P1K2-2019-D-A ; 449 ; 2019-07-02 13:15:23.727785 ; 62.75 
20 ; Ernage A ; 20 ; PK-20-P1K2-2019-D-A ; 449 ; 2019-07-02 13:15:24.811912 ; 62.74 
21 ; Ernage A ; 20 ; PK-20-P1K2-2019-D-A ; 449 ; 2019-07-02 13:15:25.843963 ; 62.75 
22 ; Ernage A ; 20 ; PK-20-P1K2-2019-D-A ; 449 ; 2019-07-02 13:15:26.875429 ; 62.44 
23 ; Ernage A ; 20 ; PK-20-P1K2-2019-D-A ; 449 ; 2019-07-02 13:15:27.945007 ; 62.16 
24 ; Ernage A ; 20 ; PK-20-P1K2-2019-D-A ; 449 ; 2019-07-02 13:15:28.980739 ; 61.91 
25 ; Ernage A ; 20 ; PK-20-P1K2-2019-D-A ; 449 ; 2019-07-02 13:15:30.019675 ; 61.65 
26 ; Ernage A ; 20 ; PK-20-P1K2-2019-D-A ; 449 ; 2019-07-02 13:15:31.089978 ; 61.16 
27 ; Ernage A ; 20 ; PK-20-P1K2-2019-D-A ; 449 ; 2019-07-02 13:15:32.136805 ; 60.83 
28 ; Ernage A ; 20 ; PK-20-P1K2-2019-D-A ; 449 ; 2019-07-02 13:15:33.167659 ; 60.09 
29 ; Ernage A ; 20 ; PK-20-P1K2-2019-D-A ; 449 ; 2019-07-02 13:15:34.211022 ; 59.46 
30 ; Ernage A ; 20 ; PK-20-P1K2-2019-D-A ; 449 ; 2019-07-02 13:15:35.291508 ; 58.91 
31 ; Ernage A ; 20 ; PK-20-P1K2-2019-D-A ; 449 ; 2019-07-02 13:15:36.314584 ; 58.59 
32 ; Ernage A ; 20 ; PK-20-P1K2-2019-D-A ; 449 ; 2019-07-02 13:15:37.362679 ; 58.11 
33 ; Ernage A ; 20 ; PK-20-P1K2-2019-D-A ; 449 ; 2019-07-02 13:15:38.423721 ; 57.66 
34 ; Ernage A ; 20 ; PK-20-P1K2-2019-D-A ; 449 ; 2019-07-02 13:15:39.460378 ; 56.77 
35 ; Ernage A ; 20 ; PK-20-P1K2-2019-D-A ; 449 ; 2019-07-02 13:15:40.507061 ; 56.22 
36 ; Ernage A ; 20 ; PK-20-P1K2-2019-D-A ; 449 ; 2019-07-02 13:15:41.566995 ; 55.65 
37 ; Ernage A ; 20 ; PK-20-P1K2-2019-D-A ; 449 ; 2019-07-02 13:15:42.616624 ; 55.14 
38 ; Ernage A ; 20 ; PK-20-P1K2-2019-D-A ; 449 ; 2019-07-02 13:15:43.647609 ; 54.26 
39 ; Ernage A ; 20 ; PK-20-P1K2-2019-D-A ; 449 ; 2019-07-02 13:15:44.712776 ; 53.59 
40 ; Ernage A ; 20 ; PK-20-P1K2-2019-D-A ; 449 ; 2019-07-02 13:15:45.772681 ; 52.73 
41 ; Ernage A ; 20 ; PK-20-P1K2-2019-D-A ; 449 ; 2019-07-02 13:15:46.794702 ; 52.16 
42 ; Ernage A ; 20 ; PK-20-P1K2-2019-D-A ; 449 ; 2019-07-02 13:15:47.882513 ; 50.89 
43 ; Ernage A ; 20 ; PK-20-P1K2-2019-D-A ; 449 ; 2019-07-02 13:15:48.908927 ; 50.1 
44 ; Ernage A ; 20 ; PK-20-P1K2-2019-D-A ; 449 ; 2019-07-02 13:15:49.940413 ; 48.74 
45 ; Ernage A ; 20 ; PK-20-P1K2-2019-D-A ; 449 ; 2019-07-02 13:15:51.006715 ; 48.1 
46 ; Ernage A ; 20 ; PK-20-P1K2-2019-D-A ; 449 ; 2019-07-02 13:15:52.050187 ; 47.2 
47 ; Ernage A ; 20 ; PK-20-P1K2-2019-D-A ; 449 ; 2019-07-02 13:15:53.099275 ; 46.61 
48 ; Ernage A ; 20 ; PK-20-P1K2-2019-D-A ; 449 ; 2019-07-02 13:15:54.154376 ; 46.06 
49 ; Ernage A ; 20 ; PK-20-P1K2-2019-D-A ; 449 ; 2019-07-02 13:15:55.201407 ; 45.04 
50 ; Ernage A ; 20 ; PK-20-P1K2-2019-D-A ; 449 ; 2019-07-02 13:15:56.233753 ; 43.8 
51 ; Ernage A ; 20 ; PK-20-P1K2-2019-D-A ; 449 ; 2019-07-02 13:15:57.303993 ; 42.65 
52 ; Ernage A ; 20 ; PK-20-P1K2-2019-D-A ; 449 ; 2019-07-02 13:15:58.350549 ; 42.04 
53 ; Ernage A ; 20 ; PK-20-P1K2-2019-D-A ; 449 ; 2019-07-02 13:15:59.385210 ; 41.37 
54 ; Ernage A ; 20 ; PK-20-P1K2-2019-D-A ; 449 ; 2019-07-02 13:16:00.461190 ; 40.85 
55 ; Ernage A ; 20 ; PK-20-P1K2-2019-D-A ; 449 ; 2019-07-02 13:16:01.489309 ; 40.29 
56 ; Ernage A ; 20 ; PK-20-P1K2-2019-D-A ; 449 ; 2019-07-02 13:16:02.527470 ; 39.79 
57 ; Ernage A ; 20 ; PK-20-P1K2-2019-D-A ; 449 ; 2019-07-02 13:16:03.575929 ; 39.17 
58 ; Ernage A ; 20 ; PK-20-P1K2-2019-D-A ; 449 ; 2019-07-02 13:16:04.644408 ; 38.83 
59 ; Ernage A ; 20 ; PK-20-P1K2-2019-D-A ; 449 ; 2019-07-02 13:16:05.676385 ; 38.26 
60 ; Ernage A ; 20 ; PK-20-P1K2-2019-D-A ; 449 ; 2019-07-02 13:16:06.713366 ; 37.97 
61 ; Ernage A ; 20 ; PK-20-P1K2-2019-D-A ; 449 ; 2019-07-02 13:16:07.784436 ; 37.61 
62 ; Ernage A ; 20 ; PK-20-P1K2-2019-D-A ; 449 ; 2019-07-02 13:16:08.838029 ; 37.36 
63 ; Ernage A ; 20 ; PK-20-P1K2-2019-D-A ; 449 ; 2019-07-02 13:16:09.864102 ; 36.77 
64 ; Ernage A ; 20 ; PK-20-P1K2-2019-D-A ; 449 ; 2019-07-02 13:16:10.929138 ; 35.72 
65 ; Ernage A ; 20 ; PK-20-P1K2-2019-D-A ; 449 ; 2019-07-02 13:16:11.973980 ; 34.51 
66 ; Ernage A ; 20 ; PK-20-P1K2-2019-D-A ; 449 ; 2019-07-02 13:16:13.016955 ; 34.26 
67 ; Ernage A ; 20 ; PK-20-P1K2-2019-D-A ; 449 ; 2019-07-02 13:16:14.083197 ; 33.97 
68 ; Ernage A ; 20 ; PK-20-P1K2-2019-D-A ; 449 ; 2019-07-02 13:16:15.117017 ; 33.69 
69 ; Ernage A ; 20 ; PK-20-P1K2-2019-D-A ; 449 ; 2019-07-02 13:16:16.149788 ; 33.38 
70 ; Ernage A ; 20 ; PK-20-P1K2-2019-D-A ; 449 ; 2019-07-02 13:16:17.221169 ; 33.28 
71 ; Ernage A ; 20 ; PK-20-P1K2-2019-D-A ; 449 ; 2019-07-02 13:16:18.271883 ; 33.12 
72 ; Ernage A ; 20 ; PK-20-P1K2-2019-D-A ; 449 ; 2019-07-02 13:16:19.307017 ; 32.98 
73 ; Ernage A ; 20 ; PK-20-P1K2-2019-D-A ; 449 ; 2019-07-02 13:16:20.372300 ; 32.85 
74 ; Ernage A ; 20 ; PK-20-P1K2-2019-D-A ; 449 ; 2019-07-02 13:16:21.408637 ; 32.73 
75 ; Ernage A ; 20 ; PK-20-P1K2-2019-D-A ; 449 ; 2019-07-02 13:16:22.443499 ; 32.61 
76 ; Ernage A ; 20 ; PK-20-P1K2-2019-D-A ; 449 ; 2019-07-02 13:16:23.511972 ; 32.31 
77 ; Ernage A ; 20 ; PK-20-P1K2-2019-D-A ; 449 ; 2019-07-02 13:16:24.561353 ; 32.21 
78 ; Ernage A ; 20 ; PK-20-P1K2-2019-D-A ; 449 ; 2019-07-02 13:16:25.613759 ; 32.08 
79 ; Ernage A ; 20 ; PK-20-P1K2-2019-D-A ; 449 ; 2019-07-02 13:16:26.657953 ; 31.96 
80 ; Ernage A ; 20 ; PK-20-P1K2-2019-D-A ; 449 ; 2019-07-02 13:16:27.702621 ; 31.8 
81 ; Ernage A ; 20 ; PK-20-P1K2-2019-D-A ; 449 ; 2019-07-02 13:16:28.740664 ; 31.65 
82 ; Ernage A ; 20 ; PK-20-P1K2-2019-D-A ; 449 ; 2019-07-02 13:16:29.809147 ; 31.33 
83 ; Ernage A ; 20 ; PK-20-P1K2-2019-D-A ; 449 ; 2019-07-02 13:16:30.845814 ; 31.28 
84 ; Ernage A ; 20 ; PK-20-P1K2-2019-D-A ; 449 ; 2019-07-02 13:16:31.885493 ; 31.05 
85 ; Ernage A ; 20 ; PK-20-P1K2-2019-D-A ; 449 ; 2019-07-02 13:16:32.956408 ; 30.99 
86 ; Ernage A ; 20 ; PK-20-P1K2-2019-D-A ; 449 ; 2019-07-02 13:16:33.992590 ; 30.91 
87 ; Ernage A ; 20 ; PK-20-P1K2-2019-D-A ; 449 ; 2019-07-02 13:16:35.041047 ; 30.83 
88 ; Ernage A ; 20 ; PK-20-P1K2-2019-D-A ; 449 ; 2019-07-02 13:16:36.101130 ; 30.51 
89 ; Ernage A ; 20 ; PK-20-P1K2-2019-D-A ; 449 ; 2019-07-02 13:16:37.136569 ; 30.23 
90 ; Ernage A ; 20 ; PK-20-P1K2-2019-D-A ; 449 ; 2019-07-02 13:16:38.180812 ; 29.97 
91 ; Ernage A ; 20 ; PK-20-P1K2-2019-D-A ; 449 ; 2019-07-02 13:16:39.225263 ; 29.91 
92 ; Ernage A ; 20 ; PK-20-P1K2-2019-D-A ; 449 ; 2019-07-02 13:16:40.316495 ; 29.83 
93 ; Ernage A ; 20 ; PK-20-P1K2-2019-D-A ; 449 ; 2019-07-02 13:16:41.332228 ; 29.53 
94 ; Ernage A ; 20 ; PK-20-P1K2-2019-D-A ; 449 ; 2019-07-02 13:16:42.369870 ; 29.24 
95 ; Ernage A ; 20 ; PK-20-P1K2-2019-D-A ; 449 ; 2019-07-02 13:16:43.438793 ; 28.87 
96 ; Ernage A ; 20 ; PK-20-P1K2-2019-D-A ; 449 ; 2019-07-02 13:16:44.473766 ; 28.39 
97 ; Ernage A ; 20 ; PK-20-P1K2-2019-D-A ; 449 ; 2019-07-02 13:16:45.544084 ; 27.69 
98 ; Ernage A ; 20 ; PK-20-P1K2-2019-D-A ; 449 ; 2019-07-02 13:16:46.583825 ; 27.15 
99 ; Ernage A ; 20 ; PK-20-P1K2-2019-D-A ; 449 ; 2019-07-02 13:16:47.622280 ; 26.83 
100 ; Ernage A ; 20 ; PK-20-P1K2-2019-D-A ; 449 ; 2019-07-02 13:16:48.662641 ; 26.55 
101 ; Ernage A ; 20 ; PK-20-P1K2-2019-D-A ; 449 ; 2019-07-02 13:16:49.729724 ; 26.48 
102 ; Ernage A ; 20 ; PK-20-P1K2-2019-D-A ; 449 ; 2019-07-02 13:16:50.777181 ; 26.36 
103 ; Ernage A ; 20 ; PK-20-P1K2-2019-D-A ; 449 ; 2019-07-02 13:16:51.831440 ; 25.88 
104 ; Ernage A ; 20 ; PK-20-P1K2-2019-D-A ; 449 ; 2019-07-02 13:16:52.871997 ; 25.39 
105 ; Ernage A ; 20 ; PK-20-P1K2-2019-D-A ; 449 ; 2019-07-02 13:16:53.918206 ; 24.84 
106 ; Ernage A ; 20 ; PK-20-P1K2-2019-D-A ; 449 ; 2019-07-02 13:16:54.953214 ; 24.56 
107 ; Ernage A ; 20 ; PK-20-P1K2-2019-D-A ; 449 ; 2019-07-02 13:16:56.034228 ; 24.5 
108 ; Ernage A ; 20 ; PK-20-P1K2-2019-D-A ; 449 ; 2019-07-02 13:16:57.067169 ; 24.39 
109 ; Ernage A ; 20 ; PK-20-P1K2-2019-D-A ; 449 ; 2019-07-02 13:16:58.122741 ; 24.34 
110 ; Ernage A ; 20 ; PK-20-P1K2-2019-D-A ; 449 ; 2019-07-02 13:16:59.172505 ; 24.26 
111 ; Ernage A ; 20 ; PK-20-P1K2-2019-D-A ; 449 ; 2019-07-02 13:17:00.208358 ; 24.17 
112 ; Ernage A ; 20 ; PK-20-P1K2-2019-D-A ; 449 ; 2019-07-02 13:17:01.259055 ; 23.88 
113 ; Ernage A ; 20 ; PK-20-P1K2-2019-D-A ; 449 ; 2019-07-02 13:17:02.313252 ; 23.79 
114 ; Ernage A ; 20 ; PK-20-P1K2-2019-D-A ; 449 ; 2019-07-02 13:17:03.352832 ; 23.68 
115 ; Ernage A ; 20 ; PK-20-P1K2-2019-D-A ; 449 ; 2019-07-02 13:17:04.397400 ; 23.58 
116 ; Ernage A ; 20 ; PK-20-P1K2-2019-D-A ; 449 ; 2019-07-02 13:17:05.461730 ; 23.49 
117 ; Ernage A ; 20 ; PK-20-P1K2-2019-D-A ; 449 ; 2019-07-02 13:17:06.511698 ; 23.42 
118 ; Ernage A ; 20 ; PK-20-P1K2-2019-D-A ; 449 ; 2019-07-02 13:17:07.539312 ; 23.34 
119 ; Ernage A ; 20 ; PK-20-P1K2-2019-D-A ; 449 ; 2019-07-02 13:17:08.576368 ; 23.29 
120 ; Ernage A ; 20 ; PK-20-P1K2-2019-D-A ; 449 ; 2019-07-02 13:17:09.642596 ; 23.24 
121 ; Ernage A ; 20 ; PK-20-P1K2-2019-D-A ; 449 ; 2019-07-02 13:17:10.692328 ; 23.2 
122 ; Ernage A ; 20 ; PK-20-P1K2-2019-D-A ; 449 ; 2019-07-02 13:17:11.737069 ; 23.2 
123 ; Ernage A ; 20 ; PK-20-P1K2-2019-D-A ; 449 ; 2019-07-02 13:17:12.802158 ; 23.17 
124 ; Ernage A ; 20 ; PK-20-P1K2-2019-D-A ; 449 ; 2019-07-02 13:17:13.831093 ; 23.1 
125 ; Ernage A ; 20 ; PK-20-P1K2-2019-D-A ; 449 ; 2019-07-02 13:17:14.871283 ; 23.05 
126 ; Ernage A ; 20 ; PK-20-P1K2-2019-D-A ; 449 ; 2019-07-02 13:17:15.938268 ; 22.97 
127 ; Ernage A ; 20 ; PK-20-P1K2-2019-D-A ; 449 ; 2019-07-02 13:17:16.994635 ; 22.92 
128 ; Ernage A ; 20 ; PK-20-P1K2-2019-D-A ; 449 ; 2019-07-02 13:17:18.019901 ; 22.9 
129 ; Ernage A ; 20 ; PK-20-P1K2-2019-D-A ; 449 ; 2019-07-02 13:17:19.087984 ; 22.86 
130 ; Ernage A ; 20 ; PK-20-P1K2-2019-D-A ; 449 ; 2019-07-02 13:17:20.125460 ; 22.82 
131 ; Ernage A ; 20 ; PK-20-P1K2-2019-D-A ; 449 ; 2019-07-02 13:17:21.164032 ; 22.8 
132 ; Ernage A ; 20 ; PK-20-P1K2-2019-D-A ; 449 ; 2019-07-02 13:17:22.241172 ; 22.77 
133 ; Ernage A ; 20 ; PK-20-P1K2-2019-D-A ; 449 ; 2019-07-02 13:17:23.277321 ; 22.72 
134 ; Ernage A ; 20 ; PK-20-P1K2-2019-D-A ; 449 ; 2019-07-02 13:17:24.309445 ; 22.67 
135 ; Ernage A ; 20 ; PK-20-P1K2-2019-D-A ; 449 ; 2019-07-02 13:17:25.377026 ; 22.62 
136 ; Ernage A ; 20 ; PK-20-P1K2-2019-D-A ; 449 ; 2019-07-02 13:17:26.416795 ; 22.6 
137 ; Ernage A ; 20 ; PK-20-P1K2-2019-D-A ; 449 ; 2019-07-02 13:17:27.470078 ; 22.57 
138 ; Ernage A ; 20 ; PK-20-P1K2-2019-D-A ; 449 ; 2019-07-02 13:17:28.524101 ; 22.55 
139 ; Ernage A ; 20 ; PK-20-P1K2-2019-D-A ; 449 ; 2019-07-02 13:17:29.565335 ; 22.53 
140 ; Ernage A ; 20 ; PK-20-P1K2-2019-D-A ; 449 ; 2019-07-02 13:17:30.607308 ; 22.51 
141 ; Ernage A ; 20 ; PK-20-P1K2-2019-D-A ; 449 ; 2019-07-02 13:17:31.672328 ; 22.48 
142 ; Ernage A ; 20 ; PK-20-P1K2-2019-D-A ; 449 ; 2019-07-02 13:17:32.720153 ; 22.46 
143 ; Ernage A ; 20 ; PK-20-P1K2-2019-D-A ; 449 ; 2019-07-02 13:17:33.760590 ; 22.44 
144 ; Ernage A ; 20 ; PK-20-P1K2-2019-D-A ; 449 ; 2019-07-02 13:17:34.816456 ; 22.4 
145 ; Ernage A ; 20 ; PK-20-P1K2-2019-D-A ; 449 ; 2019-07-02 13:17:35.861027 ; 22.36 
146 ; Ernage A ; 20 ; PK-20-P1K2-2019-D-A ; 449 ; 2019-07-02 13:17:36.898918 ; 22.36 
147 ; Ernage A ; 20 ; PK-20-P1K2-2019-D-A ; 449 ; 2019-07-02 13:17:37.946054 ; 22.34 
148 ; Ernage A ; 20 ; PK-20-P1K2-2019-D-A ; 449 ; 2019-07-02 13:17:39.009412 ; 22.32 
149 ; Ernage A ; 20 ; PK-20-P1K2-2019-D-A ; 449 ; 2019-07-02 13:17:40.045651 ; 22.32 
150 ; Ernage A ; 20 ; PK-20-P1K2-2019-D-A ; 449 ; 2019-07-02 13:17:41.079559 ; 22.31 
151 ; Ernage A ; 20 ; PK-20-P1K2-2019-D-A ; 449 ; 2019-07-02 13:17:42.154084 ; 22.26 
152 ; Ernage A ; 20 ; PK-20-P1K2-2019-D-A ; 449 ; 2019-07-02 13:17:43.202208 ; 22.21 
153 ; Ernage A ; 20 ; PK-20-P1K2-2019-D-A ; 449 ; 2019-07-02 13:17:44.240860 ; 22.17 
154 ; Ernage A ; 20 ; PK-20-P1K2-2019-D-A ; 449 ; 2019-07-02 13:17:45.297283 ; 22.15 
155 ; Ernage A ; 20 ; PK-20-P1K2-2019-D-A ; 449 ; 2019-07-02 13:17:46.339338 ; 22.15 
156 ; Ernage A ; 20 ; PK-20-P1K2-2019-D-A ; 449 ; 2019-07-02 13:17:47.373656 ; 22.15 
157 ; Ernage A ; 20 ; PK-20-P1K2-2019-D-A ; 449 ; 2019-07-02 13:17:48.448209 ; 22.14 
158 ; Ernage A ; 20 ; PK-20-P1K2-2019-D-A ; 449 ; 2019-07-02 13:17:49.490520 ; 22.11 
159 ; Ernage A ; 20 ; PK-20-P1K2-2019-D-A ; 449 ; 2019-07-02 13:17:50.524959 ; 22.07 
160 ; Ernage A ; 20 ; PK-20-P1K2-2019-D-A ; 449 ; 2019-07-02 13:17:51.589820 ; 22.03 
161 ; Ernage A ; 20 ; PK-20-P1K2-2019-D-A ; 449 ; 2019-07-02 13:17:52.630284 ; 21.99 
162 ; Ernage A ; 20 ; PK-20-P1K2-2019-D-A ; 449 ; 2019-07-02 13:17:53.677680 ; 21.97 
163 ; Ernage A ; 20 ; PK-20-P1K2-2019-D-A ; 449 ; 2019-07-02 13:17:54.739759 ; 21.96 
164 ; Ernage A ; 20 ; PK-20-P1K2-2019-D-A ; 449 ; 2019-07-02 13:17:55.782614 ; 21.94 
165 ; Ernage A ; 20 ; PK-20-P1K2-2019-D-A ; 449 ; 2019-07-02 13:17:56.817107 ; 21.92 
166 ; Ernage A ; 20 ; PK-20-P1K2-2019-D-A ; 449 ; 2019-07-02 13:17:57.883728 ; 21.9 
167 ; Ernage A ; 20 ; PK-20-P1K2-2019-D-A ; 449 ; 2019-07-02 13:17:58.933821 ; 21.86 
168 ; Ernage A ; 20 ; PK-20-P1K2-2019-D-A ; 449 ; 2019-07-02 13:17:59.969293 ; 21.86 
169 ; Ernage A ; 20 ; PK-20-P1K2-2019-D-A ; 449 ; 2019-07-02 13:18:01.026628 ; 21.86 
170 ; Ernage A ; 20 ; PK-20-P1K2-2019-D-A ; 449 ; 2019-07-02 13:18:02.067801 ; 21.86 
171 ; Ernage A ; 20 ; PK-20-P1K2-2019-D-A ; 449 ; 2019-07-02 13:18:03.105981 ; 21.86 
172 ; Ernage A ; 20 ; PK-20-P1K2-2019-D-A ; 449 ; 2019-07-02 13:18:04.173162 ; 21.83 
173 ; Ernage A ; 20 ; PK-20-P1K2-2019-D-A ; 449 ; 2019-07-02 13:18:05.229287 ; 21.81 
174 ; Ernage A ; 20 ; PK-20-P1K2-2019-D-A ; 449 ; 2019-07-02 13:18:06.257769 ; 21.77 
175 ; Ernage A ; 20 ; PK-20-P1K2-2019-D-A ; 449 ; 2019-07-02 13:18:17.310918 ; 21.66 
176 ; Ernage A ; 20 ; PK-20-P1K2-2019-D-A ; 449 ; 2019-07-02 13:18:28.322598 ; 21.66 
177 ; Ernage A ; 20 ; PK-20-P1K2-2019-D-A ; 449 ; 2019-07-02 13:18:39.333546 ; 21.66 
178 ; Ernage A ; 20 ; PK-20-P1K2-2019-D-A ; 449 ; 2019-07-02 13:18:50.356705 ; 21.6 
179 ; Ernage A ; 20 ; PK-20-P1K2-2019-D-A ; 449 ; 2019-07-02 13:19:01.361074 ; 21.55 
180 ; Ernage A ; 20 ; PK-20-P1K2-2019-D-A ; 449 ; 2019-07-02 13:19:12.375411 ; 21.55 
181 ; Ernage A ; 20 ; PK-20-P1K2-2019-D-A ; 449 ; 2019-07-02 13:19:23.388724 ; 21.14 
182 ; Ernage A ; 20 ; PK-20-P1K2-2019-D-A ; 449 ; 2019-07-02 13:19:34.415029 ; 20.52 
183 ; Ernage A ; 20 ; PK-20-P1K2-2019-D-A ; 449 ; 2019-07-02 13:19:45.419901 ; 20.41 
184 ; Ernage A ; 20 ; PK-20-P1K2-2019-D-A ; 449 ; 2019-07-02 13:19:56.400440 ; 20.36 
185 ; Ernage A ; 20 ; PK-20-P1K2-2019-D-A ; 449 ; 2019-07-02 13:20:07.414870 ; 20.05 
186 ; Ernage A ; 20 ; PK-20-P1K2-2019-D-A ; 449 ; 2019-07-02 13:20:18.427518 ; 20.05 
187 ; Ernage A ; 20 ; PK-20-P1K2-2019-D-A ; 449 ; 2019-07-02 13:20:29.448378 ; 20.05 
188 ; Ernage A ; 20 ; PK-20-P1K2-2019-D-A ; 449 ; 2019-07-02 13:20:40.452229 ; 20.05 
189 ; Ernage A ; 20 ; PK-20-P1K2-2019-D-A ; 449 ; 2019-07-02 13:20:51.463674 ; 20.05 
190 ; Ernage A ; 20 ; PK-20-P1K2-2019-D-A ; 449 ; 2019-07-02 13:21:02.477589 ; 19.98 
191 ; Ernage A ; 20 ; PK-20-P1K2-2019-D-A ; 449 ; 2019-07-02 13:21:13.495048 ; 19.98 
192 ; Ernage A ; 20 ; PK-20-P1K2-2019-D-A ; 449 ; 2019-07-02 13:21:24.485530 ; 19.95 
193 ; Ernage A ; 20 ; PK-20-P1K2-2019-D-A ; 449 ; 2019-07-02 13:21:35.497051 ; 19.95 
194 ; Ernage A ; 20 ; PK-20-P1K2-2019-D-A ; 449 ; 2019-07-02 13:21:46.506871 ; 19.95 
195 ; Ernage A ; 20 ; PK-20-P1K2-2019-D-A ; 449 ; 2019-07-02 13:21:57.516458 ; 19.95 
196 ; Ernage A ; 20 ; PK-20-P1K2-2019-D-A ; 449 ; 2019-07-02 13:22:08.529284 ; 19.95 
197 ; Ernage A ; 20 ; PK-20-P1K2-2019-D-A ; 449 ; 2019-07-02 13:22:19.551569 ; 19.95 
198 ; Ernage A ; 20 ; PK-20-P1K2-2019-D-A ; 449 ; 2019-07-02 13:22:30.557669 ; 19.95 
199 ; Ernage A ; 20 ; PK-20-P1K2-2019-D-A ; 449 ; 2019-07-02 13:22:41.570193 ; 19.95 
200 ; Ernage A ; 20 ; PK-20-P1K2-2019-D-A ; 449 ; 2019-07-02 13:22:52.555481 ; 19.95 
201 ; Ernage A ; 20 ; PK-20-P1K2-2019-D-A ; 449 ; 2019-07-02 13:23:03.570866 ; 19.36 
202 ; Ernage A ; 20 ; PK-20-P1K2-2019-D-A ; 449 ; 2019-07-02 13:23:14.595686 ; 19.34 
203 ; Ernage A ; 20 ; PK-20-P1K2-2019-D-A ; 449 ; 2019-07-02 13:23:25.611725 ; 19.28 
204 ; Ernage A ; 20 ; PK-20-P1K2-2019-D-A ; 449 ; 2019-07-02 13:23:36.615227 ; 19.27 
205 ; Ernage A ; 20 ; PK-20-P1K2-2019-D-A ; 449 ; 2019-07-02 13:23:47.631178 ; 19.27 
206 ; Ernage A ; 20 ; PK-20-P1K2-2019-D-A ; 449 ; 2019-07-02 13:23:58.638721 ; 18.91 
207 ; Ernage A ; 20 ; PK-20-P1K2-2019-D-A ; 449 ; 2019-07-02 13:24:09.666487 ; 18.39 
208 ; Ernage A ; 20 ; PK-20-P1K2-2019-D-A ; 449 ; 2019-07-02 13:24:20.642877 ; 18.3 
209 ; Ernage A ; 20 ; PK-20-P1K2-2019-D-A ; 449 ; 2019-07-02 13:24:31.657080 ; 18.16 
210 ; Ernage A ; 20 ; PK-20-P1K2-2019-D-A ; 449 ; 2019-07-02 13:24:42.671504 ; 18.16 
211 ; Ernage A ; 20 ; PK-20-P1K2-2019-D-A ; 449 ; 2019-07-02 13:24:53.678437 ; 18.16 
212 ; Ernage A ; 20 ; PK-20-P1K2-2019-D-A ; 449 ; 2019-07-02 13:25:04.700691 ; 18.16 
213 ; Ernage A ; 20 ; PK-20-P1K2-2019-D-A ; 449 ; 2019-07-02 13:25:35.706461 ; 18.16 
214 ; Ernage A ; 20 ; PK-20-P1K2-2019-D-A ; 449 ; 2019-07-02 13:26:06.636472 ; 18.16 
215 ; Ernage A ; 20 ; PK-20-P1K2-2019-D-A ; 449 ; 2019-07-02 13:26:37.569180 ; 18.16 
216 ; Ernage A ; 20 ; PK-20-P1K2-2019-D-A ; 449 ; 2019-07-02 13:27:08.503298 ; 18.16 
217 ; Ernage A ; 20 ; PK-20-P1K2-2019-D-A ; 449 ; 2019-07-02 13:27:39.444076 ; 18.16 
218 ; Ernage A ; 20 ; PK-20-P1K2-2019-D-A ; 449 ; 2019-07-02 13:28:10.370074 ; 18.05 
219 ; Ernage A ; 20 ; PK-20-P1K2-2019-D-A ; 449 ; 2019-07-02 13:28:41.305644 ; 18.05 
220 ; Ernage A ; 20 ; PK-20-P1K2-2019-D-A ; 449 ; 2019-07-02 13:29:12.236187 ; 18.05 
221 ; Ernage A ; 20 ; PK-20-P1K2-2019-D-A ; 449 ; 2019-07-02 13:29:43.169000 ; 18.05 
222 ; Ernage A ; 20 ; PK-20-P1K2-2019-D-A ; 449 ; 2019-07-02 13:30:14.111924 ; 18.05 
223 ; Ernage A ; 20 ; PK-20-P1K2-2019-D-A ; 449 ; 2019-07-02 13:30:45.036746 ; 18.05 
224 ; Ernage A ; 20 ; PK-20-P1K2-2019-D-A ; 449 ; 2019-07-02 13:31:15.965704 ; 18.05 
225 ; Ernage A ; 20 ; PK-20-P1K2-2019-D-A ; 449 ; 2019-07-02 13:31:46.904308 ; 18.05 
226 ; Ernage A ; 20 ; PK-20-P1K2-2019-D-A ; 449 ; 2019-07-02 13:32:17.837023 ; 18.05 
227 ; Ernage A ; 20 ; PK-20-P1K2-2019-D-A ; 449 ; 2019-07-02 13:32:48.798018 ; 17.91 
228 ; Ernage A ; 20 ; PK-20-P1K2-2019-D-A ; 449 ; 2019-07-02 13:33:19.987188 ; 17.91 
229 ; Ernage A ; 20 ; PK-20-P1K2-2019-D-A ; 449 ; 2019-07-02 13:33:50.877822 ; 17.91 
230 ; Ernage A ; 20 ; PK-20-P1K2-2019-D-A ; 449 ; 2019-07-02 13:34:21.819795 ; 17.91 
231 ; Ernage A ; 20 ; PK-20-P1K2-2019-D-A ; 449 ; 2019-07-02 13:34:52.841734 ; 17.91 
