i ; campaign ; serie ; sample ; slake ; time ; mass 
1 ; Les Fonds ; 7NT ; LF-7NT-2019-H-A ; 645 ; 2019-07-17 11:14:20.491675 ; 130.18 
2 ; Les Fonds ; 7NT ; LF-7NT-2019-H-A ; 645 ; 2019-07-17 11:14:21.293226 ; 130.18 
3 ; Les Fonds ; 7NT ; LF-7NT-2019-H-A ; 645 ; 2019-07-17 11:14:22.134542 ; 130.18 
4 ; Les Fonds ; 7NT ; LF-7NT-2019-H-A ; 645 ; 2019-07-17 11:14:22.991026 ; 130.19 
5 ; Les Fonds ; 7NT ; LF-7NT-2019-H-A ; 645 ; 2019-07-17 11:14:23.847080 ; 130.18 
6 ; Les Fonds ; 7NT ; LF-7NT-2019-H-A ; 645 ; 2019-07-17 11:14:24.699547 ; 129.72 
7 ; Les Fonds ; 7NT ; LF-7NT-2019-H-A ; 645 ; 2019-07-17 11:14:25.444788 ; 71.53 
8 ; Les Fonds ; 7NT ; LF-7NT-2019-H-A ; 645 ; 2019-07-17 11:14:26.187945 ; 49.66 
9 ; Les Fonds ; 7NT ; LF-7NT-2019-H-A ; 645 ; 2019-07-17 11:14:27.051491 ; 53.34 
10 ; Les Fonds ; 7NT ; LF-7NT-2019-H-A ; 645 ; 2019-07-17 11:14:28.013585 ; 56.04 
11 ; Les Fonds ; 7NT ; LF-7NT-2019-H-A ; 645 ; 2019-07-17 11:14:28.964334 ; 58.15 
12 ; Les Fonds ; 7NT ; LF-7NT-2019-H-A ; 645 ; 2019-07-17 11:14:29.924263 ; 59.57 
13 ; Les Fonds ; 7NT ; LF-7NT-2019-H-A ; 645 ; 2019-07-17 11:14:30.888090 ; 60.5 
14 ; Les Fonds ; 7NT ; LF-7NT-2019-H-A ; 645 ; 2019-07-17 11:14:31.848344 ; 61.36 
15 ; Les Fonds ; 7NT ; LF-7NT-2019-H-A ; 645 ; 2019-07-17 11:14:32.817956 ; 61.93 
16 ; Les Fonds ; 7NT ; LF-7NT-2019-H-A ; 645 ; 2019-07-17 11:14:33.781066 ; 62.34 
17 ; Les Fonds ; 7NT ; LF-7NT-2019-H-A ; 645 ; 2019-07-17 11:14:34.726664 ; 62.62 
18 ; Les Fonds ; 7NT ; LF-7NT-2019-H-A ; 645 ; 2019-07-17 11:14:35.685133 ; 62.89 
19 ; Les Fonds ; 7NT ; LF-7NT-2019-H-A ; 645 ; 2019-07-17 11:14:36.650286 ; 63.09 
20 ; Les Fonds ; 7NT ; LF-7NT-2019-H-A ; 645 ; 2019-07-17 11:14:37.605817 ; 63.25 
21 ; Les Fonds ; 7NT ; LF-7NT-2019-H-A ; 645 ; 2019-07-17 11:14:38.575380 ; 63.37 
22 ; Les Fonds ; 7NT ; LF-7NT-2019-H-A ; 645 ; 2019-07-17 11:14:39.528198 ; 63.47 
23 ; Les Fonds ; 7NT ; LF-7NT-2019-H-A ; 645 ; 2019-07-17 11:14:40.488483 ; 63.56 
24 ; Les Fonds ; 7NT ; LF-7NT-2019-H-A ; 645 ; 2019-07-17 11:14:41.448718 ; 63.56 
25 ; Les Fonds ; 7NT ; LF-7NT-2019-H-A ; 645 ; 2019-07-17 11:14:42.401597 ; 63.54 
26 ; Les Fonds ; 7NT ; LF-7NT-2019-H-A ; 645 ; 2019-07-17 11:14:43.261762 ; 63.54 
27 ; Les Fonds ; 7NT ; LF-7NT-2019-H-A ; 645 ; 2019-07-17 11:14:44.129972 ; 63.54 
28 ; Les Fonds ; 7NT ; LF-7NT-2019-H-A ; 645 ; 2019-07-17 11:14:44.962581 ; 63.52 
29 ; Les Fonds ; 7NT ; LF-7NT-2019-H-A ; 645 ; 2019-07-17 11:14:45.820259 ; 63.46 
30 ; Les Fonds ; 7NT ; LF-7NT-2019-H-A ; 645 ; 2019-07-17 11:14:46.614743 ; 63.28 
31 ; Les Fonds ; 7NT ; LF-7NT-2019-H-A ; 645 ; 2019-07-17 11:14:47.467222 ; 63.18 
32 ; Les Fonds ; 7NT ; LF-7NT-2019-H-A ; 645 ; 2019-07-17 11:14:48.320677 ; 63.12 
33 ; Les Fonds ; 7NT ; LF-7NT-2019-H-A ; 645 ; 2019-07-17 11:14:49.281560 ; 63.1 
34 ; Les Fonds ; 7NT ; LF-7NT-2019-H-A ; 645 ; 2019-07-17 11:14:50.086804 ; 63.03 
35 ; Les Fonds ; 7NT ; LF-7NT-2019-H-A ; 645 ; 2019-07-17 11:14:50.880876 ; 62.99 
36 ; Les Fonds ; 7NT ; LF-7NT-2019-H-A ; 645 ; 2019-07-17 11:14:51.737212 ; 62.93 
37 ; Les Fonds ; 7NT ; LF-7NT-2019-H-A ; 645 ; 2019-07-17 11:14:52.646624 ; 62.8 
38 ; Les Fonds ; 7NT ; LF-7NT-2019-H-A ; 645 ; 2019-07-17 11:14:53.544591 ; 62.72 
39 ; Les Fonds ; 7NT ; LF-7NT-2019-H-A ; 645 ; 2019-07-17 11:14:54.351618 ; 62.69 
40 ; Les Fonds ; 7NT ; LF-7NT-2019-H-A ; 645 ; 2019-07-17 11:14:55.209074 ; 62.51 
41 ; Les Fonds ; 7NT ; LF-7NT-2019-H-A ; 645 ; 2019-07-17 11:14:56.055352 ; 62.39 
42 ; Les Fonds ; 7NT ; LF-7NT-2019-H-A ; 645 ; 2019-07-17 11:14:56.914309 ; 62.35 
43 ; Les Fonds ; 7NT ; LF-7NT-2019-H-A ; 645 ; 2019-07-17 11:14:57.815423 ; 62.33 
44 ; Les Fonds ; 7NT ; LF-7NT-2019-H-A ; 645 ; 2019-07-17 11:14:58.669764 ; 62.21 
45 ; Les Fonds ; 7NT ; LF-7NT-2019-H-A ; 645 ; 2019-07-17 11:14:59.470532 ; 62.17 
46 ; Les Fonds ; 7NT ; LF-7NT-2019-H-A ; 645 ; 2019-07-17 11:15:00.322309 ; 62.15 
47 ; Les Fonds ; 7NT ; LF-7NT-2019-H-A ; 645 ; 2019-07-17 11:15:01.175413 ; 62.1 
48 ; Les Fonds ; 7NT ; LF-7NT-2019-H-A ; 645 ; 2019-07-17 11:15:02.089632 ; 61.94 
49 ; Les Fonds ; 7NT ; LF-7NT-2019-H-A ; 645 ; 2019-07-17 11:15:02.941192 ; 61.88 
50 ; Les Fonds ; 7NT ; LF-7NT-2019-H-A ; 645 ; 2019-07-17 11:15:03.742824 ; 61.87 
51 ; Les Fonds ; 7NT ; LF-7NT-2019-H-A ; 645 ; 2019-07-17 11:15:04.589011 ; 61.79 
52 ; Les Fonds ; 7NT ; LF-7NT-2019-H-A ; 645 ; 2019-07-17 11:15:05.391597 ; 61.67 
53 ; Les Fonds ; 7NT ; LF-7NT-2019-H-A ; 645 ; 2019-07-17 11:15:06.193063 ; 61.62 
54 ; Les Fonds ; 7NT ; LF-7NT-2019-H-A ; 645 ; 2019-07-17 11:15:07.096926 ; 61.44 
55 ; Les Fonds ; 7NT ; LF-7NT-2019-H-A ; 645 ; 2019-07-17 11:15:07.840028 ; 61.37 
56 ; Les Fonds ; 7NT ; LF-7NT-2019-H-A ; 645 ; 2019-07-17 11:15:08.641925 ; 61.18 
57 ; Les Fonds ; 7NT ; LF-7NT-2019-H-A ; 645 ; 2019-07-17 11:15:09.436817 ; 60.95 
58 ; Les Fonds ; 7NT ; LF-7NT-2019-H-A ; 645 ; 2019-07-17 11:15:10.196874 ; 60.83 
59 ; Les Fonds ; 7NT ; LF-7NT-2019-H-A ; 645 ; 2019-07-17 11:15:11.008859 ; 60.69 
60 ; Les Fonds ; 7NT ; LF-7NT-2019-H-A ; 645 ; 2019-07-17 11:15:11.842848 ; 60.6 
61 ; Les Fonds ; 7NT ; LF-7NT-2019-H-A ; 645 ; 2019-07-17 11:15:12.695382 ; 60.54 
62 ; Les Fonds ; 7NT ; LF-7NT-2019-H-A ; 645 ; 2019-07-17 11:15:13.599717 ; 60.35 
63 ; Les Fonds ; 7NT ; LF-7NT-2019-H-A ; 645 ; 2019-07-17 11:15:14.503551 ; 60.16 
64 ; Les Fonds ; 7NT ; LF-7NT-2019-H-A ; 645 ; 2019-07-17 11:15:15.415122 ; 60.09 
65 ; Les Fonds ; 7NT ; LF-7NT-2019-H-A ; 645 ; 2019-07-17 11:15:16.383144 ; 59.94 
66 ; Les Fonds ; 7NT ; LF-7NT-2019-H-A ; 645 ; 2019-07-17 11:15:17.120440 ; 59.87 
67 ; Les Fonds ; 7NT ; LF-7NT-2019-H-A ; 645 ; 2019-07-17 11:15:17.868614 ; 59.77 
68 ; Les Fonds ; 7NT ; LF-7NT-2019-H-A ; 645 ; 2019-07-17 11:15:18.792315 ; 59.58 
69 ; Les Fonds ; 7NT ; LF-7NT-2019-H-A ; 645 ; 2019-07-17 11:15:19.681267 ; 59.51 
70 ; Les Fonds ; 7NT ; LF-7NT-2019-H-A ; 645 ; 2019-07-17 11:15:20.590485 ; 59.39 
71 ; Les Fonds ; 7NT ; LF-7NT-2019-H-A ; 645 ; 2019-07-17 11:15:21.391811 ; 59.25 
72 ; Les Fonds ; 7NT ; LF-7NT-2019-H-A ; 645 ; 2019-07-17 11:15:22.243215 ; 59.13 
73 ; Les Fonds ; 7NT ; LF-7NT-2019-H-A ; 645 ; 2019-07-17 11:15:23.043914 ; 59.04 
74 ; Les Fonds ; 7NT ; LF-7NT-2019-H-A ; 645 ; 2019-07-17 11:15:23.846627 ; 58.96 
75 ; Les Fonds ; 7NT ; LF-7NT-2019-H-A ; 645 ; 2019-07-17 11:15:24.643941 ; 58.81 
76 ; Les Fonds ; 7NT ; LF-7NT-2019-H-A ; 645 ; 2019-07-17 11:15:25.436974 ; 58.7 
77 ; Les Fonds ; 7NT ; LF-7NT-2019-H-A ; 645 ; 2019-07-17 11:15:26.303874 ; 58.61 
78 ; Les Fonds ; 7NT ; LF-7NT-2019-H-A ; 645 ; 2019-07-17 11:15:27.094373 ; 58.45 
79 ; Les Fonds ; 7NT ; LF-7NT-2019-H-A ; 645 ; 2019-07-17 11:15:27.899686 ; 58.08 
80 ; Les Fonds ; 7NT ; LF-7NT-2019-H-A ; 645 ; 2019-07-17 11:15:28.696184 ; 57.65 
81 ; Les Fonds ; 7NT ; LF-7NT-2019-H-A ; 645 ; 2019-07-17 11:15:29.497394 ; 57.41 
82 ; Les Fonds ; 7NT ; LF-7NT-2019-H-A ; 645 ; 2019-07-17 11:15:30.343229 ; 56.76 
83 ; Les Fonds ; 7NT ; LF-7NT-2019-H-A ; 645 ; 2019-07-17 11:15:31.154738 ; 55.95 
84 ; Les Fonds ; 7NT ; LF-7NT-2019-H-A ; 645 ; 2019-07-17 11:15:31.951958 ; 55.83 
85 ; Les Fonds ; 7NT ; LF-7NT-2019-H-A ; 645 ; 2019-07-17 11:15:32.751282 ; 55.66 
86 ; Les Fonds ; 7NT ; LF-7NT-2019-H-A ; 645 ; 2019-07-17 11:15:33.548228 ; 55.42 
87 ; Les Fonds ; 7NT ; LF-7NT-2019-H-A ; 645 ; 2019-07-17 11:15:34.399290 ; 55.31 
88 ; Les Fonds ; 7NT ; LF-7NT-2019-H-A ; 645 ; 2019-07-17 11:15:35.204265 ; 55.2 
89 ; Les Fonds ; 7NT ; LF-7NT-2019-H-A ; 645 ; 2019-07-17 11:15:36.006457 ; 55.06 
90 ; Les Fonds ; 7NT ; LF-7NT-2019-H-A ; 645 ; 2019-07-17 11:15:36.817028 ; 54.9 
91 ; Les Fonds ; 7NT ; LF-7NT-2019-H-A ; 645 ; 2019-07-17 11:15:37.605298 ; 54.79 
92 ; Les Fonds ; 7NT ; LF-7NT-2019-H-A ; 645 ; 2019-07-17 11:15:38.452637 ; 54.73 
93 ; Les Fonds ; 7NT ; LF-7NT-2019-H-A ; 645 ; 2019-07-17 11:15:39.253899 ; 54.63 
94 ; Les Fonds ; 7NT ; LF-7NT-2019-H-A ; 645 ; 2019-07-17 11:15:40.058656 ; 54.61 
95 ; Les Fonds ; 7NT ; LF-7NT-2019-H-A ; 645 ; 2019-07-17 11:15:40.916089 ; 54.6 
96 ; Les Fonds ; 7NT ; LF-7NT-2019-H-A ; 645 ; 2019-07-17 11:15:41.656791 ; 54.58 
97 ; Les Fonds ; 7NT ; LF-7NT-2019-H-A ; 645 ; 2019-07-17 11:15:42.507034 ; 54.48 
98 ; Les Fonds ; 7NT ; LF-7NT-2019-H-A ; 645 ; 2019-07-17 11:15:43.409523 ; 53.78 
99 ; Les Fonds ; 7NT ; LF-7NT-2019-H-A ; 645 ; 2019-07-17 11:15:44.211588 ; 52.91 
100 ; Les Fonds ; 7NT ; LF-7NT-2019-H-A ; 645 ; 2019-07-17 11:15:45.016545 ; 52.38 
101 ; Les Fonds ; 7NT ; LF-7NT-2019-H-A ; 645 ; 2019-07-17 11:15:45.821443 ; 51.91 
102 ; Les Fonds ; 7NT ; LF-7NT-2019-H-A ; 645 ; 2019-07-17 11:15:46.668136 ; 51.59 
103 ; Les Fonds ; 7NT ; LF-7NT-2019-H-A ; 645 ; 2019-07-17 11:15:47.468777 ; 51.47 
104 ; Les Fonds ; 7NT ; LF-7NT-2019-H-A ; 645 ; 2019-07-17 11:15:48.264792 ; 51.46 
105 ; Les Fonds ; 7NT ; LF-7NT-2019-H-A ; 645 ; 2019-07-17 11:15:49.066582 ; 51.44 
106 ; Les Fonds ; 7NT ; LF-7NT-2019-H-A ; 645 ; 2019-07-17 11:15:49.921299 ; 51.31 
107 ; Les Fonds ; 7NT ; LF-7NT-2019-H-A ; 645 ; 2019-07-17 11:15:50.728386 ; 51.11 
108 ; Les Fonds ; 7NT ; LF-7NT-2019-H-A ; 645 ; 2019-07-17 11:15:51.467668 ; 50.8 
109 ; Les Fonds ; 7NT ; LF-7NT-2019-H-A ; 645 ; 2019-07-17 11:15:52.211630 ; 50.51 
110 ; Les Fonds ; 7NT ; LF-7NT-2019-H-A ; 645 ; 2019-07-17 11:15:52.961200 ; 50.43 
111 ; Les Fonds ; 7NT ; LF-7NT-2019-H-A ; 645 ; 2019-07-17 11:15:53.709893 ; 50.4 
112 ; Les Fonds ; 7NT ; LF-7NT-2019-H-A ; 645 ; 2019-07-17 11:15:54.617957 ; 50.34 
113 ; Les Fonds ; 7NT ; LF-7NT-2019-H-A ; 645 ; 2019-07-17 11:15:55.469527 ; 50.32 
114 ; Les Fonds ; 7NT ; LF-7NT-2019-H-A ; 645 ; 2019-07-17 11:15:56.321866 ; 50.26 
115 ; Les Fonds ; 7NT ; LF-7NT-2019-H-A ; 645 ; 2019-07-17 11:15:57.137975 ; 50.2 
116 ; Les Fonds ; 7NT ; LF-7NT-2019-H-A ; 645 ; 2019-07-17 11:15:57.923156 ; 50.18 
117 ; Les Fonds ; 7NT ; LF-7NT-2019-H-A ; 645 ; 2019-07-17 11:15:58.726366 ; 50.15 
118 ; Les Fonds ; 7NT ; LF-7NT-2019-H-A ; 645 ; 2019-07-17 11:15:59.577932 ; 50.02 
119 ; Les Fonds ; 7NT ; LF-7NT-2019-H-A ; 645 ; 2019-07-17 11:16:00.523307 ; 49.99 
120 ; Les Fonds ; 7NT ; LF-7NT-2019-H-A ; 645 ; 2019-07-17 11:16:01.387799 ; 49.98 
121 ; Les Fonds ; 7NT ; LF-7NT-2019-H-A ; 645 ; 2019-07-17 11:16:02.244127 ; 49.97 
122 ; Les Fonds ; 7NT ; LF-7NT-2019-H-A ; 645 ; 2019-07-17 11:16:03.096735 ; 49.88 
123 ; Les Fonds ; 7NT ; LF-7NT-2019-H-A ; 645 ; 2019-07-17 11:16:04.003650 ; 49.78 
124 ; Les Fonds ; 7NT ; LF-7NT-2019-H-A ; 645 ; 2019-07-17 11:16:04.799881 ; 49.75 
125 ; Les Fonds ; 7NT ; LF-7NT-2019-H-A ; 645 ; 2019-07-17 11:16:05.609022 ; 49.72 
126 ; Les Fonds ; 7NT ; LF-7NT-2019-H-A ; 645 ; 2019-07-17 11:16:06.501883 ; 49.69 
127 ; Les Fonds ; 7NT ; LF-7NT-2019-H-A ; 645 ; 2019-07-17 11:16:07.412894 ; 49.68 
128 ; Les Fonds ; 7NT ; LF-7NT-2019-H-A ; 645 ; 2019-07-17 11:16:08.323319 ; 49.69 
129 ; Les Fonds ; 7NT ; LF-7NT-2019-H-A ; 645 ; 2019-07-17 11:16:09.125635 ; 49.6 
130 ; Les Fonds ; 7NT ; LF-7NT-2019-H-A ; 645 ; 2019-07-17 11:16:09.974225 ; 49.56 
131 ; Les Fonds ; 7NT ; LF-7NT-2019-H-A ; 645 ; 2019-07-17 11:16:10.880938 ; 49.4 
132 ; Les Fonds ; 7NT ; LF-7NT-2019-H-A ; 645 ; 2019-07-17 11:16:11.846256 ; 49.25 
133 ; Les Fonds ; 7NT ; LF-7NT-2019-H-A ; 645 ; 2019-07-17 11:16:12.698345 ; 49.14 
134 ; Les Fonds ; 7NT ; LF-7NT-2019-H-A ; 645 ; 2019-07-17 11:16:13.547327 ; 49.08 
135 ; Les Fonds ; 7NT ; LF-7NT-2019-H-A ; 645 ; 2019-07-17 11:16:14.397184 ; 49.06 
136 ; Les Fonds ; 7NT ; LF-7NT-2019-H-A ; 645 ; 2019-07-17 11:16:15.306612 ; 49.04 
137 ; Les Fonds ; 7NT ; LF-7NT-2019-H-A ; 645 ; 2019-07-17 11:16:16.160654 ; 48.97 
138 ; Les Fonds ; 7NT ; LF-7NT-2019-H-A ; 645 ; 2019-07-17 11:16:16.964293 ; 48.81 
139 ; Les Fonds ; 7NT ; LF-7NT-2019-H-A ; 645 ; 2019-07-17 11:16:17.760793 ; 48.66 
140 ; Les Fonds ; 7NT ; LF-7NT-2019-H-A ; 645 ; 2019-07-17 11:16:18.560060 ; 48.54 
141 ; Les Fonds ; 7NT ; LF-7NT-2019-H-A ; 645 ; 2019-07-17 11:16:19.356141 ; 48.31 
142 ; Les Fonds ; 7NT ; LF-7NT-2019-H-A ; 645 ; 2019-07-17 11:16:20.168312 ; 47.97 
143 ; Les Fonds ; 7NT ; LF-7NT-2019-H-A ; 645 ; 2019-07-17 11:16:20.959822 ; 47.85 
144 ; Les Fonds ; 7NT ; LF-7NT-2019-H-A ; 645 ; 2019-07-17 11:16:21.781987 ; 47.79 
145 ; Les Fonds ; 7NT ; LF-7NT-2019-H-A ; 645 ; 2019-07-17 11:16:22.560421 ; 47.76 
146 ; Les Fonds ; 7NT ; LF-7NT-2019-H-A ; 645 ; 2019-07-17 11:16:23.409482 ; 47.76 
147 ; Les Fonds ; 7NT ; LF-7NT-2019-H-A ; 645 ; 2019-07-17 11:16:24.321476 ; 47.73 
148 ; Les Fonds ; 7NT ; LF-7NT-2019-H-A ; 645 ; 2019-07-17 11:16:25.177229 ; 47.55 
149 ; Les Fonds ; 7NT ; LF-7NT-2019-H-A ; 645 ; 2019-07-17 11:16:26.030225 ; 47.36 
150 ; Les Fonds ; 7NT ; LF-7NT-2019-H-A ; 645 ; 2019-07-17 11:16:26.777524 ; 47.3 
151 ; Les Fonds ; 7NT ; LF-7NT-2019-H-A ; 645 ; 2019-07-17 11:16:27.626557 ; 47.28 
152 ; Les Fonds ; 7NT ; LF-7NT-2019-H-A ; 645 ; 2019-07-17 11:16:28.582011 ; 47.27 
153 ; Les Fonds ; 7NT ; LF-7NT-2019-H-A ; 645 ; 2019-07-17 11:16:29.439721 ; 47.25 
154 ; Les Fonds ; 7NT ; LF-7NT-2019-H-A ; 645 ; 2019-07-17 11:16:30.402764 ; 47.25 
155 ; Les Fonds ; 7NT ; LF-7NT-2019-H-A ; 645 ; 2019-07-17 11:16:31.146425 ; 47.23 
156 ; Les Fonds ; 7NT ; LF-7NT-2019-H-A ; 645 ; 2019-07-17 11:16:32.000810 ; 47.22 
157 ; Les Fonds ; 7NT ; LF-7NT-2019-H-A ; 645 ; 2019-07-17 11:16:32.858774 ; 47.23 
158 ; Les Fonds ; 7NT ; LF-7NT-2019-H-A ; 645 ; 2019-07-17 11:16:33.603961 ; 47.19 
159 ; Les Fonds ; 7NT ; LF-7NT-2019-H-A ; 645 ; 2019-07-17 11:16:34.450606 ; 47.2 
160 ; Les Fonds ; 7NT ; LF-7NT-2019-H-A ; 645 ; 2019-07-17 11:16:35.257935 ; 47.12 
161 ; Les Fonds ; 7NT ; LF-7NT-2019-H-A ; 645 ; 2019-07-17 11:16:36.057473 ; 47.07 
162 ; Les Fonds ; 7NT ; LF-7NT-2019-H-A ; 645 ; 2019-07-17 11:16:36.961621 ; 47.06 
163 ; Les Fonds ; 7NT ; LF-7NT-2019-H-A ; 645 ; 2019-07-17 11:16:37.820957 ; 47.06 
164 ; Les Fonds ; 7NT ; LF-7NT-2019-H-A ; 645 ; 2019-07-17 11:16:38.667182 ; 47.05 
165 ; Les Fonds ; 7NT ; LF-7NT-2019-H-A ; 645 ; 2019-07-17 11:16:39.521700 ; 47.05 
166 ; Les Fonds ; 7NT ; LF-7NT-2019-H-A ; 645 ; 2019-07-17 11:16:40.366284 ; 47.04 
167 ; Les Fonds ; 7NT ; LF-7NT-2019-H-A ; 645 ; 2019-07-17 11:16:41.228851 ; 47.03 
168 ; Les Fonds ; 7NT ; LF-7NT-2019-H-A ; 645 ; 2019-07-17 11:16:41.975322 ; 47.03 
169 ; Les Fonds ; 7NT ; LF-7NT-2019-H-A ; 645 ; 2019-07-17 11:16:42.820134 ; 47.03 
170 ; Les Fonds ; 7NT ; LF-7NT-2019-H-A ; 645 ; 2019-07-17 11:16:43.682891 ; 47.02 
171 ; Les Fonds ; 7NT ; LF-7NT-2019-H-A ; 645 ; 2019-07-17 11:16:44.538540 ; 47.02 
172 ; Les Fonds ; 7NT ; LF-7NT-2019-H-A ; 645 ; 2019-07-17 11:16:45.379356 ; 46.97 
173 ; Les Fonds ; 7NT ; LF-7NT-2019-H-A ; 645 ; 2019-07-17 11:16:46.134434 ; 46.95 
174 ; Les Fonds ; 7NT ; LF-7NT-2019-H-A ; 645 ; 2019-07-17 11:16:46.989888 ; 46.94 
175 ; Les Fonds ; 7NT ; LF-7NT-2019-H-A ; 645 ; 2019-07-17 11:16:47.842048 ; 46.93 
176 ; Les Fonds ; 7NT ; LF-7NT-2019-H-A ; 645 ; 2019-07-17 11:16:48.702904 ; 46.91 
177 ; Les Fonds ; 7NT ; LF-7NT-2019-H-A ; 645 ; 2019-07-17 11:16:49.548015 ; 46.91 
178 ; Les Fonds ; 7NT ; LF-7NT-2019-H-A ; 645 ; 2019-07-17 11:16:50.445525 ; 46.69 
179 ; Les Fonds ; 7NT ; LF-7NT-2019-H-A ; 645 ; 2019-07-17 11:16:51.413805 ; 46.46 
180 ; Les Fonds ; 7NT ; LF-7NT-2019-H-A ; 645 ; 2019-07-17 11:16:52.266906 ; 46.46 
181 ; Les Fonds ; 7NT ; LF-7NT-2019-H-A ; 645 ; 2019-07-17 11:16:53.117594 ; 46.45 
182 ; Les Fonds ; 7NT ; LF-7NT-2019-H-A ; 645 ; 2019-07-17 11:16:53.981782 ; 46.45 
183 ; Les Fonds ; 7NT ; LF-7NT-2019-H-A ; 645 ; 2019-07-17 11:16:54.816845 ; 46.42 
184 ; Les Fonds ; 7NT ; LF-7NT-2019-H-A ; 645 ; 2019-07-17 11:16:55.733304 ; 46.4 
185 ; Les Fonds ; 7NT ; LF-7NT-2019-H-A ; 645 ; 2019-07-17 11:16:56.590085 ; 46.38 
186 ; Les Fonds ; 7NT ; LF-7NT-2019-H-A ; 645 ; 2019-07-17 11:16:57.438174 ; 46.34 
187 ; Les Fonds ; 7NT ; LF-7NT-2019-H-A ; 645 ; 2019-07-17 11:16:58.239923 ; 46.27 
188 ; Les Fonds ; 7NT ; LF-7NT-2019-H-A ; 645 ; 2019-07-17 11:16:58.990438 ; 46.21 
189 ; Les Fonds ; 7NT ; LF-7NT-2019-H-A ; 645 ; 2019-07-17 11:16:59.740832 ; 46.19 
190 ; Les Fonds ; 7NT ; LF-7NT-2019-H-A ; 645 ; 2019-07-17 11:17:00.534399 ; 46.19 
191 ; Les Fonds ; 7NT ; LF-7NT-2019-H-A ; 645 ; 2019-07-17 11:17:01.380066 ; 46.17 
192 ; Les Fonds ; 7NT ; LF-7NT-2019-H-A ; 645 ; 2019-07-17 11:17:02.239353 ; 46.16 
193 ; Les Fonds ; 7NT ; LF-7NT-2019-H-A ; 645 ; 2019-07-17 11:17:03.095629 ; 46.16 
194 ; Les Fonds ; 7NT ; LF-7NT-2019-H-A ; 645 ; 2019-07-17 11:17:03.944381 ; 46.16 
195 ; Les Fonds ; 7NT ; LF-7NT-2019-H-A ; 645 ; 2019-07-17 11:17:04.805239 ; 46.14 
196 ; Les Fonds ; 7NT ; LF-7NT-2019-H-A ; 645 ; 2019-07-17 11:17:05.656927 ; 46.14 
197 ; Les Fonds ; 7NT ; LF-7NT-2019-H-A ; 645 ; 2019-07-17 11:17:06.503436 ; 46.13 
198 ; Les Fonds ; 7NT ; LF-7NT-2019-H-A ; 645 ; 2019-07-17 11:17:07.355868 ; 46.13 
199 ; Les Fonds ; 7NT ; LF-7NT-2019-H-A ; 645 ; 2019-07-17 11:17:08.209670 ; 46.11 
200 ; Les Fonds ; 7NT ; LF-7NT-2019-H-A ; 645 ; 2019-07-17 11:17:09.068564 ; 46.1 
201 ; Les Fonds ; 7NT ; LF-7NT-2019-H-A ; 645 ; 2019-07-17 11:17:09.929852 ; 46.09 
202 ; Les Fonds ; 7NT ; LF-7NT-2019-H-A ; 645 ; 2019-07-17 11:17:10.826039 ; 46.09 
203 ; Les Fonds ; 7NT ; LF-7NT-2019-H-A ; 645 ; 2019-07-17 11:17:11.675612 ; 46.08 
204 ; Les Fonds ; 7NT ; LF-7NT-2019-H-A ; 645 ; 2019-07-17 11:17:12.536157 ; 46.08 
205 ; Les Fonds ; 7NT ; LF-7NT-2019-H-A ; 645 ; 2019-07-17 11:17:13.378957 ; 46.07 
206 ; Les Fonds ; 7NT ; LF-7NT-2019-H-A ; 645 ; 2019-07-17 11:17:14.247663 ; 46.06 
207 ; Les Fonds ; 7NT ; LF-7NT-2019-H-A ; 645 ; 2019-07-17 11:17:15.094072 ; 46.06 
208 ; Les Fonds ; 7NT ; LF-7NT-2019-H-A ; 645 ; 2019-07-17 11:17:15.950795 ; 46.05 
209 ; Les Fonds ; 7NT ; LF-7NT-2019-H-A ; 645 ; 2019-07-17 11:17:16.798867 ; 46.06 
210 ; Les Fonds ; 7NT ; LF-7NT-2019-H-A ; 645 ; 2019-07-17 11:17:17.653697 ; 46.03 
211 ; Les Fonds ; 7NT ; LF-7NT-2019-H-A ; 645 ; 2019-07-17 11:17:18.502850 ; 46.03 
212 ; Les Fonds ; 7NT ; LF-7NT-2019-H-A ; 645 ; 2019-07-17 11:17:19.409466 ; 46.01 
213 ; Les Fonds ; 7NT ; LF-7NT-2019-H-A ; 645 ; 2019-07-17 11:17:20.269682 ; 46.01 
214 ; Les Fonds ; 7NT ; LF-7NT-2019-H-A ; 645 ; 2019-07-17 11:17:21.014634 ; 45.97 
215 ; Les Fonds ; 7NT ; LF-7NT-2019-H-A ; 645 ; 2019-07-17 11:17:31.875486 ; 45.35 
216 ; Les Fonds ; 7NT ; LF-7NT-2019-H-A ; 645 ; 2019-07-17 11:17:42.773750 ; 45.05 
217 ; Les Fonds ; 7NT ; LF-7NT-2019-H-A ; 645 ; 2019-07-17 11:17:53.689483 ; 44.59 
218 ; Les Fonds ; 7NT ; LF-7NT-2019-H-A ; 645 ; 2019-07-17 11:18:04.624474 ; 44.21 
219 ; Les Fonds ; 7NT ; LF-7NT-2019-H-A ; 645 ; 2019-07-17 11:18:15.476670 ; 44.11 
220 ; Les Fonds ; 7NT ; LF-7NT-2019-H-A ; 645 ; 2019-07-17 11:18:26.442778 ; 43.94 
221 ; Les Fonds ; 7NT ; LF-7NT-2019-H-A ; 645 ; 2019-07-17 11:18:37.345867 ; 43.87 
222 ; Les Fonds ; 7NT ; LF-7NT-2019-H-A ; 645 ; 2019-07-17 11:18:48.170103 ; 43.83 
223 ; Les Fonds ; 7NT ; LF-7NT-2019-H-A ; 645 ; 2019-07-17 11:18:59.157552 ; 43.77 
224 ; Les Fonds ; 7NT ; LF-7NT-2019-H-A ; 645 ; 2019-07-17 11:19:10.040736 ; 43.72 
225 ; Les Fonds ; 7NT ; LF-7NT-2019-H-A ; 645 ; 2019-07-17 11:19:20.873255 ; 43.49 
226 ; Les Fonds ; 7NT ; LF-7NT-2019-H-A ; 645 ; 2019-07-17 11:19:31.693019 ; 43.41 
227 ; Les Fonds ; 7NT ; LF-7NT-2019-H-A ; 645 ; 2019-07-17 11:19:42.626189 ; 43.37 
228 ; Les Fonds ; 7NT ; LF-7NT-2019-H-A ; 645 ; 2019-07-17 11:19:53.612759 ; 43.3 
229 ; Les Fonds ; 7NT ; LF-7NT-2019-H-A ; 645 ; 2019-07-17 11:20:04.545604 ; 43.24 
230 ; Les Fonds ; 7NT ; LF-7NT-2019-H-A ; 645 ; 2019-07-17 11:20:15.532994 ; 43.23 
231 ; Les Fonds ; 7NT ; LF-7NT-2019-H-A ; 645 ; 2019-07-17 11:20:26.416640 ; 43.2 
232 ; Les Fonds ; 7NT ; LF-7NT-2019-H-A ; 645 ; 2019-07-17 11:20:37.348352 ; 43.18 
233 ; Les Fonds ; 7NT ; LF-7NT-2019-H-A ; 645 ; 2019-07-17 11:20:48.280795 ; 43.15 
234 ; Les Fonds ; 7NT ; LF-7NT-2019-H-A ; 645 ; 2019-07-17 11:20:59.265241 ; 43.12 
235 ; Les Fonds ; 7NT ; LF-7NT-2019-H-A ; 645 ; 2019-07-17 11:21:10.199764 ; 43.11 
236 ; Les Fonds ; 7NT ; LF-7NT-2019-H-A ; 645 ; 2019-07-17 11:21:21.076928 ; 43.09 
237 ; Les Fonds ; 7NT ; LF-7NT-2019-H-A ; 645 ; 2019-07-17 11:21:32.017718 ; 43.06 
238 ; Les Fonds ; 7NT ; LF-7NT-2019-H-A ; 645 ; 2019-07-17 11:21:42.891364 ; 43.05 
239 ; Les Fonds ; 7NT ; LF-7NT-2019-H-A ; 645 ; 2019-07-17 11:21:53.772083 ; 43.03 
240 ; Les Fonds ; 7NT ; LF-7NT-2019-H-A ; 645 ; 2019-07-17 11:22:04.596208 ; 43 
241 ; Les Fonds ; 7NT ; LF-7NT-2019-H-A ; 645 ; 2019-07-17 11:22:15.531446 ; 42.93 
242 ; Les Fonds ; 7NT ; LF-7NT-2019-H-A ; 645 ; 2019-07-17 11:22:26.418973 ; 42.91 
243 ; Les Fonds ; 7NT ; LF-7NT-2019-H-A ; 645 ; 2019-07-17 11:22:37.290639 ; 42.89 
244 ; Les Fonds ; 7NT ; LF-7NT-2019-H-A ; 645 ; 2019-07-17 11:22:48.173153 ; 42.88 
245 ; Les Fonds ; 7NT ; LF-7NT-2019-H-A ; 645 ; 2019-07-17 11:22:59.155940 ; 42.81 
246 ; Les Fonds ; 7NT ; LF-7NT-2019-H-A ; 645 ; 2019-07-17 11:23:10.144374 ; 42.77 
247 ; Les Fonds ; 7NT ; LF-7NT-2019-H-A ; 645 ; 2019-07-17 11:23:21.080564 ; 42.75 
248 ; Les Fonds ; 7NT ; LF-7NT-2019-H-A ; 645 ; 2019-07-17 11:23:31.968380 ; 42.74 
249 ; Les Fonds ; 7NT ; LF-7NT-2019-H-A ; 645 ; 2019-07-17 11:23:42.835470 ; 42.73 
250 ; Les Fonds ; 7NT ; LF-7NT-2019-H-A ; 645 ; 2019-07-17 11:23:53.716984 ; 42.71 
251 ; Les Fonds ; 7NT ; LF-7NT-2019-H-A ; 645 ; 2019-07-17 11:24:04.596995 ; 42.7 
252 ; Les Fonds ; 7NT ; LF-7NT-2019-H-A ; 645 ; 2019-07-17 11:24:15.476274 ; 42.66 
253 ; Les Fonds ; 7NT ; LF-7NT-2019-H-A ; 645 ; 2019-07-17 11:24:26.355973 ; 42.62 
254 ; Les Fonds ; 7NT ; LF-7NT-2019-H-A ; 645 ; 2019-07-17 11:24:57.292983 ; 42.58 
255 ; Les Fonds ; 7NT ; LF-7NT-2019-H-A ; 645 ; 2019-07-17 11:25:28.171680 ; 42.53 
256 ; Les Fonds ; 7NT ; LF-7NT-2019-H-A ; 645 ; 2019-07-17 11:25:59.053879 ; 42.45 
257 ; Les Fonds ; 7NT ; LF-7NT-2019-H-A ; 645 ; 2019-07-17 11:26:29.930674 ; 41.35 
258 ; Les Fonds ; 7NT ; LF-7NT-2019-H-A ; 645 ; 2019-07-17 11:27:00.918354 ; 41.23 
259 ; Les Fonds ; 7NT ; LF-7NT-2019-H-A ; 645 ; 2019-07-17 11:27:31.909950 ; 41.13 
260 ; Les Fonds ; 7NT ; LF-7NT-2019-H-A ; 645 ; 2019-07-17 11:28:02.899160 ; 41.08 
261 ; Les Fonds ; 7NT ; LF-7NT-2019-H-A ; 645 ; 2019-07-17 11:28:33.818194 ; 41.05 
262 ; Les Fonds ; 7NT ; LF-7NT-2019-H-A ; 645 ; 2019-07-17 11:29:04.650425 ; 41.01 
263 ; Les Fonds ; 7NT ; LF-7NT-2019-H-A ; 645 ; 2019-07-17 11:29:35.639862 ; 40.98 
264 ; Les Fonds ; 7NT ; LF-7NT-2019-H-A ; 645 ; 2019-07-17 11:30:06.462939 ; 40.46 
265 ; Les Fonds ; 7NT ; LF-7NT-2019-H-A ; 645 ; 2019-07-17 11:30:37.298665 ; 40.27 
266 ; Les Fonds ; 7NT ; LF-7NT-2019-H-A ; 645 ; 2019-07-17 11:31:08.279339 ; 40.22 
267 ; Les Fonds ; 7NT ; LF-7NT-2019-H-A ; 645 ; 2019-07-17 11:31:39.212799 ; 40.18 
268 ; Les Fonds ; 7NT ; LF-7NT-2019-H-A ; 645 ; 2019-07-17 11:32:10.042179 ; 40.13 
269 ; Les Fonds ; 7NT ; LF-7NT-2019-H-A ; 645 ; 2019-07-17 11:32:41.057884 ; 39.27 
