i ; campaign ; serie ; sample ; slake ; time ; mass 
1 ; Longs Tours ; 18 ; LT-18-2019-D-E ; 503 ; 2019-07-03 15:50:22.144381 ; 134.1 
2 ; Longs Tours ; 18 ; LT-18-2019-D-E ; 503 ; 2019-07-03 15:50:23.049748 ; 134.1 
3 ; Longs Tours ; 18 ; LT-18-2019-D-E ; 503 ; 2019-07-03 15:50:23.903408 ; 134.1 
4 ; Longs Tours ; 18 ; LT-18-2019-D-E ; 503 ; 2019-07-03 15:50:24.755300 ; 134.09 
5 ; Longs Tours ; 18 ; LT-18-2019-D-E ; 503 ; 2019-07-03 15:50:25.619776 ; 134.09 
6 ; Longs Tours ; 18 ; LT-18-2019-D-E ; 503 ; 2019-07-03 15:50:26.461539 ; 134.09 
7 ; Longs Tours ; 18 ; LT-18-2019-D-E ; 503 ; 2019-07-03 15:50:27.310430 ; 126.41 
8 ; Longs Tours ; 18 ; LT-18-2019-D-E ; 503 ; 2019-07-03 15:50:28.118764 ; 63.99 
9 ; Longs Tours ; 18 ; LT-18-2019-D-E ; 503 ; 2019-07-03 15:50:28.868395 ; 51.12 
10 ; Longs Tours ; 18 ; LT-18-2019-D-E ; 503 ; 2019-07-03 15:50:29.718730 ; 53.89 
11 ; Longs Tours ; 18 ; LT-18-2019-D-E ; 503 ; 2019-07-03 15:50:30.685745 ; 56.79 
12 ; Longs Tours ; 18 ; LT-18-2019-D-E ; 503 ; 2019-07-03 15:50:31.638579 ; 58.53 
13 ; Longs Tours ; 18 ; LT-18-2019-D-E ; 503 ; 2019-07-03 15:50:32.604308 ; 58.52 
14 ; Longs Tours ; 18 ; LT-18-2019-D-E ; 503 ; 2019-07-03 15:50:33.557667 ; 58.75 
15 ; Longs Tours ; 18 ; LT-18-2019-D-E ; 503 ; 2019-07-03 15:50:34.515047 ; 58.61 
16 ; Longs Tours ; 18 ; LT-18-2019-D-E ; 503 ; 2019-07-03 15:50:35.478150 ; 58.5 
17 ; Longs Tours ; 18 ; LT-18-2019-D-E ; 503 ; 2019-07-03 15:50:36.445965 ; 58.23 
18 ; Longs Tours ; 18 ; LT-18-2019-D-E ; 503 ; 2019-07-03 15:50:37.405736 ; 57.75 
19 ; Longs Tours ; 18 ; LT-18-2019-D-E ; 503 ; 2019-07-03 15:50:38.254104 ; 56.85 
20 ; Longs Tours ; 18 ; LT-18-2019-D-E ; 503 ; 2019-07-03 15:50:39.111281 ; 56.53 
21 ; Longs Tours ; 18 ; LT-18-2019-D-E ; 503 ; 2019-07-03 15:50:39.965763 ; 56.34 
22 ; Longs Tours ; 18 ; LT-18-2019-D-E ; 503 ; 2019-07-03 15:50:40.827722 ; 56.09 
23 ; Longs Tours ; 18 ; LT-18-2019-D-E ; 503 ; 2019-07-03 15:50:41.677013 ; 55.97 
24 ; Longs Tours ; 18 ; LT-18-2019-D-E ; 503 ; 2019-07-03 15:50:42.527573 ; 55.79 
25 ; Longs Tours ; 18 ; LT-18-2019-D-E ; 503 ; 2019-07-03 15:50:43.370159 ; 54.93 
26 ; Longs Tours ; 18 ; LT-18-2019-D-E ; 503 ; 2019-07-03 15:50:44.173894 ; 53.92 
27 ; Longs Tours ; 18 ; LT-18-2019-D-E ; 503 ; 2019-07-03 15:50:44.975664 ; 53.22 
28 ; Longs Tours ; 18 ; LT-18-2019-D-E ; 503 ; 2019-07-03 15:50:45.773986 ; 52.64 
29 ; Longs Tours ; 18 ; LT-18-2019-D-E ; 503 ; 2019-07-03 15:50:46.574802 ; 52.09 
30 ; Longs Tours ; 18 ; LT-18-2019-D-E ; 503 ; 2019-07-03 15:50:47.376741 ; 51.42 
31 ; Longs Tours ; 18 ; LT-18-2019-D-E ; 503 ; 2019-07-03 15:50:48.175029 ; 50.66 
32 ; Longs Tours ; 18 ; LT-18-2019-D-E ; 503 ; 2019-07-03 15:50:48.972105 ; 50.16 
33 ; Longs Tours ; 18 ; LT-18-2019-D-E ; 503 ; 2019-07-03 15:50:49.786645 ; 49.52 
34 ; Longs Tours ; 18 ; LT-18-2019-D-E ; 503 ; 2019-07-03 15:50:50.576033 ; 48.66 
35 ; Longs Tours ; 18 ; LT-18-2019-D-E ; 503 ; 2019-07-03 15:50:51.367816 ; 48.07 
36 ; Longs Tours ; 18 ; LT-18-2019-D-E ; 503 ; 2019-07-03 15:50:52.174727 ; 47.37 
37 ; Longs Tours ; 18 ; LT-18-2019-D-E ; 503 ; 2019-07-03 15:50:52.973548 ; 46.94 
38 ; Longs Tours ; 18 ; LT-18-2019-D-E ; 503 ; 2019-07-03 15:50:53.771241 ; 46.59 
39 ; Longs Tours ; 18 ; LT-18-2019-D-E ; 503 ; 2019-07-03 15:50:54.569190 ; 46.2 
40 ; Longs Tours ; 18 ; LT-18-2019-D-E ; 503 ; 2019-07-03 15:50:55.364047 ; 45.51 
41 ; Longs Tours ; 18 ; LT-18-2019-D-E ; 503 ; 2019-07-03 15:50:56.169812 ; 45.23 
42 ; Longs Tours ; 18 ; LT-18-2019-D-E ; 503 ; 2019-07-03 15:50:56.968268 ; 44.34 
43 ; Longs Tours ; 18 ; LT-18-2019-D-E ; 503 ; 2019-07-03 15:50:57.776405 ; 43.43 
44 ; Longs Tours ; 18 ; LT-18-2019-D-E ; 503 ; 2019-07-03 15:50:58.572561 ; 42.43 
45 ; Longs Tours ; 18 ; LT-18-2019-D-E ; 503 ; 2019-07-03 15:50:59.366399 ; 42.08 
46 ; Longs Tours ; 18 ; LT-18-2019-D-E ; 503 ; 2019-07-03 15:51:00.172695 ; 41.82 
47 ; Longs Tours ; 18 ; LT-18-2019-D-E ; 503 ; 2019-07-03 15:51:00.973967 ; 41.69 
48 ; Longs Tours ; 18 ; LT-18-2019-D-E ; 503 ; 2019-07-03 15:51:01.784168 ; 41.36 
49 ; Longs Tours ; 18 ; LT-18-2019-D-E ; 503 ; 2019-07-03 15:51:02.577481 ; 41.13 
50 ; Longs Tours ; 18 ; LT-18-2019-D-E ; 503 ; 2019-07-03 15:51:03.364301 ; 40.99 
51 ; Longs Tours ; 18 ; LT-18-2019-D-E ; 503 ; 2019-07-03 15:51:04.168786 ; 40.87 
52 ; Longs Tours ; 18 ; LT-18-2019-D-E ; 503 ; 2019-07-03 15:51:04.967105 ; 40.65 
53 ; Longs Tours ; 18 ; LT-18-2019-D-E ; 503 ; 2019-07-03 15:51:05.768805 ; 40.48 
54 ; Longs Tours ; 18 ; LT-18-2019-D-E ; 503 ; 2019-07-03 15:51:06.569255 ; 40.11 
55 ; Longs Tours ; 18 ; LT-18-2019-D-E ; 503 ; 2019-07-03 15:51:07.371394 ; 39.6 
56 ; Longs Tours ; 18 ; LT-18-2019-D-E ; 503 ; 2019-07-03 15:51:08.168225 ; 39.18 
57 ; Longs Tours ; 18 ; LT-18-2019-D-E ; 503 ; 2019-07-03 15:51:08.977442 ; 38.88 
58 ; Longs Tours ; 18 ; LT-18-2019-D-E ; 503 ; 2019-07-03 15:51:09.769890 ; 37.55 
59 ; Longs Tours ; 18 ; LT-18-2019-D-E ; 503 ; 2019-07-03 15:51:10.574952 ; 36.64 
60 ; Longs Tours ; 18 ; LT-18-2019-D-E ; 503 ; 2019-07-03 15:51:11.370092 ; 35.74 
61 ; Longs Tours ; 18 ; LT-18-2019-D-E ; 503 ; 2019-07-03 15:51:12.176625 ; 34.91 
62 ; Longs Tours ; 18 ; LT-18-2019-D-E ; 503 ; 2019-07-03 15:51:12.969566 ; 34.45 
63 ; Longs Tours ; 18 ; LT-18-2019-D-E ; 503 ; 2019-07-03 15:51:13.784110 ; 33.98 
64 ; Longs Tours ; 18 ; LT-18-2019-D-E ; 503 ; 2019-07-03 15:51:14.572411 ; 33.48 
65 ; Longs Tours ; 18 ; LT-18-2019-D-E ; 503 ; 2019-07-03 15:51:15.366736 ; 33.25 
66 ; Longs Tours ; 18 ; LT-18-2019-D-E ; 503 ; 2019-07-03 15:51:16.170797 ; 32.94 
67 ; Longs Tours ; 18 ; LT-18-2019-D-E ; 503 ; 2019-07-03 15:51:16.975973 ; 32.74 
68 ; Longs Tours ; 18 ; LT-18-2019-D-E ; 503 ; 2019-07-03 15:51:17.774465 ; 32.45 
69 ; Longs Tours ; 18 ; LT-18-2019-D-E ; 503 ; 2019-07-03 15:51:18.569902 ; 32.2 
70 ; Longs Tours ; 18 ; LT-18-2019-D-E ; 503 ; 2019-07-03 15:51:19.365044 ; 31.87 
71 ; Longs Tours ; 18 ; LT-18-2019-D-E ; 503 ; 2019-07-03 15:51:20.172520 ; 31.55 
72 ; Longs Tours ; 18 ; LT-18-2019-D-E ; 503 ; 2019-07-03 15:51:20.972232 ; 31.48 
73 ; Longs Tours ; 18 ; LT-18-2019-D-E ; 503 ; 2019-07-03 15:51:21.772130 ; 31.36 
74 ; Longs Tours ; 18 ; LT-18-2019-D-E ; 503 ; 2019-07-03 15:51:22.520802 ; 31.18 
75 ; Longs Tours ; 18 ; LT-18-2019-D-E ; 503 ; 2019-07-03 15:51:23.260297 ; 30.99 
76 ; Longs Tours ; 18 ; LT-18-2019-D-E ; 503 ; 2019-07-03 15:51:24.116337 ; 30.84 
77 ; Longs Tours ; 18 ; LT-18-2019-D-E ; 503 ; 2019-07-03 15:51:25.076477 ; 30.75 
78 ; Longs Tours ; 18 ; LT-18-2019-D-E ; 503 ; 2019-07-03 15:51:26.039532 ; 30.61 
79 ; Longs Tours ; 18 ; LT-18-2019-D-E ; 503 ; 2019-07-03 15:51:26.999617 ; 30.4 
80 ; Longs Tours ; 18 ; LT-18-2019-D-E ; 503 ; 2019-07-03 15:51:27.963972 ; 30.17 
81 ; Longs Tours ; 18 ; LT-18-2019-D-E ; 503 ; 2019-07-03 15:51:28.917281 ; 29.99 
82 ; Longs Tours ; 18 ; LT-18-2019-D-E ; 503 ; 2019-07-03 15:51:29.876439 ; 29.79 
83 ; Longs Tours ; 18 ; LT-18-2019-D-E ; 503 ; 2019-07-03 15:51:30.838855 ; 29.41 
84 ; Longs Tours ; 18 ; LT-18-2019-D-E ; 503 ; 2019-07-03 15:51:31.815139 ; 28.89 
85 ; Longs Tours ; 18 ; LT-18-2019-D-E ; 503 ; 2019-07-03 15:51:32.763908 ; 28.15 
86 ; Longs Tours ; 18 ; LT-18-2019-D-E ; 503 ; 2019-07-03 15:51:33.722094 ; 27.83 
87 ; Longs Tours ; 18 ; LT-18-2019-D-E ; 503 ; 2019-07-03 15:51:34.678940 ; 27.51 
88 ; Longs Tours ; 18 ; LT-18-2019-D-E ; 503 ; 2019-07-03 15:51:35.646647 ; 27.45 
89 ; Longs Tours ; 18 ; LT-18-2019-D-E ; 503 ; 2019-07-03 15:51:36.598137 ; 27.42 
90 ; Longs Tours ; 18 ; LT-18-2019-D-E ; 503 ; 2019-07-03 15:51:37.449329 ; 27.4 
91 ; Longs Tours ; 18 ; LT-18-2019-D-E ; 503 ; 2019-07-03 15:51:38.352159 ; 27.3 
92 ; Longs Tours ; 18 ; LT-18-2019-D-E ; 503 ; 2019-07-03 15:51:39.272118 ; 27.25 
93 ; Longs Tours ; 18 ; LT-18-2019-D-E ; 503 ; 2019-07-03 15:51:40.062216 ; 27.18 
94 ; Longs Tours ; 18 ; LT-18-2019-D-E ; 503 ; 2019-07-03 15:51:40.865426 ; 27.16 
95 ; Longs Tours ; 18 ; LT-18-2019-D-E ; 503 ; 2019-07-03 15:51:41.716295 ; 27.12 
96 ; Longs Tours ; 18 ; LT-18-2019-D-E ; 503 ; 2019-07-03 15:51:42.516436 ; 27.12 
97 ; Longs Tours ; 18 ; LT-18-2019-D-E ; 503 ; 2019-07-03 15:51:43.255464 ; 27.03 
98 ; Longs Tours ; 18 ; LT-18-2019-D-E ; 503 ; 2019-07-03 15:51:44.121697 ; 27.02 
99 ; Longs Tours ; 18 ; LT-18-2019-D-E ; 503 ; 2019-07-03 15:51:44.969987 ; 27 
100 ; Longs Tours ; 18 ; LT-18-2019-D-E ; 503 ; 2019-07-03 15:51:45.823607 ; 26.99 
101 ; Longs Tours ; 18 ; LT-18-2019-D-E ; 503 ; 2019-07-03 15:51:46.675669 ; 26.97 
102 ; Longs Tours ; 18 ; LT-18-2019-D-E ; 503 ; 2019-07-03 15:51:47.635978 ; 27 
103 ; Longs Tours ; 18 ; LT-18-2019-D-E ; 503 ; 2019-07-03 15:51:48.436085 ; 26.97 
104 ; Longs Tours ; 18 ; LT-18-2019-D-E ; 503 ; 2019-07-03 15:51:49.294274 ; 26.94 
105 ; Longs Tours ; 18 ; LT-18-2019-D-E ; 503 ; 2019-07-03 15:51:50.195820 ; 26.94 
106 ; Longs Tours ; 18 ; LT-18-2019-D-E ; 503 ; 2019-07-03 15:51:50.940821 ; 26.83 
107 ; Longs Tours ; 18 ; LT-18-2019-D-E ; 503 ; 2019-07-03 15:51:51.692871 ; 26.81 
108 ; Longs Tours ; 18 ; LT-18-2019-D-E ; 503 ; 2019-07-03 15:51:52.546929 ; 26.82 
109 ; Longs Tours ; 18 ; LT-18-2019-D-E ; 503 ; 2019-07-03 15:51:53.341334 ; 26.8 
110 ; Longs Tours ; 18 ; LT-18-2019-D-E ; 503 ; 2019-07-03 15:51:54.202029 ; 26.78 
111 ; Longs Tours ; 18 ; LT-18-2019-D-E ; 503 ; 2019-07-03 15:51:55.052155 ; 26.76 
112 ; Longs Tours ; 18 ; LT-18-2019-D-E ; 503 ; 2019-07-03 15:51:55.848719 ; 26.71 
113 ; Longs Tours ; 18 ; LT-18-2019-D-E ; 503 ; 2019-07-03 15:51:56.648926 ; 26.67 
114 ; Longs Tours ; 18 ; LT-18-2019-D-E ; 503 ; 2019-07-03 15:51:57.555910 ; 26.6 
115 ; Longs Tours ; 18 ; LT-18-2019-D-E ; 503 ; 2019-07-03 15:51:58.408705 ; 26.6 
116 ; Longs Tours ; 18 ; LT-18-2019-D-E ; 503 ; 2019-07-03 15:51:59.215283 ; 26.56 
117 ; Longs Tours ; 18 ; LT-18-2019-D-E ; 503 ; 2019-07-03 15:52:00.062375 ; 26.56 
118 ; Longs Tours ; 18 ; LT-18-2019-D-E ; 503 ; 2019-07-03 15:52:00.858741 ; 26.54 
119 ; Longs Tours ; 18 ; LT-18-2019-D-E ; 503 ; 2019-07-03 15:52:01.715467 ; 26.55 
120 ; Longs Tours ; 18 ; LT-18-2019-D-E ; 503 ; 2019-07-03 15:52:02.622445 ; 26.48 
121 ; Longs Tours ; 18 ; LT-18-2019-D-E ; 503 ; 2019-07-03 15:52:03.368951 ; 26.47 
122 ; Longs Tours ; 18 ; LT-18-2019-D-E ; 503 ; 2019-07-03 15:52:04.231693 ; 26.46 
123 ; Longs Tours ; 18 ; LT-18-2019-D-E ; 503 ; 2019-07-03 15:52:05.076431 ; 26.45 
124 ; Longs Tours ; 18 ; LT-18-2019-D-E ; 503 ; 2019-07-03 15:52:05.931931 ; 26.45 
125 ; Longs Tours ; 18 ; LT-18-2019-D-E ; 503 ; 2019-07-03 15:52:06.672832 ; 26.37 
126 ; Longs Tours ; 18 ; LT-18-2019-D-E ; 503 ; 2019-07-03 15:52:07.480187 ; 26.33 
127 ; Longs Tours ; 18 ; LT-18-2019-D-E ; 503 ; 2019-07-03 15:52:08.272623 ; 26.32 
128 ; Longs Tours ; 18 ; LT-18-2019-D-E ; 503 ; 2019-07-03 15:52:09.227777 ; 26.31 
129 ; Longs Tours ; 18 ; LT-18-2019-D-E ; 503 ; 2019-07-03 15:52:10.140649 ; 26.31 
130 ; Longs Tours ; 18 ; LT-18-2019-D-E ; 503 ; 2019-07-03 15:52:10.889879 ; 26.17 
131 ; Longs Tours ; 18 ; LT-18-2019-D-E ; 503 ; 2019-07-03 15:52:11.743120 ; 26.04 
132 ; Longs Tours ; 18 ; LT-18-2019-D-E ; 503 ; 2019-07-03 15:52:12.595414 ; 25.79 
133 ; Longs Tours ; 18 ; LT-18-2019-D-E ; 503 ; 2019-07-03 15:52:13.497680 ; 25.63 
134 ; Longs Tours ; 18 ; LT-18-2019-D-E ; 503 ; 2019-07-03 15:52:14.407556 ; 25.59 
135 ; Longs Tours ; 18 ; LT-18-2019-D-E ; 503 ; 2019-07-03 15:52:15.321327 ; 25.57 
136 ; Longs Tours ; 18 ; LT-18-2019-D-E ; 503 ; 2019-07-03 15:52:16.171422 ; 25.56 
137 ; Longs Tours ; 18 ; LT-18-2019-D-E ; 503 ; 2019-07-03 15:52:17.022014 ; 25.54 
138 ; Longs Tours ; 18 ; LT-18-2019-D-E ; 503 ; 2019-07-03 15:52:17.876103 ; 25.51 
139 ; Longs Tours ; 18 ; LT-18-2019-D-E ; 503 ; 2019-07-03 15:52:18.727839 ; 25.49 
140 ; Longs Tours ; 18 ; LT-18-2019-D-E ; 503 ; 2019-07-03 15:52:19.583514 ; 25.46 
141 ; Longs Tours ; 18 ; LT-18-2019-D-E ; 503 ; 2019-07-03 15:52:20.434454 ; 25.43 
142 ; Longs Tours ; 18 ; LT-18-2019-D-E ; 503 ; 2019-07-03 15:52:21.288158 ; 25.42 
143 ; Longs Tours ; 18 ; LT-18-2019-D-E ; 503 ; 2019-07-03 15:52:22.247975 ; 25.38 
144 ; Longs Tours ; 18 ; LT-18-2019-D-E ; 503 ; 2019-07-03 15:52:23.155219 ; 25.38 
145 ; Longs Tours ; 18 ; LT-18-2019-D-E ; 503 ; 2019-07-03 15:52:23.950336 ; 25.36 
146 ; Longs Tours ; 18 ; LT-18-2019-D-E ; 503 ; 2019-07-03 15:52:24.811697 ; 25.39 
147 ; Longs Tours ; 18 ; LT-18-2019-D-E ; 503 ; 2019-07-03 15:52:25.666455 ; 25.29 
148 ; Longs Tours ; 18 ; LT-18-2019-D-E ; 503 ; 2019-07-03 15:52:26.515878 ; 25.28 
149 ; Longs Tours ; 18 ; LT-18-2019-D-E ; 503 ; 2019-07-03 15:52:27.311228 ; 25.26 
150 ; Longs Tours ; 18 ; LT-18-2019-D-E ; 503 ; 2019-07-03 15:52:28.171124 ; 25.25 
151 ; Longs Tours ; 18 ; LT-18-2019-D-E ; 503 ; 2019-07-03 15:52:29.020321 ; 25.24 
152 ; Longs Tours ; 18 ; LT-18-2019-D-E ; 503 ; 2019-07-03 15:52:29.875023 ; 25.24 
153 ; Longs Tours ; 18 ; LT-18-2019-D-E ; 503 ; 2019-07-03 15:52:30.675051 ; 25.01 
154 ; Longs Tours ; 18 ; LT-18-2019-D-E ; 503 ; 2019-07-03 15:52:31.586648 ; 24.96 
155 ; Longs Tours ; 18 ; LT-18-2019-D-E ; 503 ; 2019-07-03 15:52:32.486745 ; 24.94 
156 ; Longs Tours ; 18 ; LT-18-2019-D-E ; 503 ; 2019-07-03 15:52:33.447964 ; 24.93 
157 ; Longs Tours ; 18 ; LT-18-2019-D-E ; 503 ; 2019-07-03 15:52:34.357757 ; 24.92 
158 ; Longs Tours ; 18 ; LT-18-2019-D-E ; 503 ; 2019-07-03 15:52:35.212126 ; 24.91 
159 ; Longs Tours ; 18 ; LT-18-2019-D-E ; 503 ; 2019-07-03 15:52:36.061749 ; 24.91 
160 ; Longs Tours ; 18 ; LT-18-2019-D-E ; 503 ; 2019-07-03 15:52:36.916070 ; 24.91 
161 ; Longs Tours ; 18 ; LT-18-2019-D-E ; 503 ; 2019-07-03 15:52:37.778566 ; 24.89 
162 ; Longs Tours ; 18 ; LT-18-2019-D-E ; 503 ; 2019-07-03 15:52:38.622674 ; 24.88 
163 ; Longs Tours ; 18 ; LT-18-2019-D-E ; 503 ; 2019-07-03 15:52:39.474447 ; 24.88 
164 ; Longs Tours ; 18 ; LT-18-2019-D-E ; 503 ; 2019-07-03 15:52:40.321747 ; 24.89 
165 ; Longs Tours ; 18 ; LT-18-2019-D-E ; 503 ; 2019-07-03 15:52:41.131461 ; 24.88 
166 ; Longs Tours ; 18 ; LT-18-2019-D-E ; 503 ; 2019-07-03 15:52:41.986747 ; 24.87 
167 ; Longs Tours ; 18 ; LT-18-2019-D-E ; 503 ; 2019-07-03 15:52:42.838362 ; 24.87 
168 ; Longs Tours ; 18 ; LT-18-2019-D-E ; 503 ; 2019-07-03 15:52:43.686170 ; 24.86 
169 ; Longs Tours ; 18 ; LT-18-2019-D-E ; 503 ; 2019-07-03 15:52:44.541782 ; 24.83 
170 ; Longs Tours ; 18 ; LT-18-2019-D-E ; 503 ; 2019-07-03 15:52:45.389198 ; 24.81 
171 ; Longs Tours ; 18 ; LT-18-2019-D-E ; 503 ; 2019-07-03 15:52:46.358272 ; 24.8 
172 ; Longs Tours ; 18 ; LT-18-2019-D-E ; 503 ; 2019-07-03 15:52:47.209017 ; 24.81 
173 ; Longs Tours ; 18 ; LT-18-2019-D-E ; 503 ; 2019-07-03 15:52:48.175083 ; 24.79 
174 ; Longs Tours ; 18 ; LT-18-2019-D-E ; 503 ; 2019-07-03 15:52:49.020483 ; 24.78 
175 ; Longs Tours ; 18 ; LT-18-2019-D-E ; 503 ; 2019-07-03 15:52:49.877342 ; 24.78 
176 ; Longs Tours ; 18 ; LT-18-2019-D-E ; 503 ; 2019-07-03 15:52:50.724465 ; 24.78 
177 ; Longs Tours ; 18 ; LT-18-2019-D-E ; 503 ; 2019-07-03 15:52:51.684545 ; 24.78 
178 ; Longs Tours ; 18 ; LT-18-2019-D-E ; 503 ; 2019-07-03 15:52:52.590812 ; 24.76 
179 ; Longs Tours ; 18 ; LT-18-2019-D-E ; 503 ; 2019-07-03 15:52:53.451453 ; 24.75 
180 ; Longs Tours ; 18 ; LT-18-2019-D-E ; 503 ; 2019-07-03 15:52:54.301025 ; 24.77 
181 ; Longs Tours ; 18 ; LT-18-2019-D-E ; 503 ; 2019-07-03 15:52:55.101363 ; 24.76 
182 ; Longs Tours ; 18 ; LT-18-2019-D-E ; 503 ; 2019-07-03 15:52:55.951015 ; 24.75 
183 ; Longs Tours ; 18 ; LT-18-2019-D-E ; 503 ; 2019-07-03 15:52:56.755038 ; 24.75 
184 ; Longs Tours ; 18 ; LT-18-2019-D-E ; 503 ; 2019-07-03 15:52:57.657506 ; 24.72 
185 ; Longs Tours ; 18 ; LT-18-2019-D-E ; 503 ; 2019-07-03 15:52:58.520331 ; 24.7 
186 ; Longs Tours ; 18 ; LT-18-2019-D-E ; 503 ; 2019-07-03 15:52:59.364882 ; 24.64 
187 ; Longs Tours ; 18 ; LT-18-2019-D-E ; 503 ; 2019-07-03 15:53:00.225371 ; 24.56 
188 ; Longs Tours ; 18 ; LT-18-2019-D-E ; 503 ; 2019-07-03 15:53:01.021813 ; 24.44 
189 ; Longs Tours ; 18 ; LT-18-2019-D-E ; 503 ; 2019-07-03 15:53:01.934957 ; 24.37 
190 ; Longs Tours ; 18 ; LT-18-2019-D-E ; 503 ; 2019-07-03 15:53:02.731231 ; 24.37 
191 ; Longs Tours ; 18 ; LT-18-2019-D-E ; 503 ; 2019-07-03 15:53:03.578202 ; 24.36 
192 ; Longs Tours ; 18 ; LT-18-2019-D-E ; 503 ; 2019-07-03 15:53:04.384625 ; 24.35 
193 ; Longs Tours ; 18 ; LT-18-2019-D-E ; 503 ; 2019-07-03 15:53:05.238153 ; 24.34 
194 ; Longs Tours ; 18 ; LT-18-2019-D-E ; 503 ; 2019-07-03 15:53:06.088399 ; 24.34 
195 ; Longs Tours ; 18 ; LT-18-2019-D-E ; 503 ; 2019-07-03 15:53:06.936875 ; 24.35 
196 ; Longs Tours ; 18 ; LT-18-2019-D-E ; 503 ; 2019-07-03 15:53:07.905731 ; 24.34 
197 ; Longs Tours ; 18 ; LT-18-2019-D-E ; 503 ; 2019-07-03 15:53:08.757696 ; 24.33 
198 ; Longs Tours ; 18 ; LT-18-2019-D-E ; 503 ; 2019-07-03 15:53:09.614628 ; 24.33 
199 ; Longs Tours ; 18 ; LT-18-2019-D-E ; 503 ; 2019-07-03 15:53:10.456007 ; 24.32 
200 ; Longs Tours ; 18 ; LT-18-2019-D-E ; 503 ; 2019-07-03 15:53:11.312017 ; 24.3 
201 ; Longs Tours ; 18 ; LT-18-2019-D-E ; 503 ; 2019-07-03 15:53:12.115839 ; 24.29 
202 ; Longs Tours ; 18 ; LT-18-2019-D-E ; 503 ; 2019-07-03 15:53:12.967612 ; 24.29 
203 ; Longs Tours ; 18 ; LT-18-2019-D-E ; 503 ; 2019-07-03 15:53:13.778990 ; 24.28 
204 ; Longs Tours ; 18 ; LT-18-2019-D-E ; 503 ; 2019-07-03 15:53:14.627788 ; 24.28 
205 ; Longs Tours ; 18 ; LT-18-2019-D-E ; 503 ; 2019-07-03 15:53:15.469662 ; 24.27 
206 ; Longs Tours ; 18 ; LT-18-2019-D-E ; 503 ; 2019-07-03 15:53:16.324600 ; 24.27 
207 ; Longs Tours ; 18 ; LT-18-2019-D-E ; 503 ; 2019-07-03 15:53:17.176620 ; 24.27 
208 ; Longs Tours ; 18 ; LT-18-2019-D-E ; 503 ; 2019-07-03 15:53:18.032392 ; 24.26 
209 ; Longs Tours ; 18 ; LT-18-2019-D-E ; 503 ; 2019-07-03 15:53:18.888942 ; 24.25 
210 ; Longs Tours ; 18 ; LT-18-2019-D-E ; 503 ; 2019-07-03 15:53:19.635601 ; 24.21 
211 ; Longs Tours ; 18 ; LT-18-2019-D-E ; 503 ; 2019-07-03 15:53:20.443402 ; 24.19 
212 ; Longs Tours ; 18 ; LT-18-2019-D-E ; 503 ; 2019-07-03 15:53:21.283168 ; 24.17 
213 ; Longs Tours ; 18 ; LT-18-2019-D-E ; 503 ; 2019-07-03 15:53:22.195772 ; 24.17 
214 ; Longs Tours ; 18 ; LT-18-2019-D-E ; 503 ; 2019-07-03 15:53:23.043544 ; 24.16 
215 ; Longs Tours ; 18 ; LT-18-2019-D-E ; 503 ; 2019-07-03 15:53:33.911635 ; 24.13 
216 ; Longs Tours ; 18 ; LT-18-2019-D-E ; 503 ; 2019-07-03 15:53:44.792727 ; 24.08 
217 ; Longs Tours ; 18 ; LT-18-2019-D-E ; 503 ; 2019-07-03 15:53:55.798708 ; 24.05 
218 ; Longs Tours ; 18 ; LT-18-2019-D-E ; 503 ; 2019-07-03 15:54:06.764336 ; 24.01 
219 ; Longs Tours ; 18 ; LT-18-2019-D-E ; 503 ; 2019-07-03 15:54:17.696851 ; 23.98 
220 ; Longs Tours ; 18 ; LT-18-2019-D-E ; 503 ; 2019-07-03 15:54:28.577407 ; 23.94 
221 ; Longs Tours ; 18 ; LT-18-2019-D-E ; 503 ; 2019-07-03 15:54:39.562562 ; 23.89 
222 ; Longs Tours ; 18 ; LT-18-2019-D-E ; 503 ; 2019-07-03 15:54:50.502802 ; 23.76 
223 ; Longs Tours ; 18 ; LT-18-2019-D-E ; 503 ; 2019-07-03 15:55:01.323880 ; 23.7 
224 ; Longs Tours ; 18 ; LT-18-2019-D-E ; 503 ; 2019-07-03 15:55:12.149520 ; 23.65 
225 ; Longs Tours ; 18 ; LT-18-2019-D-E ; 503 ; 2019-07-03 15:55:23.091342 ; 23.64 
226 ; Longs Tours ; 18 ; LT-18-2019-D-E ; 503 ; 2019-07-03 15:55:33.912835 ; 23.6 
227 ; Longs Tours ; 18 ; LT-18-2019-D-E ; 503 ; 2019-07-03 15:55:44.790802 ; 23.59 
228 ; Longs Tours ; 18 ; LT-18-2019-D-E ; 503 ; 2019-07-03 15:55:55.675705 ; 23.57 
229 ; Longs Tours ; 18 ; LT-18-2019-D-E ; 503 ; 2019-07-03 15:56:06.551432 ; 23.51 
230 ; Longs Tours ; 18 ; LT-18-2019-D-E ; 503 ; 2019-07-03 15:56:17.378211 ; 23.46 
231 ; Longs Tours ; 18 ; LT-18-2019-D-E ; 503 ; 2019-07-03 15:56:28.207864 ; 23.44 
232 ; Longs Tours ; 18 ; LT-18-2019-D-E ; 503 ; 2019-07-03 15:56:39.194426 ; 23.41 
233 ; Longs Tours ; 18 ; LT-18-2019-D-E ; 503 ; 2019-07-03 15:56:50.182371 ; 23.4 
234 ; Longs Tours ; 18 ; LT-18-2019-D-E ; 503 ; 2019-07-03 15:57:01.060178 ; 23.35 
235 ; Longs Tours ; 18 ; LT-18-2019-D-E ; 503 ; 2019-07-03 15:57:11.942371 ; 23.34 
236 ; Longs Tours ; 18 ; LT-18-2019-D-E ; 503 ; 2019-07-03 15:57:22.813008 ; 23.32 
237 ; Longs Tours ; 18 ; LT-18-2019-D-E ; 503 ; 2019-07-03 15:57:33.702111 ; 23.29 
238 ; Longs Tours ; 18 ; LT-18-2019-D-E ; 503 ; 2019-07-03 15:57:44.686241 ; 23.28 
239 ; Longs Tours ; 18 ; LT-18-2019-D-E ; 503 ; 2019-07-03 15:57:55.564212 ; 23.27 
240 ; Longs Tours ; 18 ; LT-18-2019-D-E ; 503 ; 2019-07-03 15:58:06.450474 ; 23.23 
241 ; Longs Tours ; 18 ; LT-18-2019-D-E ; 503 ; 2019-07-03 15:58:17.439865 ; 23.21 
242 ; Longs Tours ; 18 ; LT-18-2019-D-E ; 503 ; 2019-07-03 15:58:28.419556 ; 23.2 
243 ; Longs Tours ; 18 ; LT-18-2019-D-E ; 503 ; 2019-07-03 15:58:39.299325 ; 23.15 
244 ; Longs Tours ; 18 ; LT-18-2019-D-E ; 503 ; 2019-07-03 15:58:50.123587 ; 23.11 
245 ; Longs Tours ; 18 ; LT-18-2019-D-E ; 503 ; 2019-07-03 15:59:01.013413 ; 23.1 
246 ; Longs Tours ; 18 ; LT-18-2019-D-E ; 503 ; 2019-07-03 15:59:11.884390 ; 23.08 
247 ; Longs Tours ; 18 ; LT-18-2019-D-E ; 503 ; 2019-07-03 15:59:22.779446 ; 23.07 
248 ; Longs Tours ; 18 ; LT-18-2019-D-E ; 503 ; 2019-07-03 15:59:33.645363 ; 23.06 
249 ; Longs Tours ; 18 ; LT-18-2019-D-E ; 503 ; 2019-07-03 15:59:44.523891 ; 23.05 
250 ; Longs Tours ; 18 ; LT-18-2019-D-E ; 503 ; 2019-07-03 15:59:55.433487 ; 23 
251 ; Longs Tours ; 18 ; LT-18-2019-D-E ; 503 ; 2019-07-03 16:00:06.426390 ; 23 
252 ; Longs Tours ; 18 ; LT-18-2019-D-E ; 503 ; 2019-07-03 16:00:17.295655 ; 22.94 
253 ; Longs Tours ; 18 ; LT-18-2019-D-E ; 503 ; 2019-07-03 16:00:28.284349 ; 22.92 
254 ; Longs Tours ; 18 ; LT-18-2019-D-E ; 503 ; 2019-07-03 16:00:59.167287 ; 22.89 
255 ; Longs Tours ; 18 ; LT-18-2019-D-E ; 503 ; 2019-07-03 16:01:29.992409 ; 22.86 
256 ; Longs Tours ; 18 ; LT-18-2019-D-E ; 503 ; 2019-07-03 16:02:00.821176 ; 22.79 
257 ; Longs Tours ; 18 ; LT-18-2019-D-E ; 503 ; 2019-07-03 16:02:31.711454 ; 22.77 
258 ; Longs Tours ; 18 ; LT-18-2019-D-E ; 503 ; 2019-07-03 16:03:02.634203 ; 22.74 
259 ; Longs Tours ; 18 ; LT-18-2019-D-E ; 503 ; 2019-07-03 16:03:33.511003 ; 22.72 
260 ; Longs Tours ; 18 ; LT-18-2019-D-E ; 503 ; 2019-07-03 16:04:04.451330 ; 22.69 
261 ; Longs Tours ; 18 ; LT-18-2019-D-E ; 503 ; 2019-07-03 16:04:35.417555 ; 22.58 
