i ; campaign ; serie ; sample ; slake ; time ; mass 
1 ; Longs Tours ; 28 ; LT-28-2019-D-F ; 507 ; 2019-07-04 09:54:59.004939 ; 131.45 
2 ; Longs Tours ; 28 ; LT-28-2019-D-F ; 507 ; 2019-07-04 09:54:59.860141 ; 131.45 
3 ; Longs Tours ; 28 ; LT-28-2019-D-F ; 507 ; 2019-07-04 09:55:00.711356 ; 131.45 
4 ; Longs Tours ; 28 ; LT-28-2019-D-F ; 507 ; 2019-07-04 09:55:01.568345 ; 131.45 
5 ; Longs Tours ; 28 ; LT-28-2019-D-F ; 507 ; 2019-07-04 09:55:02.417788 ; 131.45 
6 ; Longs Tours ; 28 ; LT-28-2019-D-F ; 507 ; 2019-07-04 09:55:03.268721 ; 131.42 
7 ; Longs Tours ; 28 ; LT-28-2019-D-F ; 507 ; 2019-07-04 09:55:04.126582 ; 88.17 
8 ; Longs Tours ; 28 ; LT-28-2019-D-F ; 507 ; 2019-07-04 09:55:05.038472 ; 48.16 
9 ; Longs Tours ; 28 ; LT-28-2019-D-F ; 507 ; 2019-07-04 09:55:05.995441 ; 52.35 
10 ; Longs Tours ; 28 ; LT-28-2019-D-F ; 507 ; 2019-07-04 09:55:06.954611 ; 52.78 
11 ; Longs Tours ; 28 ; LT-28-2019-D-F ; 507 ; 2019-07-04 09:55:07.912230 ; 53.88 
12 ; Longs Tours ; 28 ; LT-28-2019-D-F ; 507 ; 2019-07-04 09:55:08.878607 ; 54.77 
13 ; Longs Tours ; 28 ; LT-28-2019-D-F ; 507 ; 2019-07-04 09:55:09.836457 ; 55.73 
14 ; Longs Tours ; 28 ; LT-28-2019-D-F ; 507 ; 2019-07-04 09:55:10.800560 ; 56.38 
15 ; Longs Tours ; 28 ; LT-28-2019-D-F ; 507 ; 2019-07-04 09:55:11.772238 ; 56.9 
16 ; Longs Tours ; 28 ; LT-28-2019-D-F ; 507 ; 2019-07-04 09:55:12.715521 ; 57.3 
17 ; Longs Tours ; 28 ; LT-28-2019-D-F ; 507 ; 2019-07-04 09:55:13.676543 ; 57.64 
18 ; Longs Tours ; 28 ; LT-28-2019-D-F ; 507 ; 2019-07-04 09:55:14.635475 ; 57.97 
19 ; Longs Tours ; 28 ; LT-28-2019-D-F ; 507 ; 2019-07-04 09:55:15.596849 ; 58.14 
20 ; Longs Tours ; 28 ; LT-28-2019-D-F ; 507 ; 2019-07-04 09:55:16.561966 ; 58.25 
21 ; Longs Tours ; 28 ; LT-28-2019-D-F ; 507 ; 2019-07-04 09:55:17.517721 ; 58.32 
22 ; Longs Tours ; 28 ; LT-28-2019-D-F ; 507 ; 2019-07-04 09:55:18.314897 ; 58.43 
23 ; Longs Tours ; 28 ; LT-28-2019-D-F ; 507 ; 2019-07-04 09:55:19.112102 ; 58.47 
24 ; Longs Tours ; 28 ; LT-28-2019-D-F ; 507 ; 2019-07-04 09:55:20.026437 ; 58.45 
25 ; Longs Tours ; 28 ; LT-28-2019-D-F ; 507 ; 2019-07-04 09:55:20.874407 ; 58.41 
26 ; Longs Tours ; 28 ; LT-28-2019-D-F ; 507 ; 2019-07-04 09:55:21.782547 ; 58.36 
27 ; Longs Tours ; 28 ; LT-28-2019-D-F ; 507 ; 2019-07-04 09:55:22.587046 ; 58.33 
28 ; Longs Tours ; 28 ; LT-28-2019-D-F ; 507 ; 2019-07-04 09:55:23.491913 ; 58.11 
29 ; Longs Tours ; 28 ; LT-28-2019-D-F ; 507 ; 2019-07-04 09:55:24.290679 ; 57.94 
30 ; Longs Tours ; 28 ; LT-28-2019-D-F ; 507 ; 2019-07-04 09:55:25.086537 ; 57.82 
31 ; Longs Tours ; 28 ; LT-28-2019-D-F ; 507 ; 2019-07-04 09:55:25.947204 ; 57.71 
32 ; Longs Tours ; 28 ; LT-28-2019-D-F ; 507 ; 2019-07-04 09:55:26.814141 ; 57.64 
33 ; Longs Tours ; 28 ; LT-28-2019-D-F ; 507 ; 2019-07-04 09:55:27.602627 ; 57.52 
34 ; Longs Tours ; 28 ; LT-28-2019-D-F ; 507 ; 2019-07-04 09:55:28.450597 ; 57.18 
35 ; Longs Tours ; 28 ; LT-28-2019-D-F ; 507 ; 2019-07-04 09:55:29.245002 ; 56.88 
36 ; Longs Tours ; 28 ; LT-28-2019-D-F ; 507 ; 2019-07-04 09:55:30.047757 ; 56.76 
37 ; Longs Tours ; 28 ; LT-28-2019-D-F ; 507 ; 2019-07-04 09:55:30.847419 ; 56.7 
38 ; Longs Tours ; 28 ; LT-28-2019-D-F ; 507 ; 2019-07-04 09:55:31.651469 ; 56.64 
39 ; Longs Tours ; 28 ; LT-28-2019-D-F ; 507 ; 2019-07-04 09:55:32.607735 ; 56.59 
40 ; Longs Tours ; 28 ; LT-28-2019-D-F ; 507 ; 2019-07-04 09:55:33.521809 ; 56.38 
41 ; Longs Tours ; 28 ; LT-28-2019-D-F ; 507 ; 2019-07-04 09:55:34.261949 ; 56.11 
42 ; Longs Tours ; 28 ; LT-28-2019-D-F ; 507 ; 2019-07-04 09:55:35.110469 ; 55.95 
43 ; Longs Tours ; 28 ; LT-28-2019-D-F ; 507 ; 2019-07-04 09:55:36.072903 ; 55.92 
44 ; Longs Tours ; 28 ; LT-28-2019-D-F ; 507 ; 2019-07-04 09:55:37.036272 ; 55.86 
45 ; Longs Tours ; 28 ; LT-28-2019-D-F ; 507 ; 2019-07-04 09:55:37.888298 ; 55.57 
46 ; Longs Tours ; 28 ; LT-28-2019-D-F ; 507 ; 2019-07-04 09:55:38.754109 ; 55.2 
47 ; Longs Tours ; 28 ; LT-28-2019-D-F ; 507 ; 2019-07-04 09:55:39.489858 ; 54.95 
48 ; Longs Tours ; 28 ; LT-28-2019-D-F ; 507 ; 2019-07-04 09:55:40.235497 ; 54.89 
49 ; Longs Tours ; 28 ; LT-28-2019-D-F ; 507 ; 2019-07-04 09:55:41.088021 ; 54.81 
50 ; Longs Tours ; 28 ; LT-28-2019-D-F ; 507 ; 2019-07-04 09:55:41.996163 ; 54.68 
51 ; Longs Tours ; 28 ; LT-28-2019-D-F ; 507 ; 2019-07-04 09:55:42.798292 ; 54.53 
52 ; Longs Tours ; 28 ; LT-28-2019-D-F ; 507 ; 2019-07-04 09:55:43.595828 ; 54.35 
53 ; Longs Tours ; 28 ; LT-28-2019-D-F ; 507 ; 2019-07-04 09:55:44.398060 ; 54.21 
54 ; Longs Tours ; 28 ; LT-28-2019-D-F ; 507 ; 2019-07-04 09:55:45.193406 ; 54.13 
55 ; Longs Tours ; 28 ; LT-28-2019-D-F ; 507 ; 2019-07-04 09:55:45.995948 ; 54.1 
56 ; Longs Tours ; 28 ; LT-28-2019-D-F ; 507 ; 2019-07-04 09:55:46.798246 ; 54.03 
57 ; Longs Tours ; 28 ; LT-28-2019-D-F ; 507 ; 2019-07-04 09:55:47.705888 ; 53.76 
58 ; Longs Tours ; 28 ; LT-28-2019-D-F ; 507 ; 2019-07-04 09:55:48.661078 ; 53.48 
59 ; Longs Tours ; 28 ; LT-28-2019-D-F ; 507 ; 2019-07-04 09:55:49.626854 ; 53.33 
60 ; Longs Tours ; 28 ; LT-28-2019-D-F ; 507 ; 2019-07-04 09:55:50.579728 ; 53.13 
61 ; Longs Tours ; 28 ; LT-28-2019-D-F ; 507 ; 2019-07-04 09:55:51.543055 ; 52.94 
62 ; Longs Tours ; 28 ; LT-28-2019-D-F ; 507 ; 2019-07-04 09:55:52.504479 ; 52.8 
63 ; Longs Tours ; 28 ; LT-28-2019-D-F ; 507 ; 2019-07-04 09:55:53.461276 ; 52.68 
64 ; Longs Tours ; 28 ; LT-28-2019-D-F ; 507 ; 2019-07-04 09:55:54.420479 ; 52.54 
65 ; Longs Tours ; 28 ; LT-28-2019-D-F ; 507 ; 2019-07-04 09:55:55.383290 ; 52.31 
66 ; Longs Tours ; 28 ; LT-28-2019-D-F ; 507 ; 2019-07-04 09:55:56.343247 ; 52.01 
67 ; Longs Tours ; 28 ; LT-28-2019-D-F ; 507 ; 2019-07-04 09:55:57.301598 ; 51.82 
68 ; Longs Tours ; 28 ; LT-28-2019-D-F ; 507 ; 2019-07-04 09:55:58.261084 ; 51.67 
69 ; Longs Tours ; 28 ; LT-28-2019-D-F ; 507 ; 2019-07-04 09:55:59.221404 ; 51.43 
70 ; Longs Tours ; 28 ; LT-28-2019-D-F ; 507 ; 2019-07-04 09:56:00.182668 ; 51.21 
71 ; Longs Tours ; 28 ; LT-28-2019-D-F ; 507 ; 2019-07-04 09:56:01.141334 ; 51.12 
72 ; Longs Tours ; 28 ; LT-28-2019-D-F ; 507 ; 2019-07-04 09:56:02.104737 ; 51.01 
73 ; Longs Tours ; 28 ; LT-28-2019-D-F ; 507 ; 2019-07-04 09:56:02.905011 ; 50.66 
74 ; Longs Tours ; 28 ; LT-28-2019-D-F ; 507 ; 2019-07-04 09:56:03.704389 ; 50.4 
75 ; Longs Tours ; 28 ; LT-28-2019-D-F ; 507 ; 2019-07-04 09:56:04.505782 ; 50.28 
76 ; Longs Tours ; 28 ; LT-28-2019-D-F ; 507 ; 2019-07-04 09:56:05.306202 ; 50.13 
77 ; Longs Tours ; 28 ; LT-28-2019-D-F ; 507 ; 2019-07-04 09:56:06.152456 ; 50.01 
78 ; Longs Tours ; 28 ; LT-28-2019-D-F ; 507 ; 2019-07-04 09:56:06.962600 ; 49.87 
79 ; Longs Tours ; 28 ; LT-28-2019-D-F ; 507 ; 2019-07-04 09:56:07.968990 ; 49.66 
80 ; Longs Tours ; 28 ; LT-28-2019-D-F ; 507 ; 2019-07-04 09:56:08.785192 ; 49.44 
81 ; Longs Tours ; 28 ; LT-28-2019-D-F ; 507 ; 2019-07-04 09:56:09.567763 ; 49.36 
82 ; Longs Tours ; 28 ; LT-28-2019-D-F ; 507 ; 2019-07-04 09:56:10.421881 ; 49.26 
83 ; Longs Tours ; 28 ; LT-28-2019-D-F ; 507 ; 2019-07-04 09:56:11.271688 ; 49.2 
84 ; Longs Tours ; 28 ; LT-28-2019-D-F ; 507 ; 2019-07-04 09:56:12.136138 ; 49.14 
85 ; Longs Tours ; 28 ; LT-28-2019-D-F ; 507 ; 2019-07-04 09:56:13.038550 ; 49.09 
86 ; Longs Tours ; 28 ; LT-28-2019-D-F ; 507 ; 2019-07-04 09:56:13.945130 ; 48.94 
87 ; Longs Tours ; 28 ; LT-28-2019-D-F ; 507 ; 2019-07-04 09:56:14.812031 ; 48.89 
88 ; Longs Tours ; 28 ; LT-28-2019-D-F ; 507 ; 2019-07-04 09:56:15.652052 ; 48.8 
89 ; Longs Tours ; 28 ; LT-28-2019-D-F ; 507 ; 2019-07-04 09:56:16.504588 ; 48.68 
90 ; Longs Tours ; 28 ; LT-28-2019-D-F ; 507 ; 2019-07-04 09:56:17.363649 ; 48.61 
91 ; Longs Tours ; 28 ; LT-28-2019-D-F ; 507 ; 2019-07-04 09:56:18.206104 ; 48.41 
92 ; Longs Tours ; 28 ; LT-28-2019-D-F ; 507 ; 2019-07-04 09:56:19.063532 ; 48.13 
93 ; Longs Tours ; 28 ; LT-28-2019-D-F ; 507 ; 2019-07-04 09:56:19.864563 ; 47.87 
94 ; Longs Tours ; 28 ; LT-28-2019-D-F ; 507 ; 2019-07-04 09:56:20.664266 ; 47.66 
95 ; Longs Tours ; 28 ; LT-28-2019-D-F ; 507 ; 2019-07-04 09:56:21.410159 ; 47.4 
96 ; Longs Tours ; 28 ; LT-28-2019-D-F ; 507 ; 2019-07-04 09:56:22.204055 ; 47.14 
97 ; Longs Tours ; 28 ; LT-28-2019-D-F ; 507 ; 2019-07-04 09:56:23.013920 ; 46.86 
98 ; Longs Tours ; 28 ; LT-28-2019-D-F ; 507 ; 2019-07-04 09:56:23.770014 ; 46.49 
99 ; Longs Tours ; 28 ; LT-28-2019-D-F ; 507 ; 2019-07-04 09:56:24.556436 ; 46.2 
100 ; Longs Tours ; 28 ; LT-28-2019-D-F ; 507 ; 2019-07-04 09:56:25.355347 ; 45.93 
101 ; Longs Tours ; 28 ; LT-28-2019-D-F ; 507 ; 2019-07-04 09:56:26.097184 ; 45.8 
102 ; Longs Tours ; 28 ; LT-28-2019-D-F ; 507 ; 2019-07-04 09:56:26.905155 ; 45.73 
103 ; Longs Tours ; 28 ; LT-28-2019-D-F ; 507 ; 2019-07-04 09:56:27.706670 ; 45.73 
104 ; Longs Tours ; 28 ; LT-28-2019-D-F ; 507 ; 2019-07-04 09:56:28.552123 ; 45.61 
105 ; Longs Tours ; 28 ; LT-28-2019-D-F ; 507 ; 2019-07-04 09:56:29.465153 ; 45.37 
106 ; Longs Tours ; 28 ; LT-28-2019-D-F ; 507 ; 2019-07-04 09:56:30.373482 ; 45.19 
107 ; Longs Tours ; 28 ; LT-28-2019-D-F ; 507 ; 2019-07-04 09:56:31.321687 ; 45.09 
108 ; Longs Tours ; 28 ; LT-28-2019-D-F ; 507 ; 2019-07-04 09:56:32.185526 ; 45 
109 ; Longs Tours ; 28 ; LT-28-2019-D-F ; 507 ; 2019-07-04 09:56:33.053461 ; 44.86 
110 ; Longs Tours ; 28 ; LT-28-2019-D-F ; 507 ; 2019-07-04 09:56:33.944121 ; 44.84 
111 ; Longs Tours ; 28 ; LT-28-2019-D-F ; 507 ; 2019-07-04 09:56:34.851330 ; 44.77 
112 ; Longs Tours ; 28 ; LT-28-2019-D-F ; 507 ; 2019-07-04 09:56:35.706399 ; 44.61 
113 ; Longs Tours ; 28 ; LT-28-2019-D-F ; 507 ; 2019-07-04 09:56:36.664834 ; 44.48 
114 ; Longs Tours ; 28 ; LT-28-2019-D-F ; 507 ; 2019-07-04 09:56:37.518743 ; 44.32 
115 ; Longs Tours ; 28 ; LT-28-2019-D-F ; 507 ; 2019-07-04 09:56:38.266067 ; 43.96 
116 ; Longs Tours ; 28 ; LT-28-2019-D-F ; 507 ; 2019-07-04 09:56:39.009876 ; 43.55 
117 ; Longs Tours ; 28 ; LT-28-2019-D-F ; 507 ; 2019-07-04 09:56:39.757340 ; 43.3 
118 ; Longs Tours ; 28 ; LT-28-2019-D-F ; 507 ; 2019-07-04 09:56:40.503650 ; 43.16 
119 ; Longs Tours ; 28 ; LT-28-2019-D-F ; 507 ; 2019-07-04 09:56:41.249072 ; 43.07 
120 ; Longs Tours ; 28 ; LT-28-2019-D-F ; 507 ; 2019-07-04 09:56:42.098629 ; 42.97 
121 ; Longs Tours ; 28 ; LT-28-2019-D-F ; 507 ; 2019-07-04 09:56:43.008079 ; 42.85 
122 ; Longs Tours ; 28 ; LT-28-2019-D-F ; 507 ; 2019-07-04 09:56:43.922752 ; 42.78 
123 ; Longs Tours ; 28 ; LT-28-2019-D-F ; 507 ; 2019-07-04 09:56:44.825279 ; 42.71 
124 ; Longs Tours ; 28 ; LT-28-2019-D-F ; 507 ; 2019-07-04 09:56:45.621928 ; 42.67 
125 ; Longs Tours ; 28 ; LT-28-2019-D-F ; 507 ; 2019-07-04 09:56:46.477979 ; 42.23 
126 ; Longs Tours ; 28 ; LT-28-2019-D-F ; 507 ; 2019-07-04 09:56:47.383799 ; 41.73 
127 ; Longs Tours ; 28 ; LT-28-2019-D-F ; 507 ; 2019-07-04 09:56:48.287163 ; 41.66 
128 ; Longs Tours ; 28 ; LT-28-2019-D-F ; 507 ; 2019-07-04 09:56:49.197387 ; 41.66 
129 ; Longs Tours ; 28 ; LT-28-2019-D-F ; 507 ; 2019-07-04 09:56:49.997701 ; 41.68 
130 ; Longs Tours ; 28 ; LT-28-2019-D-F ; 507 ; 2019-07-04 09:56:50.816398 ; 41.49 
131 ; Longs Tours ; 28 ; LT-28-2019-D-F ; 507 ; 2019-07-04 09:56:51.703961 ; 41.26 
132 ; Longs Tours ; 28 ; LT-28-2019-D-F ; 507 ; 2019-07-04 09:56:52.610503 ; 41.14 
133 ; Longs Tours ; 28 ; LT-28-2019-D-F ; 507 ; 2019-07-04 09:56:53.571393 ; 41.08 
134 ; Longs Tours ; 28 ; LT-28-2019-D-F ; 507 ; 2019-07-04 09:56:54.475823 ; 41 
135 ; Longs Tours ; 28 ; LT-28-2019-D-F ; 507 ; 2019-07-04 09:56:55.444554 ; 40.93 
136 ; Longs Tours ; 28 ; LT-28-2019-D-F ; 507 ; 2019-07-04 09:56:56.393872 ; 40.91 
137 ; Longs Tours ; 28 ; LT-28-2019-D-F ; 507 ; 2019-07-04 09:56:57.252776 ; 40.86 
138 ; Longs Tours ; 28 ; LT-28-2019-D-F ; 507 ; 2019-07-04 09:56:57.996031 ; 40.8 
139 ; Longs Tours ; 28 ; LT-28-2019-D-F ; 507 ; 2019-07-04 09:56:58.745315 ; 40.74 
140 ; Longs Tours ; 28 ; LT-28-2019-D-F ; 507 ; 2019-07-04 09:56:59.545660 ; 40.64 
141 ; Longs Tours ; 28 ; LT-28-2019-D-F ; 507 ; 2019-07-04 09:57:00.404425 ; 40.32 
142 ; Longs Tours ; 28 ; LT-28-2019-D-F ; 507 ; 2019-07-04 09:57:01.248865 ; 39.91 
143 ; Longs Tours ; 28 ; LT-28-2019-D-F ; 507 ; 2019-07-04 09:57:02.102843 ; 39.83 
144 ; Longs Tours ; 28 ; LT-28-2019-D-F ; 507 ; 2019-07-04 09:57:02.956447 ; 39.82 
145 ; Longs Tours ; 28 ; LT-28-2019-D-F ; 507 ; 2019-07-04 09:57:03.864137 ; 39.79 
146 ; Longs Tours ; 28 ; LT-28-2019-D-F ; 507 ; 2019-07-04 09:57:04.663237 ; 39.73 
147 ; Longs Tours ; 28 ; LT-28-2019-D-F ; 507 ; 2019-07-04 09:57:05.570164 ; 39.66 
148 ; Longs Tours ; 28 ; LT-28-2019-D-F ; 507 ; 2019-07-04 09:57:06.532530 ; 39.65 
149 ; Longs Tours ; 28 ; LT-28-2019-D-F ; 507 ; 2019-07-04 09:57:07.387455 ; 39.62 
150 ; Longs Tours ; 28 ; LT-28-2019-D-F ; 507 ; 2019-07-04 09:57:08.339611 ; 39.61 
151 ; Longs Tours ; 28 ; LT-28-2019-D-F ; 507 ; 2019-07-04 09:57:09.199529 ; 39.63 
152 ; Longs Tours ; 28 ; LT-28-2019-D-F ; 507 ; 2019-07-04 09:57:09.995691 ; 39.45 
153 ; Longs Tours ; 28 ; LT-28-2019-D-F ; 507 ; 2019-07-04 09:57:10.849174 ; 39.31 
154 ; Longs Tours ; 28 ; LT-28-2019-D-F ; 507 ; 2019-07-04 09:57:11.829108 ; 39.26 
155 ; Longs Tours ; 28 ; LT-28-2019-D-F ; 507 ; 2019-07-04 09:57:12.718066 ; 39.23 
156 ; Longs Tours ; 28 ; LT-28-2019-D-F ; 507 ; 2019-07-04 09:57:13.569235 ; 39.25 
157 ; Longs Tours ; 28 ; LT-28-2019-D-F ; 507 ; 2019-07-04 09:57:14.317368 ; 39.15 
158 ; Longs Tours ; 28 ; LT-28-2019-D-F ; 507 ; 2019-07-04 09:57:15.169859 ; 39.01 
159 ; Longs Tours ; 28 ; LT-28-2019-D-F ; 507 ; 2019-07-04 09:57:16.073364 ; 38.84 
160 ; Longs Tours ; 28 ; LT-28-2019-D-F ; 507 ; 2019-07-04 09:57:16.880199 ; 38.62 
161 ; Longs Tours ; 28 ; LT-28-2019-D-F ; 507 ; 2019-07-04 09:57:17.668957 ; 38.56 
162 ; Longs Tours ; 28 ; LT-28-2019-D-F ; 507 ; 2019-07-04 09:57:18.472943 ; 38.54 
163 ; Longs Tours ; 28 ; LT-28-2019-D-F ; 507 ; 2019-07-04 09:57:19.329665 ; 38.49 
164 ; Longs Tours ; 28 ; LT-28-2019-D-F ; 507 ; 2019-07-04 09:57:20.287858 ; 38.33 
165 ; Longs Tours ; 28 ; LT-28-2019-D-F ; 507 ; 2019-07-04 09:57:21.194584 ; 38.19 
166 ; Longs Tours ; 28 ; LT-28-2019-D-F ; 507 ; 2019-07-04 09:57:22.101281 ; 37.95 
167 ; Longs Tours ; 28 ; LT-28-2019-D-F ; 507 ; 2019-07-04 09:57:23.004982 ; 37.73 
168 ; Longs Tours ; 28 ; LT-28-2019-D-F ; 507 ; 2019-07-04 09:57:23.916543 ; 37.68 
169 ; Longs Tours ; 28 ; LT-28-2019-D-F ; 507 ; 2019-07-04 09:57:24.818885 ; 37.67 
170 ; Longs Tours ; 28 ; LT-28-2019-D-F ; 507 ; 2019-07-04 09:57:25.674561 ; 37.67 
171 ; Longs Tours ; 28 ; LT-28-2019-D-F ; 507 ; 2019-07-04 09:57:26.481950 ; 37.64 
172 ; Longs Tours ; 28 ; LT-28-2019-D-F ; 507 ; 2019-07-04 09:57:27.326138 ; 37.49 
173 ; Longs Tours ; 28 ; LT-28-2019-D-F ; 507 ; 2019-07-04 09:57:28.231187 ; 37.44 
174 ; Longs Tours ; 28 ; LT-28-2019-D-F ; 507 ; 2019-07-04 09:57:29.034983 ; 37.43 
175 ; Longs Tours ; 28 ; LT-28-2019-D-F ; 507 ; 2019-07-04 09:57:29.938316 ; 37.41 
176 ; Longs Tours ; 28 ; LT-28-2019-D-F ; 507 ; 2019-07-04 09:57:30.799401 ; 37.4 
177 ; Longs Tours ; 28 ; LT-28-2019-D-F ; 507 ; 2019-07-04 09:57:31.599263 ; 37.38 
178 ; Longs Tours ; 28 ; LT-28-2019-D-F ; 507 ; 2019-07-04 09:57:32.448279 ; 37.37 
179 ; Longs Tours ; 28 ; LT-28-2019-D-F ; 507 ; 2019-07-04 09:57:33.356597 ; 37.38 
180 ; Longs Tours ; 28 ; LT-28-2019-D-F ; 507 ; 2019-07-04 09:57:34.154449 ; 37.32 
181 ; Longs Tours ; 28 ; LT-28-2019-D-F ; 507 ; 2019-07-04 09:57:34.897981 ; 37.31 
182 ; Longs Tours ; 28 ; LT-28-2019-D-F ; 507 ; 2019-07-04 09:57:35.768478 ; 37.3 
183 ; Longs Tours ; 28 ; LT-28-2019-D-F ; 507 ; 2019-07-04 09:57:36.604397 ; 37.31 
184 ; Longs Tours ; 28 ; LT-28-2019-D-F ; 507 ; 2019-07-04 09:57:37.352202 ; 37.29 
185 ; Longs Tours ; 28 ; LT-28-2019-D-F ; 507 ; 2019-07-04 09:57:38.208513 ; 37.28 
186 ; Longs Tours ; 28 ; LT-28-2019-D-F ; 507 ; 2019-07-04 09:57:39.059005 ; 37.28 
187 ; Longs Tours ; 28 ; LT-28-2019-D-F ; 507 ; 2019-07-04 09:57:39.907616 ; 37.27 
188 ; Longs Tours ; 28 ; LT-28-2019-D-F ; 507 ; 2019-07-04 09:57:40.764739 ; 37.25 
189 ; Longs Tours ; 28 ; LT-28-2019-D-F ; 507 ; 2019-07-04 09:57:41.622388 ; 37.24 
190 ; Longs Tours ; 28 ; LT-28-2019-D-F ; 507 ; 2019-07-04 09:57:42.474200 ; 37.22 
191 ; Longs Tours ; 28 ; LT-28-2019-D-F ; 507 ; 2019-07-04 09:57:43.276265 ; 37.22 
192 ; Longs Tours ; 28 ; LT-28-2019-D-F ; 507 ; 2019-07-04 09:57:44.118363 ; 37.21 
193 ; Longs Tours ; 28 ; LT-28-2019-D-F ; 507 ; 2019-07-04 09:57:44.976584 ; 37.21 
194 ; Longs Tours ; 28 ; LT-28-2019-D-F ; 507 ; 2019-07-04 09:57:45.883327 ; 37.19 
195 ; Longs Tours ; 28 ; LT-28-2019-D-F ; 507 ; 2019-07-04 09:57:46.738487 ; 37.2 
196 ; Longs Tours ; 28 ; LT-28-2019-D-F ; 507 ; 2019-07-04 09:57:47.491034 ; 37.18 
197 ; Longs Tours ; 28 ; LT-28-2019-D-F ; 507 ; 2019-07-04 09:57:48.338825 ; 37.09 
198 ; Longs Tours ; 28 ; LT-28-2019-D-F ; 507 ; 2019-07-04 09:57:49.192131 ; 37.09 
199 ; Longs Tours ; 28 ; LT-28-2019-D-F ; 507 ; 2019-07-04 09:57:49.987570 ; 37.07 
200 ; Longs Tours ; 28 ; LT-28-2019-D-F ; 507 ; 2019-07-04 09:57:50.843302 ; 37.06 
201 ; Longs Tours ; 28 ; LT-28-2019-D-F ; 507 ; 2019-07-04 09:57:51.698656 ; 37.05 
202 ; Longs Tours ; 28 ; LT-28-2019-D-F ; 507 ; 2019-07-04 09:57:52.551331 ; 37.05 
203 ; Longs Tours ; 28 ; LT-28-2019-D-F ; 507 ; 2019-07-04 09:57:53.508150 ; 37.04 
204 ; Longs Tours ; 28 ; LT-28-2019-D-F ; 507 ; 2019-07-04 09:57:54.378132 ; 37.03 
205 ; Longs Tours ; 28 ; LT-28-2019-D-F ; 507 ; 2019-07-04 09:57:55.213961 ; 37.06 
206 ; Longs Tours ; 28 ; LT-28-2019-D-F ; 507 ; 2019-07-04 09:57:56.074350 ; 37.01 
207 ; Longs Tours ; 28 ; LT-28-2019-D-F ; 507 ; 2019-07-04 09:57:56.931501 ; 37 
208 ; Longs Tours ; 28 ; LT-28-2019-D-F ; 507 ; 2019-07-04 09:57:57.780938 ; 36.99 
209 ; Longs Tours ; 28 ; LT-28-2019-D-F ; 507 ; 2019-07-04 09:57:58.637832 ; 36.99 
210 ; Longs Tours ; 28 ; LT-28-2019-D-F ; 507 ; 2019-07-04 09:57:59.491628 ; 36.98 
211 ; Longs Tours ; 28 ; LT-28-2019-D-F ; 507 ; 2019-07-04 09:58:10.350329 ; 36.7 
212 ; Longs Tours ; 28 ; LT-28-2019-D-F ; 507 ; 2019-07-04 09:58:21.176707 ; 36.51 
213 ; Longs Tours ; 28 ; LT-28-2019-D-F ; 507 ; 2019-07-04 09:58:32.163573 ; 36.34 
214 ; Longs Tours ; 28 ; LT-28-2019-D-F ; 507 ; 2019-07-04 09:58:42.990913 ; 36.18 
215 ; Longs Tours ; 28 ; LT-28-2019-D-F ; 507 ; 2019-07-04 09:58:53.872462 ; 35.81 
216 ; Longs Tours ; 28 ; LT-28-2019-D-F ; 507 ; 2019-07-04 09:59:04.857670 ; 35.45 
217 ; Longs Tours ; 28 ; LT-28-2019-D-F ; 507 ; 2019-07-04 09:59:15.787913 ; 35.27 
218 ; Longs Tours ; 28 ; LT-28-2019-D-F ; 507 ; 2019-07-04 09:59:26.723794 ; 35.16 
219 ; Longs Tours ; 28 ; LT-28-2019-D-F ; 507 ; 2019-07-04 09:59:37.710516 ; 34.88 
220 ; Longs Tours ; 28 ; LT-28-2019-D-F ; 507 ; 2019-07-04 09:59:48.696303 ; 34.26 
221 ; Longs Tours ; 28 ; LT-28-2019-D-F ; 507 ; 2019-07-04 09:59:59.520445 ; 34.12 
222 ; Longs Tours ; 28 ; LT-28-2019-D-F ; 507 ; 2019-07-04 10:00:10.518119 ; 33.97 
223 ; Longs Tours ; 28 ; LT-28-2019-D-F ; 507 ; 2019-07-04 10:00:21.440235 ; 33.92 
224 ; Longs Tours ; 28 ; LT-28-2019-D-F ; 507 ; 2019-07-04 10:00:32.325300 ; 33.77 
225 ; Longs Tours ; 28 ; LT-28-2019-D-F ; 507 ; 2019-07-04 10:00:43.147998 ; 33.73 
226 ; Longs Tours ; 28 ; LT-28-2019-D-F ; 507 ; 2019-07-04 10:00:54.027679 ; 33.72 
227 ; Longs Tours ; 28 ; LT-28-2019-D-F ; 507 ; 2019-07-04 10:01:04.903285 ; 33.68 
228 ; Longs Tours ; 28 ; LT-28-2019-D-F ; 507 ; 2019-07-04 10:01:15.798013 ; 33.66 
229 ; Longs Tours ; 28 ; LT-28-2019-D-F ; 507 ; 2019-07-04 10:01:26.613593 ; 33.63 
230 ; Longs Tours ; 28 ; LT-28-2019-D-F ; 507 ; 2019-07-04 10:01:37.548599 ; 33.59 
231 ; Longs Tours ; 28 ; LT-28-2019-D-F ; 507 ; 2019-07-04 10:01:48.429093 ; 33.56 
232 ; Longs Tours ; 28 ; LT-28-2019-D-F ; 507 ; 2019-07-04 10:01:59.414123 ; 33.48 
233 ; Longs Tours ; 28 ; LT-28-2019-D-F ; 507 ; 2019-07-04 10:02:10.400839 ; 33.44 
234 ; Longs Tours ; 28 ; LT-28-2019-D-F ; 507 ; 2019-07-04 10:02:21.235959 ; 33.07 
235 ; Longs Tours ; 28 ; LT-28-2019-D-F ; 507 ; 2019-07-04 10:02:32.105799 ; 33.01 
236 ; Longs Tours ; 28 ; LT-28-2019-D-F ; 507 ; 2019-07-04 10:02:43.041598 ; 32.93 
237 ; Longs Tours ; 28 ; LT-28-2019-D-F ; 507 ; 2019-07-04 10:02:53.921878 ; 32.93 
238 ; Longs Tours ; 28 ; LT-28-2019-D-F ; 507 ; 2019-07-04 10:03:04.746225 ; 32.91 
239 ; Longs Tours ; 28 ; LT-28-2019-D-F ; 507 ; 2019-07-04 10:03:15.636940 ; 32.9 
240 ; Longs Tours ; 28 ; LT-28-2019-D-F ; 507 ; 2019-07-04 10:03:26.617144 ; 32.87 
241 ; Longs Tours ; 28 ; LT-28-2019-D-F ; 507 ; 2019-07-04 10:03:37.495136 ; 32.84 
242 ; Longs Tours ; 28 ; LT-28-2019-D-F ; 507 ; 2019-07-04 10:03:48.427441 ; 32.82 
243 ; Longs Tours ; 28 ; LT-28-2019-D-F ; 507 ; 2019-07-04 10:03:59.307488 ; 32.8 
244 ; Longs Tours ; 28 ; LT-28-2019-D-F ; 507 ; 2019-07-04 10:04:10.241143 ; 32.76 
245 ; Longs Tours ; 28 ; LT-28-2019-D-F ; 507 ; 2019-07-04 10:04:21.073605 ; 32.72 
246 ; Longs Tours ; 28 ; LT-28-2019-D-F ; 507 ; 2019-07-04 10:04:31.893831 ; 32.71 
247 ; Longs Tours ; 28 ; LT-28-2019-D-F ; 507 ; 2019-07-04 10:04:42.774866 ; 32.7 
248 ; Longs Tours ; 28 ; LT-28-2019-D-F ; 507 ; 2019-07-04 10:04:53.657756 ; 32.69 
249 ; Longs Tours ; 28 ; LT-28-2019-D-F ; 507 ; 2019-07-04 10:05:04.537044 ; 32.65 
250 ; Longs Tours ; 28 ; LT-28-2019-D-F ; 507 ; 2019-07-04 10:05:35.418140 ; 32.59 
251 ; Longs Tours ; 28 ; LT-28-2019-D-F ; 507 ; 2019-07-04 10:06:06.248679 ; 32.31 
252 ; Longs Tours ; 28 ; LT-28-2019-D-F ; 507 ; 2019-07-04 10:06:37.231503 ; 32.25 
253 ; Longs Tours ; 28 ; LT-28-2019-D-F ; 507 ; 2019-07-04 10:07:08.162698 ; 32.17 
254 ; Longs Tours ; 28 ; LT-28-2019-D-F ; 507 ; 2019-07-04 10:07:39.045767 ; 32.14 
255 ; Longs Tours ; 28 ; LT-28-2019-D-F ; 507 ; 2019-07-04 10:08:10.029325 ; 31.99 
256 ; Longs Tours ; 28 ; LT-28-2019-D-F ; 507 ; 2019-07-04 10:08:41.014053 ; 31.95 
257 ; Longs Tours ; 28 ; LT-28-2019-D-F ; 507 ; 2019-07-04 10:09:11.955343 ; 31.89 
258 ; Longs Tours ; 28 ; LT-28-2019-D-F ; 507 ; 2019-07-04 10:09:42.934326 ; 31.78 
259 ; Longs Tours ; 28 ; LT-28-2019-D-F ; 507 ; 2019-07-04 10:10:13.764744 ; 31.39 
260 ; Longs Tours ; 28 ; LT-28-2019-D-F ; 507 ; 2019-07-04 10:10:44.764309 ; 31.23 
261 ; Longs Tours ; 28 ; LT-28-2019-D-F ; 507 ; 2019-07-04 10:11:15.627399 ; 31.06 
262 ; Longs Tours ; 28 ; LT-28-2019-D-F ; 507 ; 2019-07-04 10:11:46.455836 ; 30.97 
263 ; Longs Tours ; 28 ; LT-28-2019-D-F ; 507 ; 2019-07-04 10:12:17.288589 ; 30.93 
264 ; Longs Tours ; 28 ; LT-28-2019-D-F ; 507 ; 2019-07-04 10:12:48.162958 ; 30.89 
265 ; Longs Tours ; 28 ; LT-28-2019-D-F ; 507 ; 2019-07-04 10:13:19.146517 ; 30.83 
266 ; Longs Tours ; 28 ; LT-28-2019-D-F ; 507 ; 2019-07-04 10:13:50.028179 ; 30.78 
267 ; Longs Tours ; 28 ; LT-28-2019-D-F ; 507 ; 2019-07-04 10:14:20.960932 ; 30.64 
268 ; Longs Tours ; 28 ; LT-28-2019-D-F ; 507 ; 2019-07-04 10:14:51.842192 ; 30.61 
269 ; Longs Tours ; 28 ; LT-28-2019-D-F ; 507 ; 2019-07-04 10:15:22.675882 ; 30.55 
270 ; Longs Tours ; 28 ; LT-28-2019-D-F ; 507 ; 2019-07-04 10:15:53.390572 ; 30.37 
271 ; Longs Tours ; 28 ; LT-28-2019-D-F ; 507 ; 2019-07-04 10:16:24.214347 ; 30.31 
272 ; Longs Tours ; 28 ; LT-28-2019-D-F ; 507 ; 2019-07-04 10:16:55.040493 ; 30.27 
273 ; Longs Tours ; 28 ; LT-28-2019-D-F ; 507 ; 2019-07-04 10:17:25.922300 ; 30.2 
274 ; Longs Tours ; 28 ; LT-28-2019-D-F ; 507 ; 2019-07-04 10:17:56.813670 ; 30.13 
275 ; Longs Tours ; 28 ; LT-28-2019-D-F ; 507 ; 2019-07-04 10:18:27.733954 ; 30.04 
276 ; Longs Tours ; 28 ; LT-28-2019-D-F ; 507 ; 2019-07-04 10:18:58.667540 ; 29.93 
277 ; Longs Tours ; 28 ; LT-28-2019-D-F ; 507 ; 2019-07-04 10:19:29.545807 ; 29.92 
278 ; Longs Tours ; 28 ; LT-28-2019-D-F ; 507 ; 2019-07-04 10:20:00.480416 ; 29.81 
279 ; Longs Tours ; 28 ; LT-28-2019-D-F ; 507 ; 2019-07-04 10:20:31.467108 ; 29.79 
280 ; Longs Tours ; 28 ; LT-28-2019-D-F ; 507 ; 2019-07-04 10:21:02.461489 ; 29.8 
281 ; Longs Tours ; 28 ; LT-28-2019-D-F ; 507 ; 2019-07-04 10:21:33.387325 ; 29.76 
282 ; Longs Tours ; 28 ; LT-28-2019-D-F ; 507 ; 2019-07-04 10:22:04.269702 ; 29.75 
283 ; Longs Tours ; 28 ; LT-28-2019-D-F ; 507 ; 2019-07-04 10:22:35.203783 ; 29.69 
284 ; Longs Tours ; 28 ; LT-28-2019-D-F ; 507 ; 2019-07-04 10:23:06.191000 ; 29.66 
285 ; Longs Tours ; 28 ; LT-28-2019-D-F ; 507 ; 2019-07-04 10:23:37.069537 ; 29.6 
286 ; Longs Tours ; 28 ; LT-28-2019-D-F ; 507 ; 2019-07-04 10:24:08.062625 ; 29.46 
287 ; Longs Tours ; 28 ; LT-28-2019-D-F ; 507 ; 2019-07-04 10:24:38.941683 ; 29.42 
288 ; Longs Tours ; 28 ; LT-28-2019-D-F ; 507 ; 2019-07-04 10:25:09.920958 ; 29.28 
289 ; Longs Tours ; 28 ; LT-28-2019-D-F ; 507 ; 2019-07-04 10:25:40.802989 ; 29.2 
290 ; Longs Tours ; 28 ; LT-28-2019-D-F ; 507 ; 2019-07-04 10:26:11.802775 ; 29.19 
291 ; Longs Tours ; 28 ; LT-28-2019-D-F ; 507 ; 2019-07-04 10:26:42.729390 ; 29.19 
292 ; Longs Tours ; 28 ; LT-28-2019-D-F ; 507 ; 2019-07-04 10:27:13.650614 ; 29.17 
293 ; Longs Tours ; 28 ; LT-28-2019-D-F ; 507 ; 2019-07-04 10:27:44.591274 ; 29.17 
294 ; Longs Tours ; 28 ; LT-28-2019-D-F ; 507 ; 2019-07-04 10:28:15.520396 ; 29.15 
295 ; Longs Tours ; 28 ; LT-28-2019-D-F ; 507 ; 2019-07-04 10:28:46.455592 ; 29.13 
296 ; Longs Tours ; 28 ; LT-28-2019-D-F ; 507 ; 2019-07-04 10:29:17.428410 ; 29.11 
