i ; campaign ; serie ; sample ; slake ; time ; mass 
1 ; Longs Tours ; 7 ; LT-7-2019-D-F ; 516 ; 2019-07-04 11:38:01.226450 ; 130.42 
2 ; Longs Tours ; 7 ; LT-7-2019-D-F ; 516 ; 2019-07-04 11:38:02.314352 ; 130.41 
3 ; Longs Tours ; 7 ; LT-7-2019-D-F ; 516 ; 2019-07-04 11:38:03.355046 ; 130.17 
4 ; Longs Tours ; 7 ; LT-7-2019-D-F ; 516 ; 2019-07-04 11:38:04.397012 ; 130.1 
5 ; Longs Tours ; 7 ; LT-7-2019-D-F ; 516 ; 2019-07-04 11:38:05.460334 ; 130.06 
6 ; Longs Tours ; 7 ; LT-7-2019-D-F ; 516 ; 2019-07-04 11:38:06.500891 ; 89.53 
7 ; Longs Tours ; 7 ; LT-7-2019-D-F ; 516 ; 2019-07-04 11:38:07.554866 ; 57.33 
8 ; Longs Tours ; 7 ; LT-7-2019-D-F ; 516 ; 2019-07-04 11:38:08.610360 ; 57.63 
9 ; Longs Tours ; 7 ; LT-7-2019-D-F ; 516 ; 2019-07-04 11:38:09.648345 ; 57.59 
10 ; Longs Tours ; 7 ; LT-7-2019-D-F ; 516 ; 2019-07-04 11:38:10.692152 ; 57 
11 ; Longs Tours ; 7 ; LT-7-2019-D-F ; 516 ; 2019-07-04 11:38:11.769913 ; 56.14 
12 ; Longs Tours ; 7 ; LT-7-2019-D-F ; 516 ; 2019-07-04 11:38:12.807500 ; 54.83 
13 ; Longs Tours ; 7 ; LT-7-2019-D-F ; 516 ; 2019-07-04 11:38:13.834974 ; 54.08 
14 ; Longs Tours ; 7 ; LT-7-2019-D-F ; 516 ; 2019-07-04 11:38:14.910081 ; 53.18 
15 ; Longs Tours ; 7 ; LT-7-2019-D-F ; 516 ; 2019-07-04 11:38:15.940899 ; 52.62 
16 ; Longs Tours ; 7 ; LT-7-2019-D-F ; 516 ; 2019-07-04 11:38:16.985398 ; 51.73 
17 ; Longs Tours ; 7 ; LT-7-2019-D-F ; 516 ; 2019-07-04 11:38:18.032925 ; 50.98 
18 ; Longs Tours ; 7 ; LT-7-2019-D-F ; 516 ; 2019-07-04 11:38:19.091784 ; 49.71 
20 ; Longs Tours ; 7 ; LT-7-2019-D-F ; 516 ; 2019-07-04 11:38:21.174661 ; 48.95 
21 ; Longs Tours ; 7 ; LT-7-2019-D-F ; 516 ; 2019-07-04 11:38:22.235820 ; 48.51 
22 ; Longs Tours ; 7 ; LT-7-2019-D-F ; 516 ; 2019-07-04 11:38:23.299175 ; 47.25 
23 ; Longs Tours ; 7 ; LT-7-2019-D-F ; 516 ; 2019-07-04 11:38:24.325818 ; 46.74 
24 ; Longs Tours ; 7 ; LT-7-2019-D-F ; 516 ; 2019-07-04 11:38:25.380554 ; 46.37 
25 ; Longs Tours ; 7 ; LT-7-2019-D-F ; 516 ; 2019-07-04 11:38:26.416043 ; 46.1 
26 ; Longs Tours ; 7 ; LT-7-2019-D-F ; 516 ; 2019-07-04 11:38:27.459846 ; 45.81 
27 ; Longs Tours ; 7 ; LT-7-2019-D-F ; 516 ; 2019-07-04 11:38:28.523153 ; 45.52 
28 ; Longs Tours ; 7 ; LT-7-2019-D-F ; 516 ; 2019-07-04 11:38:29.579224 ; 45.45 
29 ; Longs Tours ; 7 ; LT-7-2019-D-F ; 516 ; 2019-07-04 11:38:30.610508 ; 45.19 
30 ; Longs Tours ; 7 ; LT-7-2019-D-F ; 516 ; 2019-07-04 11:38:31.671113 ; 44.93 
31 ; Longs Tours ; 7 ; LT-7-2019-D-F ; 516 ; 2019-07-04 11:38:32.711743 ; 44.61 
32 ; Longs Tours ; 7 ; LT-7-2019-D-F ; 516 ; 2019-07-04 11:38:33.751545 ; 44.07 
33 ; Longs Tours ; 7 ; LT-7-2019-D-F ; 516 ; 2019-07-04 11:38:34.830489 ; 43.98 
34 ; Longs Tours ; 7 ; LT-7-2019-D-F ; 516 ; 2019-07-04 11:38:35.861884 ; 43.88 
35 ; Longs Tours ; 7 ; LT-7-2019-D-F ; 516 ; 2019-07-04 11:38:36.898152 ; 43.84 
36 ; Longs Tours ; 7 ; LT-7-2019-D-F ; 516 ; 2019-07-04 11:38:37.965199 ; 43.74 
37 ; Longs Tours ; 7 ; LT-7-2019-D-F ; 516 ; 2019-07-04 11:38:39.003679 ; 43.62 
38 ; Longs Tours ; 7 ; LT-7-2019-D-F ; 516 ; 2019-07-04 11:38:40.043921 ; 43.34 
39 ; Longs Tours ; 7 ; LT-7-2019-D-F ; 516 ; 2019-07-04 11:38:41.122037 ; 42.86 
40 ; Longs Tours ; 7 ; LT-7-2019-D-F ; 516 ; 2019-07-04 11:38:42.154113 ; 42.32 
41 ; Longs Tours ; 7 ; LT-7-2019-D-F ; 516 ; 2019-07-04 11:38:43.190832 ; 42 
42 ; Longs Tours ; 7 ; LT-7-2019-D-F ; 516 ; 2019-07-04 11:38:44.257504 ; 41.73 
43 ; Longs Tours ; 7 ; LT-7-2019-D-F ; 516 ; 2019-07-04 11:38:45.300957 ; 41.16 
44 ; Longs Tours ; 7 ; LT-7-2019-D-F ; 516 ; 2019-07-04 11:38:46.349928 ; 40.91 
45 ; Longs Tours ; 7 ; LT-7-2019-D-F ; 516 ; 2019-07-04 11:38:47.406359 ; 39.99 
46 ; Longs Tours ; 7 ; LT-7-2019-D-F ; 516 ; 2019-07-04 11:38:48.445093 ; 39.08 
47 ; Longs Tours ; 7 ; LT-7-2019-D-F ; 516 ; 2019-07-04 11:38:49.487923 ; 38.75 
48 ; Longs Tours ; 7 ; LT-7-2019-D-F ; 516 ; 2019-07-04 11:38:50.528276 ; 38.51 
49 ; Longs Tours ; 7 ; LT-7-2019-D-F ; 516 ; 2019-07-04 11:38:51.599460 ; 38.42 
50 ; Longs Tours ; 7 ; LT-7-2019-D-F ; 516 ; 2019-07-04 11:38:52.648186 ; 38.29 
51 ; Longs Tours ; 7 ; LT-7-2019-D-F ; 516 ; 2019-07-04 11:38:53.671291 ; 38.17 
52 ; Longs Tours ; 7 ; LT-7-2019-D-F ; 516 ; 2019-07-04 11:38:54.738402 ; 38.11 
53 ; Longs Tours ; 7 ; LT-7-2019-D-F ; 516 ; 2019-07-04 11:38:55.778096 ; 38.06 
54 ; Longs Tours ; 7 ; LT-7-2019-D-F ; 516 ; 2019-07-04 11:38:56.820074 ; 37.72 
55 ; Longs Tours ; 7 ; LT-7-2019-D-F ; 516 ; 2019-07-04 11:38:57.896863 ; 37.45 
56 ; Longs Tours ; 7 ; LT-7-2019-D-F ; 516 ; 2019-07-04 11:38:58.930964 ; 37.38 
57 ; Longs Tours ; 7 ; LT-7-2019-D-F ; 516 ; 2019-07-04 11:38:59.961792 ; 37.1 
58 ; Longs Tours ; 7 ; LT-7-2019-D-F ; 516 ; 2019-07-04 11:39:01.033284 ; 36.82 
59 ; Longs Tours ; 7 ; LT-7-2019-D-F ; 516 ; 2019-07-04 11:39:02.073300 ; 36.7 
60 ; Longs Tours ; 7 ; LT-7-2019-D-F ; 516 ; 2019-07-04 11:39:03.121112 ; 36.59 
61 ; Longs Tours ; 7 ; LT-7-2019-D-F ; 516 ; 2019-07-04 11:39:04.183668 ; 36.52 
62 ; Longs Tours ; 7 ; LT-7-2019-D-F ; 516 ; 2019-07-04 11:39:05.217814 ; 36.48 
63 ; Longs Tours ; 7 ; LT-7-2019-D-F ; 516 ; 2019-07-04 11:39:06.258468 ; 36.4 
64 ; Longs Tours ; 7 ; LT-7-2019-D-F ; 516 ; 2019-07-04 11:39:07.324715 ; 36.13 
65 ; Longs Tours ; 7 ; LT-7-2019-D-F ; 516 ; 2019-07-04 11:39:08.373554 ; 35.91 
66 ; Longs Tours ; 7 ; LT-7-2019-D-F ; 516 ; 2019-07-04 11:39:09.408151 ; 35.86 
67 ; Longs Tours ; 7 ; LT-7-2019-D-F ; 516 ; 2019-07-04 11:39:10.471898 ; 35.77 
68 ; Longs Tours ; 7 ; LT-7-2019-D-F ; 516 ; 2019-07-04 11:39:11.515617 ; 35.66 
69 ; Longs Tours ; 7 ; LT-7-2019-D-F ; 516 ; 2019-07-04 11:39:12.551373 ; 35.58 
70 ; Longs Tours ; 7 ; LT-7-2019-D-F ; 516 ; 2019-07-04 11:39:13.617197 ; 35.54 
71 ; Longs Tours ; 7 ; LT-7-2019-D-F ; 516 ; 2019-07-04 11:39:14.672261 ; 35.49 
72 ; Longs Tours ; 7 ; LT-7-2019-D-F ; 516 ; 2019-07-04 11:39:15.697759 ; 35.47 
73 ; Longs Tours ; 7 ; LT-7-2019-D-F ; 516 ; 2019-07-04 11:39:16.764321 ; 35.38 
74 ; Longs Tours ; 7 ; LT-7-2019-D-F ; 516 ; 2019-07-04 11:39:17.815633 ; 35.09 
75 ; Longs Tours ; 7 ; LT-7-2019-D-F ; 516 ; 2019-07-04 11:39:18.849021 ; 35.01 
76 ; Longs Tours ; 7 ; LT-7-2019-D-F ; 516 ; 2019-07-04 11:39:19.895056 ; 34.91 
77 ; Longs Tours ; 7 ; LT-7-2019-D-F ; 516 ; 2019-07-04 11:39:20.950203 ; 34.81 
78 ; Longs Tours ; 7 ; LT-7-2019-D-F ; 516 ; 2019-07-04 11:39:21.991426 ; 34.71 
79 ; Longs Tours ; 7 ; LT-7-2019-D-F ; 516 ; 2019-07-04 11:39:23.032997 ; 34.4 
80 ; Longs Tours ; 7 ; LT-7-2019-D-F ; 516 ; 2019-07-04 11:39:24.101003 ; 34.33 
81 ; Longs Tours ; 7 ; LT-7-2019-D-F ; 516 ; 2019-07-04 11:39:25.253879 ; 34.18 
82 ; Longs Tours ; 7 ; LT-7-2019-D-F ; 516 ; 2019-07-04 11:39:26.176690 ; 34.03 
83 ; Longs Tours ; 7 ; LT-7-2019-D-F ; 516 ; 2019-07-04 11:39:27.243718 ; 33.91 
84 ; Longs Tours ; 7 ; LT-7-2019-D-F ; 516 ; 2019-07-04 11:39:28.283764 ; 33.62 
85 ; Longs Tours ; 7 ; LT-7-2019-D-F ; 516 ; 2019-07-04 11:39:29.325848 ; 33.55 
86 ; Longs Tours ; 7 ; LT-7-2019-D-F ; 516 ; 2019-07-04 11:39:30.390283 ; 33.41 
87 ; Longs Tours ; 7 ; LT-7-2019-D-F ; 516 ; 2019-07-04 11:39:31.438502 ; 33.31 
88 ; Longs Tours ; 7 ; LT-7-2019-D-F ; 516 ; 2019-07-04 11:39:32.470026 ; 33.25 
89 ; Longs Tours ; 7 ; LT-7-2019-D-F ; 516 ; 2019-07-04 11:39:33.541143 ; 33.17 
90 ; Longs Tours ; 7 ; LT-7-2019-D-F ; 516 ; 2019-07-04 11:39:34.577666 ; 33.09 
91 ; Longs Tours ; 7 ; LT-7-2019-D-F ; 516 ; 2019-07-04 11:39:35.620431 ; 33.06 
92 ; Longs Tours ; 7 ; LT-7-2019-D-F ; 516 ; 2019-07-04 11:39:36.695648 ; 33 
93 ; Longs Tours ; 7 ; LT-7-2019-D-F ; 516 ; 2019-07-04 11:39:37.723295 ; 32.73 
94 ; Longs Tours ; 7 ; LT-7-2019-D-F ; 516 ; 2019-07-04 11:39:38.779520 ; 32.4 
95 ; Longs Tours ; 7 ; LT-7-2019-D-F ; 516 ; 2019-07-04 11:39:39.832726 ; 32.16 
96 ; Longs Tours ; 7 ; LT-7-2019-D-F ; 516 ; 2019-07-04 11:39:40.870981 ; 32.09 
97 ; Longs Tours ; 7 ; LT-7-2019-D-F ; 516 ; 2019-07-04 11:39:41.918800 ; 31.99 
98 ; Longs Tours ; 7 ; LT-7-2019-D-F ; 516 ; 2019-07-04 11:39:42.985732 ; 31.88 
99 ; Longs Tours ; 7 ; LT-7-2019-D-F ; 516 ; 2019-07-04 11:39:44.018872 ; 31.81 
100 ; Longs Tours ; 7 ; LT-7-2019-D-F ; 516 ; 2019-07-04 11:39:45.057227 ; 31.79 
101 ; Longs Tours ; 7 ; LT-7-2019-D-F ; 516 ; 2019-07-04 11:39:46.124384 ; 31.77 
102 ; Longs Tours ; 7 ; LT-7-2019-D-F ; 516 ; 2019-07-04 11:39:47.170131 ; 31.75 
103 ; Longs Tours ; 7 ; LT-7-2019-D-F ; 516 ; 2019-07-04 11:39:48.211547 ; 31.68 
104 ; Longs Tours ; 7 ; LT-7-2019-D-F ; 516 ; 2019-07-04 11:39:49.276477 ; 31.55 
105 ; Longs Tours ; 7 ; LT-7-2019-D-F ; 516 ; 2019-07-04 11:39:50.315071 ; 31.41 
106 ; Longs Tours ; 7 ; LT-7-2019-D-F ; 516 ; 2019-07-04 11:39:51.350835 ; 31.33 
107 ; Longs Tours ; 7 ; LT-7-2019-D-F ; 516 ; 2019-07-04 11:39:52.392720 ; 31.29 
108 ; Longs Tours ; 7 ; LT-7-2019-D-F ; 516 ; 2019-07-04 11:39:53.457481 ; 31.25 
109 ; Longs Tours ; 7 ; LT-7-2019-D-F ; 516 ; 2019-07-04 11:39:54.502665 ; 31.21 
110 ; Longs Tours ; 7 ; LT-7-2019-D-F ; 516 ; 2019-07-04 11:39:55.540820 ; 31.13 
111 ; Longs Tours ; 7 ; LT-7-2019-D-F ; 516 ; 2019-07-04 11:39:56.603949 ; 30.87 
112 ; Longs Tours ; 7 ; LT-7-2019-D-F ; 516 ; 2019-07-04 11:39:57.644020 ; 30.83 
113 ; Longs Tours ; 7 ; LT-7-2019-D-F ; 516 ; 2019-07-04 11:39:58.687335 ; 30.8 
114 ; Longs Tours ; 7 ; LT-7-2019-D-F ; 516 ; 2019-07-04 11:39:59.772565 ; 30.73 
115 ; Longs Tours ; 7 ; LT-7-2019-D-F ; 516 ; 2019-07-04 11:40:00.790962 ; 30.68 
116 ; Longs Tours ; 7 ; LT-7-2019-D-F ; 516 ; 2019-07-04 11:40:01.831233 ; 30.62 
117 ; Longs Tours ; 7 ; LT-7-2019-D-F ; 516 ; 2019-07-04 11:40:02.902069 ; 30.57 
118 ; Longs Tours ; 7 ; LT-7-2019-D-F ; 516 ; 2019-07-04 11:40:03.938735 ; 30.53 
119 ; Longs Tours ; 7 ; LT-7-2019-D-F ; 516 ; 2019-07-04 11:40:04.977259 ; 30.5 
120 ; Longs Tours ; 7 ; LT-7-2019-D-F ; 516 ; 2019-07-04 11:40:06.048530 ; 30.47 
121 ; Longs Tours ; 7 ; LT-7-2019-D-F ; 516 ; 2019-07-04 11:40:07.085536 ; 30.43 
123 ; Longs Tours ; 7 ; LT-7-2019-D-F ; 516 ; 2019-07-04 11:40:09.199862 ; 30.32 
124 ; Longs Tours ; 7 ; LT-7-2019-D-F ; 516 ; 2019-07-04 11:40:10.232058 ; 30.27 
125 ; Longs Tours ; 7 ; LT-7-2019-D-F ; 516 ; 2019-07-04 11:40:11.278537 ; 30.25 
126 ; Longs Tours ; 7 ; LT-7-2019-D-F ; 516 ; 2019-07-04 11:40:12.340380 ; 30.24 
127 ; Longs Tours ; 7 ; LT-7-2019-D-F ; 516 ; 2019-07-04 11:40:13.378929 ; 30.22 
128 ; Longs Tours ; 7 ; LT-7-2019-D-F ; 516 ; 2019-07-04 11:40:14.421719 ; 30.22 
129 ; Longs Tours ; 7 ; LT-7-2019-D-F ; 516 ; 2019-07-04 11:40:15.483656 ; 30.22 
130 ; Longs Tours ; 7 ; LT-7-2019-D-F ; 516 ; 2019-07-04 11:40:16.523610 ; 30.21 
131 ; Longs Tours ; 7 ; LT-7-2019-D-F ; 516 ; 2019-07-04 11:40:17.571740 ; 30.21 
132 ; Longs Tours ; 7 ; LT-7-2019-D-F ; 516 ; 2019-07-04 11:40:18.629732 ; 30.21 
133 ; Longs Tours ; 7 ; LT-7-2019-D-F ; 516 ; 2019-07-04 11:40:19.666652 ; 30.21 
134 ; Longs Tours ; 7 ; LT-7-2019-D-F ; 516 ; 2019-07-04 11:40:20.707585 ; 30.17 
135 ; Longs Tours ; 7 ; LT-7-2019-D-F ; 516 ; 2019-07-04 11:40:21.752213 ; 30.15 
136 ; Longs Tours ; 7 ; LT-7-2019-D-F ; 516 ; 2019-07-04 11:40:22.823503 ; 30.13 
137 ; Longs Tours ; 7 ; LT-7-2019-D-F ; 516 ; 2019-07-04 11:40:23.858324 ; 30.13 
138 ; Longs Tours ; 7 ; LT-7-2019-D-F ; 516 ; 2019-07-04 11:40:24.897246 ; 30.12 
139 ; Longs Tours ; 7 ; LT-7-2019-D-F ; 516 ; 2019-07-04 11:40:25.964149 ; 30.12 
140 ; Longs Tours ; 7 ; LT-7-2019-D-F ; 516 ; 2019-07-04 11:40:27.003218 ; 30.12 
141 ; Longs Tours ; 7 ; LT-7-2019-D-F ; 516 ; 2019-07-04 11:40:28.040066 ; 30.12 
143 ; Longs Tours ; 7 ; LT-7-2019-D-F ; 516 ; 2019-07-04 11:40:30.154520 ; 30.12 
144 ; Longs Tours ; 7 ; LT-7-2019-D-F ; 516 ; 2019-07-04 11:40:31.192227 ; 30.12 
145 ; Longs Tours ; 7 ; LT-7-2019-D-F ; 516 ; 2019-07-04 11:40:32.253782 ; 30.12 
146 ; Longs Tours ; 7 ; LT-7-2019-D-F ; 516 ; 2019-07-04 11:40:33.296970 ; 30.12 
147 ; Longs Tours ; 7 ; LT-7-2019-D-F ; 516 ; 2019-07-04 11:40:34.335644 ; 30.12 
148 ; Longs Tours ; 7 ; LT-7-2019-D-F ; 516 ; 2019-07-04 11:40:35.408339 ; 30.12 
149 ; Longs Tours ; 7 ; LT-7-2019-D-F ; 516 ; 2019-07-04 11:40:36.439778 ; 30.12 
150 ; Longs Tours ; 7 ; LT-7-2019-D-F ; 516 ; 2019-07-04 11:40:37.484666 ; 30.12 
151 ; Longs Tours ; 7 ; LT-7-2019-D-F ; 516 ; 2019-07-04 11:40:38.547166 ; 30.12 
152 ; Longs Tours ; 7 ; LT-7-2019-D-F ; 516 ; 2019-07-04 11:40:39.589117 ; 30.12 
153 ; Longs Tours ; 7 ; LT-7-2019-D-F ; 516 ; 2019-07-04 11:40:40.629897 ; 30.12 
154 ; Longs Tours ; 7 ; LT-7-2019-D-F ; 516 ; 2019-07-04 11:40:41.705676 ; 30.07 
155 ; Longs Tours ; 7 ; LT-7-2019-D-F ; 516 ; 2019-07-04 11:40:42.738052 ; 30.05 
156 ; Longs Tours ; 7 ; LT-7-2019-D-F ; 516 ; 2019-07-04 11:40:43.782326 ; 30.03 
157 ; Longs Tours ; 7 ; LT-7-2019-D-F ; 516 ; 2019-07-04 11:40:44.849336 ; 30.02 
158 ; Longs Tours ; 7 ; LT-7-2019-D-F ; 516 ; 2019-07-04 11:40:45.883358 ; 30.02 
159 ; Longs Tours ; 7 ; LT-7-2019-D-F ; 516 ; 2019-07-04 11:40:46.919987 ; 30 
160 ; Longs Tours ; 7 ; LT-7-2019-D-F ; 516 ; 2019-07-04 11:40:48.000649 ; 30 
161 ; Longs Tours ; 7 ; LT-7-2019-D-F ; 516 ; 2019-07-04 11:40:49.027499 ; 30 
162 ; Longs Tours ; 7 ; LT-7-2019-D-F ; 516 ; 2019-07-04 11:40:50.068413 ; 30 
163 ; Longs Tours ; 7 ; LT-7-2019-D-F ; 516 ; 2019-07-04 11:40:51.113692 ; 30 
164 ; Longs Tours ; 7 ; LT-7-2019-D-F ; 516 ; 2019-07-04 11:40:52.177517 ; 30 
165 ; Longs Tours ; 7 ; LT-7-2019-D-F ; 516 ; 2019-07-04 11:40:53.225739 ; 30 
166 ; Longs Tours ; 7 ; LT-7-2019-D-F ; 516 ; 2019-07-04 11:40:54.256464 ; 30 
167 ; Longs Tours ; 7 ; LT-7-2019-D-F ; 516 ; 2019-07-04 11:40:55.321216 ; 30 
168 ; Longs Tours ; 7 ; LT-7-2019-D-F ; 516 ; 2019-07-04 11:40:56.359212 ; 30 
169 ; Longs Tours ; 7 ; LT-7-2019-D-F ; 516 ; 2019-07-04 11:40:57.403051 ; 30 
170 ; Longs Tours ; 7 ; LT-7-2019-D-F ; 516 ; 2019-07-04 11:40:58.467435 ; 30 
171 ; Longs Tours ; 7 ; LT-7-2019-D-F ; 516 ; 2019-07-04 11:40:59.513516 ; 30 
172 ; Longs Tours ; 7 ; LT-7-2019-D-F ; 516 ; 2019-07-04 11:41:00.548069 ; 30 
173 ; Longs Tours ; 7 ; LT-7-2019-D-F ; 516 ; 2019-07-04 11:41:01.617449 ; 30 
174 ; Longs Tours ; 7 ; LT-7-2019-D-F ; 516 ; 2019-07-04 11:41:02.657933 ; 29.97 
175 ; Longs Tours ; 7 ; LT-7-2019-D-F ; 516 ; 2019-07-04 11:41:13.708078 ; 29.86 
176 ; Longs Tours ; 7 ; LT-7-2019-D-F ; 516 ; 2019-07-04 11:41:24.721130 ; 29.76 
177 ; Longs Tours ; 7 ; LT-7-2019-D-F ; 516 ; 2019-07-04 11:41:35.751070 ; 29.75 
178 ; Longs Tours ; 7 ; LT-7-2019-D-F ; 516 ; 2019-07-04 11:41:46.750418 ; 29.75 
179 ; Longs Tours ; 7 ; LT-7-2019-D-F ; 516 ; 2019-07-04 11:41:57.757622 ; 29.75 
180 ; Longs Tours ; 7 ; LT-7-2019-D-F ; 516 ; 2019-07-04 11:42:08.788462 ; 29.75 
181 ; Longs Tours ; 7 ; LT-7-2019-D-F ; 516 ; 2019-07-04 11:42:19.784056 ; 29.75 
182 ; Longs Tours ; 7 ; LT-7-2019-D-F ; 516 ; 2019-07-04 11:42:30.812064 ; 29.75 
183 ; Longs Tours ; 7 ; LT-7-2019-D-F ; 516 ; 2019-07-04 11:42:41.801443 ; 29.75 
184 ; Longs Tours ; 7 ; LT-7-2019-D-F ; 516 ; 2019-07-04 11:42:52.802725 ; 29.75 
185 ; Longs Tours ; 7 ; LT-7-2019-D-F ; 516 ; 2019-07-04 11:43:03.824105 ; 29.75 
186 ; Longs Tours ; 7 ; LT-7-2019-D-F ; 516 ; 2019-07-04 11:43:14.819498 ; 29.75 
187 ; Longs Tours ; 7 ; LT-7-2019-D-F ; 516 ; 2019-07-04 11:43:25.838136 ; 29.75 
188 ; Longs Tours ; 7 ; LT-7-2019-D-F ; 516 ; 2019-07-04 11:43:36.858742 ; 29.75 
189 ; Longs Tours ; 7 ; LT-7-2019-D-F ; 516 ; 2019-07-04 11:43:47.864750 ; 29.75 
190 ; Longs Tours ; 7 ; LT-7-2019-D-F ; 516 ; 2019-07-04 11:43:58.881434 ; 29.75 
191 ; Longs Tours ; 7 ; LT-7-2019-D-F ; 516 ; 2019-07-04 11:44:09.865717 ; 29.75 
192 ; Longs Tours ; 7 ; LT-7-2019-D-F ; 516 ; 2019-07-04 11:44:20.882753 ; 29.75 
193 ; Longs Tours ; 7 ; LT-7-2019-D-F ; 516 ; 2019-07-04 11:44:31.893483 ; 29.75 
194 ; Longs Tours ; 7 ; LT-7-2019-D-F ; 516 ; 2019-07-04 11:44:42.917784 ; 29.75 
195 ; Longs Tours ; 7 ; LT-7-2019-D-F ; 516 ; 2019-07-04 11:44:53.922827 ; 29.75 
196 ; Longs Tours ; 7 ; LT-7-2019-D-F ; 516 ; 2019-07-04 11:45:04.932554 ; 29.75 
197 ; Longs Tours ; 7 ; LT-7-2019-D-F ; 516 ; 2019-07-04 11:45:15.943868 ; 29.75 
198 ; Longs Tours ; 7 ; LT-7-2019-D-F ; 516 ; 2019-07-04 11:45:26.953721 ; 29.75 
199 ; Longs Tours ; 7 ; LT-7-2019-D-F ; 516 ; 2019-07-04 11:45:37.945151 ; 29.75 
200 ; Longs Tours ; 7 ; LT-7-2019-D-F ; 516 ; 2019-07-04 11:45:48.961782 ; 29.75 
201 ; Longs Tours ; 7 ; LT-7-2019-D-F ; 516 ; 2019-07-04 11:45:59.970971 ; 29.75 
202 ; Longs Tours ; 7 ; LT-7-2019-D-F ; 516 ; 2019-07-04 11:46:10.983881 ; 29.75 
203 ; Longs Tours ; 7 ; LT-7-2019-D-F ; 516 ; 2019-07-04 11:46:21.998542 ; 29.75 
204 ; Longs Tours ; 7 ; LT-7-2019-D-F ; 516 ; 2019-07-04 11:46:33.013470 ; 29.75 
205 ; Longs Tours ; 7 ; LT-7-2019-D-F ; 516 ; 2019-07-04 11:46:44.033038 ; 29.75 
206 ; Longs Tours ; 7 ; LT-7-2019-D-F ; 516 ; 2019-07-04 11:46:55.040835 ; 29.75 
207 ; Longs Tours ; 7 ; LT-7-2019-D-F ; 516 ; 2019-07-04 11:47:06.025196 ; 29.75 
208 ; Longs Tours ; 7 ; LT-7-2019-D-F ; 516 ; 2019-07-04 11:47:17.036589 ; 29.75 
209 ; Longs Tours ; 7 ; LT-7-2019-D-F ; 516 ; 2019-07-04 11:47:28.055607 ; 29.75 
210 ; Longs Tours ; 7 ; LT-7-2019-D-F ; 516 ; 2019-07-04 11:47:39.064097 ; 29.66 
211 ; Longs Tours ; 7 ; LT-7-2019-D-F ; 516 ; 2019-07-04 11:47:50.090061 ; 29.66 
212 ; Longs Tours ; 7 ; LT-7-2019-D-F ; 516 ; 2019-07-04 11:48:01.095297 ; 29.66 
213 ; Longs Tours ; 7 ; LT-7-2019-D-F ; 516 ; 2019-07-04 11:48:32.110183 ; 29.66 
214 ; Longs Tours ; 7 ; LT-7-2019-D-F ; 516 ; 2019-07-04 11:49:03.038882 ; 29.66 
215 ; Longs Tours ; 7 ; LT-7-2019-D-F ; 516 ; 2019-07-04 11:49:33.972111 ; 29.66 
216 ; Longs Tours ; 7 ; LT-7-2019-D-F ; 516 ; 2019-07-04 11:50:04.915299 ; 29.66 
217 ; Longs Tours ; 7 ; LT-7-2019-D-F ; 516 ; 2019-07-04 11:50:35.827447 ; 29.66 
218 ; Longs Tours ; 7 ; LT-7-2019-D-F ; 516 ; 2019-07-04 11:51:06.777740 ; 29.66 
219 ; Longs Tours ; 7 ; LT-7-2019-D-F ; 516 ; 2019-07-04 11:51:37.704663 ; 29.66 
220 ; Longs Tours ; 7 ; LT-7-2019-D-F ; 516 ; 2019-07-04 11:52:08.641169 ; 29.66 
221 ; Longs Tours ; 7 ; LT-7-2019-D-F ; 516 ; 2019-07-04 11:52:39.571987 ; 29.66 
222 ; Longs Tours ; 7 ; LT-7-2019-D-F ; 516 ; 2019-07-04 11:53:10.511723 ; 29.66 
223 ; Longs Tours ; 7 ; LT-7-2019-D-F ; 516 ; 2019-07-04 11:53:41.473390 ; 29.66 
