i ; campaign ; serie ; sample ; slake ; time ; mass 
1 ; Vissac ; Pa2 ; Vissac-2019-Pa2-B ; 702 ; 2019-07-22 11:15:21.303451 ; 106.7 
2 ; Vissac ; Pa2 ; Vissac-2019-Pa2-B ; 702 ; 2019-07-22 11:15:22.168267 ; 106.53 
3 ; Vissac ; Pa2 ; Vissac-2019-Pa2-B ; 702 ; 2019-07-22 11:15:23.019944 ; 106.62 
4 ; Vissac ; Pa2 ; Vissac-2019-Pa2-B ; 702 ; 2019-07-22 11:15:23.874553 ; 106.61 
5 ; Vissac ; Pa2 ; Vissac-2019-Pa2-B ; 702 ; 2019-07-22 11:15:24.727404 ; 106.55 
6 ; Vissac ; Pa2 ; Vissac-2019-Pa2-B ; 702 ; 2019-07-22 11:15:25.589288 ; 106.67 
7 ; Vissac ; Pa2 ; Vissac-2019-Pa2-B ; 702 ; 2019-07-22 11:15:26.432349 ; 106.49 
8 ; Vissac ; Pa2 ; Vissac-2019-Pa2-B ; 702 ; 2019-07-22 11:15:27.286372 ; 106.67 
9 ; Vissac ; Pa2 ; Vissac-2019-Pa2-B ; 702 ; 2019-07-22 11:15:28.141556 ; 106.52 
10 ; Vissac ; Pa2 ; Vissac-2019-Pa2-B ; 702 ; 2019-07-22 11:15:29.001336 ; 106.61 
11 ; Vissac ; Pa2 ; Vissac-2019-Pa2-B ; 702 ; 2019-07-22 11:15:29.850949 ; 97.36 
12 ; Vissac ; Pa2 ; Vissac-2019-Pa2-B ; 702 ; 2019-07-22 11:15:30.697580 ; 25.29 
13 ; Vissac ; Pa2 ; Vissac-2019-Pa2-B ; 702 ; 2019-07-22 11:15:31.548660 ; 25.2 
14 ; Vissac ; Pa2 ; Vissac-2019-Pa2-B ; 702 ; 2019-07-22 11:15:32.407120 ; 25.68 
15 ; Vissac ; Pa2 ; Vissac-2019-Pa2-B ; 702 ; 2019-07-22 11:15:33.269958 ; 26.81 
16 ; Vissac ; Pa2 ; Vissac-2019-Pa2-B ; 702 ; 2019-07-22 11:15:34.116511 ; 27.78 
17 ; Vissac ; Pa2 ; Vissac-2019-Pa2-B ; 702 ; 2019-07-22 11:15:34.962009 ; 28.55 
18 ; Vissac ; Pa2 ; Vissac-2019-Pa2-B ; 702 ; 2019-07-22 11:15:35.822110 ; 29.11 
19 ; Vissac ; Pa2 ; Vissac-2019-Pa2-B ; 702 ; 2019-07-22 11:15:36.682860 ; 29.74 
20 ; Vissac ; Pa2 ; Vissac-2019-Pa2-B ; 702 ; 2019-07-22 11:15:37.524475 ; 30.34 
21 ; Vissac ; Pa2 ; Vissac-2019-Pa2-B ; 702 ; 2019-07-22 11:15:38.384461 ; 30.87 
22 ; Vissac ; Pa2 ; Vissac-2019-Pa2-B ; 702 ; 2019-07-22 11:15:39.231198 ; 31.35 
23 ; Vissac ; Pa2 ; Vissac-2019-Pa2-B ; 702 ; 2019-07-22 11:15:40.094069 ; 31.79 
24 ; Vissac ; Pa2 ; Vissac-2019-Pa2-B ; 702 ; 2019-07-22 11:15:40.952197 ; 32.19 
25 ; Vissac ; Pa2 ; Vissac-2019-Pa2-B ; 702 ; 2019-07-22 11:15:41.797864 ; 32.64 
26 ; Vissac ; Pa2 ; Vissac-2019-Pa2-B ; 702 ; 2019-07-22 11:15:42.653645 ; 33.04 
27 ; Vissac ; Pa2 ; Vissac-2019-Pa2-B ; 702 ; 2019-07-22 11:15:43.495052 ; 33.38 
28 ; Vissac ; Pa2 ; Vissac-2019-Pa2-B ; 702 ; 2019-07-22 11:15:44.355692 ; 33.74 
29 ; Vissac ; Pa2 ; Vissac-2019-Pa2-B ; 702 ; 2019-07-22 11:15:45.218965 ; 34.12 
30 ; Vissac ; Pa2 ; Vissac-2019-Pa2-B ; 702 ; 2019-07-22 11:15:46.060289 ; 34.45 
31 ; Vissac ; Pa2 ; Vissac-2019-Pa2-B ; 702 ; 2019-07-22 11:15:46.916352 ; 34.77 
32 ; Vissac ; Pa2 ; Vissac-2019-Pa2-B ; 702 ; 2019-07-22 11:15:47.766782 ; 35.08 
33 ; Vissac ; Pa2 ; Vissac-2019-Pa2-B ; 702 ; 2019-07-22 11:15:48.633710 ; 35.37 
34 ; Vissac ; Pa2 ; Vissac-2019-Pa2-B ; 702 ; 2019-07-22 11:15:49.469397 ; 35.68 
35 ; Vissac ; Pa2 ; Vissac-2019-Pa2-B ; 702 ; 2019-07-22 11:15:50.326553 ; 35.97 
36 ; Vissac ; Pa2 ; Vissac-2019-Pa2-B ; 702 ; 2019-07-22 11:15:51.181062 ; 36.23 
37 ; Vissac ; Pa2 ; Vissac-2019-Pa2-B ; 702 ; 2019-07-22 11:15:52.044795 ; 36.5 
38 ; Vissac ; Pa2 ; Vissac-2019-Pa2-B ; 702 ; 2019-07-22 11:15:52.894312 ; 36.77 
39 ; Vissac ; Pa2 ; Vissac-2019-Pa2-B ; 702 ; 2019-07-22 11:15:53.742328 ; 37.05 
40 ; Vissac ; Pa2 ; Vissac-2019-Pa2-B ; 702 ; 2019-07-22 11:15:54.589137 ; 37.31 
41 ; Vissac ; Pa2 ; Vissac-2019-Pa2-B ; 702 ; 2019-07-22 11:15:55.444945 ; 37.56 
42 ; Vissac ; Pa2 ; Vissac-2019-Pa2-B ; 702 ; 2019-07-22 11:15:56.307099 ; 37.81 
43 ; Vissac ; Pa2 ; Vissac-2019-Pa2-B ; 702 ; 2019-07-22 11:15:57.152854 ; 38.05 
44 ; Vissac ; Pa2 ; Vissac-2019-Pa2-B ; 702 ; 2019-07-22 11:15:58.003236 ; 38.29 
45 ; Vissac ; Pa2 ; Vissac-2019-Pa2-B ; 702 ; 2019-07-22 11:15:58.856693 ; 38.52 
46 ; Vissac ; Pa2 ; Vissac-2019-Pa2-B ; 702 ; 2019-07-22 11:15:59.719500 ; 38.75 
47 ; Vissac ; Pa2 ; Vissac-2019-Pa2-B ; 702 ; 2019-07-22 11:16:00.559583 ; 39.01 
48 ; Vissac ; Pa2 ; Vissac-2019-Pa2-B ; 702 ; 2019-07-22 11:16:01.416896 ; 39.22 
49 ; Vissac ; Pa2 ; Vissac-2019-Pa2-B ; 702 ; 2019-07-22 11:16:02.270128 ; 39.46 
50 ; Vissac ; Pa2 ; Vissac-2019-Pa2-B ; 702 ; 2019-07-22 11:16:03.124168 ; 39.64 
51 ; Vissac ; Pa2 ; Vissac-2019-Pa2-B ; 702 ; 2019-07-22 11:16:03.986755 ; 39.86 
52 ; Vissac ; Pa2 ; Vissac-2019-Pa2-B ; 702 ; 2019-07-22 11:16:04.822802 ; 40.08 
53 ; Vissac ; Pa2 ; Vissac-2019-Pa2-B ; 702 ; 2019-07-22 11:16:05.685868 ; 40.28 
54 ; Vissac ; Pa2 ; Vissac-2019-Pa2-B ; 702 ; 2019-07-22 11:16:06.534375 ; 40.49 
55 ; Vissac ; Pa2 ; Vissac-2019-Pa2-B ; 702 ; 2019-07-22 11:16:07.405744 ; 40.68 
56 ; Vissac ; Pa2 ; Vissac-2019-Pa2-B ; 702 ; 2019-07-22 11:16:08.252801 ; 40.89 
57 ; Vissac ; Pa2 ; Vissac-2019-Pa2-B ; 702 ; 2019-07-22 11:16:09.100422 ; 41.08 
58 ; Vissac ; Pa2 ; Vissac-2019-Pa2-B ; 702 ; 2019-07-22 11:16:09.955299 ; 41.27 
59 ; Vissac ; Pa2 ; Vissac-2019-Pa2-B ; 702 ; 2019-07-22 11:16:10.831154 ; 41.44 
60 ; Vissac ; Pa2 ; Vissac-2019-Pa2-B ; 702 ; 2019-07-22 11:16:11.663830 ; 41.62 
61 ; Vissac ; Pa2 ; Vissac-2019-Pa2-B ; 702 ; 2019-07-22 11:16:12.512443 ; 41.79 
62 ; Vissac ; Pa2 ; Vissac-2019-Pa2-B ; 702 ; 2019-07-22 11:16:13.365725 ; 41.99 
63 ; Vissac ; Pa2 ; Vissac-2019-Pa2-B ; 702 ; 2019-07-22 11:16:14.219577 ; 42.15 
64 ; Vissac ; Pa2 ; Vissac-2019-Pa2-B ; 702 ; 2019-07-22 11:16:15.087768 ; 42.3 
65 ; Vissac ; Pa2 ; Vissac-2019-Pa2-B ; 702 ; 2019-07-22 11:16:15.928975 ; 42.47 
66 ; Vissac ; Pa2 ; Vissac-2019-Pa2-B ; 702 ; 2019-07-22 11:16:16.796643 ; 42.66 
67 ; Vissac ; Pa2 ; Vissac-2019-Pa2-B ; 702 ; 2019-07-22 11:16:17.634996 ; 42.8 
68 ; Vissac ; Pa2 ; Vissac-2019-Pa2-B ; 702 ; 2019-07-22 11:16:18.495591 ; 42.94 
69 ; Vissac ; Pa2 ; Vissac-2019-Pa2-B ; 702 ; 2019-07-22 11:16:19.343515 ; 43.09 
70 ; Vissac ; Pa2 ; Vissac-2019-Pa2-B ; 702 ; 2019-07-22 11:16:20.195349 ; 43.22 
71 ; Vissac ; Pa2 ; Vissac-2019-Pa2-B ; 702 ; 2019-07-22 11:16:21.045369 ; 43.39 
72 ; Vissac ; Pa2 ; Vissac-2019-Pa2-B ; 702 ; 2019-07-22 11:16:21.903332 ; 43.55 
73 ; Vissac ; Pa2 ; Vissac-2019-Pa2-B ; 702 ; 2019-07-22 11:16:22.783439 ; 43.67 
74 ; Vissac ; Pa2 ; Vissac-2019-Pa2-B ; 702 ; 2019-07-22 11:16:23.606091 ; 43.83 
75 ; Vissac ; Pa2 ; Vissac-2019-Pa2-B ; 702 ; 2019-07-22 11:16:24.455687 ; 43.93 
76 ; Vissac ; Pa2 ; Vissac-2019-Pa2-B ; 702 ; 2019-07-22 11:16:25.314429 ; 44.05 
77 ; Vissac ; Pa2 ; Vissac-2019-Pa2-B ; 702 ; 2019-07-22 11:16:26.175962 ; 44.21 
78 ; Vissac ; Pa2 ; Vissac-2019-Pa2-B ; 702 ; 2019-07-22 11:16:27.024824 ; 44.3 
79 ; Vissac ; Pa2 ; Vissac-2019-Pa2-B ; 702 ; 2019-07-22 11:16:27.875049 ; 44.44 
80 ; Vissac ; Pa2 ; Vissac-2019-Pa2-B ; 702 ; 2019-07-22 11:16:28.731065 ; 44.54 
81 ; Vissac ; Pa2 ; Vissac-2019-Pa2-B ; 702 ; 2019-07-22 11:16:29.574308 ; 44.66 
82 ; Vissac ; Pa2 ; Vissac-2019-Pa2-B ; 702 ; 2019-07-22 11:16:30.446482 ; 44.77 
83 ; Vissac ; Pa2 ; Vissac-2019-Pa2-B ; 702 ; 2019-07-22 11:16:31.290814 ; 44.88 
84 ; Vissac ; Pa2 ; Vissac-2019-Pa2-B ; 702 ; 2019-07-22 11:16:32.138625 ; 44.99 
85 ; Vissac ; Pa2 ; Vissac-2019-Pa2-B ; 702 ; 2019-07-22 11:16:32.995248 ; 45.1 
86 ; Vissac ; Pa2 ; Vissac-2019-Pa2-B ; 702 ; 2019-07-22 11:16:33.857745 ; 45.19 
87 ; Vissac ; Pa2 ; Vissac-2019-Pa2-B ; 702 ; 2019-07-22 11:16:34.702553 ; 45.32 
88 ; Vissac ; Pa2 ; Vissac-2019-Pa2-B ; 702 ; 2019-07-22 11:16:35.547629 ; 45.42 
89 ; Vissac ; Pa2 ; Vissac-2019-Pa2-B ; 702 ; 2019-07-22 11:16:36.406386 ; 45.51 
90 ; Vissac ; Pa2 ; Vissac-2019-Pa2-B ; 702 ; 2019-07-22 11:16:37.260682 ; 45.61 
91 ; Vissac ; Pa2 ; Vissac-2019-Pa2-B ; 702 ; 2019-07-22 11:16:38.129277 ; 45.68 
92 ; Vissac ; Pa2 ; Vissac-2019-Pa2-B ; 702 ; 2019-07-22 11:16:38.966825 ; 45.77 
93 ; Vissac ; Pa2 ; Vissac-2019-Pa2-B ; 702 ; 2019-07-22 11:16:39.767815 ; 45.77 
94 ; Vissac ; Pa2 ; Vissac-2019-Pa2-B ; 702 ; 2019-07-22 11:16:40.564559 ; 45.78 
95 ; Vissac ; Pa2 ; Vissac-2019-Pa2-B ; 702 ; 2019-07-22 11:16:41.428847 ; 45.84 
96 ; Vissac ; Pa2 ; Vissac-2019-Pa2-B ; 702 ; 2019-07-22 11:16:42.280237 ; 45.97 
97 ; Vissac ; Pa2 ; Vissac-2019-Pa2-B ; 702 ; 2019-07-22 11:16:43.235403 ; 45.97 
98 ; Vissac ; Pa2 ; Vissac-2019-Pa2-B ; 702 ; 2019-07-22 11:16:44.189242 ; 45.99 
99 ; Vissac ; Pa2 ; Vissac-2019-Pa2-B ; 702 ; 2019-07-22 11:16:45.051589 ; 46.08 
100 ; Vissac ; Pa2 ; Vissac-2019-Pa2-B ; 702 ; 2019-07-22 11:16:46.020550 ; 46.11 
101 ; Vissac ; Pa2 ; Vissac-2019-Pa2-B ; 702 ; 2019-07-22 11:16:46.858483 ; 46.12 
102 ; Vissac ; Pa2 ; Vissac-2019-Pa2-B ; 702 ; 2019-07-22 11:16:47.716950 ; 46.12 
103 ; Vissac ; Pa2 ; Vissac-2019-Pa2-B ; 702 ; 2019-07-22 11:16:48.556648 ; 46.22 
104 ; Vissac ; Pa2 ; Vissac-2019-Pa2-B ; 702 ; 2019-07-22 11:16:49.430909 ; 46.29 
105 ; Vissac ; Pa2 ; Vissac-2019-Pa2-B ; 702 ; 2019-07-22 11:16:50.387573 ; 46.3 
106 ; Vissac ; Pa2 ; Vissac-2019-Pa2-B ; 702 ; 2019-07-22 11:16:51.232648 ; 46.32 
107 ; Vissac ; Pa2 ; Vissac-2019-Pa2-B ; 702 ; 2019-07-22 11:16:52.037014 ; 46.34 
108 ; Vissac ; Pa2 ; Vissac-2019-Pa2-B ; 702 ; 2019-07-22 11:16:52.891821 ; 46.35 
109 ; Vissac ; Pa2 ; Vissac-2019-Pa2-B ; 702 ; 2019-07-22 11:16:53.754647 ; 46.38 
110 ; Vissac ; Pa2 ; Vissac-2019-Pa2-B ; 702 ; 2019-07-22 11:16:54.598515 ; 46.4 
111 ; Vissac ; Pa2 ; Vissac-2019-Pa2-B ; 702 ; 2019-07-22 11:16:55.388483 ; 46.46 
112 ; Vissac ; Pa2 ; Vissac-2019-Pa2-B ; 702 ; 2019-07-22 11:16:56.301357 ; 46.48 
113 ; Vissac ; Pa2 ; Vissac-2019-Pa2-B ; 702 ; 2019-07-22 11:16:57.166827 ; 46.49 
114 ; Vissac ; Pa2 ; Vissac-2019-Pa2-B ; 702 ; 2019-07-22 11:16:57.956872 ; 46.5 
115 ; Vissac ; Pa2 ; Vissac-2019-Pa2-B ; 702 ; 2019-07-22 11:16:58.821324 ; 46.49 
116 ; Vissac ; Pa2 ; Vissac-2019-Pa2-B ; 702 ; 2019-07-22 11:16:59.662265 ; 46.53 
117 ; Vissac ; Pa2 ; Vissac-2019-Pa2-B ; 702 ; 2019-07-22 11:17:00.509028 ; 46.55 
118 ; Vissac ; Pa2 ; Vissac-2019-Pa2-B ; 702 ; 2019-07-22 11:17:01.487847 ; 46.53 
119 ; Vissac ; Pa2 ; Vissac-2019-Pa2-B ; 702 ; 2019-07-22 11:17:02.384050 ; 46.6 
120 ; Vissac ; Pa2 ; Vissac-2019-Pa2-B ; 702 ; 2019-07-22 11:17:03.233374 ; 46.63 
121 ; Vissac ; Pa2 ; Vissac-2019-Pa2-B ; 702 ; 2019-07-22 11:17:04.087298 ; 46.64 
122 ; Vissac ; Pa2 ; Vissac-2019-Pa2-B ; 702 ; 2019-07-22 11:17:04.951467 ; 46.65 
123 ; Vissac ; Pa2 ; Vissac-2019-Pa2-B ; 702 ; 2019-07-22 11:17:05.795136 ; 46.64 
124 ; Vissac ; Pa2 ; Vissac-2019-Pa2-B ; 702 ; 2019-07-22 11:17:06.594704 ; 46.71 
125 ; Vissac ; Pa2 ; Vissac-2019-Pa2-B ; 702 ; 2019-07-22 11:17:07.388913 ; 46.72 
126 ; Vissac ; Pa2 ; Vissac-2019-Pa2-B ; 702 ; 2019-07-22 11:17:08.256261 ; 46.72 
127 ; Vissac ; Pa2 ; Vissac-2019-Pa2-B ; 702 ; 2019-07-22 11:17:09.155784 ; 46.74 
128 ; Vissac ; Pa2 ; Vissac-2019-Pa2-B ; 702 ; 2019-07-22 11:17:10.007789 ; 46.74 
129 ; Vissac ; Pa2 ; Vissac-2019-Pa2-B ; 702 ; 2019-07-22 11:17:10.854573 ; 46.75 
130 ; Vissac ; Pa2 ; Vissac-2019-Pa2-B ; 702 ; 2019-07-22 11:17:11.715175 ; 46.76 
131 ; Vissac ; Pa2 ; Vissac-2019-Pa2-B ; 702 ; 2019-07-22 11:17:12.573885 ; 46.77 
132 ; Vissac ; Pa2 ; Vissac-2019-Pa2-B ; 702 ; 2019-07-22 11:17:13.424660 ; 46.78 
133 ; Vissac ; Pa2 ; Vissac-2019-Pa2-B ; 702 ; 2019-07-22 11:17:14.381000 ; 46.76 
134 ; Vissac ; Pa2 ; Vissac-2019-Pa2-B ; 702 ; 2019-07-22 11:17:15.182600 ; 46.79 
135 ; Vissac ; Pa2 ; Vissac-2019-Pa2-B ; 702 ; 2019-07-22 11:17:16.098193 ; 46.82 
136 ; Vissac ; Pa2 ; Vissac-2019-Pa2-B ; 702 ; 2019-07-22 11:17:16.943680 ; 46.83 
137 ; Vissac ; Pa2 ; Vissac-2019-Pa2-B ; 702 ; 2019-07-22 11:17:17.795096 ; 46.82 
138 ; Vissac ; Pa2 ; Vissac-2019-Pa2-B ; 702 ; 2019-07-22 11:17:18.648054 ; 46.84 
139 ; Vissac ; Pa2 ; Vissac-2019-Pa2-B ; 702 ; 2019-07-22 11:17:19.492368 ; 46.84 
140 ; Vissac ; Pa2 ; Vissac-2019-Pa2-B ; 702 ; 2019-07-22 11:17:20.357025 ; 46.84 
141 ; Vissac ; Pa2 ; Vissac-2019-Pa2-B ; 702 ; 2019-07-22 11:17:21.199297 ; 46.84 
142 ; Vissac ; Pa2 ; Vissac-2019-Pa2-B ; 702 ; 2019-07-22 11:17:22.052704 ; 46.85 
143 ; Vissac ; Pa2 ; Vissac-2019-Pa2-B ; 702 ; 2019-07-22 11:17:22.914185 ; 46.86 
144 ; Vissac ; Pa2 ; Vissac-2019-Pa2-B ; 702 ; 2019-07-22 11:17:23.773075 ; 46.94 
145 ; Vissac ; Pa2 ; Vissac-2019-Pa2-B ; 702 ; 2019-07-22 11:17:24.563647 ; 47.01 
146 ; Vissac ; Pa2 ; Vissac-2019-Pa2-B ; 702 ; 2019-07-22 11:17:25.414802 ; 47.02 
147 ; Vissac ; Pa2 ; Vissac-2019-Pa2-B ; 702 ; 2019-07-22 11:17:26.322809 ; 47.03 
148 ; Vissac ; Pa2 ; Vissac-2019-Pa2-B ; 702 ; 2019-07-22 11:17:27.186871 ; 47.03 
149 ; Vissac ; Pa2 ; Vissac-2019-Pa2-B ; 702 ; 2019-07-22 11:17:28.032335 ; 47.04 
150 ; Vissac ; Pa2 ; Vissac-2019-Pa2-B ; 702 ; 2019-07-22 11:17:28.890047 ; 47.03 
151 ; Vissac ; Pa2 ; Vissac-2019-Pa2-B ; 702 ; 2019-07-22 11:17:29.739503 ; 47.06 
152 ; Vissac ; Pa2 ; Vissac-2019-Pa2-B ; 702 ; 2019-07-22 11:17:30.587534 ; 47.07 
153 ; Vissac ; Pa2 ; Vissac-2019-Pa2-B ; 702 ; 2019-07-22 11:17:31.458240 ; 47.06 
154 ; Vissac ; Pa2 ; Vissac-2019-Pa2-B ; 702 ; 2019-07-22 11:17:32.243330 ; 47.07 
155 ; Vissac ; Pa2 ; Vissac-2019-Pa2-B ; 702 ; 2019-07-22 11:17:33.095856 ; 47.08 
156 ; Vissac ; Pa2 ; Vissac-2019-Pa2-B ; 702 ; 2019-07-22 11:17:33.949902 ; 47.08 
157 ; Vissac ; Pa2 ; Vissac-2019-Pa2-B ; 702 ; 2019-07-22 11:17:34.817608 ; 47.08 
158 ; Vissac ; Pa2 ; Vissac-2019-Pa2-B ; 702 ; 2019-07-22 11:17:35.654795 ; 47.09 
159 ; Vissac ; Pa2 ; Vissac-2019-Pa2-B ; 702 ; 2019-07-22 11:17:36.505314 ; 47.09 
160 ; Vissac ; Pa2 ; Vissac-2019-Pa2-B ; 702 ; 2019-07-22 11:17:37.359837 ; 47.09 
161 ; Vissac ; Pa2 ; Vissac-2019-Pa2-B ; 702 ; 2019-07-22 11:17:38.215724 ; 47.09 
162 ; Vissac ; Pa2 ; Vissac-2019-Pa2-B ; 702 ; 2019-07-22 11:17:39.195047 ; 47.17 
163 ; Vissac ; Pa2 ; Vissac-2019-Pa2-B ; 702 ; 2019-07-22 11:17:40.033294 ; 47.19 
164 ; Vissac ; Pa2 ; Vissac-2019-Pa2-B ; 702 ; 2019-07-22 11:17:40.884610 ; 47.19 
165 ; Vissac ; Pa2 ; Vissac-2019-Pa2-B ; 702 ; 2019-07-22 11:17:41.731720 ; 47.19 
166 ; Vissac ; Pa2 ; Vissac-2019-Pa2-B ; 702 ; 2019-07-22 11:17:42.583559 ; 47.2 
167 ; Vissac ; Pa2 ; Vissac-2019-Pa2-B ; 702 ; 2019-07-22 11:17:43.451289 ; 47.2 
168 ; Vissac ; Pa2 ; Vissac-2019-Pa2-B ; 702 ; 2019-07-22 11:17:44.292177 ; 47.23 
169 ; Vissac ; Pa2 ; Vissac-2019-Pa2-B ; 702 ; 2019-07-22 11:17:45.043046 ; 47.24 
170 ; Vissac ; Pa2 ; Vissac-2019-Pa2-B ; 702 ; 2019-07-22 11:17:45.901876 ; 47.24 
171 ; Vissac ; Pa2 ; Vissac-2019-Pa2-B ; 702 ; 2019-07-22 11:17:46.811225 ; 47.25 
172 ; Vissac ; Pa2 ; Vissac-2019-Pa2-B ; 702 ; 2019-07-22 11:17:47.665257 ; 47.25 
173 ; Vissac ; Pa2 ; Vissac-2019-Pa2-B ; 702 ; 2019-07-22 11:17:48.503082 ; 47.25 
174 ; Vissac ; Pa2 ; Vissac-2019-Pa2-B ; 702 ; 2019-07-22 11:17:49.358348 ; 47.26 
175 ; Vissac ; Pa2 ; Vissac-2019-Pa2-B ; 702 ; 2019-07-22 11:17:50.218728 ; 47.29 
176 ; Vissac ; Pa2 ; Vissac-2019-Pa2-B ; 702 ; 2019-07-22 11:17:51.071513 ; 47.29 
177 ; Vissac ; Pa2 ; Vissac-2019-Pa2-B ; 702 ; 2019-07-22 11:17:51.868502 ; 47.3 
178 ; Vissac ; Pa2 ; Vissac-2019-Pa2-B ; 702 ; 2019-07-22 11:17:52.728202 ; 47.3 
179 ; Vissac ; Pa2 ; Vissac-2019-Pa2-B ; 702 ; 2019-07-22 11:17:53.568631 ; 47.31 
180 ; Vissac ; Pa2 ; Vissac-2019-Pa2-B ; 702 ; 2019-07-22 11:17:54.431880 ; 47.31 
181 ; Vissac ; Pa2 ; Vissac-2019-Pa2-B ; 702 ; 2019-07-22 11:17:55.279303 ; 47.31 
182 ; Vissac ; Pa2 ; Vissac-2019-Pa2-B ; 702 ; 2019-07-22 11:17:56.132679 ; 47.34 
183 ; Vissac ; Pa2 ; Vissac-2019-Pa2-B ; 702 ; 2019-07-22 11:17:57.104454 ; 47.34 
184 ; Vissac ; Pa2 ; Vissac-2019-Pa2-B ; 702 ; 2019-07-22 11:17:57.946908 ; 47.33 
185 ; Vissac ; Pa2 ; Vissac-2019-Pa2-B ; 702 ; 2019-07-22 11:17:58.696136 ; 47.35 
186 ; Vissac ; Pa2 ; Vissac-2019-Pa2-B ; 702 ; 2019-07-22 11:17:59.551243 ; 47.35 
187 ; Vissac ; Pa2 ; Vissac-2019-Pa2-B ; 702 ; 2019-07-22 11:18:00.405332 ; 47.35 
188 ; Vissac ; Pa2 ; Vissac-2019-Pa2-B ; 702 ; 2019-07-22 11:18:01.253677 ; 47.36 
189 ; Vissac ; Pa2 ; Vissac-2019-Pa2-B ; 702 ; 2019-07-22 11:18:02.121622 ; 47.37 
190 ; Vissac ; Pa2 ; Vissac-2019-Pa2-B ; 702 ; 2019-07-22 11:18:02.969937 ; 47.38 
191 ; Vissac ; Pa2 ; Vissac-2019-Pa2-B ; 702 ; 2019-07-22 11:18:03.765275 ; 47.38 
192 ; Vissac ; Pa2 ; Vissac-2019-Pa2-B ; 702 ; 2019-07-22 11:18:04.616673 ; 47.38 
193 ; Vissac ; Pa2 ; Vissac-2019-Pa2-B ; 702 ; 2019-07-22 11:18:05.463467 ; 47.39 
194 ; Vissac ; Pa2 ; Vissac-2019-Pa2-B ; 702 ; 2019-07-22 11:18:06.339055 ; 47.39 
195 ; Vissac ; Pa2 ; Vissac-2019-Pa2-B ; 702 ; 2019-07-22 11:18:07.176301 ; 47.39 
196 ; Vissac ; Pa2 ; Vissac-2019-Pa2-B ; 702 ; 2019-07-22 11:18:08.028614 ; 47.41 
197 ; Vissac ; Pa2 ; Vissac-2019-Pa2-B ; 702 ; 2019-07-22 11:18:08.836071 ; 47.41 
198 ; Vissac ; Pa2 ; Vissac-2019-Pa2-B ; 702 ; 2019-07-22 11:18:09.685063 ; 47.41 
199 ; Vissac ; Pa2 ; Vissac-2019-Pa2-B ; 702 ; 2019-07-22 11:18:10.540549 ; 47.41 
200 ; Vissac ; Pa2 ; Vissac-2019-Pa2-B ; 702 ; 2019-07-22 11:18:11.392517 ; 47.41 
201 ; Vissac ; Pa2 ; Vissac-2019-Pa2-B ; 702 ; 2019-07-22 11:18:12.242803 ; 47.41 
202 ; Vissac ; Pa2 ; Vissac-2019-Pa2-B ; 702 ; 2019-07-22 11:18:13.098894 ; 47.42 
203 ; Vissac ; Pa2 ; Vissac-2019-Pa2-B ; 702 ; 2019-07-22 11:18:13.952508 ; 47.43 
204 ; Vissac ; Pa2 ; Vissac-2019-Pa2-B ; 702 ; 2019-07-22 11:18:14.753101 ; 47.43 
205 ; Vissac ; Pa2 ; Vissac-2019-Pa2-B ; 702 ; 2019-07-22 11:18:15.609035 ; 47.43 
206 ; Vissac ; Pa2 ; Vissac-2019-Pa2-B ; 702 ; 2019-07-22 11:18:16.450017 ; 47.44 
207 ; Vissac ; Pa2 ; Vissac-2019-Pa2-B ; 702 ; 2019-07-22 11:18:17.317154 ; 47.44 
208 ; Vissac ; Pa2 ; Vissac-2019-Pa2-B ; 702 ; 2019-07-22 11:18:18.163495 ; 47.44 
209 ; Vissac ; Pa2 ; Vissac-2019-Pa2-B ; 702 ; 2019-07-22 11:18:19.015524 ; 47.45 
210 ; Vissac ; Pa2 ; Vissac-2019-Pa2-B ; 702 ; 2019-07-22 11:18:19.837035 ; 47.45 
211 ; Vissac ; Pa2 ; Vissac-2019-Pa2-B ; 702 ; 2019-07-22 11:18:20.672482 ; 47.46 
212 ; Vissac ; Pa2 ; Vissac-2019-Pa2-B ; 702 ; 2019-07-22 11:18:21.522850 ; 47.46 
213 ; Vissac ; Pa2 ; Vissac-2019-Pa2-B ; 702 ; 2019-07-22 11:18:22.377252 ; 47.46 
214 ; Vissac ; Pa2 ; Vissac-2019-Pa2-B ; 702 ; 2019-07-22 11:18:33.240969 ; 47.55 
215 ; Vissac ; Pa2 ; Vissac-2019-Pa2-B ; 702 ; 2019-07-22 11:18:44.180939 ; 47.63 
216 ; Vissac ; Pa2 ; Vissac-2019-Pa2-B ; 702 ; 2019-07-22 11:18:54.999192 ; 47.68 
217 ; Vissac ; Pa2 ; Vissac-2019-Pa2-B ; 702 ; 2019-07-22 11:19:05.989487 ; 47.74 
218 ; Vissac ; Pa2 ; Vissac-2019-Pa2-B ; 702 ; 2019-07-22 11:19:16.865922 ; 47.79 
219 ; Vissac ; Pa2 ; Vissac-2019-Pa2-B ; 702 ; 2019-07-22 11:19:27.858781 ; 47.8 
220 ; Vissac ; Pa2 ; Vissac-2019-Pa2-B ; 702 ; 2019-07-22 11:19:38.742677 ; 47.8 
221 ; Vissac ; Pa2 ; Vissac-2019-Pa2-B ; 702 ; 2019-07-22 11:19:49.610860 ; 47.8 
222 ; Vissac ; Pa2 ; Vissac-2019-Pa2-B ; 702 ; 2019-07-22 11:20:00.491049 ; 47.8 
223 ; Vissac ; Pa2 ; Vissac-2019-Pa2-B ; 702 ; 2019-07-22 11:20:11.372685 ; 47.85 
224 ; Vissac ; Pa2 ; Vissac-2019-Pa2-B ; 702 ; 2019-07-22 11:20:22.254253 ; 47.85 
225 ; Vissac ; Pa2 ; Vissac-2019-Pa2-B ; 702 ; 2019-07-22 11:20:33.136966 ; 47.89 
226 ; Vissac ; Pa2 ; Vissac-2019-Pa2-B ; 702 ; 2019-07-22 11:20:44.014117 ; 47.9 
227 ; Vissac ; Pa2 ; Vissac-2019-Pa2-B ; 702 ; 2019-07-22 11:20:54.895298 ; 47.91 
228 ; Vissac ; Pa2 ; Vissac-2019-Pa2-B ; 702 ; 2019-07-22 11:21:05.827096 ; 47.92 
229 ; Vissac ; Pa2 ; Vissac-2019-Pa2-B ; 702 ; 2019-07-22 11:21:16.707266 ; 47.91 
230 ; Vissac ; Pa2 ; Vissac-2019-Pa2-B ; 702 ; 2019-07-22 11:21:27.591035 ; 47.91 
231 ; Vissac ; Pa2 ; Vissac-2019-Pa2-B ; 702 ; 2019-07-22 11:21:38.460254 ; 47.94 
232 ; Vissac ; Pa2 ; Vissac-2019-Pa2-B ; 702 ; 2019-07-22 11:21:49.346312 ; 47.96 
233 ; Vissac ; Pa2 ; Vissac-2019-Pa2-B ; 702 ; 2019-07-22 11:22:00.228774 ; 47.96 
234 ; Vissac ; Pa2 ; Vissac-2019-Pa2-B ; 702 ; 2019-07-22 11:22:11.111400 ; 47.97 
235 ; Vissac ; Pa2 ; Vissac-2019-Pa2-B ; 702 ; 2019-07-22 11:22:21.990924 ; 47.99 
236 ; Vissac ; Pa2 ; Vissac-2019-Pa2-B ; 702 ; 2019-07-22 11:22:32.866524 ; 47.99 
237 ; Vissac ; Pa2 ; Vissac-2019-Pa2-B ; 702 ; 2019-07-22 11:22:43.747504 ; 48.01 
238 ; Vissac ; Pa2 ; Vissac-2019-Pa2-B ; 702 ; 2019-07-22 11:22:54.625560 ; 48.02 
239 ; Vissac ; Pa2 ; Vissac-2019-Pa2-B ; 702 ; 2019-07-22 11:23:05.516890 ; 48.03 
240 ; Vissac ; Pa2 ; Vissac-2019-Pa2-B ; 702 ; 2019-07-22 11:23:16.386257 ; 48.04 
241 ; Vissac ; Pa2 ; Vissac-2019-Pa2-B ; 702 ; 2019-07-22 11:23:27.213866 ; 48.06 
242 ; Vissac ; Pa2 ; Vissac-2019-Pa2-B ; 702 ; 2019-07-22 11:23:38.095299 ; 48.07 
243 ; Vissac ; Pa2 ; Vissac-2019-Pa2-B ; 702 ; 2019-07-22 11:23:48.920176 ; 48.07 
244 ; Vissac ; Pa2 ; Vissac-2019-Pa2-B ; 702 ; 2019-07-22 11:23:59.818054 ; 48.08 
245 ; Vissac ; Pa2 ; Vissac-2019-Pa2-B ; 702 ; 2019-07-22 11:24:10.683616 ; 48.1 
246 ; Vissac ; Pa2 ; Vissac-2019-Pa2-B ; 702 ; 2019-07-22 11:24:21.667615 ; 48.11 
247 ; Vissac ; Pa2 ; Vissac-2019-Pa2-B ; 702 ; 2019-07-22 11:24:32.545688 ; 48.12 
248 ; Vissac ; Pa2 ; Vissac-2019-Pa2-B ; 702 ; 2019-07-22 11:24:43.487654 ; 48.13 
249 ; Vissac ; Pa2 ; Vissac-2019-Pa2-B ; 702 ; 2019-07-22 11:24:54.357038 ; 48.14 
250 ; Vissac ; Pa2 ; Vissac-2019-Pa2-B ; 702 ; 2019-07-22 11:25:05.239060 ; 48.15 
251 ; Vissac ; Pa2 ; Vissac-2019-Pa2-B ; 702 ; 2019-07-22 11:25:16.120119 ; 48.16 
252 ; Vissac ; Pa2 ; Vissac-2019-Pa2-B ; 702 ; 2019-07-22 11:25:26.998674 ; 48.17 
253 ; Vissac ; Pa2 ; Vissac-2019-Pa2-B ; 702 ; 2019-07-22 11:25:57.884922 ; 48.19 
254 ; Vissac ; Pa2 ; Vissac-2019-Pa2-B ; 702 ; 2019-07-22 11:26:28.817835 ; 48.21 
255 ; Vissac ; Pa2 ; Vissac-2019-Pa2-B ; 702 ; 2019-07-22 11:26:59.802173 ; 48.24 
256 ; Vissac ; Pa2 ; Vissac-2019-Pa2-B ; 702 ; 2019-07-22 11:27:30.732416 ; 48.26 
257 ; Vissac ; Pa2 ; Vissac-2019-Pa2-B ; 702 ; 2019-07-22 11:28:01.570356 ; 48.29 
258 ; Vissac ; Pa2 ; Vissac-2019-Pa2-B ; 702 ; 2019-07-22 11:28:32.437045 ; 48.31 
259 ; Vissac ; Pa2 ; Vissac-2019-Pa2-B ; 702 ; 2019-07-22 11:29:03.352490 ; 48.35 
260 ; Vissac ; Pa2 ; Vissac-2019-Pa2-B ; 702 ; 2019-07-22 11:29:34.232638 ; 48.38 
261 ; Vissac ; Pa2 ; Vissac-2019-Pa2-B ; 702 ; 2019-07-22 11:30:05.162785 ; 48.4 
262 ; Vissac ; Pa2 ; Vissac-2019-Pa2-B ; 702 ; 2019-07-22 11:30:36.098989 ; 48.43 
263 ; Vissac ; Pa2 ; Vissac-2019-Pa2-B ; 702 ; 2019-07-22 11:31:06.921559 ; 48.45 
264 ; Vissac ; Pa2 ; Vissac-2019-Pa2-B ; 702 ; 2019-07-22 11:31:37.848105 ; 48.48 
265 ; Vissac ; Pa2 ; Vissac-2019-Pa2-B ; 702 ; 2019-07-22 11:32:08.789122 ; 48.5 
266 ; Vissac ; Pa2 ; Vissac-2019-Pa2-B ; 702 ; 2019-07-22 11:32:39.788347 ; 48.53 
267 ; Vissac ; Pa2 ; Vissac-2019-Pa2-B ; 702 ; 2019-07-22 11:33:10.660929 ; 48.55 
268 ; Vissac ; Pa2 ; Vissac-2019-Pa2-B ; 702 ; 2019-07-22 11:33:41.644715 ; 48.58 
269 ; Vissac ; Pa2 ; Vissac-2019-Pa2-B ; 702 ; 2019-07-22 11:34:12.577139 ; 48.63 
270 ; Vissac ; Pa2 ; Vissac-2019-Pa2-B ; 702 ; 2019-07-22 11:34:43.457197 ; 48.66 
271 ; Vissac ; Pa2 ; Vissac-2019-Pa2-B ; 702 ; 2019-07-22 11:35:14.453503 ; 48.69 
272 ; Vissac ; Pa2 ; Vissac-2019-Pa2-B ; 702 ; 2019-07-22 11:35:45.427146 ; 48.7 
273 ; Vissac ; Pa2 ; Vissac-2019-Pa2-B ; 702 ; 2019-07-22 11:36:16.254013 ; 48.73 
274 ; Vissac ; Pa2 ; Vissac-2019-Pa2-B ; 702 ; 2019-07-22 11:36:47.078293 ; 48.75 
275 ; Vissac ; Pa2 ; Vissac-2019-Pa2-B ; 702 ; 2019-07-22 11:37:18.018237 ; 48.77 
276 ; Vissac ; Pa2 ; Vissac-2019-Pa2-B ; 702 ; 2019-07-22 11:37:48.957917 ; 48.79 
277 ; Vissac ; Pa2 ; Vissac-2019-Pa2-B ; 702 ; 2019-07-22 11:38:19.823529 ; 48.82 
278 ; Vissac ; Pa2 ; Vissac-2019-Pa2-B ; 702 ; 2019-07-22 11:38:50.653226 ; 48.84 
279 ; Vissac ; Pa2 ; Vissac-2019-Pa2-B ; 702 ; 2019-07-22 11:39:21.572737 ; 48.86 
