i ; campaign ; serie ; sample ; slake ; time ; mass 
1 ; Les Fonds ; 17NT ; LF-17NT-2019-H-MB-C ; 712 ; 2019-07-22 14:38:05.192177 ; 190.26 
2 ; Les Fonds ; 17NT ; LF-17NT-2019-H-MB-C ; 712 ; 2019-07-22 14:38:06.321246 ; 190.24 
3 ; Les Fonds ; 17NT ; LF-17NT-2019-H-MB-C ; 712 ; 2019-07-22 14:38:07.371120 ; 190.24 
4 ; Les Fonds ; 17NT ; LF-17NT-2019-H-MB-C ; 712 ; 2019-07-22 14:38:08.428184 ; 190.24 
5 ; Les Fonds ; 17NT ; LF-17NT-2019-H-MB-C ; 712 ; 2019-07-22 14:38:09.466358 ; 190.24 
6 ; Les Fonds ; 17NT ; LF-17NT-2019-H-MB-C ; 712 ; 2019-07-22 14:38:10.512098 ; 190.24 
7 ; Les Fonds ; 17NT ; LF-17NT-2019-H-MB-C ; 712 ; 2019-07-22 14:38:11.583884 ; 125.35 
8 ; Les Fonds ; 17NT ; LF-17NT-2019-H-MB-C ; 712 ; 2019-07-22 14:38:12.617925 ; 79.64 
9 ; Les Fonds ; 17NT ; LF-17NT-2019-H-MB-C ; 712 ; 2019-07-22 14:38:13.661266 ; 83.37 
10 ; Les Fonds ; 17NT ; LF-17NT-2019-H-MB-C ; 712 ; 2019-07-22 14:38:14.698048 ; 86.41 
11 ; Les Fonds ; 17NT ; LF-17NT-2019-H-MB-C ; 712 ; 2019-07-22 14:38:15.770566 ; 88.23 
12 ; Les Fonds ; 17NT ; LF-17NT-2019-H-MB-C ; 712 ; 2019-07-22 14:38:16.817401 ; 89.2 
13 ; Les Fonds ; 17NT ; LF-17NT-2019-H-MB-C ; 712 ; 2019-07-22 14:38:17.850252 ; 89.93 
14 ; Les Fonds ; 17NT ; LF-17NT-2019-H-MB-C ; 712 ; 2019-07-22 14:38:18.926295 ; 90 
15 ; Les Fonds ; 17NT ; LF-17NT-2019-H-MB-C ; 712 ; 2019-07-22 14:38:19.960361 ; 90.08 
16 ; Les Fonds ; 17NT ; LF-17NT-2019-H-MB-C ; 712 ; 2019-07-22 14:38:20.995604 ; 90.1 
17 ; Les Fonds ; 17NT ; LF-17NT-2019-H-MB-C ; 712 ; 2019-07-22 14:38:22.058114 ; 90.39 
18 ; Les Fonds ; 17NT ; LF-17NT-2019-H-MB-C ; 712 ; 2019-07-22 14:38:23.101201 ; 90.41 
19 ; Les Fonds ; 17NT ; LF-17NT-2019-H-MB-C ; 712 ; 2019-07-22 14:38:24.139997 ; 90.41 
20 ; Les Fonds ; 17NT ; LF-17NT-2019-H-MB-C ; 712 ; 2019-07-22 14:38:25.202727 ; 90.32 
21 ; Les Fonds ; 17NT ; LF-17NT-2019-H-MB-C ; 712 ; 2019-07-22 14:38:26.248178 ; 89.97 
22 ; Les Fonds ; 17NT ; LF-17NT-2019-H-MB-C ; 712 ; 2019-07-22 14:38:27.296349 ; 89.71 
23 ; Les Fonds ; 17NT ; LF-17NT-2019-H-MB-C ; 712 ; 2019-07-22 14:38:28.350876 ; 89.66 
24 ; Les Fonds ; 17NT ; LF-17NT-2019-H-MB-C ; 712 ; 2019-07-22 14:38:29.394311 ; 89.55 
25 ; Les Fonds ; 17NT ; LF-17NT-2019-H-MB-C ; 712 ; 2019-07-22 14:38:30.436910 ; 89.41 
26 ; Les Fonds ; 17NT ; LF-17NT-2019-H-MB-C ; 712 ; 2019-07-22 14:38:31.500204 ; 89.16 
27 ; Les Fonds ; 17NT ; LF-17NT-2019-H-MB-C ; 712 ; 2019-07-22 14:38:32.540075 ; 88.9 
28 ; Les Fonds ; 17NT ; LF-17NT-2019-H-MB-C ; 712 ; 2019-07-22 14:38:33.578571 ; 88.59 
29 ; Les Fonds ; 17NT ; LF-17NT-2019-H-MB-C ; 712 ; 2019-07-22 14:38:34.651941 ; 88.34 
30 ; Les Fonds ; 17NT ; LF-17NT-2019-H-MB-C ; 712 ; 2019-07-22 14:38:35.683714 ; 88.04 
31 ; Les Fonds ; 17NT ; LF-17NT-2019-H-MB-C ; 712 ; 2019-07-22 14:38:36.724626 ; 87.75 
32 ; Les Fonds ; 17NT ; LF-17NT-2019-H-MB-C ; 712 ; 2019-07-22 14:38:37.807375 ; 87.5 
33 ; Les Fonds ; 17NT ; LF-17NT-2019-H-MB-C ; 712 ; 2019-07-22 14:38:38.831830 ; 87.24 
34 ; Les Fonds ; 17NT ; LF-17NT-2019-H-MB-C ; 712 ; 2019-07-22 14:38:39.871536 ; 87.18 
35 ; Les Fonds ; 17NT ; LF-17NT-2019-H-MB-C ; 712 ; 2019-07-22 14:38:40.942139 ; 87.1 
36 ; Les Fonds ; 17NT ; LF-17NT-2019-H-MB-C ; 712 ; 2019-07-22 14:38:41.979335 ; 86.98 
37 ; Les Fonds ; 17NT ; LF-17NT-2019-H-MB-C ; 712 ; 2019-07-22 14:38:43.026637 ; 86.7 
38 ; Les Fonds ; 17NT ; LF-17NT-2019-H-MB-C ; 712 ; 2019-07-22 14:38:44.086081 ; 86.07 
39 ; Les Fonds ; 17NT ; LF-17NT-2019-H-MB-C ; 712 ; 2019-07-22 14:38:45.125390 ; 85.5 
40 ; Les Fonds ; 17NT ; LF-17NT-2019-H-MB-C ; 712 ; 2019-07-22 14:38:46.162228 ; NA 
41 ; Les Fonds ; 17NT ; LF-17NT-2019-H-MB-C ; 712 ; 2019-07-22 14:38:47.205775 ; 85.13 
42 ; Les Fonds ; 17NT ; LF-17NT-2019-H-MB-C ; 712 ; 2019-07-22 14:38:48.270360 ; 85.02 
43 ; Les Fonds ; 17NT ; LF-17NT-2019-H-MB-C ; 712 ; 2019-07-22 14:38:49.307952 ; 83.92 
44 ; Les Fonds ; 17NT ; LF-17NT-2019-H-MB-C ; 712 ; 2019-07-22 14:38:50.360443 ; 83.66 
45 ; Les Fonds ; 17NT ; LF-17NT-2019-H-MB-C ; 712 ; 2019-07-22 14:38:51.415503 ; 83.55 
46 ; Les Fonds ; 17NT ; LF-17NT-2019-H-MB-C ; 712 ; 2019-07-22 14:38:52.458939 ; 83.25 
47 ; Les Fonds ; 17NT ; LF-17NT-2019-H-MB-C ; 712 ; 2019-07-22 14:38:53.498600 ; 82.99 
48 ; Les Fonds ; 17NT ; LF-17NT-2019-H-MB-C ; 712 ; 2019-07-22 14:38:54.565374 ; 82.45 
49 ; Les Fonds ; 17NT ; LF-17NT-2019-H-MB-C ; 712 ; 2019-07-22 14:38:55.603129 ; 81.86 
50 ; Les Fonds ; 17NT ; LF-17NT-2019-H-MB-C ; 712 ; 2019-07-22 14:38:56.641561 ; 81.42 
51 ; Les Fonds ; 17NT ; LF-17NT-2019-H-MB-C ; 712 ; 2019-07-22 14:38:57.717767 ; 81.15 
52 ; Les Fonds ; 17NT ; LF-17NT-2019-H-MB-C ; 712 ; 2019-07-22 14:38:58.763763 ; 80.88 
53 ; Les Fonds ; 17NT ; LF-17NT-2019-H-MB-C ; 712 ; 2019-07-22 14:38:59.788751 ; 80.31 
54 ; Les Fonds ; 17NT ; LF-17NT-2019-H-MB-C ; 712 ; 2019-07-22 14:39:00.855550 ; 80.28 
55 ; Les Fonds ; 17NT ; LF-17NT-2019-H-MB-C ; 712 ; 2019-07-22 14:39:01.902011 ; 80.15 
56 ; Les Fonds ; 17NT ; LF-17NT-2019-H-MB-C ; 712 ; 2019-07-22 14:39:02.936418 ; 79.92 
57 ; Les Fonds ; 17NT ; LF-17NT-2019-H-MB-C ; 712 ; 2019-07-22 14:39:04.005329 ; 79.89 
58 ; Les Fonds ; 17NT ; LF-17NT-2019-H-MB-C ; 712 ; 2019-07-22 14:39:05.047878 ; 79.84 
59 ; Les Fonds ; 17NT ; LF-17NT-2019-H-MB-C ; 712 ; 2019-07-22 14:39:06.092753 ; 79.77 
60 ; Les Fonds ; 17NT ; LF-17NT-2019-H-MB-C ; 712 ; 2019-07-22 14:39:07.151478 ; NA 
61 ; Les Fonds ; 17NT ; LF-17NT-2019-H-MB-C ; 712 ; 2019-07-22 14:39:08.193113 ; 79.55 
62 ; Les Fonds ; 17NT ; LF-17NT-2019-H-MB-C ; 712 ; 2019-07-22 14:39:09.228386 ; 79.42 
63 ; Les Fonds ; 17NT ; LF-17NT-2019-H-MB-C ; 712 ; 2019-07-22 14:39:10.295237 ; 79.33 
64 ; Les Fonds ; 17NT ; LF-17NT-2019-H-MB-C ; 712 ; 2019-07-22 14:39:11.336879 ; 79.21 
65 ; Les Fonds ; 17NT ; LF-17NT-2019-H-MB-C ; 712 ; 2019-07-22 14:39:12.375750 ; 79.08 
66 ; Les Fonds ; 17NT ; LF-17NT-2019-H-MB-C ; 712 ; 2019-07-22 14:39:13.452386 ; 78.98 
67 ; Les Fonds ; 17NT ; LF-17NT-2019-H-MB-C ; 712 ; 2019-07-22 14:39:14.485481 ; 78.86 
68 ; Les Fonds ; 17NT ; LF-17NT-2019-H-MB-C ; 712 ; 2019-07-22 14:39:15.523949 ; 78.74 
69 ; Les Fonds ; 17NT ; LF-17NT-2019-H-MB-C ; 712 ; 2019-07-22 14:39:16.564630 ; 78.64 
70 ; Les Fonds ; 17NT ; LF-17NT-2019-H-MB-C ; 712 ; 2019-07-22 14:39:17.631578 ; 78.54 
71 ; Les Fonds ; 17NT ; LF-17NT-2019-H-MB-C ; 712 ; 2019-07-22 14:39:18.670032 ; 78.43 
72 ; Les Fonds ; 17NT ; LF-17NT-2019-H-MB-C ; 712 ; 2019-07-22 14:39:19.708528 ; 78.32 
73 ; Les Fonds ; 17NT ; LF-17NT-2019-H-MB-C ; 712 ; 2019-07-22 14:39:20.788918 ; 78.18 
74 ; Les Fonds ; 17NT ; LF-17NT-2019-H-MB-C ; 712 ; 2019-07-22 14:39:21.819383 ; 77.96 
75 ; Les Fonds ; 17NT ; LF-17NT-2019-H-MB-C ; 712 ; 2019-07-22 14:39:22.859124 ; 77.65 
76 ; Les Fonds ; 17NT ; LF-17NT-2019-H-MB-C ; 712 ; 2019-07-22 14:39:23.924749 ; 77.33 
77 ; Les Fonds ; 17NT ; LF-17NT-2019-H-MB-C ; 712 ; 2019-07-22 14:39:24.961469 ; 77.07 
78 ; Les Fonds ; 17NT ; LF-17NT-2019-H-MB-C ; 712 ; 2019-07-22 14:39:26.006731 ; 76.98 
79 ; Les Fonds ; 17NT ; LF-17NT-2019-H-MB-C ; 712 ; 2019-07-22 14:39:27.069777 ; 76.83 
80 ; Les Fonds ; 17NT ; LF-17NT-2019-H-MB-C ; 712 ; 2019-07-22 14:39:28.111022 ; 76.71 
81 ; Les Fonds ; 17NT ; LF-17NT-2019-H-MB-C ; 712 ; 2019-07-22 14:39:29.160631 ; 76.1 
82 ; Les Fonds ; 17NT ; LF-17NT-2019-H-MB-C ; 712 ; 2019-07-22 14:39:30.217222 ; 75.27 
83 ; Les Fonds ; 17NT ; LF-17NT-2019-H-MB-C ; 712 ; 2019-07-22 14:39:31.260047 ; 75 
84 ; Les Fonds ; 17NT ; LF-17NT-2019-H-MB-C ; 712 ; 2019-07-22 14:39:32.295987 ; 74.92 
85 ; Les Fonds ; 17NT ; LF-17NT-2019-H-MB-C ; 712 ; 2019-07-22 14:39:33.360224 ; 74.84 
86 ; Les Fonds ; 17NT ; LF-17NT-2019-H-MB-C ; 712 ; 2019-07-22 14:39:34.402239 ; 74.75 
87 ; Les Fonds ; 17NT ; LF-17NT-2019-H-MB-C ; 712 ; 2019-07-22 14:39:35.445010 ; 74.64 
88 ; Les Fonds ; 17NT ; LF-17NT-2019-H-MB-C ; 712 ; 2019-07-22 14:39:36.518222 ; 74.58 
89 ; Les Fonds ; 17NT ; LF-17NT-2019-H-MB-C ; 712 ; 2019-07-22 14:39:37.550960 ; 74.52 
90 ; Les Fonds ; 17NT ; LF-17NT-2019-H-MB-C ; 712 ; 2019-07-22 14:39:38.591775 ; 74.45 
91 ; Les Fonds ; 17NT ; LF-17NT-2019-H-MB-C ; 712 ; 2019-07-22 14:39:39.657225 ; 74.4 
92 ; Les Fonds ; 17NT ; LF-17NT-2019-H-MB-C ; 712 ; 2019-07-22 14:39:40.697346 ; 74.35 
93 ; Les Fonds ; 17NT ; LF-17NT-2019-H-MB-C ; 712 ; 2019-07-22 14:39:41.737123 ; 74.03 
94 ; Les Fonds ; 17NT ; LF-17NT-2019-H-MB-C ; 712 ; 2019-07-22 14:39:42.775011 ; 74 
95 ; Les Fonds ; 17NT ; LF-17NT-2019-H-MB-C ; 712 ; 2019-07-22 14:39:43.851399 ; 73.93 
96 ; Les Fonds ; 17NT ; LF-17NT-2019-H-MB-C ; 712 ; 2019-07-22 14:39:44.885522 ; 73.89 
97 ; Les Fonds ; 17NT ; LF-17NT-2019-H-MB-C ; 712 ; 2019-07-22 14:39:45.925057 ; 73.85 
98 ; Les Fonds ; 17NT ; LF-17NT-2019-H-MB-C ; 712 ; 2019-07-22 14:39:46.991852 ; 73.8 
99 ; Les Fonds ; 17NT ; LF-17NT-2019-H-MB-C ; 712 ; 2019-07-22 14:39:48.028250 ; 73.76 
100 ; Les Fonds ; 17NT ; LF-17NT-2019-H-MB-C ; 712 ; 2019-07-22 14:39:49.069446 ; 73.73 
101 ; Les Fonds ; 17NT ; LF-17NT-2019-H-MB-C ; 712 ; 2019-07-22 14:39:50.137585 ; 73.67 
102 ; Les Fonds ; 17NT ; LF-17NT-2019-H-MB-C ; 712 ; 2019-07-22 14:39:51.175163 ; 73.6 
103 ; Les Fonds ; 17NT ; LF-17NT-2019-H-MB-C ; 712 ; 2019-07-22 14:39:52.225065 ; 73.56 
104 ; Les Fonds ; 17NT ; LF-17NT-2019-H-MB-C ; 712 ; 2019-07-22 14:39:53.284329 ; 73.54 
105 ; Les Fonds ; 17NT ; LF-17NT-2019-H-MB-C ; 712 ; 2019-07-22 14:39:54.321824 ; 73.49 
106 ; Les Fonds ; 17NT ; LF-17NT-2019-H-MB-C ; 712 ; 2019-07-22 14:39:55.364653 ; 73.42 
107 ; Les Fonds ; 17NT ; LF-17NT-2019-H-MB-C ; 712 ; 2019-07-22 14:39:56.427647 ; 73.29 
108 ; Les Fonds ; 17NT ; LF-17NT-2019-H-MB-C ; 712 ; 2019-07-22 14:39:57.474187 ; 73.17 
109 ; Les Fonds ; 17NT ; LF-17NT-2019-H-MB-C ; 712 ; 2019-07-22 14:39:58.508770 ; 73.07 
110 ; Les Fonds ; 17NT ; LF-17NT-2019-H-MB-C ; 712 ; 2019-07-22 14:39:59.584091 ; 72.95 
111 ; Les Fonds ; 17NT ; LF-17NT-2019-H-MB-C ; 712 ; 2019-07-22 14:40:00.617941 ; 72.8 
112 ; Les Fonds ; 17NT ; LF-17NT-2019-H-MB-C ; 712 ; 2019-07-22 14:40:01.657093 ; 72.65 
113 ; Les Fonds ; 17NT ; LF-17NT-2019-H-MB-C ; 712 ; 2019-07-22 14:40:02.723329 ; 72.32 
114 ; Les Fonds ; 17NT ; LF-17NT-2019-H-MB-C ; 712 ; 2019-07-22 14:40:03.762728 ; 71.74 
115 ; Les Fonds ; 17NT ; LF-17NT-2019-H-MB-C ; 712 ; 2019-07-22 14:40:04.813849 ; 71.46 
116 ; Les Fonds ; 17NT ; LF-17NT-2019-H-MB-C ; 712 ; 2019-07-22 14:40:05.868393 ; 71.22 
117 ; Les Fonds ; 17NT ; LF-17NT-2019-H-MB-C ; 712 ; 2019-07-22 14:40:06.917700 ; 71.13 
118 ; Les Fonds ; 17NT ; LF-17NT-2019-H-MB-C ; 712 ; 2019-07-22 14:40:07.947999 ; 71.06 
119 ; Les Fonds ; 17NT ; LF-17NT-2019-H-MB-C ; 712 ; 2019-07-22 14:40:09.015101 ; 71 
120 ; Les Fonds ; 17NT ; LF-17NT-2019-H-MB-C ; 712 ; 2019-07-22 14:40:10.056690 ; 70.95 
121 ; Les Fonds ; 17NT ; LF-17NT-2019-H-MB-C ; 712 ; 2019-07-22 14:40:11.094872 ; 70.89 
122 ; Les Fonds ; 17NT ; LF-17NT-2019-H-MB-C ; 712 ; 2019-07-22 14:40:12.136153 ; 70.81 
123 ; Les Fonds ; 17NT ; LF-17NT-2019-H-MB-C ; 712 ; 2019-07-22 14:40:13.203908 ; 70.77 
124 ; Les Fonds ; 17NT ; LF-17NT-2019-H-MB-C ; 712 ; 2019-07-22 14:40:14.253015 ; 70.75 
125 ; Les Fonds ; 17NT ; LF-17NT-2019-H-MB-C ; 712 ; 2019-07-22 14:40:15.282441 ; 70.74 
126 ; Les Fonds ; 17NT ; LF-17NT-2019-H-MB-C ; 712 ; 2019-07-22 14:40:16.350187 ; 70.69 
127 ; Les Fonds ; 17NT ; LF-17NT-2019-H-MB-C ; 712 ; 2019-07-22 14:40:17.390810 ; 70.67 
128 ; Les Fonds ; 17NT ; LF-17NT-2019-H-MB-C ; 712 ; 2019-07-22 14:40:18.431185 ; 70.66 
129 ; Les Fonds ; 17NT ; LF-17NT-2019-H-MB-C ; 712 ; 2019-07-22 14:40:19.494404 ; 70.62 
130 ; Les Fonds ; 17NT ; LF-17NT-2019-H-MB-C ; 712 ; 2019-07-22 14:40:20.538197 ; 70.6 
131 ; Les Fonds ; 17NT ; LF-17NT-2019-H-MB-C ; 712 ; 2019-07-22 14:40:21.597289 ; 70.56 
132 ; Les Fonds ; 17NT ; LF-17NT-2019-H-MB-C ; 712 ; 2019-07-22 14:40:22.640576 ; 70.52 
133 ; Les Fonds ; 17NT ; LF-17NT-2019-H-MB-C ; 712 ; 2019-07-22 14:40:23.682285 ; 70.47 
134 ; Les Fonds ; 17NT ; LF-17NT-2019-H-MB-C ; 712 ; 2019-07-22 14:40:24.721970 ; 70.43 
135 ; Les Fonds ; 17NT ; LF-17NT-2019-H-MB-C ; 712 ; 2019-07-22 14:40:25.807336 ; 70.39 
136 ; Les Fonds ; 17NT ; LF-17NT-2019-H-MB-C ; 712 ; 2019-07-22 14:40:26.830887 ; 70.37 
137 ; Les Fonds ; 17NT ; LF-17NT-2019-H-MB-C ; 712 ; 2019-07-22 14:40:27.868888 ; 70.35 
138 ; Les Fonds ; 17NT ; LF-17NT-2019-H-MB-C ; 712 ; 2019-07-22 14:40:28.939740 ; 70.33 
139 ; Les Fonds ; 17NT ; LF-17NT-2019-H-MB-C ; 712 ; 2019-07-22 14:40:29.984978 ; 70.31 
140 ; Les Fonds ; 17NT ; LF-17NT-2019-H-MB-C ; 712 ; 2019-07-22 14:40:31.019145 ; 70.28 
141 ; Les Fonds ; 17NT ; LF-17NT-2019-H-MB-C ; 712 ; 2019-07-22 14:40:32.083238 ; 70.26 
142 ; Les Fonds ; 17NT ; LF-17NT-2019-H-MB-C ; 712 ; 2019-07-22 14:40:33.123388 ; 70.24 
143 ; Les Fonds ; 17NT ; LF-17NT-2019-H-MB-C ; 712 ; 2019-07-22 14:40:34.162316 ; 70.24 
144 ; Les Fonds ; 17NT ; LF-17NT-2019-H-MB-C ; 712 ; 2019-07-22 14:40:35.225301 ; 70.21 
145 ; Les Fonds ; 17NT ; LF-17NT-2019-H-MB-C ; 712 ; 2019-07-22 14:40:36.272154 ; 70.21 
146 ; Les Fonds ; 17NT ; LF-17NT-2019-H-MB-C ; 712 ; 2019-07-22 14:40:37.317348 ; 70.17 
147 ; Les Fonds ; 17NT ; LF-17NT-2019-H-MB-C ; 712 ; 2019-07-22 14:40:38.375683 ; 70.17 
148 ; Les Fonds ; 17NT ; LF-17NT-2019-H-MB-C ; 712 ; 2019-07-22 14:40:39.410770 ; 70.17 
149 ; Les Fonds ; 17NT ; LF-17NT-2019-H-MB-C ; 712 ; 2019-07-22 14:40:40.452199 ; 70.16 
150 ; Les Fonds ; 17NT ; LF-17NT-2019-H-MB-C ; 712 ; 2019-07-22 14:40:41.522905 ; 70.13 
151 ; Les Fonds ; 17NT ; LF-17NT-2019-H-MB-C ; 712 ; 2019-07-22 14:40:42.564145 ; 70.09 
152 ; Les Fonds ; 17NT ; LF-17NT-2019-H-MB-C ; 712 ; 2019-07-22 14:40:43.601986 ; 70.05 
153 ; Les Fonds ; 17NT ; LF-17NT-2019-H-MB-C ; 712 ; 2019-07-22 14:40:44.644012 ; 70.01 
154 ; Les Fonds ; 17NT ; LF-17NT-2019-H-MB-C ; 712 ; 2019-07-22 14:40:45.721854 ; 70 
155 ; Les Fonds ; 17NT ; LF-17NT-2019-H-MB-C ; 712 ; 2019-07-22 14:40:46.764787 ; 69.98 
156 ; Les Fonds ; 17NT ; LF-17NT-2019-H-MB-C ; 712 ; 2019-07-22 14:40:47.792335 ; 69.94 
157 ; Les Fonds ; 17NT ; LF-17NT-2019-H-MB-C ; 712 ; 2019-07-22 14:40:48.854458 ; 69.92 
158 ; Les Fonds ; 17NT ; LF-17NT-2019-H-MB-C ; 712 ; 2019-07-22 14:40:49.901041 ; 69.92 
159 ; Les Fonds ; 17NT ; LF-17NT-2019-H-MB-C ; 712 ; 2019-07-22 14:40:50.931295 ; 69.92 
160 ; Les Fonds ; 17NT ; LF-17NT-2019-H-MB-C ; 712 ; 2019-07-22 14:40:51.998409 ; 69.91 
161 ; Les Fonds ; 17NT ; LF-17NT-2019-H-MB-C ; 712 ; 2019-07-22 14:40:53.056363 ; 69.91 
162 ; Les Fonds ; 17NT ; LF-17NT-2019-H-MB-C ; 712 ; 2019-07-22 14:40:54.078146 ; 69.91 
163 ; Les Fonds ; 17NT ; LF-17NT-2019-H-MB-C ; 712 ; 2019-07-22 14:40:55.144093 ; 69.91 
164 ; Les Fonds ; 17NT ; LF-17NT-2019-H-MB-C ; 712 ; 2019-07-22 14:40:56.187023 ; 69.91 
165 ; Les Fonds ; 17NT ; LF-17NT-2019-H-MB-C ; 712 ; 2019-07-22 14:40:57.224035 ; 69.91 
166 ; Les Fonds ; 17NT ; LF-17NT-2019-H-MB-C ; 712 ; 2019-07-22 14:40:58.291444 ; 69.91 
167 ; Les Fonds ; 17NT ; LF-17NT-2019-H-MB-C ; 712 ; 2019-07-22 14:40:59.331665 ; 69.88 
168 ; Les Fonds ; 17NT ; LF-17NT-2019-H-MB-C ; 712 ; 2019-07-22 14:41:00.377294 ; 69.88 
169 ; Les Fonds ; 17NT ; LF-17NT-2019-H-MB-C ; 712 ; 2019-07-22 14:41:01.448279 ; 69.87 
170 ; Les Fonds ; 17NT ; LF-17NT-2019-H-MB-C ; 712 ; 2019-07-22 14:41:02.486879 ; 69.87 
171 ; Les Fonds ; 17NT ; LF-17NT-2019-H-MB-C ; 712 ; 2019-07-22 14:41:03.518151 ; 69.87 
172 ; Les Fonds ; 17NT ; LF-17NT-2019-H-MB-C ; 712 ; 2019-07-22 14:41:04.584280 ; 69.87 
173 ; Les Fonds ; 17NT ; LF-17NT-2019-H-MB-C ; 712 ; 2019-07-22 14:41:05.628518 ; 69.87 
174 ; Les Fonds ; 17NT ; LF-17NT-2019-H-MB-C ; 712 ; 2019-07-22 14:41:06.665425 ; 69.84 
175 ; Les Fonds ; 17NT ; LF-17NT-2019-H-MB-C ; 712 ; 2019-07-22 14:41:17.747169 ; 69.52 
176 ; Les Fonds ; 17NT ; LF-17NT-2019-H-MB-C ; 712 ; 2019-07-22 14:41:28.733569 ; 69.41 
177 ; Les Fonds ; 17NT ; LF-17NT-2019-H-MB-C ; 712 ; 2019-07-22 14:41:39.755414 ; 69.26 
178 ; Les Fonds ; 17NT ; LF-17NT-2019-H-MB-C ; 712 ; 2019-07-22 14:41:50.761217 ; 68.92 
179 ; Les Fonds ; 17NT ; LF-17NT-2019-H-MB-C ; 712 ; 2019-07-22 14:42:01.793208 ; 68.79 
180 ; Les Fonds ; 17NT ; LF-17NT-2019-H-MB-C ; 712 ; 2019-07-22 14:42:12.788026 ; 68.79 
181 ; Les Fonds ; 17NT ; LF-17NT-2019-H-MB-C ; 712 ; 2019-07-22 14:42:23.802890 ; 68.79 
182 ; Les Fonds ; 17NT ; LF-17NT-2019-H-MB-C ; 712 ; 2019-07-22 14:42:34.802682 ; 68.74 
183 ; Les Fonds ; 17NT ; LF-17NT-2019-H-MB-C ; 712 ; 2019-07-22 14:42:45.824508 ; 68.71 
184 ; Les Fonds ; 17NT ; LF-17NT-2019-H-MB-C ; 712 ; 2019-07-22 14:42:56.830996 ; 68.71 
185 ; Les Fonds ; 17NT ; LF-17NT-2019-H-MB-C ; 712 ; 2019-07-22 14:43:07.825349 ; 68.57 
186 ; Les Fonds ; 17NT ; LF-17NT-2019-H-MB-C ; 712 ; 2019-07-22 14:43:18.840392 ; 68.57 
187 ; Les Fonds ; 17NT ; LF-17NT-2019-H-MB-C ; 712 ; 2019-07-22 14:43:29.845130 ; 68.5 
188 ; Les Fonds ; 17NT ; LF-17NT-2019-H-MB-C ; 712 ; 2019-07-22 14:43:40.868152 ; 68.5 
189 ; Les Fonds ; 17NT ; LF-17NT-2019-H-MB-C ; 712 ; 2019-07-22 14:43:51.880199 ; 68.5 
190 ; Les Fonds ; 17NT ; LF-17NT-2019-H-MB-C ; 712 ; 2019-07-22 14:44:02.890650 ; 68.5 
191 ; Les Fonds ; 17NT ; LF-17NT-2019-H-MB-C ; 712 ; 2019-07-22 14:44:13.904249 ; 68.5 
192 ; Les Fonds ; 17NT ; LF-17NT-2019-H-MB-C ; 712 ; 2019-07-22 14:44:24.925051 ; 68.5 
193 ; Les Fonds ; 17NT ; LF-17NT-2019-H-MB-C ; 712 ; 2019-07-22 14:44:35.903708 ; 68.5 
194 ; Les Fonds ; 17NT ; LF-17NT-2019-H-MB-C ; 712 ; 2019-07-22 14:44:46.919770 ; 68.5 
195 ; Les Fonds ; 17NT ; LF-17NT-2019-H-MB-C ; 712 ; 2019-07-22 14:44:57.930013 ; 68.5 
196 ; Les Fonds ; 17NT ; LF-17NT-2019-H-MB-C ; 712 ; 2019-07-22 14:45:08.947873 ; 68.5 
197 ; Les Fonds ; 17NT ; LF-17NT-2019-H-MB-C ; 712 ; 2019-07-22 14:45:19.956281 ; 68.5 
198 ; Les Fonds ; 17NT ; LF-17NT-2019-H-MB-C ; 712 ; 2019-07-22 14:45:30.972830 ; 68.5 
199 ; Les Fonds ; 17NT ; LF-17NT-2019-H-MB-C ; 712 ; 2019-07-22 14:45:41.983297 ; 68.4 
200 ; Les Fonds ; 17NT ; LF-17NT-2019-H-MB-C ; 712 ; 2019-07-22 14:45:53.009962 ; 68.4 
201 ; Les Fonds ; 17NT ; LF-17NT-2019-H-MB-C ; 712 ; 2019-07-22 14:46:03.982690 ; 68.4 
202 ; Les Fonds ; 17NT ; LF-17NT-2019-H-MB-C ; 712 ; 2019-07-22 14:46:14.998865 ; 68.4 
203 ; Les Fonds ; 17NT ; LF-17NT-2019-H-MB-C ; 712 ; 2019-07-22 14:46:26.009457 ; 68.4 
204 ; Les Fonds ; 17NT ; LF-17NT-2019-H-MB-C ; 712 ; 2019-07-22 14:46:37.025928 ; 68.4 
205 ; Les Fonds ; 17NT ; LF-17NT-2019-H-MB-C ; 712 ; 2019-07-22 14:46:48.042973 ; 68.4 
206 ; Les Fonds ; 17NT ; LF-17NT-2019-H-MB-C ; 712 ; 2019-07-22 14:46:59.051057 ; 68.4 
207 ; Les Fonds ; 17NT ; LF-17NT-2019-H-MB-C ; 712 ; 2019-07-22 14:47:10.074123 ; 68.4 
208 ; Les Fonds ; 17NT ; LF-17NT-2019-H-MB-C ; 712 ; 2019-07-22 14:47:21.074434 ; 68.4 
209 ; Les Fonds ; 17NT ; LF-17NT-2019-H-MB-C ; 712 ; 2019-07-22 14:47:32.063177 ; 68.4 
210 ; Les Fonds ; 17NT ; LF-17NT-2019-H-MB-C ; 712 ; 2019-07-22 14:47:43.074661 ; 68.4 
211 ; Les Fonds ; 17NT ; LF-17NT-2019-H-MB-C ; 712 ; 2019-07-22 14:47:54.094437 ; 68.4 
212 ; Les Fonds ; 17NT ; LF-17NT-2019-H-MB-C ; 712 ; 2019-07-22 14:48:05.106176 ; 68.4 
213 ; Les Fonds ; 17NT ; LF-17NT-2019-H-MB-C ; 712 ; 2019-07-22 14:48:36.114794 ; 68.34 
214 ; Les Fonds ; 17NT ; LF-17NT-2019-H-MB-C ; 712 ; 2019-07-22 14:49:07.054313 ; 68.34 
215 ; Les Fonds ; 17NT ; LF-17NT-2019-H-MB-C ; 712 ; 2019-07-22 14:49:37.998735 ; 68.34 
216 ; Les Fonds ; 17NT ; LF-17NT-2019-H-MB-C ; 712 ; 2019-07-22 14:50:08.916710 ; 68.34 
217 ; Les Fonds ; 17NT ; LF-17NT-2019-H-MB-C ; 712 ; 2019-07-22 14:50:39.852199 ; 68.34 
218 ; Les Fonds ; 17NT ; LF-17NT-2019-H-MB-C ; 712 ; 2019-07-22 14:51:10.799590 ; 68.34 
219 ; Les Fonds ; 17NT ; LF-17NT-2019-H-MB-C ; 712 ; 2019-07-22 14:51:41.714883 ; 68.34 
220 ; Les Fonds ; 17NT ; LF-17NT-2019-H-MB-C ; 712 ; 2019-07-22 14:52:12.649651 ; 68.34 
221 ; Les Fonds ; 17NT ; LF-17NT-2019-H-MB-C ; 712 ; 2019-07-22 14:52:43.582169 ; 68.34 
222 ; Les Fonds ; 17NT ; LF-17NT-2019-H-MB-C ; 712 ; 2019-07-22 14:53:14.514727 ; 68.34 
223 ; Les Fonds ; 17NT ; LF-17NT-2019-H-MB-C ; 712 ; 2019-07-22 14:53:45.460643 ; 68.34 
224 ; Les Fonds ; 17NT ; LF-17NT-2019-H-MB-C ; 712 ; 2019-07-22 14:54:16.383025 ; 68.34 
225 ; Les Fonds ; 17NT ; LF-17NT-2019-H-MB-C ; 712 ; 2019-07-22 14:54:47.318664 ; 68.34 
226 ; Les Fonds ; 17NT ; LF-17NT-2019-H-MB-C ; 712 ; 2019-07-22 14:55:18.248221 ; 68.34 
227 ; Les Fonds ; 17NT ; LF-17NT-2019-H-MB-C ; 712 ; 2019-07-22 14:55:49.222431 ; 68.3 
