i ; campaign ; serie ; sample ; slake ; time ; mass 
1 ; Les Fonds ; 3NT ; LF-3NT-2019-DH-MB-C ; 677 ; 2019-07-19 09:55:25.531934 ; 132.55 
2 ; Les Fonds ; 3NT ; LF-3NT-2019-DH-MB-C ; 677 ; 2019-07-19 09:55:26.494076 ; 132.54 
3 ; Les Fonds ; 3NT ; LF-3NT-2019-DH-MB-C ; 677 ; 2019-07-19 09:55:27.543307 ; 132.54 
4 ; Les Fonds ; 3NT ; LF-3NT-2019-DH-MB-C ; 677 ; 2019-07-19 09:55:28.573513 ; 132.54 
5 ; Les Fonds ; 3NT ; LF-3NT-2019-DH-MB-C ; 677 ; 2019-07-19 09:55:29.639669 ; 132.54 
6 ; Les Fonds ; 3NT ; LF-3NT-2019-DH-MB-C ; 677 ; 2019-07-19 09:55:30.680972 ; 132.54 
7 ; Les Fonds ; 3NT ; LF-3NT-2019-DH-MB-C ; 677 ; 2019-07-19 09:55:31.725532 ; 117.85 
8 ; Les Fonds ; 3NT ; LF-3NT-2019-DH-MB-C ; 677 ; 2019-07-19 09:55:32.780080 ; 64.29 
9 ; Les Fonds ; 3NT ; LF-3NT-2019-DH-MB-C ; 677 ; 2019-07-19 09:55:33.833373 ; 50.01 
10 ; Les Fonds ; 3NT ; LF-3NT-2019-DH-MB-C ; 677 ; 2019-07-19 09:55:34.869136 ; 52.21 
11 ; Les Fonds ; 3NT ; LF-3NT-2019-DH-MB-C ; 677 ; 2019-07-19 09:55:35.915781 ; 52.8 
12 ; Les Fonds ; 3NT ; LF-3NT-2019-DH-MB-C ; 677 ; 2019-07-19 09:55:36.976844 ; 54.07 
13 ; Les Fonds ; 3NT ; LF-3NT-2019-DH-MB-C ; 677 ; 2019-07-19 09:55:38.030438 ; 54.68 
14 ; Les Fonds ; 3NT ; LF-3NT-2019-DH-MB-C ; 677 ; 2019-07-19 09:55:39.065487 ; 55.47 
15 ; Les Fonds ; 3NT ; LF-3NT-2019-DH-MB-C ; 677 ; 2019-07-19 09:55:40.125252 ; 55.51 
16 ; Les Fonds ; 3NT ; LF-3NT-2019-DH-MB-C ; 677 ; 2019-07-19 09:55:41.166185 ; NA 
17 ; Les Fonds ; 3NT ; LF-3NT-2019-DH-MB-C ; 677 ; 2019-07-19 09:55:42.208188 ; 56.55 
18 ; Les Fonds ; 3NT ; LF-3NT-2019-DH-MB-C ; 677 ; 2019-07-19 09:55:43.270937 ; 56.84 
19 ; Les Fonds ; 3NT ; LF-3NT-2019-DH-MB-C ; 677 ; 2019-07-19 09:55:44.312441 ; 56.84 
20 ; Les Fonds ; 3NT ; LF-3NT-2019-DH-MB-C ; 677 ; 2019-07-19 09:55:45.353843 ; 56.92 
21 ; Les Fonds ; 3NT ; LF-3NT-2019-DH-MB-C ; 677 ; 2019-07-19 09:55:46.416209 ; 57.03 
22 ; Les Fonds ; 3NT ; LF-3NT-2019-DH-MB-C ; 677 ; 2019-07-19 09:55:47.463467 ; 56.75 
23 ; Les Fonds ; 3NT ; LF-3NT-2019-DH-MB-C ; 677 ; 2019-07-19 09:55:48.501360 ; 56.48 
24 ; Les Fonds ; 3NT ; LF-3NT-2019-DH-MB-C ; 677 ; 2019-07-19 09:55:49.563751 ; 56.43 
25 ; Les Fonds ; 3NT ; LF-3NT-2019-DH-MB-C ; 677 ; 2019-07-19 09:55:50.607647 ; 56.4 
26 ; Les Fonds ; 3NT ; LF-3NT-2019-DH-MB-C ; 677 ; 2019-07-19 09:55:51.653567 ; 56.15 
27 ; Les Fonds ; 3NT ; LF-3NT-2019-DH-MB-C ; 677 ; 2019-07-19 09:55:52.711937 ; 56.06 
28 ; Les Fonds ; 3NT ; LF-3NT-2019-DH-MB-C ; 677 ; 2019-07-19 09:55:53.756887 ; 56.03 
29 ; Les Fonds ; 3NT ; LF-3NT-2019-DH-MB-C ; 677 ; 2019-07-19 09:55:54.791531 ; 55.96 
30 ; Les Fonds ; 3NT ; LF-3NT-2019-DH-MB-C ; 677 ; 2019-07-19 09:55:55.858924 ; 55.73 
31 ; Les Fonds ; 3NT ; LF-3NT-2019-DH-MB-C ; 677 ; 2019-07-19 09:55:56.904255 ; 55.45 
32 ; Les Fonds ; 3NT ; LF-3NT-2019-DH-MB-C ; 677 ; 2019-07-19 09:55:57.948078 ; 55.4 
33 ; Les Fonds ; 3NT ; LF-3NT-2019-DH-MB-C ; 677 ; 2019-07-19 09:55:58.981278 ; 55.32 
34 ; Les Fonds ; 3NT ; LF-3NT-2019-DH-MB-C ; 677 ; 2019-07-19 09:56:00.044084 ; 55 
35 ; Les Fonds ; 3NT ; LF-3NT-2019-DH-MB-C ; 677 ; 2019-07-19 09:56:01.087080 ; 54.73 
36 ; Les Fonds ; 3NT ; LF-3NT-2019-DH-MB-C ; 677 ; 2019-07-19 09:56:02.123756 ; 54.62 
37 ; Les Fonds ; 3NT ; LF-3NT-2019-DH-MB-C ; 677 ; 2019-07-19 09:56:03.190236 ; 54.37 
38 ; Les Fonds ; 3NT ; LF-3NT-2019-DH-MB-C ; 677 ; 2019-07-19 09:56:04.235857 ; 54.24 
39 ; Les Fonds ; 3NT ; LF-3NT-2019-DH-MB-C ; 677 ; 2019-07-19 09:56:05.271117 ; 54.11 
40 ; Les Fonds ; 3NT ; LF-3NT-2019-DH-MB-C ; 677 ; 2019-07-19 09:56:06.341062 ; 53.98 
41 ; Les Fonds ; 3NT ; LF-3NT-2019-DH-MB-C ; 677 ; 2019-07-19 09:56:07.378250 ; 53.39 
42 ; Les Fonds ; 3NT ; LF-3NT-2019-DH-MB-C ; 677 ; 2019-07-19 09:56:08.416482 ; 53.16 
43 ; Les Fonds ; 3NT ; LF-3NT-2019-DH-MB-C ; 677 ; 2019-07-19 09:56:09.483975 ; 52.34 
44 ; Les Fonds ; 3NT ; LF-3NT-2019-DH-MB-C ; 677 ; 2019-07-19 09:56:10.531006 ; 52.05 
45 ; Les Fonds ; 3NT ; LF-3NT-2019-DH-MB-C ; 677 ; 2019-07-19 09:56:11.568077 ; 51.93 
46 ; Les Fonds ; 3NT ; LF-3NT-2019-DH-MB-C ; 677 ; 2019-07-19 09:56:12.629211 ; 51.79 
47 ; Les Fonds ; 3NT ; LF-3NT-2019-DH-MB-C ; 677 ; 2019-07-19 09:56:13.670949 ; 51.71 
48 ; Les Fonds ; 3NT ; LF-3NT-2019-DH-MB-C ; 677 ; 2019-07-19 09:56:14.712182 ; 51.64 
49 ; Les Fonds ; 3NT ; LF-3NT-2019-DH-MB-C ; 677 ; 2019-07-19 09:56:15.779080 ; 51.55 
50 ; Les Fonds ; 3NT ; LF-3NT-2019-DH-MB-C ; 677 ; 2019-07-19 09:56:16.823099 ; 51.32 
51 ; Les Fonds ; 3NT ; LF-3NT-2019-DH-MB-C ; 677 ; 2019-07-19 09:56:17.853461 ; 51.2 
52 ; Les Fonds ; 3NT ; LF-3NT-2019-DH-MB-C ; 677 ; 2019-07-19 09:56:18.923769 ; 51.05 
53 ; Les Fonds ; 3NT ; LF-3NT-2019-DH-MB-C ; 677 ; 2019-07-19 09:56:19.964933 ; 50.95 
54 ; Les Fonds ; 3NT ; LF-3NT-2019-DH-MB-C ; 677 ; 2019-07-19 09:56:21.002274 ; 50.68 
55 ; Les Fonds ; 3NT ; LF-3NT-2019-DH-MB-C ; 677 ; 2019-07-19 09:56:22.070112 ; 50.39 
56 ; Les Fonds ; 3NT ; LF-3NT-2019-DH-MB-C ; 677 ; 2019-07-19 09:56:23.117844 ; 50.31 
57 ; Les Fonds ; 3NT ; LF-3NT-2019-DH-MB-C ; 677 ; 2019-07-19 09:56:24.152569 ; 50.16 
58 ; Les Fonds ; 3NT ; LF-3NT-2019-DH-MB-C ; 677 ; 2019-07-19 09:56:25.218882 ; 50.04 
59 ; Les Fonds ; 3NT ; LF-3NT-2019-DH-MB-C ; 677 ; 2019-07-19 09:56:26.260014 ; NA 
60 ; Les Fonds ; 3NT ; LF-3NT-2019-DH-MB-C ; 677 ; 2019-07-19 09:56:27.302295 ; 49.64 
61 ; Les Fonds ; 3NT ; LF-3NT-2019-DH-MB-C ; 677 ; 2019-07-19 09:56:28.337662 ; 49.38 
62 ; Les Fonds ; 3NT ; LF-3NT-2019-DH-MB-C ; 677 ; 2019-07-19 09:56:29.404414 ; 49.29 
63 ; Les Fonds ; 3NT ; LF-3NT-2019-DH-MB-C ; 677 ; 2019-07-19 09:56:30.450560 ; 49.02 
64 ; Les Fonds ; 3NT ; LF-3NT-2019-DH-MB-C ; 677 ; 2019-07-19 09:56:31.484806 ; 48.74 
65 ; Les Fonds ; 3NT ; LF-3NT-2019-DH-MB-C ; 677 ; 2019-07-19 09:56:32.555275 ; 48.68 
66 ; Les Fonds ; 3NT ; LF-3NT-2019-DH-MB-C ; 677 ; 2019-07-19 09:56:33.590429 ; 48.53 
67 ; Les Fonds ; 3NT ; LF-3NT-2019-DH-MB-C ; 677 ; 2019-07-19 09:56:34.633983 ; 48.3 
68 ; Les Fonds ; 3NT ; LF-3NT-2019-DH-MB-C ; 677 ; 2019-07-19 09:56:35.701627 ; 48.18 
69 ; Les Fonds ; 3NT ; LF-3NT-2019-DH-MB-C ; 677 ; 2019-07-19 09:56:36.746581 ; 48.03 
70 ; Les Fonds ; 3NT ; LF-3NT-2019-DH-MB-C ; 677 ; 2019-07-19 09:56:37.776504 ; 47.88 
71 ; Les Fonds ; 3NT ; LF-3NT-2019-DH-MB-C ; 677 ; 2019-07-19 09:56:38.839236 ; 47.59 
72 ; Les Fonds ; 3NT ; LF-3NT-2019-DH-MB-C ; 677 ; 2019-07-19 09:56:39.882642 ; 47.05 
73 ; Les Fonds ; 3NT ; LF-3NT-2019-DH-MB-C ; 677 ; 2019-07-19 09:56:40.926903 ; 46.74 
74 ; Les Fonds ; 3NT ; LF-3NT-2019-DH-MB-C ; 677 ; 2019-07-19 09:56:41.991899 ; 46.47 
75 ; Les Fonds ; 3NT ; LF-3NT-2019-DH-MB-C ; 677 ; 2019-07-19 09:56:43.039266 ; 46.23 
76 ; Les Fonds ; 3NT ; LF-3NT-2019-DH-MB-C ; 677 ; 2019-07-19 09:56:44.073061 ; 45.66 
77 ; Les Fonds ; 3NT ; LF-3NT-2019-DH-MB-C ; 677 ; 2019-07-19 09:56:45.137012 ; 45.6 
78 ; Les Fonds ; 3NT ; LF-3NT-2019-DH-MB-C ; 677 ; 2019-07-19 09:56:46.178112 ; 45.45 
79 ; Les Fonds ; 3NT ; LF-3NT-2019-DH-MB-C ; 677 ; 2019-07-19 09:56:47.220665 ; 45.15 
80 ; Les Fonds ; 3NT ; LF-3NT-2019-DH-MB-C ; 677 ; 2019-07-19 09:56:48.285418 ; 44.89 
81 ; Les Fonds ; 3NT ; LF-3NT-2019-DH-MB-C ; 677 ; 2019-07-19 09:56:49.330759 ; 44.83 
82 ; Les Fonds ; 3NT ; LF-3NT-2019-DH-MB-C ; 677 ; 2019-07-19 09:56:50.363796 ; 44.75 
83 ; Les Fonds ; 3NT ; LF-3NT-2019-DH-MB-C ; 677 ; 2019-07-19 09:56:51.430866 ; 44.45 
84 ; Les Fonds ; 3NT ; LF-3NT-2019-DH-MB-C ; 677 ; 2019-07-19 09:56:52.472808 ; 44.19 
85 ; Les Fonds ; 3NT ; LF-3NT-2019-DH-MB-C ; 677 ; 2019-07-19 09:56:53.513071 ; 43.85 
86 ; Les Fonds ; 3NT ; LF-3NT-2019-DH-MB-C ; 677 ; 2019-07-19 09:56:54.553381 ; 43.6 
87 ; Les Fonds ; 3NT ; LF-3NT-2019-DH-MB-C ; 677 ; 2019-07-19 09:56:55.624621 ; 43.29 
88 ; Les Fonds ; 3NT ; LF-3NT-2019-DH-MB-C ; 677 ; 2019-07-19 09:56:56.657436 ; 42.82 
89 ; Les Fonds ; 3NT ; LF-3NT-2019-DH-MB-C ; 677 ; 2019-07-19 09:56:57.697563 ; 41.81 
90 ; Les Fonds ; 3NT ; LF-3NT-2019-DH-MB-C ; 677 ; 2019-07-19 09:56:58.766316 ; 40.92 
91 ; Les Fonds ; 3NT ; LF-3NT-2019-DH-MB-C ; 677 ; 2019-07-19 09:56:59.821445 ; 40.66 
92 ; Les Fonds ; 3NT ; LF-3NT-2019-DH-MB-C ; 677 ; 2019-07-19 09:57:00.843651 ; 40.4 
93 ; Les Fonds ; 3NT ; LF-3NT-2019-DH-MB-C ; 677 ; 2019-07-19 09:57:01.917819 ; 40.13 
94 ; Les Fonds ; 3NT ; LF-3NT-2019-DH-MB-C ; 677 ; 2019-07-19 09:57:02.957245 ; 39.88 
95 ; Les Fonds ; 3NT ; LF-3NT-2019-DH-MB-C ; 677 ; 2019-07-19 09:57:03.992244 ; 39.64 
96 ; Les Fonds ; 3NT ; LF-3NT-2019-DH-MB-C ; 677 ; 2019-07-19 09:57:05.059562 ; 39.58 
97 ; Les Fonds ; 3NT ; LF-3NT-2019-DH-MB-C ; 677 ; 2019-07-19 09:57:06.100966 ; 39.48 
98 ; Les Fonds ; 3NT ; LF-3NT-2019-DH-MB-C ; 677 ; 2019-07-19 09:57:07.138039 ; 39.33 
99 ; Les Fonds ; 3NT ; LF-3NT-2019-DH-MB-C ; 677 ; 2019-07-19 09:57:08.211384 ; NA 
100 ; Les Fonds ; 3NT ; LF-3NT-2019-DH-MB-C ; 677 ; 2019-07-19 09:57:09.249456 ; 38.66 
101 ; Les Fonds ; 3NT ; LF-3NT-2019-DH-MB-C ; 677 ; 2019-07-19 09:57:10.284680 ; 38.4 
102 ; Les Fonds ; 3NT ; LF-3NT-2019-DH-MB-C ; 677 ; 2019-07-19 09:57:11.350743 ; 38.37 
103 ; Les Fonds ; 3NT ; LF-3NT-2019-DH-MB-C ; 677 ; 2019-07-19 09:57:12.393992 ; 38.33 
104 ; Les Fonds ; 3NT ; LF-3NT-2019-DH-MB-C ; 677 ; 2019-07-19 09:57:13.433487 ; 38.28 
105 ; Les Fonds ; 3NT ; LF-3NT-2019-DH-MB-C ; 677 ; 2019-07-19 09:57:14.505936 ; 38.22 
106 ; Les Fonds ; 3NT ; LF-3NT-2019-DH-MB-C ; 677 ; 2019-07-19 09:57:15.537849 ; 38.12 
107 ; Les Fonds ; 3NT ; LF-3NT-2019-DH-MB-C ; 677 ; 2019-07-19 09:57:16.577962 ; 38.04 
108 ; Les Fonds ; 3NT ; LF-3NT-2019-DH-MB-C ; 677 ; 2019-07-19 09:57:17.648187 ; 38.02 
109 ; Les Fonds ; 3NT ; LF-3NT-2019-DH-MB-C ; 677 ; 2019-07-19 09:57:18.686862 ; 37.95 
110 ; Les Fonds ; 3NT ; LF-3NT-2019-DH-MB-C ; 677 ; 2019-07-19 09:57:19.724288 ; 37.44 
111 ; Les Fonds ; 3NT ; LF-3NT-2019-DH-MB-C ; 677 ; 2019-07-19 09:57:20.810111 ; 37.39 
112 ; Les Fonds ; 3NT ; LF-3NT-2019-DH-MB-C ; 677 ; 2019-07-19 09:57:21.832063 ; 37.32 
113 ; Les Fonds ; 3NT ; LF-3NT-2019-DH-MB-C ; 677 ; 2019-07-19 09:57:22.871569 ; 37.23 
114 ; Les Fonds ; 3NT ; LF-3NT-2019-DH-MB-C ; 677 ; 2019-07-19 09:57:23.940698 ; 36.76 
115 ; Les Fonds ; 3NT ; LF-3NT-2019-DH-MB-C ; 677 ; 2019-07-19 09:57:24.977640 ; 36.68 
116 ; Les Fonds ; 3NT ; LF-3NT-2019-DH-MB-C ; 677 ; 2019-07-19 09:57:26.023226 ; 36.54 
117 ; Les Fonds ; 3NT ; LF-3NT-2019-DH-MB-C ; 677 ; 2019-07-19 09:57:27.086473 ; 36.48 
118 ; Les Fonds ; 3NT ; LF-3NT-2019-DH-MB-C ; 677 ; 2019-07-19 09:57:28.122782 ; 36.46 
119 ; Les Fonds ; 3NT ; LF-3NT-2019-DH-MB-C ; 677 ; 2019-07-19 09:57:29.167608 ; 36.18 
120 ; Les Fonds ; 3NT ; LF-3NT-2019-DH-MB-C ; 677 ; 2019-07-19 09:57:30.207780 ; 36.12 
121 ; Les Fonds ; 3NT ; LF-3NT-2019-DH-MB-C ; 677 ; 2019-07-19 09:57:31.269304 ; 36.07 
122 ; Les Fonds ; 3NT ; LF-3NT-2019-DH-MB-C ; 677 ; 2019-07-19 09:57:32.319870 ; 36.05 
123 ; Les Fonds ; 3NT ; LF-3NT-2019-DH-MB-C ; 677 ; 2019-07-19 09:57:33.351722 ; 36.01 
124 ; Les Fonds ; 3NT ; LF-3NT-2019-DH-MB-C ; 677 ; 2019-07-19 09:57:34.419639 ; 35.96 
125 ; Les Fonds ; 3NT ; LF-3NT-2019-DH-MB-C ; 677 ; 2019-07-19 09:57:35.459183 ; 35.91 
126 ; Les Fonds ; 3NT ; LF-3NT-2019-DH-MB-C ; 677 ; 2019-07-19 09:57:36.501097 ; 35.86 
127 ; Les Fonds ; 3NT ; LF-3NT-2019-DH-MB-C ; 677 ; 2019-07-19 09:57:37.567002 ; 35.8 
128 ; Les Fonds ; 3NT ; LF-3NT-2019-DH-MB-C ; 677 ; 2019-07-19 09:57:38.613050 ; 35.76 
129 ; Les Fonds ; 3NT ; LF-3NT-2019-DH-MB-C ; 677 ; 2019-07-19 09:57:39.643350 ; 35.72 
130 ; Les Fonds ; 3NT ; LF-3NT-2019-DH-MB-C ; 677 ; 2019-07-19 09:57:40.711630 ; 35.71 
131 ; Les Fonds ; 3NT ; LF-3NT-2019-DH-MB-C ; 677 ; 2019-07-19 09:57:41.753010 ; 35.67 
132 ; Les Fonds ; 3NT ; LF-3NT-2019-DH-MB-C ; 677 ; 2019-07-19 09:57:42.790435 ; 35.62 
133 ; Les Fonds ; 3NT ; LF-3NT-2019-DH-MB-C ; 677 ; 2019-07-19 09:57:43.858872 ; 35.54 
134 ; Les Fonds ; 3NT ; LF-3NT-2019-DH-MB-C ; 677 ; 2019-07-19 09:57:44.908362 ; 35.44 
135 ; Les Fonds ; 3NT ; LF-3NT-2019-DH-MB-C ; 677 ; 2019-07-19 09:57:45.938494 ; 35.35 
136 ; Les Fonds ; 3NT ; LF-3NT-2019-DH-MB-C ; 677 ; 2019-07-19 09:57:47.009157 ; 35.31 
137 ; Les Fonds ; 3NT ; LF-3NT-2019-DH-MB-C ; 677 ; 2019-07-19 09:57:48.045437 ; 35.29 
138 ; Les Fonds ; 3NT ; LF-3NT-2019-DH-MB-C ; 677 ; 2019-07-19 09:57:49.083410 ; 35.25 
139 ; Les Fonds ; 3NT ; LF-3NT-2019-DH-MB-C ; 677 ; 2019-07-19 09:57:50.152242 ; 35.21 
140 ; Les Fonds ; 3NT ; LF-3NT-2019-DH-MB-C ; 677 ; 2019-07-19 09:57:51.286793 ; 35.16 
141 ; Les Fonds ; 3NT ; LF-3NT-2019-DH-MB-C ; 677 ; 2019-07-19 09:57:52.227610 ; 35.14 
142 ; Les Fonds ; 3NT ; LF-3NT-2019-DH-MB-C ; 677 ; 2019-07-19 09:57:53.297899 ; 35.11 
143 ; Les Fonds ; 3NT ; LF-3NT-2019-DH-MB-C ; 677 ; 2019-07-19 09:57:54.337892 ; 35.03 
144 ; Les Fonds ; 3NT ; LF-3NT-2019-DH-MB-C ; 677 ; 2019-07-19 09:57:55.375993 ; 34.94 
145 ; Les Fonds ; 3NT ; LF-3NT-2019-DH-MB-C ; 677 ; 2019-07-19 09:57:56.448041 ; 34.84 
146 ; Les Fonds ; 3NT ; LF-3NT-2019-DH-MB-C ; 677 ; 2019-07-19 09:57:57.488446 ; 34.78 
147 ; Les Fonds ; 3NT ; LF-3NT-2019-DH-MB-C ; 677 ; 2019-07-19 09:57:58.522907 ; 34.74 
148 ; Les Fonds ; 3NT ; LF-3NT-2019-DH-MB-C ; 677 ; 2019-07-19 09:57:59.590087 ; 34.72 
149 ; Les Fonds ; 3NT ; LF-3NT-2019-DH-MB-C ; 677 ; 2019-07-19 09:58:00.631676 ; 34.7 
150 ; Les Fonds ; 3NT ; LF-3NT-2019-DH-MB-C ; 677 ; 2019-07-19 09:58:01.668929 ; 34.68 
151 ; Les Fonds ; 3NT ; LF-3NT-2019-DH-MB-C ; 677 ; 2019-07-19 09:58:02.709657 ; 34.66 
152 ; Les Fonds ; 3NT ; LF-3NT-2019-DH-MB-C ; 677 ; 2019-07-19 09:58:03.782073 ; 34.64 
153 ; Les Fonds ; 3NT ; LF-3NT-2019-DH-MB-C ; 677 ; 2019-07-19 09:58:04.814170 ; 34.58 
154 ; Les Fonds ; 3NT ; LF-3NT-2019-DH-MB-C ; 677 ; 2019-07-19 09:58:05.858402 ; 34.47 
155 ; Les Fonds ; 3NT ; LF-3NT-2019-DH-MB-C ; 677 ; 2019-07-19 09:58:06.923666 ; 34.23 
156 ; Les Fonds ; 3NT ; LF-3NT-2019-DH-MB-C ; 677 ; 2019-07-19 09:58:07.961829 ; 34.2 
157 ; Les Fonds ; 3NT ; LF-3NT-2019-DH-MB-C ; 677 ; 2019-07-19 09:58:09.004748 ; 34.16 
158 ; Les Fonds ; 3NT ; LF-3NT-2019-DH-MB-C ; 677 ; 2019-07-19 09:58:10.071063 ; 34.13 
159 ; Les Fonds ; 3NT ; LF-3NT-2019-DH-MB-C ; 677 ; 2019-07-19 09:58:11.117786 ; 34.11 
160 ; Les Fonds ; 3NT ; LF-3NT-2019-DH-MB-C ; 677 ; 2019-07-19 09:58:12.152775 ; 34.07 
161 ; Les Fonds ; 3NT ; LF-3NT-2019-DH-MB-C ; 677 ; 2019-07-19 09:58:13.217455 ; 34.02 
162 ; Les Fonds ; 3NT ; LF-3NT-2019-DH-MB-C ; 677 ; 2019-07-19 09:58:14.254939 ; 33.91 
163 ; Les Fonds ; 3NT ; LF-3NT-2019-DH-MB-C ; 677 ; 2019-07-19 09:58:15.299826 ; 33.78 
164 ; Les Fonds ; 3NT ; LF-3NT-2019-DH-MB-C ; 677 ; 2019-07-19 09:58:16.363634 ; 33.71 
165 ; Les Fonds ; 3NT ; LF-3NT-2019-DH-MB-C ; 677 ; 2019-07-19 09:58:17.408457 ; 33.69 
166 ; Les Fonds ; 3NT ; LF-3NT-2019-DH-MB-C ; 677 ; 2019-07-19 09:58:18.444278 ; 33.64 
167 ; Les Fonds ; 3NT ; LF-3NT-2019-DH-MB-C ; 677 ; 2019-07-19 09:58:19.508822 ; 33.53 
168 ; Les Fonds ; 3NT ; LF-3NT-2019-DH-MB-C ; 677 ; 2019-07-19 09:58:20.551133 ; 33.4 
169 ; Les Fonds ; 3NT ; LF-3NT-2019-DH-MB-C ; 677 ; 2019-07-19 09:58:21.592010 ; 33.31 
170 ; Les Fonds ; 3NT ; LF-3NT-2019-DH-MB-C ; 677 ; 2019-07-19 09:58:22.660201 ; 33.27 
171 ; Les Fonds ; 3NT ; LF-3NT-2019-DH-MB-C ; 677 ; 2019-07-19 09:58:23.701264 ; 33.25 
172 ; Les Fonds ; 3NT ; LF-3NT-2019-DH-MB-C ; 677 ; 2019-07-19 09:58:24.739081 ; 33.23 
173 ; Les Fonds ; 3NT ; LF-3NT-2019-DH-MB-C ; 677 ; 2019-07-19 09:58:25.803014 ; 33.2 
174 ; Les Fonds ; 3NT ; LF-3NT-2019-DH-MB-C ; 677 ; 2019-07-19 09:58:26.837463 ; 33.14 
175 ; Les Fonds ; 3NT ; LF-3NT-2019-DH-MB-C ; 677 ; 2019-07-19 09:58:37.893929 ; 32.99 
176 ; Les Fonds ; 3NT ; LF-3NT-2019-DH-MB-C ; 677 ; 2019-07-19 09:58:48.906708 ; 32.45 
177 ; Les Fonds ; 3NT ; LF-3NT-2019-DH-MB-C ; 677 ; 2019-07-19 09:58:59.922059 ; 31.91 
178 ; Les Fonds ; 3NT ; LF-3NT-2019-DH-MB-C ; 677 ; 2019-07-19 09:59:10.928956 ; 31.43 
179 ; Les Fonds ; 3NT ; LF-3NT-2019-DH-MB-C ; 677 ; 2019-07-19 09:59:21.942491 ; 30.35 
180 ; Les Fonds ; 3NT ; LF-3NT-2019-DH-MB-C ; 677 ; 2019-07-19 09:59:32.956295 ; 30.05 
181 ; Les Fonds ; 3NT ; LF-3NT-2019-DH-MB-C ; 677 ; 2019-07-19 09:59:43.942078 ; 29.91 
182 ; Les Fonds ; 3NT ; LF-3NT-2019-DH-MB-C ; 677 ; 2019-07-19 09:59:54.958885 ; 29.69 
183 ; Les Fonds ; 3NT ; LF-3NT-2019-DH-MB-C ; 677 ; 2019-07-19 10:00:05.979243 ; 29.11 
184 ; Les Fonds ; 3NT ; LF-3NT-2019-DH-MB-C ; 677 ; 2019-07-19 10:00:16.982964 ; 28.86 
185 ; Les Fonds ; 3NT ; LF-3NT-2019-DH-MB-C ; 677 ; 2019-07-19 10:00:27.997877 ; 28.86 
186 ; Les Fonds ; 3NT ; LF-3NT-2019-DH-MB-C ; 677 ; 2019-07-19 10:00:39.006815 ; 28.86 
187 ; Les Fonds ; 3NT ; LF-3NT-2019-DH-MB-C ; 677 ; 2019-07-19 10:00:50.020589 ; 28.86 
188 ; Les Fonds ; 3NT ; LF-3NT-2019-DH-MB-C ; 677 ; 2019-07-19 10:01:01.039329 ; 28.75 
189 ; Les Fonds ; 3NT ; LF-3NT-2019-DH-MB-C ; 677 ; 2019-07-19 10:01:12.031575 ; 28.67 
190 ; Les Fonds ; 3NT ; LF-3NT-2019-DH-MB-C ; 677 ; 2019-07-19 10:01:23.044347 ; 28.62 
191 ; Les Fonds ; 3NT ; LF-3NT-2019-DH-MB-C ; 677 ; 2019-07-19 10:01:34.056046 ; 28.62 
192 ; Les Fonds ; 3NT ; LF-3NT-2019-DH-MB-C ; 677 ; 2019-07-19 10:01:45.064368 ; 28.51 
193 ; Les Fonds ; 3NT ; LF-3NT-2019-DH-MB-C ; 677 ; 2019-07-19 10:01:56.078075 ; 28.26 
194 ; Les Fonds ; 3NT ; LF-3NT-2019-DH-MB-C ; 677 ; 2019-07-19 10:02:07.092450 ; 27.81 
195 ; Les Fonds ; 3NT ; LF-3NT-2019-DH-MB-C ; 677 ; 2019-07-19 10:02:18.110945 ; 27.59 
196 ; Les Fonds ; 3NT ; LF-3NT-2019-DH-MB-C ; 677 ; 2019-07-19 10:02:29.120668 ; 27.56 
197 ; Les Fonds ; 3NT ; LF-3NT-2019-DH-MB-C ; 677 ; 2019-07-19 10:02:40.105532 ; 27.25 
198 ; Les Fonds ; 3NT ; LF-3NT-2019-DH-MB-C ; 677 ; 2019-07-19 10:02:51.122939 ; 27.02 
199 ; Les Fonds ; 3NT ; LF-3NT-2019-DH-MB-C ; 677 ; 2019-07-19 10:03:02.131233 ; 26.55 
200 ; Les Fonds ; 3NT ; LF-3NT-2019-DH-MB-C ; 677 ; 2019-07-19 10:03:13.145007 ; 26.14 
201 ; Les Fonds ; 3NT ; LF-3NT-2019-DH-MB-C ; 677 ; 2019-07-19 10:03:24.161881 ; 23.65 
202 ; Les Fonds ; 3NT ; LF-3NT-2019-DH-MB-C ; 677 ; 2019-07-19 10:03:35.169601 ; 22.28 
203 ; Les Fonds ; 3NT ; LF-3NT-2019-DH-MB-C ; 677 ; 2019-07-19 10:03:46.184909 ; 22.15 
204 ; Les Fonds ; 3NT ; LF-3NT-2019-DH-MB-C ; 677 ; 2019-07-19 10:03:57.195757 ; 22.11 
205 ; Les Fonds ; 3NT ; LF-3NT-2019-DH-MB-C ; 677 ; 2019-07-19 10:04:08.212818 ; 22.01 
206 ; Les Fonds ; 3NT ; LF-3NT-2019-DH-MB-C ; 677 ; 2019-07-19 10:04:19.198259 ; 22.01 
207 ; Les Fonds ; 3NT ; LF-3NT-2019-DH-MB-C ; 677 ; 2019-07-19 10:04:30.211379 ; 22.01 
208 ; Les Fonds ; 3NT ; LF-3NT-2019-DH-MB-C ; 677 ; 2019-07-19 10:04:41.219405 ; 21.88 
209 ; Les Fonds ; 3NT ; LF-3NT-2019-DH-MB-C ; 677 ; 2019-07-19 10:04:52.238156 ; 21.58 
210 ; Les Fonds ; 3NT ; LF-3NT-2019-DH-MB-C ; 677 ; 2019-07-19 10:05:03.253859 ; 21.58 
211 ; Les Fonds ; 3NT ; LF-3NT-2019-DH-MB-C ; 677 ; 2019-07-19 10:05:14.261075 ; 21.58 
212 ; Les Fonds ; 3NT ; LF-3NT-2019-DH-MB-C ; 677 ; 2019-07-19 10:05:25.275059 ; 21.58 
213 ; Les Fonds ; 3NT ; LF-3NT-2019-DH-MB-C ; 677 ; 2019-07-19 10:05:56.295219 ; 21.58 
214 ; Les Fonds ; 3NT ; LF-3NT-2019-DH-MB-C ; 677 ; 2019-07-19 10:06:27.221224 ; 21.51 
215 ; Les Fonds ; 3NT ; LF-3NT-2019-DH-MB-C ; 677 ; 2019-07-19 10:06:58.154280 ; 21.41 
216 ; Les Fonds ; 3NT ; LF-3NT-2019-DH-MB-C ; 677 ; 2019-07-19 10:07:29.090991 ; 21.27 
217 ; Les Fonds ; 3NT ; LF-3NT-2019-DH-MB-C ; 677 ; 2019-07-19 10:08:00.022342 ; 21.22 
218 ; Les Fonds ; 3NT ; LF-3NT-2019-DH-MB-C ; 677 ; 2019-07-19 10:08:30.957544 ; 21.11 
219 ; Les Fonds ; 3NT ; LF-3NT-2019-DH-MB-C ; 677 ; 2019-07-19 10:09:01.871928 ; 21.09 
220 ; Les Fonds ; 3NT ; LF-3NT-2019-DH-MB-C ; 677 ; 2019-07-19 10:09:32.805780 ; 21.09 
221 ; Les Fonds ; 3NT ; LF-3NT-2019-DH-MB-C ; 677 ; 2019-07-19 10:10:03.753028 ; 21.09 
222 ; Les Fonds ; 3NT ; LF-3NT-2019-DH-MB-C ; 677 ; 2019-07-19 10:10:34.660498 ; 21.09 
223 ; Les Fonds ; 3NT ; LF-3NT-2019-DH-MB-C ; 677 ; 2019-07-19 10:11:05.593546 ; 21.09 
224 ; Les Fonds ; 3NT ; LF-3NT-2019-DH-MB-C ; 677 ; 2019-07-19 10:11:36.529231 ; 21.09 
225 ; Les Fonds ; 3NT ; LF-3NT-2019-DH-MB-C ; 677 ; 2019-07-19 10:12:07.466709 ; 21.09 
226 ; Les Fonds ; 3NT ; LF-3NT-2019-DH-MB-C ; 677 ; 2019-07-19 10:12:38.392654 ; 21.09 
227 ; Les Fonds ; 3NT ; LF-3NT-2019-DH-MB-C ; 677 ; 2019-07-19 10:13:09.326404 ; 21.09 
228 ; Les Fonds ; 3NT ; LF-3NT-2019-DH-MB-C ; 677 ; 2019-07-19 10:13:40.259799 ; 21.02 
229 ; Les Fonds ; 3NT ; LF-3NT-2019-DH-MB-C ; 677 ; 2019-07-19 10:14:11.197976 ; NA 
230 ; Les Fonds ; 3NT ; LF-3NT-2019-DH-MB-C ; 677 ; 2019-07-19 10:14:42.131458 ; 21.02 
231 ; Les Fonds ; 3NT ; LF-3NT-2019-DH-MB-C ; 677 ; 2019-07-19 10:15:13.065609 ; 21.02 
232 ; Les Fonds ; 3NT ; LF-3NT-2019-DH-MB-C ; 677 ; 2019-07-19 10:15:43.996548 ; 21.02 
233 ; Les Fonds ; 3NT ; LF-3NT-2019-DH-MB-C ; 677 ; 2019-07-19 10:16:14.927689 ; 21.02 
234 ; Les Fonds ; 3NT ; LF-3NT-2019-DH-MB-C ; 677 ; 2019-07-19 10:16:45.859122 ; 20.97 
235 ; Les Fonds ; 3NT ; LF-3NT-2019-DH-MB-C ; 677 ; 2019-07-19 10:17:16.796374 ; 20.91 
236 ; Les Fonds ; 3NT ; LF-3NT-2019-DH-MB-C ; 677 ; 2019-07-19 10:17:47.729289 ; 20.91 
237 ; Les Fonds ; 3NT ; LF-3NT-2019-DH-MB-C ; 677 ; 2019-07-19 10:18:18.659926 ; 20.91 
238 ; Les Fonds ; 3NT ; LF-3NT-2019-DH-MB-C ; 677 ; 2019-07-19 10:18:49.599629 ; 20.91 
239 ; Les Fonds ; 3NT ; LF-3NT-2019-DH-MB-C ; 677 ; 2019-07-19 10:19:20.526893 ; 20.91 
240 ; Les Fonds ; 3NT ; LF-3NT-2019-DH-MB-C ; 677 ; 2019-07-19 10:19:51.459112 ; 20.91 
241 ; Les Fonds ; 3NT ; LF-3NT-2019-DH-MB-C ; 677 ; 2019-07-19 10:20:22.393818 ; 20.91 
242 ; Les Fonds ; 3NT ; LF-3NT-2019-DH-MB-C ; 677 ; 2019-07-19 10:20:53.326490 ; 20.84 
243 ; Les Fonds ; 3NT ; LF-3NT-2019-DH-MB-C ; 677 ; 2019-07-19 10:21:24.264314 ; 20.84 
244 ; Les Fonds ; 3NT ; LF-3NT-2019-DH-MB-C ; 677 ; 2019-07-19 10:21:55.197860 ; 20.75 
245 ; Les Fonds ; 3NT ; LF-3NT-2019-DH-MB-C ; 677 ; 2019-07-19 10:22:26.130863 ; 20.75 
246 ; Les Fonds ; 3NT ; LF-3NT-2019-DH-MB-C ; 677 ; 2019-07-19 10:22:57.058328 ; 20.75 
247 ; Les Fonds ; 3NT ; LF-3NT-2019-DH-MB-C ; 677 ; 2019-07-19 10:23:27.992851 ; 20.75 
248 ; Les Fonds ; 3NT ; LF-3NT-2019-DH-MB-C ; 677 ; 2019-07-19 10:23:58.926223 ; 20.75 
249 ; Les Fonds ; 3NT ; LF-3NT-2019-DH-MB-C ; 677 ; 2019-07-19 10:24:29.855118 ; 20.75 
250 ; Les Fonds ; 3NT ; LF-3NT-2019-DH-MB-C ; 677 ; 2019-07-19 10:25:00.798447 ; 20.75 
251 ; Les Fonds ; 3NT ; LF-3NT-2019-DH-MB-C ; 677 ; 2019-07-19 10:25:31.728193 ; 20.75 
252 ; Les Fonds ; 3NT ; LF-3NT-2019-DH-MB-C ; 677 ; 2019-07-19 10:26:02.659822 ; 20.75 
253 ; Les Fonds ; 3NT ; LF-3NT-2019-DH-MB-C ; 677 ; 2019-07-19 10:26:33.594301 ; 20.75 
254 ; Les Fonds ; 3NT ; LF-3NT-2019-DH-MB-C ; 677 ; 2019-07-19 10:27:04.526152 ; 20.75 
255 ; Les Fonds ; 3NT ; LF-3NT-2019-DH-MB-C ; 677 ; 2019-07-19 10:27:35.459077 ; 20.75 
256 ; Les Fonds ; 3NT ; LF-3NT-2019-DH-MB-C ; 677 ; 2019-07-19 10:28:06.397008 ; 20.75 
257 ; Les Fonds ; 3NT ; LF-3NT-2019-DH-MB-C ; 677 ; 2019-07-19 10:28:37.325956 ; 20.75 
258 ; Les Fonds ; 3NT ; LF-3NT-2019-DH-MB-C ; 677 ; 2019-07-19 10:29:08.260914 ; 20.75 
259 ; Les Fonds ; 3NT ; LF-3NT-2019-DH-MB-C ; 677 ; 2019-07-19 10:29:39.193402 ; 20.75 
260 ; Les Fonds ; 3NT ; LF-3NT-2019-DH-MB-C ; 677 ; 2019-07-19 10:30:10.126052 ; 20.75 
261 ; Les Fonds ; 3NT ; LF-3NT-2019-DH-MB-C ; 677 ; 2019-07-19 10:30:41.059766 ; 20.75 
262 ; Les Fonds ; 3NT ; LF-3NT-2019-DH-MB-C ; 677 ; 2019-07-19 10:31:11.995445 ; 20.75 
263 ; Les Fonds ; 3NT ; LF-3NT-2019-DH-MB-C ; 677 ; 2019-07-19 10:31:42.934108 ; 20.75 
264 ; Les Fonds ; 3NT ; LF-3NT-2019-DH-MB-C ; 677 ; 2019-07-19 10:32:13.857851 ; 20.75 
265 ; Les Fonds ; 3NT ; LF-3NT-2019-DH-MB-C ; 677 ; 2019-07-19 10:32:44.803919 ; 20.75 
266 ; Les Fonds ; 3NT ; LF-3NT-2019-DH-MB-C ; 677 ; 2019-07-19 10:33:15.727006 ; 20.75 
267 ; Les Fonds ; 3NT ; LF-3NT-2019-DH-MB-C ; 677 ; 2019-07-19 10:33:46.660048 ; 20.75 
268 ; Les Fonds ; 3NT ; LF-3NT-2019-DH-MB-C ; 677 ; 2019-07-19 10:34:17.596289 ; 20.75 
269 ; Les Fonds ; 3NT ; LF-3NT-2019-DH-MB-C ; 677 ; 2019-07-19 10:34:48.537678 ; 20.75 
270 ; Les Fonds ; 3NT ; LF-3NT-2019-DH-MB-C ; 677 ; 2019-07-19 10:35:19.461183 ; 20.75 
271 ; Les Fonds ; 3NT ; LF-3NT-2019-DH-MB-C ; 677 ; 2019-07-19 10:35:50.394376 ; 20.75 
272 ; Les Fonds ; 3NT ; LF-3NT-2019-DH-MB-C ; 677 ; 2019-07-19 10:36:21.326677 ; 20.75 
273 ; Les Fonds ; 3NT ; LF-3NT-2019-DH-MB-C ; 677 ; 2019-07-19 10:36:52.259281 ; 20.75 
274 ; Les Fonds ; 3NT ; LF-3NT-2019-DH-MB-C ; 677 ; 2019-07-19 10:37:23.193454 ; 20.75 
275 ; Les Fonds ; 3NT ; LF-3NT-2019-DH-MB-C ; 677 ; 2019-07-19 10:37:54.133432 ; 20.75 
276 ; Les Fonds ; 3NT ; LF-3NT-2019-DH-MB-C ; 677 ; 2019-07-19 10:38:25.062855 ; 20.75 
277 ; Les Fonds ; 3NT ; LF-3NT-2019-DH-MB-C ; 677 ; 2019-07-19 10:38:56.000806 ; 20.69 
278 ; Les Fonds ; 3NT ; LF-3NT-2019-DH-MB-C ; 677 ; 2019-07-19 10:39:26.927285 ; 20.69 
279 ; Les Fonds ; 3NT ; LF-3NT-2019-DH-MB-C ; 677 ; 2019-07-19 10:39:57.892763 ; 20.69 
