i ; campaign ; serie ; sample ; slake ; time ; mass 
1 ; Les Fonds ; 27NT ; LF-27NT-2019-DH-MB-B ; 699 ; 2019-07-22 10:39:27.477643 ; 243.14 
2 ; Les Fonds ; 27NT ; LF-27NT-2019-DH-MB-B ; 699 ; 2019-07-22 10:39:28.373625 ; 243.14 
3 ; Les Fonds ; 27NT ; LF-27NT-2019-DH-MB-B ; 699 ; 2019-07-22 10:39:29.414170 ; 243.15 
4 ; Les Fonds ; 27NT ; LF-27NT-2019-DH-MB-B ; 699 ; 2019-07-22 10:39:30.459647 ; 243.15 
5 ; Les Fonds ; 27NT ; LF-27NT-2019-DH-MB-B ; 699 ; 2019-07-22 10:39:31.522953 ; 243.15 
6 ; Les Fonds ; 27NT ; LF-27NT-2019-DH-MB-B ; 699 ; 2019-07-22 10:39:32.563366 ; 243.15 
7 ; Les Fonds ; 27NT ; LF-27NT-2019-DH-MB-B ; 699 ; 2019-07-22 10:39:33.605557 ; 242.45 
8 ; Les Fonds ; 27NT ; LF-27NT-2019-DH-MB-B ; 699 ; 2019-07-22 10:39:34.670496 ; 194.22 
9 ; Les Fonds ; 27NT ; LF-27NT-2019-DH-MB-B ; 699 ; 2019-07-22 10:39:35.713007 ; 90.98 
10 ; Les Fonds ; 27NT ; LF-27NT-2019-DH-MB-B ; 699 ; 2019-07-22 10:39:36.753295 ; 91.75 
11 ; Les Fonds ; 27NT ; LF-27NT-2019-DH-MB-B ; 699 ; 2019-07-22 10:39:37.818831 ; 95.41 
12 ; Les Fonds ; 27NT ; LF-27NT-2019-DH-MB-B ; 699 ; 2019-07-22 10:39:38.863176 ; 97.67 
13 ; Les Fonds ; 27NT ; LF-27NT-2019-DH-MB-B ; 699 ; 2019-07-22 10:39:39.904662 ; 99.01 
14 ; Les Fonds ; 27NT ; LF-27NT-2019-DH-MB-B ; 699 ; 2019-07-22 10:39:40.969236 ; 100.43 
15 ; Les Fonds ; 27NT ; LF-27NT-2019-DH-MB-B ; 699 ; 2019-07-22 10:39:42.009300 ; 101.34 
16 ; Les Fonds ; 27NT ; LF-27NT-2019-DH-MB-B ; 699 ; 2019-07-22 10:39:43.048251 ; 102.53 
17 ; Les Fonds ; 27NT ; LF-27NT-2019-DH-MB-B ; 699 ; 2019-07-22 10:39:44.114983 ; 103.11 
18 ; Les Fonds ; 27NT ; LF-27NT-2019-DH-MB-B ; 699 ; 2019-07-22 10:39:45.162946 ; 103.88 
19 ; Les Fonds ; 27NT ; LF-27NT-2019-DH-MB-B ; 699 ; 2019-07-22 10:39:46.195369 ; 104.21 
20 ; Les Fonds ; 27NT ; LF-27NT-2019-DH-MB-B ; 699 ; 2019-07-22 10:39:47.257589 ; 104.72 
21 ; Les Fonds ; 27NT ; LF-27NT-2019-DH-MB-B ; 699 ; 2019-07-22 10:39:48.304424 ; 105.25 
22 ; Les Fonds ; 27NT ; LF-27NT-2019-DH-MB-B ; 699 ; 2019-07-22 10:39:49.339942 ; 105.56 
23 ; Les Fonds ; 27NT ; LF-27NT-2019-DH-MB-B ; 699 ; 2019-07-22 10:39:50.407264 ; 106.08 
24 ; Les Fonds ; 27NT ; LF-27NT-2019-DH-MB-B ; 699 ; 2019-07-22 10:39:51.445701 ; 106.39 
25 ; Les Fonds ; 27NT ; LF-27NT-2019-DH-MB-B ; 699 ; 2019-07-22 10:39:52.489819 ; 106.95 
26 ; Les Fonds ; 27NT ; LF-27NT-2019-DH-MB-B ; 699 ; 2019-07-22 10:39:53.553606 ; 107.2 
27 ; Les Fonds ; 27NT ; LF-27NT-2019-DH-MB-B ; 699 ; 2019-07-22 10:39:54.590347 ; 107.66 
28 ; Les Fonds ; 27NT ; LF-27NT-2019-DH-MB-B ; 699 ; 2019-07-22 10:39:55.627281 ; 107.96 
29 ; Les Fonds ; 27NT ; LF-27NT-2019-DH-MB-B ; 699 ; 2019-07-22 10:39:56.699377 ; 108.24 
30 ; Les Fonds ; 27NT ; LF-27NT-2019-DH-MB-B ; 699 ; 2019-07-22 10:39:57.741123 ; 108.51 
31 ; Les Fonds ; 27NT ; LF-27NT-2019-DH-MB-B ; 699 ; 2019-07-22 10:39:58.794144 ; 108.58 
32 ; Les Fonds ; 27NT ; LF-27NT-2019-DH-MB-B ; 699 ; 2019-07-22 10:39:59.843754 ; 108.71 
33 ; Les Fonds ; 27NT ; LF-27NT-2019-DH-MB-B ; 699 ; 2019-07-22 10:40:00.885196 ; 108.95 
34 ; Les Fonds ; 27NT ; LF-27NT-2019-DH-MB-B ; 699 ; 2019-07-22 10:40:01.931740 ; 109.07 
35 ; Les Fonds ; 27NT ; LF-27NT-2019-DH-MB-B ; 699 ; 2019-07-22 10:40:02.966023 ; 109.21 
36 ; Les Fonds ; 27NT ; LF-27NT-2019-DH-MB-B ; 699 ; 2019-07-22 10:40:04.040955 ; 109.27 
37 ; Les Fonds ; 27NT ; LF-27NT-2019-DH-MB-B ; 699 ; 2019-07-22 10:40:05.082032 ; 109.27 
38 ; Les Fonds ; 27NT ; LF-27NT-2019-DH-MB-B ; 699 ; 2019-07-22 10:40:06.106407 ; 109.27 
39 ; Les Fonds ; 27NT ; LF-27NT-2019-DH-MB-B ; 699 ; 2019-07-22 10:40:07.173159 ; 109.27 
40 ; Les Fonds ; 27NT ; LF-27NT-2019-DH-MB-B ; 699 ; 2019-07-22 10:40:08.212116 ; 109 
41 ; Les Fonds ; 27NT ; LF-27NT-2019-DH-MB-B ; 699 ; 2019-07-22 10:40:09.259181 ; 108.43 
42 ; Les Fonds ; 27NT ; LF-27NT-2019-DH-MB-B ; 699 ; 2019-07-22 10:40:10.325357 ; 108.36 
43 ; Les Fonds ; 27NT ; LF-27NT-2019-DH-MB-B ; 699 ; 2019-07-22 10:40:11.368393 ; 108.34 
44 ; Les Fonds ; 27NT ; LF-27NT-2019-DH-MB-B ; 699 ; 2019-07-22 10:40:12.406100 ; 108.27 
45 ; Les Fonds ; 27NT ; LF-27NT-2019-DH-MB-B ; 699 ; 2019-07-22 10:40:13.468049 ; 108.15 
46 ; Les Fonds ; 27NT ; LF-27NT-2019-DH-MB-B ; 699 ; 2019-07-22 10:40:14.509994 ; 108.15 
47 ; Les Fonds ; 27NT ; LF-27NT-2019-DH-MB-B ; 699 ; 2019-07-22 10:40:15.544717 ; 108.2 
48 ; Les Fonds ; 27NT ; LF-27NT-2019-DH-MB-B ; 699 ; 2019-07-22 10:40:16.615456 ; 108.18 
49 ; Les Fonds ; 27NT ; LF-27NT-2019-DH-MB-B ; 699 ; 2019-07-22 10:40:17.662278 ; 108.14 
50 ; Les Fonds ; 27NT ; LF-27NT-2019-DH-MB-B ; 699 ; 2019-07-22 10:40:18.699764 ; 108.1 
51 ; Les Fonds ; 27NT ; LF-27NT-2019-DH-MB-B ; 699 ; 2019-07-22 10:40:19.776396 ; NA 
52 ; Les Fonds ; 27NT ; LF-27NT-2019-DH-MB-B ; 699 ; 2019-07-22 10:40:20.805533 ; 107.78 
53 ; Les Fonds ; 27NT ; LF-27NT-2019-DH-MB-B ; 699 ; 2019-07-22 10:40:21.846567 ; 107.68 
54 ; Les Fonds ; 27NT ; LF-27NT-2019-DH-MB-B ; 699 ; 2019-07-22 10:40:22.912726 ; 107.39 
55 ; Les Fonds ; 27NT ; LF-27NT-2019-DH-MB-B ; 699 ; 2019-07-22 10:40:23.955390 ; 107.08 
56 ; Les Fonds ; 27NT ; LF-27NT-2019-DH-MB-B ; 699 ; 2019-07-22 10:40:24.989613 ; 106.81 
57 ; Les Fonds ; 27NT ; LF-27NT-2019-DH-MB-B ; 699 ; 2019-07-22 10:40:26.054219 ; 106.5 
58 ; Les Fonds ; 27NT ; LF-27NT-2019-DH-MB-B ; 699 ; 2019-07-22 10:40:27.098265 ; 106.44 
59 ; Les Fonds ; 27NT ; LF-27NT-2019-DH-MB-B ; 699 ; 2019-07-22 10:40:28.136965 ; 106.12 
60 ; Les Fonds ; 27NT ; LF-27NT-2019-DH-MB-B ; 699 ; 2019-07-22 10:40:29.202706 ; 105.86 
61 ; Les Fonds ; 27NT ; LF-27NT-2019-DH-MB-B ; 699 ; 2019-07-22 10:40:30.247719 ; 105.81 
62 ; Les Fonds ; 27NT ; LF-27NT-2019-DH-MB-B ; 699 ; 2019-07-22 10:40:31.281183 ; 105.73 
63 ; Les Fonds ; 27NT ; LF-27NT-2019-DH-MB-B ; 699 ; 2019-07-22 10:40:32.322510 ; 105.68 
64 ; Les Fonds ; 27NT ; LF-27NT-2019-DH-MB-B ; 699 ; 2019-07-22 10:40:33.388276 ; 105.66 
65 ; Les Fonds ; 27NT ; LF-27NT-2019-DH-MB-B ; 699 ; 2019-07-22 10:40:34.427553 ; 105.68 
66 ; Les Fonds ; 27NT ; LF-27NT-2019-DH-MB-B ; 699 ; 2019-07-22 10:40:35.470404 ; 105.44 
67 ; Les Fonds ; 27NT ; LF-27NT-2019-DH-MB-B ; 699 ; 2019-07-22 10:40:36.542387 ; 102.95 
68 ; Les Fonds ; 27NT ; LF-27NT-2019-DH-MB-B ; 699 ; 2019-07-22 10:40:37.577757 ; 102.26 
69 ; Les Fonds ; 27NT ; LF-27NT-2019-DH-MB-B ; 699 ; 2019-07-22 10:40:38.616310 ; 101.75 
70 ; Les Fonds ; 27NT ; LF-27NT-2019-DH-MB-B ; 699 ; 2019-07-22 10:40:39.682504 ; 101.5 
71 ; Les Fonds ; 27NT ; LF-27NT-2019-DH-MB-B ; 699 ; 2019-07-22 10:40:40.722970 ; 101.21 
72 ; Les Fonds ; 27NT ; LF-27NT-2019-DH-MB-B ; 699 ; 2019-07-22 10:40:41.767671 ; 101.19 
73 ; Les Fonds ; 27NT ; LF-27NT-2019-DH-MB-B ; 699 ; 2019-07-22 10:40:42.828313 ; 101.14 
74 ; Les Fonds ; 27NT ; LF-27NT-2019-DH-MB-B ; 699 ; 2019-07-22 10:40:43.869496 ; 101.12 
75 ; Les Fonds ; 27NT ; LF-27NT-2019-DH-MB-B ; 699 ; 2019-07-22 10:40:44.908694 ; 100.84 
76 ; Les Fonds ; 27NT ; LF-27NT-2019-DH-MB-B ; 699 ; 2019-07-22 10:40:45.975875 ; 100.61 
77 ; Les Fonds ; 27NT ; LF-27NT-2019-DH-MB-B ; 699 ; 2019-07-22 10:40:47.016264 ; 100.32 
78 ; Les Fonds ; 27NT ; LF-27NT-2019-DH-MB-B ; 699 ; 2019-07-22 10:40:48.064334 ; 99.85 
79 ; Les Fonds ; 27NT ; LF-27NT-2019-DH-MB-B ; 699 ; 2019-07-22 10:40:49.123778 ; 99.04 
80 ; Les Fonds ; 27NT ; LF-27NT-2019-DH-MB-B ; 699 ; 2019-07-22 10:40:50.161717 ; 98.02 
81 ; Les Fonds ; 27NT ; LF-27NT-2019-DH-MB-B ; 699 ; 2019-07-22 10:40:51.202741 ; 97.55 
82 ; Les Fonds ; 27NT ; LF-27NT-2019-DH-MB-B ; 699 ; 2019-07-22 10:40:52.267687 ; 97.5 
83 ; Les Fonds ; 27NT ; LF-27NT-2019-DH-MB-B ; 699 ; 2019-07-22 10:40:53.313385 ; 97.53 
84 ; Les Fonds ; 27NT ; LF-27NT-2019-DH-MB-B ; 699 ; 2019-07-22 10:40:54.358363 ; 97.51 
85 ; Les Fonds ; 27NT ; LF-27NT-2019-DH-MB-B ; 699 ; 2019-07-22 10:40:55.416557 ; 97.41 
86 ; Les Fonds ; 27NT ; LF-27NT-2019-DH-MB-B ; 699 ; 2019-07-22 10:40:56.454614 ; 97.33 
87 ; Les Fonds ; 27NT ; LF-27NT-2019-DH-MB-B ; 699 ; 2019-07-22 10:40:57.496354 ; 97.27 
88 ; Les Fonds ; 27NT ; LF-27NT-2019-DH-MB-B ; 699 ; 2019-07-22 10:40:58.560946 ; 97.25 
89 ; Les Fonds ; 27NT ; LF-27NT-2019-DH-MB-B ; 699 ; 2019-07-22 10:40:59.602917 ; 97.25 
90 ; Les Fonds ; 27NT ; LF-27NT-2019-DH-MB-B ; 699 ; 2019-07-22 10:41:00.644495 ; 97.25 
91 ; Les Fonds ; 27NT ; LF-27NT-2019-DH-MB-B ; 699 ; 2019-07-22 10:41:01.678184 ; 97.26 
92 ; Les Fonds ; 27NT ; LF-27NT-2019-DH-MB-B ; 699 ; 2019-07-22 10:41:02.748904 ; 97.23 
93 ; Les Fonds ; 27NT ; LF-27NT-2019-DH-MB-B ; 699 ; 2019-07-22 10:41:03.788920 ; 97.15 
94 ; Les Fonds ; 27NT ; LF-27NT-2019-DH-MB-B ; 699 ; 2019-07-22 10:41:04.821984 ; 97.08 
95 ; Les Fonds ; 27NT ; LF-27NT-2019-DH-MB-B ; 699 ; 2019-07-22 10:41:05.898327 ; 96.98 
96 ; Les Fonds ; 27NT ; LF-27NT-2019-DH-MB-B ; 699 ; 2019-07-22 10:41:06.942114 ; 96.73 
97 ; Les Fonds ; 27NT ; LF-27NT-2019-DH-MB-B ; 699 ; 2019-07-22 10:41:07.975242 ; 96.29 
98 ; Les Fonds ; 27NT ; LF-27NT-2019-DH-MB-B ; 699 ; 2019-07-22 10:41:09.043731 ; 95.88 
99 ; Les Fonds ; 27NT ; LF-27NT-2019-DH-MB-B ; 699 ; 2019-07-22 10:41:10.081944 ; 95.4 
100 ; Les Fonds ; 27NT ; LF-27NT-2019-DH-MB-B ; 699 ; 2019-07-22 10:41:11.124194 ; 95.32 
101 ; Les Fonds ; 27NT ; LF-27NT-2019-DH-MB-B ; 699 ; 2019-07-22 10:41:12.189531 ; 95.27 
102 ; Les Fonds ; 27NT ; LF-27NT-2019-DH-MB-B ; 699 ; 2019-07-22 10:41:13.237600 ; 95.2 
103 ; Les Fonds ; 27NT ; LF-27NT-2019-DH-MB-B ; 699 ; 2019-07-22 10:41:14.269327 ; 95.07 
104 ; Les Fonds ; 27NT ; LF-27NT-2019-DH-MB-B ; 699 ; 2019-07-22 10:41:15.335609 ; 94.95 
105 ; Les Fonds ; 27NT ; LF-27NT-2019-DH-MB-B ; 699 ; 2019-07-22 10:41:16.376426 ; 94.86 
106 ; Les Fonds ; 27NT ; LF-27NT-2019-DH-MB-B ; 699 ; 2019-07-22 10:41:17.414741 ; 94.79 
107 ; Les Fonds ; 27NT ; LF-27NT-2019-DH-MB-B ; 699 ; 2019-07-22 10:41:18.483490 ; 94.69 
108 ; Les Fonds ; 27NT ; LF-27NT-2019-DH-MB-B ; 699 ; 2019-07-22 10:41:19.528947 ; 94.6 
109 ; Les Fonds ; 27NT ; LF-27NT-2019-DH-MB-B ; 699 ; 2019-07-22 10:41:20.560775 ; 94.52 
110 ; Les Fonds ; 27NT ; LF-27NT-2019-DH-MB-B ; 699 ; 2019-07-22 10:41:21.629454 ; 94.44 
111 ; Les Fonds ; 27NT ; LF-27NT-2019-DH-MB-B ; 699 ; 2019-07-22 10:41:22.668786 ; 94.18 
112 ; Les Fonds ; 27NT ; LF-27NT-2019-DH-MB-B ; 699 ; 2019-07-22 10:41:23.713371 ; 94.08 
113 ; Les Fonds ; 27NT ; LF-27NT-2019-DH-MB-B ; 699 ; 2019-07-22 10:41:24.781486 ; 93.93 
114 ; Les Fonds ; 27NT ; LF-27NT-2019-DH-MB-B ; 699 ; 2019-07-22 10:41:25.816185 ; 93.61 
115 ; Les Fonds ; 27NT ; LF-27NT-2019-DH-MB-B ; 699 ; 2019-07-22 10:41:26.854459 ; 93.49 
116 ; Les Fonds ; 27NT ; LF-27NT-2019-DH-MB-B ; 699 ; 2019-07-22 10:41:27.923048 ; 93.34 
117 ; Les Fonds ; 27NT ; LF-27NT-2019-DH-MB-B ; 699 ; 2019-07-22 10:41:28.962999 ; 93.22 
118 ; Les Fonds ; 27NT ; LF-27NT-2019-DH-MB-B ; 699 ; 2019-07-22 10:41:30.005514 ; 93.06 
119 ; Les Fonds ; 27NT ; LF-27NT-2019-DH-MB-B ; 699 ; 2019-07-22 10:41:31.076398 ; 92.91 
120 ; Les Fonds ; 27NT ; LF-27NT-2019-DH-MB-B ; 699 ; 2019-07-22 10:41:32.108294 ; 92.68 
121 ; Les Fonds ; 27NT ; LF-27NT-2019-DH-MB-B ; 699 ; 2019-07-22 10:41:33.152244 ; 92.45 
122 ; Les Fonds ; 27NT ; LF-27NT-2019-DH-MB-B ; 699 ; 2019-07-22 10:41:34.187591 ; 92.17 
123 ; Les Fonds ; 27NT ; LF-27NT-2019-DH-MB-B ; 699 ; 2019-07-22 10:41:35.259905 ; 91.26 
124 ; Les Fonds ; 27NT ; LF-27NT-2019-DH-MB-B ; 699 ; 2019-07-22 10:41:36.299260 ; 90.84 
125 ; Les Fonds ; 27NT ; LF-27NT-2019-DH-MB-B ; 699 ; 2019-07-22 10:41:37.345021 ; 90.8 
126 ; Les Fonds ; 27NT ; LF-27NT-2019-DH-MB-B ; 699 ; 2019-07-22 10:41:38.401299 ; 90.71 
127 ; Les Fonds ; 27NT ; LF-27NT-2019-DH-MB-B ; 699 ; 2019-07-22 10:41:39.443968 ; 90.63 
128 ; Les Fonds ; 27NT ; LF-27NT-2019-DH-MB-B ; 699 ; 2019-07-22 10:41:40.482357 ; 90.58 
129 ; Les Fonds ; 27NT ; LF-27NT-2019-DH-MB-B ; 699 ; 2019-07-22 10:41:41.551275 ; 90.54 
130 ; Les Fonds ; 27NT ; LF-27NT-2019-DH-MB-B ; 699 ; 2019-07-22 10:41:42.588433 ; 90.5 
131 ; Les Fonds ; 27NT ; LF-27NT-2019-DH-MB-B ; 699 ; 2019-07-22 10:41:43.637887 ; 90.45 
132 ; Les Fonds ; 27NT ; LF-27NT-2019-DH-MB-B ; 699 ; 2019-07-22 10:41:44.698657 ; 90.37 
133 ; Les Fonds ; 27NT ; LF-27NT-2019-DH-MB-B ; 699 ; 2019-07-22 10:41:45.735316 ; 90.29 
134 ; Les Fonds ; 27NT ; LF-27NT-2019-DH-MB-B ; 699 ; 2019-07-22 10:41:46.796335 ; 90.24 
135 ; Les Fonds ; 27NT ; LF-27NT-2019-DH-MB-B ; 699 ; 2019-07-22 10:41:47.842177 ; 90.19 
136 ; Les Fonds ; 27NT ; LF-27NT-2019-DH-MB-B ; 699 ; 2019-07-22 10:41:48.891254 ; 90.16 
137 ; Les Fonds ; 27NT ; LF-27NT-2019-DH-MB-B ; 699 ; 2019-07-22 10:41:49.921265 ; 90.11 
138 ; Les Fonds ; 27NT ; LF-27NT-2019-DH-MB-B ; 699 ; 2019-07-22 10:41:50.991353 ; 90.08 
139 ; Les Fonds ; 27NT ; LF-27NT-2019-DH-MB-B ; 699 ; 2019-07-22 10:41:52.028684 ; 90.04 
140 ; Les Fonds ; 27NT ; LF-27NT-2019-DH-MB-B ; 699 ; 2019-07-22 10:41:53.071374 ; 89.96 
141 ; Les Fonds ; 27NT ; LF-27NT-2019-DH-MB-B ; 699 ; 2019-07-22 10:41:54.135694 ; 89.86 
142 ; Les Fonds ; 27NT ; LF-27NT-2019-DH-MB-B ; 699 ; 2019-07-22 10:41:55.190725 ; NA 
143 ; Les Fonds ; 27NT ; LF-27NT-2019-DH-MB-B ; 699 ; 2019-07-22 10:41:56.216486 ; 89.79 
144 ; Les Fonds ; 27NT ; LF-27NT-2019-DH-MB-B ; 699 ; 2019-07-22 10:41:57.281738 ; 89.71 
145 ; Les Fonds ; 27NT ; LF-27NT-2019-DH-MB-B ; 699 ; 2019-07-22 10:41:58.322094 ; 89.64 
146 ; Les Fonds ; 27NT ; LF-27NT-2019-DH-MB-B ; 699 ; 2019-07-22 10:41:59.361978 ; 89.57 
147 ; Les Fonds ; 27NT ; LF-27NT-2019-DH-MB-B ; 699 ; 2019-07-22 10:42:00.429476 ; 89.52 
148 ; Les Fonds ; 27NT ; LF-27NT-2019-DH-MB-B ; 699 ; 2019-07-22 10:42:01.478198 ; 89.47 
149 ; Les Fonds ; 27NT ; LF-27NT-2019-DH-MB-B ; 699 ; 2019-07-22 10:42:02.508388 ; 89.41 
150 ; Les Fonds ; 27NT ; LF-27NT-2019-DH-MB-B ; 699 ; 2019-07-22 10:42:03.547951 ; 89.37 
151 ; Les Fonds ; 27NT ; LF-27NT-2019-DH-MB-B ; 699 ; 2019-07-22 10:42:04.615207 ; 89.3 
152 ; Les Fonds ; 27NT ; LF-27NT-2019-DH-MB-B ; 699 ; 2019-07-22 10:42:05.656577 ; 89.05 
153 ; Les Fonds ; 27NT ; LF-27NT-2019-DH-MB-B ; 699 ; 2019-07-22 10:42:06.695803 ; 88.97 
154 ; Les Fonds ; 27NT ; LF-27NT-2019-DH-MB-B ; 699 ; 2019-07-22 10:42:07.784684 ; 88.9 
155 ; Les Fonds ; 27NT ; LF-27NT-2019-DH-MB-B ; 699 ; 2019-07-22 10:42:08.802798 ; 88.86 
156 ; Les Fonds ; 27NT ; LF-27NT-2019-DH-MB-B ; 699 ; 2019-07-22 10:42:09.844903 ; 88.81 
157 ; Les Fonds ; 27NT ; LF-27NT-2019-DH-MB-B ; 699 ; 2019-07-22 10:42:10.916078 ; 88.78 
158 ; Les Fonds ; 27NT ; LF-27NT-2019-DH-MB-B ; 699 ; 2019-07-22 10:42:11.949311 ; 88.73 
159 ; Les Fonds ; 27NT ; LF-27NT-2019-DH-MB-B ; 699 ; 2019-07-22 10:42:12.991669 ; 88.19 
160 ; Les Fonds ; 27NT ; LF-27NT-2019-DH-MB-B ; 699 ; 2019-07-22 10:42:14.059457 ; 87.95 
161 ; Les Fonds ; 27NT ; LF-27NT-2019-DH-MB-B ; 699 ; 2019-07-22 10:42:15.098477 ; 87.89 
162 ; Les Fonds ; 27NT ; LF-27NT-2019-DH-MB-B ; 699 ; 2019-07-22 10:42:16.136404 ; NA 
163 ; Les Fonds ; 27NT ; LF-27NT-2019-DH-MB-B ; 699 ; 2019-07-22 10:42:17.205993 ; 87.79 
164 ; Les Fonds ; 27NT ; LF-27NT-2019-DH-MB-B ; 699 ; 2019-07-22 10:42:18.245217 ; 87.69 
165 ; Les Fonds ; 27NT ; LF-27NT-2019-DH-MB-B ; 699 ; 2019-07-22 10:42:19.288815 ; 87.59 
166 ; Les Fonds ; 27NT ; LF-27NT-2019-DH-MB-B ; 699 ; 2019-07-22 10:42:20.349476 ; 87.55 
167 ; Les Fonds ; 27NT ; LF-27NT-2019-DH-MB-B ; 699 ; 2019-07-22 10:42:21.389281 ; 87.51 
168 ; Les Fonds ; 27NT ; LF-27NT-2019-DH-MB-B ; 699 ; 2019-07-22 10:42:22.431166 ; 87.49 
169 ; Les Fonds ; 27NT ; LF-27NT-2019-DH-MB-B ; 699 ; 2019-07-22 10:42:23.497380 ; 87.45 
170 ; Les Fonds ; 27NT ; LF-27NT-2019-DH-MB-B ; 699 ; 2019-07-22 10:42:24.535788 ; 87.41 
171 ; Les Fonds ; 27NT ; LF-27NT-2019-DH-MB-B ; 699 ; 2019-07-22 10:42:25.585352 ; 87.36 
172 ; Les Fonds ; 27NT ; LF-27NT-2019-DH-MB-B ; 699 ; 2019-07-22 10:42:26.643517 ; 87.31 
173 ; Les Fonds ; 27NT ; LF-27NT-2019-DH-MB-B ; 699 ; 2019-07-22 10:42:27.685368 ; 87.26 
174 ; Les Fonds ; 27NT ; LF-27NT-2019-DH-MB-B ; 699 ; 2019-07-22 10:42:38.732825 ; 86.98 
175 ; Les Fonds ; 27NT ; LF-27NT-2019-DH-MB-B ; 699 ; 2019-07-22 10:42:49.759999 ; 86.43 
176 ; Les Fonds ; 27NT ; LF-27NT-2019-DH-MB-B ; 699 ; 2019-07-22 10:43:00.754747 ; 85.71 
177 ; Les Fonds ; 27NT ; LF-27NT-2019-DH-MB-B ; 699 ; 2019-07-22 10:43:11.778931 ; 85.06 
178 ; Les Fonds ; 27NT ; LF-27NT-2019-DH-MB-B ; 699 ; 2019-07-22 10:43:22.801714 ; 85.1 
179 ; Les Fonds ; 27NT ; LF-27NT-2019-DH-MB-B ; 699 ; 2019-07-22 10:43:33.798042 ; 84.13 
180 ; Les Fonds ; 27NT ; LF-27NT-2019-DH-MB-B ; 699 ; 2019-07-22 10:43:44.788513 ; 83.33 
181 ; Les Fonds ; 27NT ; LF-27NT-2019-DH-MB-B ; 699 ; 2019-07-22 10:43:55.802463 ; 83.07 
182 ; Les Fonds ; 27NT ; LF-27NT-2019-DH-MB-B ; 699 ; 2019-07-22 10:44:06.823271 ; 82.9 
183 ; Les Fonds ; 27NT ; LF-27NT-2019-DH-MB-B ; 699 ; 2019-07-22 10:44:17.824222 ; 82.62 
184 ; Les Fonds ; 27NT ; LF-27NT-2019-DH-MB-B ; 699 ; 2019-07-22 10:44:28.836821 ; 81.35 
185 ; Les Fonds ; 27NT ; LF-27NT-2019-DH-MB-B ; 699 ; 2019-07-22 10:44:39.852829 ; 79.95 
186 ; Les Fonds ; 27NT ; LF-27NT-2019-DH-MB-B ; 699 ; 2019-07-22 10:44:50.861487 ; 79.55 
187 ; Les Fonds ; 27NT ; LF-27NT-2019-DH-MB-B ; 699 ; 2019-07-22 10:45:01.882883 ; 79.34 
188 ; Les Fonds ; 27NT ; LF-27NT-2019-DH-MB-B ; 699 ; 2019-07-22 10:45:12.908634 ; 79.15 
189 ; Les Fonds ; 27NT ; LF-27NT-2019-DH-MB-B ; 699 ; 2019-07-22 10:45:23.878433 ; 79.03 
190 ; Les Fonds ; 27NT ; LF-27NT-2019-DH-MB-B ; 699 ; 2019-07-22 10:45:34.896441 ; 78.83 
191 ; Les Fonds ; 27NT ; LF-27NT-2019-DH-MB-B ; 699 ; 2019-07-22 10:45:45.908506 ; 78.49 
192 ; Les Fonds ; 27NT ; LF-27NT-2019-DH-MB-B ; 699 ; 2019-07-22 10:45:56.920025 ; 78.26 
193 ; Les Fonds ; 27NT ; LF-27NT-2019-DH-MB-B ; 699 ; 2019-07-22 10:46:07.940042 ; 79 
194 ; Les Fonds ; 27NT ; LF-27NT-2019-DH-MB-B ; 699 ; 2019-07-22 10:46:18.950200 ; 78.74 
195 ; Les Fonds ; 27NT ; LF-27NT-2019-DH-MB-B ; 699 ; 2019-07-22 10:46:29.960419 ; 78.25 
196 ; Les Fonds ; 27NT ; LF-27NT-2019-DH-MB-B ; 699 ; 2019-07-22 10:46:40.973483 ; 77.07 
197 ; Les Fonds ; 27NT ; LF-27NT-2019-DH-MB-B ; 699 ; 2019-07-22 10:46:51.976742 ; 76.94 
198 ; Les Fonds ; 27NT ; LF-27NT-2019-DH-MB-B ; 699 ; 2019-07-22 10:47:02.974936 ; 76.94 
199 ; Les Fonds ; 27NT ; LF-27NT-2019-DH-MB-B ; 699 ; 2019-07-22 10:47:13.990241 ; 76.94 
200 ; Les Fonds ; 27NT ; LF-27NT-2019-DH-MB-B ; 699 ; 2019-07-22 10:47:25.000011 ; 76.94 
201 ; Les Fonds ; 27NT ; LF-27NT-2019-DH-MB-B ; 699 ; 2019-07-22 10:47:36.008648 ; 76.94 
202 ; Les Fonds ; 27NT ; LF-27NT-2019-DH-MB-B ; 699 ; 2019-07-22 10:47:47.019325 ; 76.94 
203 ; Les Fonds ; 27NT ; LF-27NT-2019-DH-MB-B ; 699 ; 2019-07-22 10:47:58.036887 ; 76.94 
204 ; Les Fonds ; 27NT ; LF-27NT-2019-DH-MB-B ; 699 ; 2019-07-22 10:48:09.064719 ; 76.94 
205 ; Les Fonds ; 27NT ; LF-27NT-2019-DH-MB-B ; 699 ; 2019-07-22 10:48:20.045494 ; 76.94 
206 ; Les Fonds ; 27NT ; LF-27NT-2019-DH-MB-B ; 699 ; 2019-07-22 10:48:31.049988 ; 76.9 
207 ; Les Fonds ; 27NT ; LF-27NT-2019-DH-MB-B ; 699 ; 2019-07-22 10:48:42.069294 ; 76.89 
208 ; Les Fonds ; 27NT ; LF-27NT-2019-DH-MB-B ; 699 ; 2019-07-22 10:48:53.079121 ; 76.89 
209 ; Les Fonds ; 27NT ; LF-27NT-2019-DH-MB-B ; 699 ; 2019-07-22 10:49:04.091875 ; 76.89 
210 ; Les Fonds ; 27NT ; LF-27NT-2019-DH-MB-B ; 699 ; 2019-07-22 10:49:15.102720 ; 76.89 
211 ; Les Fonds ; 27NT ; LF-27NT-2019-DH-MB-B ; 699 ; 2019-07-22 10:49:26.122118 ; 76.89 
212 ; Les Fonds ; 27NT ; LF-27NT-2019-DH-MB-B ; 699 ; 2019-07-22 10:49:37.128886 ; 76.89 
213 ; Les Fonds ; 27NT ; LF-27NT-2019-DH-MB-B ; 699 ; 2019-07-22 10:50:08.115399 ; 76.89 
214 ; Les Fonds ; 27NT ; LF-27NT-2019-DH-MB-B ; 699 ; 2019-07-22 10:50:39.046558 ; 76.85 
215 ; Les Fonds ; 27NT ; LF-27NT-2019-DH-MB-B ; 699 ; 2019-07-22 10:51:09.983306 ; 76.85 
216 ; Les Fonds ; 27NT ; LF-27NT-2019-DH-MB-B ; 699 ; 2019-07-22 10:51:40.916958 ; 76.94 
217 ; Les Fonds ; 27NT ; LF-27NT-2019-DH-MB-B ; 699 ; 2019-07-22 10:52:11.862171 ; 76.94 
218 ; Les Fonds ; 27NT ; LF-27NT-2019-DH-MB-B ; 699 ; 2019-07-22 10:52:42.786437 ; 76.79 
219 ; Les Fonds ; 27NT ; LF-27NT-2019-DH-MB-B ; 699 ; 2019-07-22 10:53:13.719732 ; 76.79 
220 ; Les Fonds ; 27NT ; LF-27NT-2019-DH-MB-B ; 699 ; 2019-07-22 10:53:44.649848 ; 76.79 
221 ; Les Fonds ; 27NT ; LF-27NT-2019-DH-MB-B ; 699 ; 2019-07-22 10:54:15.581842 ; 76.79 
222 ; Les Fonds ; 27NT ; LF-27NT-2019-DH-MB-B ; 699 ; 2019-07-22 10:54:46.516234 ; 76.79 
223 ; Les Fonds ; 27NT ; LF-27NT-2019-DH-MB-B ; 699 ; 2019-07-22 10:55:17.460493 ; 76.79 
224 ; Les Fonds ; 27NT ; LF-27NT-2019-DH-MB-B ; 699 ; 2019-07-22 10:55:48.382275 ; 76.79 
225 ; Les Fonds ; 27NT ; LF-27NT-2019-DH-MB-B ; 699 ; 2019-07-22 10:56:19.318245 ; 76.79 
226 ; Les Fonds ; 27NT ; LF-27NT-2019-DH-MB-B ; 699 ; 2019-07-22 10:56:50.252246 ; 76.26 
227 ; Les Fonds ; 27NT ; LF-27NT-2019-DH-MB-B ; 699 ; 2019-07-22 10:57:21.224852 ; 75.37 
