i ; campaign ; serie ; sample ; slake ; time ; mass 
1 ; Longs Tours ; 3 ; LT-3-2019-D-B ; 523 ; 2019-07-04 13:10:35.539379 ; 131.15 
2 ; Longs Tours ; 3 ; LT-3-2019-D-B ; 523 ; 2019-07-04 13:10:36.429310 ; 131.17 
3 ; Longs Tours ; 3 ; LT-3-2019-D-B ; 523 ; 2019-07-04 13:10:37.383422 ; 131.19 
4 ; Longs Tours ; 3 ; LT-3-2019-D-B ; 523 ; 2019-07-04 13:10:38.341313 ; 131.18 
5 ; Longs Tours ; 3 ; LT-3-2019-D-B ; 523 ; 2019-07-04 13:10:39.301996 ; 131.17 
6 ; Longs Tours ; 3 ; LT-3-2019-D-B ; 523 ; 2019-07-04 13:10:40.262092 ; 67.83 
7 ; Longs Tours ; 3 ; LT-3-2019-D-B ; 523 ; 2019-07-04 13:10:41.232845 ; 56 
8 ; Longs Tours ; 3 ; LT-3-2019-D-B ; 523 ; 2019-07-04 13:10:42.073993 ; 56.04 
9 ; Longs Tours ; 3 ; LT-3-2019-D-B ; 523 ; 2019-07-04 13:10:42.823922 ; 55.76 
10 ; Longs Tours ; 3 ; LT-3-2019-D-B ; 523 ; 2019-07-04 13:10:43.567250 ; 56.3 
11 ; Longs Tours ; 3 ; LT-3-2019-D-B ; 523 ; 2019-07-04 13:10:44.328794 ; 55.99 
12 ; Longs Tours ; 3 ; LT-3-2019-D-B ; 523 ; 2019-07-04 13:10:45.060381 ; 55.39 
13 ; Longs Tours ; 3 ; LT-3-2019-D-B ; 523 ; 2019-07-04 13:10:45.812627 ; 54.81 
14 ; Longs Tours ; 3 ; LT-3-2019-D-B ; 523 ; 2019-07-04 13:10:46.554968 ; 54.04 
15 ; Longs Tours ; 3 ; LT-3-2019-D-B ; 523 ; 2019-07-04 13:10:47.317161 ; 53.28 
16 ; Longs Tours ; 3 ; LT-3-2019-D-B ; 523 ; 2019-07-04 13:10:48.049930 ; 52.46 
17 ; Longs Tours ; 3 ; LT-3-2019-D-B ; 523 ; 2019-07-04 13:10:48.795548 ; 51.84 
18 ; Longs Tours ; 3 ; LT-3-2019-D-B ; 523 ; 2019-07-04 13:10:49.539300 ; 51.18 
19 ; Longs Tours ; 3 ; LT-3-2019-D-B ; 523 ; 2019-07-04 13:10:50.292572 ; 50.47 
20 ; Longs Tours ; 3 ; LT-3-2019-D-B ; 523 ; 2019-07-04 13:10:51.045529 ; 49.33 
21 ; Longs Tours ; 3 ; LT-3-2019-D-B ; 523 ; 2019-07-04 13:10:51.785678 ; 48.42 
22 ; Longs Tours ; 3 ; LT-3-2019-D-B ; 523 ; 2019-07-04 13:10:52.524344 ; 47.72 
23 ; Longs Tours ; 3 ; LT-3-2019-D-B ; 523 ; 2019-07-04 13:10:53.279004 ; 46.98 
24 ; Longs Tours ; 3 ; LT-3-2019-D-B ; 523 ; 2019-07-04 13:10:54.033922 ; 46.42 
25 ; Longs Tours ; 3 ; LT-3-2019-D-B ; 523 ; 2019-07-04 13:10:54.768383 ; 45.92 
26 ; Longs Tours ; 3 ; LT-3-2019-D-B ; 523 ; 2019-07-04 13:10:55.510624 ; 45.37 
27 ; Longs Tours ; 3 ; LT-3-2019-D-B ; 523 ; 2019-07-04 13:10:56.260904 ; 44.55 
28 ; Longs Tours ; 3 ; LT-3-2019-D-B ; 523 ; 2019-07-04 13:10:57.023130 ; 43.86 
29 ; Longs Tours ; 3 ; LT-3-2019-D-B ; 523 ; 2019-07-04 13:10:57.752404 ; 42.96 
30 ; Longs Tours ; 3 ; LT-3-2019-D-B ; 523 ; 2019-07-04 13:10:58.496873 ; 42.55 
31 ; Longs Tours ; 3 ; LT-3-2019-D-B ; 523 ; 2019-07-04 13:10:59.244587 ; 42.05 
32 ; Longs Tours ; 3 ; LT-3-2019-D-B ; 523 ; 2019-07-04 13:10:59.991318 ; 41.33 
33 ; Longs Tours ; 3 ; LT-3-2019-D-B ; 523 ; 2019-07-04 13:11:00.752568 ; 40.74 
34 ; Longs Tours ; 3 ; LT-3-2019-D-B ; 523 ; 2019-07-04 13:11:01.480788 ; 40.5 
35 ; Longs Tours ; 3 ; LT-3-2019-D-B ; 523 ; 2019-07-04 13:11:02.236566 ; 40.16 
36 ; Longs Tours ; 3 ; LT-3-2019-D-B ; 523 ; 2019-07-04 13:11:02.975967 ; 39.92 
37 ; Longs Tours ; 3 ; LT-3-2019-D-B ; 523 ; 2019-07-04 13:11:03.731978 ; 39.9 
38 ; Longs Tours ; 3 ; LT-3-2019-D-B ; 523 ; 2019-07-04 13:11:04.577504 ; 39.43 
39 ; Longs Tours ; 3 ; LT-3-2019-D-B ; 523 ; 2019-07-04 13:11:05.431507 ; 39.05 
40 ; Longs Tours ; 3 ; LT-3-2019-D-B ; 523 ; 2019-07-04 13:11:06.232264 ; 38.8 
41 ; Longs Tours ; 3 ; LT-3-2019-D-B ; 523 ; 2019-07-04 13:11:07.041060 ; 38.65 
42 ; Longs Tours ; 3 ; LT-3-2019-D-B ; 523 ; 2019-07-04 13:11:07.832849 ; 38.18 
43 ; Longs Tours ; 3 ; LT-3-2019-D-B ; 523 ; 2019-07-04 13:11:08.628753 ; 37.68 
44 ; Longs Tours ; 3 ; LT-3-2019-D-B ; 523 ; 2019-07-04 13:11:09.435415 ; 37.41 
45 ; Longs Tours ; 3 ; LT-3-2019-D-B ; 523 ; 2019-07-04 13:11:10.242529 ; 37.1 
46 ; Longs Tours ; 3 ; LT-3-2019-D-B ; 523 ; 2019-07-04 13:11:11.036812 ; 36.56 
47 ; Longs Tours ; 3 ; LT-3-2019-D-B ; 523 ; 2019-07-04 13:11:11.826080 ; 35.97 
48 ; Longs Tours ; 3 ; LT-3-2019-D-B ; 523 ; 2019-07-04 13:11:12.627298 ; 35.5 
49 ; Longs Tours ; 3 ; LT-3-2019-D-B ; 523 ; 2019-07-04 13:11:13.446013 ; 34.54 
50 ; Longs Tours ; 3 ; LT-3-2019-D-B ; 523 ; 2019-07-04 13:11:14.234283 ; 33.79 
51 ; Longs Tours ; 3 ; LT-3-2019-D-B ; 523 ; 2019-07-04 13:11:15.032602 ; 33.37 
52 ; Longs Tours ; 3 ; LT-3-2019-D-B ; 523 ; 2019-07-04 13:11:15.835761 ; 32.78 
53 ; Longs Tours ; 3 ; LT-3-2019-D-B ; 523 ; 2019-07-04 13:11:16.627978 ; 32.37 
54 ; Longs Tours ; 3 ; LT-3-2019-D-B ; 523 ; 2019-07-04 13:11:17.447318 ; 32.22 
55 ; Longs Tours ; 3 ; LT-3-2019-D-B ; 523 ; 2019-07-04 13:11:18.235087 ; 32.03 
56 ; Longs Tours ; 3 ; LT-3-2019-D-B ; 523 ; 2019-07-04 13:11:19.030528 ; 31.82 
57 ; Longs Tours ; 3 ; LT-3-2019-D-B ; 523 ; 2019-07-04 13:11:19.832162 ; 31.5 
58 ; Longs Tours ; 3 ; LT-3-2019-D-B ; 523 ; 2019-07-04 13:11:20.638505 ; 31.3 
59 ; Longs Tours ; 3 ; LT-3-2019-D-B ; 523 ; 2019-07-04 13:11:21.432458 ; 31.17 
60 ; Longs Tours ; 3 ; LT-3-2019-D-B ; 523 ; 2019-07-04 13:11:22.231632 ; 30.97 
61 ; Longs Tours ; 3 ; LT-3-2019-D-B ; 523 ; 2019-07-04 13:11:23.030828 ; 30.92 
62 ; Longs Tours ; 3 ; LT-3-2019-D-B ; 523 ; 2019-07-04 13:11:23.900454 ; 30.79 
63 ; Longs Tours ; 3 ; LT-3-2019-D-B ; 523 ; 2019-07-04 13:11:24.788932 ; 30.74 
64 ; Longs Tours ; 3 ; LT-3-2019-D-B ; 523 ; 2019-07-04 13:11:25.644375 ; 30.67 
65 ; Longs Tours ; 3 ; LT-3-2019-D-B ; 523 ; 2019-07-04 13:11:26.498447 ; 30.49 
66 ; Longs Tours ; 3 ; LT-3-2019-D-B ; 523 ; 2019-07-04 13:11:27.365587 ; 30.39 
67 ; Longs Tours ; 3 ; LT-3-2019-D-B ; 523 ; 2019-07-04 13:11:28.208671 ; 30.28 
68 ; Longs Tours ; 3 ; LT-3-2019-D-B ; 523 ; 2019-07-04 13:11:29.057395 ; 30.14 
69 ; Longs Tours ; 3 ; LT-3-2019-D-B ; 523 ; 2019-07-04 13:11:29.913234 ; 29.88 
70 ; Longs Tours ; 3 ; LT-3-2019-D-B ; 523 ; 2019-07-04 13:11:30.779008 ; 29.65 
71 ; Longs Tours ; 3 ; LT-3-2019-D-B ; 523 ; 2019-07-04 13:11:31.618787 ; 29.46 
72 ; Longs Tours ; 3 ; LT-3-2019-D-B ; 523 ; 2019-07-04 13:11:32.471320 ; 29.33 
73 ; Longs Tours ; 3 ; LT-3-2019-D-B ; 523 ; 2019-07-04 13:11:33.325145 ; 29.22 
74 ; Longs Tours ; 3 ; LT-3-2019-D-B ; 523 ; 2019-07-04 13:11:34.190512 ; 29.17 
75 ; Longs Tours ; 3 ; LT-3-2019-D-B ; 523 ; 2019-07-04 13:11:34.982590 ; 28.93 
76 ; Longs Tours ; 3 ; LT-3-2019-D-B ; 523 ; 2019-07-04 13:11:35.720536 ; 28.72 
77 ; Longs Tours ; 3 ; LT-3-2019-D-B ; 523 ; 2019-07-04 13:11:36.470373 ; 28.42 
78 ; Longs Tours ; 3 ; LT-3-2019-D-B ; 523 ; 2019-07-04 13:11:37.217921 ; 28.01 
79 ; Longs Tours ; 3 ; LT-3-2019-D-B ; 523 ; 2019-07-04 13:11:37.979506 ; 27.84 
80 ; Longs Tours ; 3 ; LT-3-2019-D-B ; 523 ; 2019-07-04 13:11:38.708622 ; 27.7 
81 ; Longs Tours ; 3 ; LT-3-2019-D-B ; 523 ; 2019-07-04 13:11:39.462044 ; 27.54 
82 ; Longs Tours ; 3 ; LT-3-2019-D-B ; 523 ; 2019-07-04 13:11:40.207296 ; 27.41 
83 ; Longs Tours ; 3 ; LT-3-2019-D-B ; 523 ; 2019-07-04 13:11:40.963410 ; 27.31 
84 ; Longs Tours ; 3 ; LT-3-2019-D-B ; 523 ; 2019-07-04 13:11:41.692871 ; 27.19 
85 ; Longs Tours ; 3 ; LT-3-2019-D-B ; 523 ; 2019-07-04 13:11:42.443866 ; 27.04 
86 ; Longs Tours ; 3 ; LT-3-2019-D-B ; 523 ; 2019-07-04 13:11:43.192539 ; 26.99 
87 ; Longs Tours ; 3 ; LT-3-2019-D-B ; 523 ; 2019-07-04 13:11:44.059494 ; 26.95 
88 ; Longs Tours ; 3 ; LT-3-2019-D-B ; 523 ; 2019-07-04 13:11:44.846126 ; 26.89 
89 ; Longs Tours ; 3 ; LT-3-2019-D-B ; 523 ; 2019-07-04 13:11:45.694184 ; 26.82 
90 ; Longs Tours ; 3 ; LT-3-2019-D-B ; 523 ; 2019-07-04 13:11:46.605141 ; 26.73 
91 ; Longs Tours ; 3 ; LT-3-2019-D-B ; 523 ; 2019-07-04 13:11:47.461509 ; 26.6 
92 ; Longs Tours ; 3 ; LT-3-2019-D-B ; 523 ; 2019-07-04 13:11:48.325216 ; 26.52 
93 ; Longs Tours ; 3 ; LT-3-2019-D-B ; 523 ; 2019-07-04 13:11:49.164519 ; 26.36 
94 ; Longs Tours ; 3 ; LT-3-2019-D-B ; 523 ; 2019-07-04 13:11:50.125464 ; 26.31 
95 ; Longs Tours ; 3 ; LT-3-2019-D-B ; 523 ; 2019-07-04 13:11:50.875375 ; 26.26 
96 ; Longs Tours ; 3 ; LT-3-2019-D-B ; 523 ; 2019-07-04 13:11:51.786680 ; 26.19 
97 ; Longs Tours ; 3 ; LT-3-2019-D-B ; 523 ; 2019-07-04 13:11:52.582157 ; 26.07 
98 ; Longs Tours ; 3 ; LT-3-2019-D-B ; 523 ; 2019-07-04 13:11:53.434374 ; 26.01 
99 ; Longs Tours ; 3 ; LT-3-2019-D-B ; 523 ; 2019-07-04 13:11:54.287423 ; 26.01 
100 ; Longs Tours ; 3 ; LT-3-2019-D-B ; 523 ; 2019-07-04 13:11:55.145039 ; 26 
101 ; Longs Tours ; 3 ; LT-3-2019-D-B ; 523 ; 2019-07-04 13:11:56.045895 ; 25.97 
102 ; Longs Tours ; 3 ; LT-3-2019-D-B ; 523 ; 2019-07-04 13:11:56.901669 ; 25.88 
103 ; Longs Tours ; 3 ; LT-3-2019-D-B ; 523 ; 2019-07-04 13:11:57.802073 ; 25.85 
104 ; Longs Tours ; 3 ; LT-3-2019-D-B ; 523 ; 2019-07-04 13:11:58.615665 ; 25.81 
105 ; Longs Tours ; 3 ; LT-3-2019-D-B ; 523 ; 2019-07-04 13:11:59.410052 ; 25.65 
106 ; Longs Tours ; 3 ; LT-3-2019-D-B ; 523 ; 2019-07-04 13:12:00.259923 ; 25.53 
107 ; Longs Tours ; 3 ; LT-3-2019-D-B ; 523 ; 2019-07-04 13:12:01.059323 ; 25.44 
108 ; Longs Tours ; 3 ; LT-3-2019-D-B ; 523 ; 2019-07-04 13:12:01.868825 ; 25.34 
109 ; Longs Tours ; 3 ; LT-3-2019-D-B ; 523 ; 2019-07-04 13:12:02.657374 ; 25.29 
110 ; Longs Tours ; 3 ; LT-3-2019-D-B ; 523 ; 2019-07-04 13:12:03.458484 ; 25.24 
111 ; Longs Tours ; 3 ; LT-3-2019-D-B ; 523 ; 2019-07-04 13:12:04.311298 ; 25.19 
112 ; Longs Tours ; 3 ; LT-3-2019-D-B ; 523 ; 2019-07-04 13:12:05.167549 ; 25.13 
113 ; Longs Tours ; 3 ; LT-3-2019-D-B ; 523 ; 2019-07-04 13:12:06.135721 ; 25.11 
114 ; Longs Tours ; 3 ; LT-3-2019-D-B ; 523 ; 2019-07-04 13:12:06.977685 ; 25.08 
115 ; Longs Tours ; 3 ; LT-3-2019-D-B ; 523 ; 2019-07-04 13:12:07.720878 ; 25.03 
116 ; Longs Tours ; 3 ; LT-3-2019-D-B ; 523 ; 2019-07-04 13:12:08.528793 ; 24.93 
117 ; Longs Tours ; 3 ; LT-3-2019-D-B ; 523 ; 2019-07-04 13:12:09.336354 ; 24.89 
118 ; Longs Tours ; 3 ; LT-3-2019-D-B ; 523 ; 2019-07-04 13:12:10.234103 ; 24.8 
119 ; Longs Tours ; 3 ; LT-3-2019-D-B ; 523 ; 2019-07-04 13:12:10.981595 ; 24.69 
120 ; Longs Tours ; 3 ; LT-3-2019-D-B ; 523 ; 2019-07-04 13:12:11.720531 ; 24.64 
121 ; Longs Tours ; 3 ; LT-3-2019-D-B ; 523 ; 2019-07-04 13:12:12.486826 ; 24.6 
122 ; Longs Tours ; 3 ; LT-3-2019-D-B ; 523 ; 2019-07-04 13:12:13.274800 ; 24.55 
123 ; Longs Tours ; 3 ; LT-3-2019-D-B ; 523 ; 2019-07-04 13:12:14.177314 ; 24.5 
124 ; Longs Tours ; 3 ; LT-3-2019-D-B ; 523 ; 2019-07-04 13:12:15.085475 ; 24.37 
125 ; Longs Tours ; 3 ; LT-3-2019-D-B ; 523 ; 2019-07-04 13:12:16.056487 ; 24.19 
126 ; Longs Tours ; 3 ; LT-3-2019-D-B ; 523 ; 2019-07-04 13:12:16.898117 ; 24.05 
127 ; Longs Tours ; 3 ; LT-3-2019-D-B ; 523 ; 2019-07-04 13:12:17.640656 ; 23.97 
128 ; Longs Tours ; 3 ; LT-3-2019-D-B ; 523 ; 2019-07-04 13:12:18.395181 ; 23.92 
129 ; Longs Tours ; 3 ; LT-3-2019-D-B ; 523 ; 2019-07-04 13:12:19.259548 ; 23.9 
130 ; Longs Tours ; 3 ; LT-3-2019-D-B ; 523 ; 2019-07-04 13:12:20.150796 ; 23.88 
131 ; Longs Tours ; 3 ; LT-3-2019-D-B ; 523 ; 2019-07-04 13:12:21.111014 ; 23.84 
132 ; Longs Tours ; 3 ; LT-3-2019-D-B ; 523 ; 2019-07-04 13:12:21.914831 ; 23.71 
133 ; Longs Tours ; 3 ; LT-3-2019-D-B ; 523 ; 2019-07-04 13:12:22.826899 ; 23.71 
134 ; Longs Tours ; 3 ; LT-3-2019-D-B ; 523 ; 2019-07-04 13:12:23.667320 ; 23.67 
135 ; Longs Tours ; 3 ; LT-3-2019-D-B ; 523 ; 2019-07-04 13:12:24.528866 ; 23.61 
136 ; Longs Tours ; 3 ; LT-3-2019-D-B ; 523 ; 2019-07-04 13:12:25.327238 ; 23.58 
137 ; Longs Tours ; 3 ; LT-3-2019-D-B ; 523 ; 2019-07-04 13:12:26.242540 ; 23.57 
138 ; Longs Tours ; 3 ; LT-3-2019-D-B ; 523 ; 2019-07-04 13:12:27.086030 ; 23.56 
139 ; Longs Tours ; 3 ; LT-3-2019-D-B ; 523 ; 2019-07-04 13:12:27.828367 ; 23.55 
140 ; Longs Tours ; 3 ; LT-3-2019-D-B ; 523 ; 2019-07-04 13:12:28.682865 ; 23.53 
141 ; Longs Tours ; 3 ; LT-3-2019-D-B ; 523 ; 2019-07-04 13:12:29.548918 ; 23.52 
142 ; Longs Tours ; 3 ; LT-3-2019-D-B ; 523 ; 2019-07-04 13:12:30.499398 ; 23.54 
143 ; Longs Tours ; 3 ; LT-3-2019-D-B ; 523 ; 2019-07-04 13:12:31.301044 ; 23.39 
144 ; Longs Tours ; 3 ; LT-3-2019-D-B ; 523 ; 2019-07-04 13:12:32.097581 ; 23.36 
145 ; Longs Tours ; 3 ; LT-3-2019-D-B ; 523 ; 2019-07-04 13:12:32.964082 ; 23.34 
146 ; Longs Tours ; 3 ; LT-3-2019-D-B ; 523 ; 2019-07-04 13:12:33.804692 ; 23.35 
147 ; Longs Tours ; 3 ; LT-3-2019-D-B ; 523 ; 2019-07-04 13:12:34.551104 ; 23.32 
148 ; Longs Tours ; 3 ; LT-3-2019-D-B ; 523 ; 2019-07-04 13:12:35.407839 ; 23.33 
149 ; Longs Tours ; 3 ; LT-3-2019-D-B ; 523 ; 2019-07-04 13:12:36.163764 ; 23.3 
150 ; Longs Tours ; 3 ; LT-3-2019-D-B ; 523 ; 2019-07-04 13:12:37.004842 ; 23.32 
151 ; Longs Tours ; 3 ; LT-3-2019-D-B ; 523 ; 2019-07-04 13:12:37.752070 ; 23.2 
152 ; Longs Tours ; 3 ; LT-3-2019-D-B ; 523 ; 2019-07-04 13:12:38.548207 ; 23.12 
153 ; Longs Tours ; 3 ; LT-3-2019-D-B ; 523 ; 2019-07-04 13:12:39.360482 ; 23.09 
154 ; Longs Tours ; 3 ; LT-3-2019-D-B ; 523 ; 2019-07-04 13:12:40.207507 ; 23.09 
155 ; Longs Tours ; 3 ; LT-3-2019-D-B ; 523 ; 2019-07-04 13:12:41.055488 ; 23.07 
156 ; Longs Tours ; 3 ; LT-3-2019-D-B ; 523 ; 2019-07-04 13:12:41.918007 ; 23.04 
157 ; Longs Tours ; 3 ; LT-3-2019-D-B ; 523 ; 2019-07-04 13:12:42.763423 ; 23.02 
158 ; Longs Tours ; 3 ; LT-3-2019-D-B ; 523 ; 2019-07-04 13:12:43.634179 ; 23 
159 ; Longs Tours ; 3 ; LT-3-2019-D-B ; 523 ; 2019-07-04 13:12:44.525688 ; 22.95 
160 ; Longs Tours ; 3 ; LT-3-2019-D-B ; 523 ; 2019-07-04 13:12:45.327306 ; 22.93 
161 ; Longs Tours ; 3 ; LT-3-2019-D-B ; 523 ; 2019-07-04 13:12:46.180463 ; 22.92 
162 ; Longs Tours ; 3 ; LT-3-2019-D-B ; 523 ; 2019-07-04 13:12:47.151263 ; 22.93 
163 ; Longs Tours ; 3 ; LT-3-2019-D-B ; 523 ; 2019-07-04 13:12:47.991171 ; 22.89 
164 ; Longs Tours ; 3 ; LT-3-2019-D-B ; 523 ; 2019-07-04 13:12:48.740352 ; 22.85 
165 ; Longs Tours ; 3 ; LT-3-2019-D-B ; 523 ; 2019-07-04 13:12:49.590375 ; 22.83 
166 ; Longs Tours ; 3 ; LT-3-2019-D-B ; 523 ; 2019-07-04 13:12:50.458075 ; 22.81 
167 ; Longs Tours ; 3 ; LT-3-2019-D-B ; 523 ; 2019-07-04 13:12:51.351108 ; 22.79 
168 ; Longs Tours ; 3 ; LT-3-2019-D-B ; 523 ; 2019-07-04 13:12:52.204117 ; 22.78 
169 ; Longs Tours ; 3 ; LT-3-2019-D-B ; 523 ; 2019-07-04 13:12:53.007168 ; 22.72 
170 ; Longs Tours ; 3 ; LT-3-2019-D-B ; 523 ; 2019-07-04 13:12:53.828100 ; 22.71 
171 ; Longs Tours ; 3 ; LT-3-2019-D-B ; 523 ; 2019-07-04 13:12:54.601030 ; 22.7 
172 ; Longs Tours ; 3 ; LT-3-2019-D-B ; 523 ; 2019-07-04 13:12:55.457501 ; 22.7 
173 ; Longs Tours ; 3 ; LT-3-2019-D-B ; 523 ; 2019-07-04 13:12:56.307961 ; 22.66 
174 ; Longs Tours ; 3 ; LT-3-2019-D-B ; 523 ; 2019-07-04 13:12:57.175233 ; 22.65 
175 ; Longs Tours ; 3 ; LT-3-2019-D-B ; 523 ; 2019-07-04 13:12:58.019532 ; 22.65 
176 ; Longs Tours ; 3 ; LT-3-2019-D-B ; 523 ; 2019-07-04 13:12:58.867347 ; 22.62 
177 ; Longs Tours ; 3 ; LT-3-2019-D-B ; 523 ; 2019-07-04 13:12:59.721018 ; 22.62 
178 ; Longs Tours ; 3 ; LT-3-2019-D-B ; 523 ; 2019-07-04 13:13:00.627920 ; 22.6 
179 ; Longs Tours ; 3 ; LT-3-2019-D-B ; 523 ; 2019-07-04 13:13:01.495936 ; 22.61 
180 ; Longs Tours ; 3 ; LT-3-2019-D-B ; 523 ; 2019-07-04 13:13:02.340296 ; 22.52 
181 ; Longs Tours ; 3 ; LT-3-2019-D-B ; 523 ; 2019-07-04 13:13:03.195861 ; 22.5 
182 ; Longs Tours ; 3 ; LT-3-2019-D-B ; 523 ; 2019-07-04 13:13:04.099067 ; 22.49 
183 ; Longs Tours ; 3 ; LT-3-2019-D-B ; 523 ; 2019-07-04 13:13:04.967991 ; 22.48 
184 ; Longs Tours ; 3 ; LT-3-2019-D-B ; 523 ; 2019-07-04 13:13:05.764884 ; 22.44 
185 ; Longs Tours ; 3 ; LT-3-2019-D-B ; 523 ; 2019-07-04 13:13:06.604990 ; 22.34 
186 ; Longs Tours ; 3 ; LT-3-2019-D-B ; 523 ; 2019-07-04 13:13:07.512411 ; 22.34 
187 ; Longs Tours ; 3 ; LT-3-2019-D-B ; 523 ; 2019-07-04 13:13:08.372831 ; 22.23 
188 ; Longs Tours ; 3 ; LT-3-2019-D-B ; 523 ; 2019-07-04 13:13:09.221031 ; 22.12 
189 ; Longs Tours ; 3 ; LT-3-2019-D-B ; 523 ; 2019-07-04 13:13:10.021233 ; 21.97 
190 ; Longs Tours ; 3 ; LT-3-2019-D-B ; 523 ; 2019-07-04 13:13:10.818522 ; 21.91 
191 ; Longs Tours ; 3 ; LT-3-2019-D-B ; 523 ; 2019-07-04 13:13:11.630720 ; 21.86 
192 ; Longs Tours ; 3 ; LT-3-2019-D-B ; 523 ; 2019-07-04 13:13:12.366406 ; 21.84 
193 ; Longs Tours ; 3 ; LT-3-2019-D-B ; 523 ; 2019-07-04 13:13:13.217588 ; 21.83 
194 ; Longs Tours ; 3 ; LT-3-2019-D-B ; 523 ; 2019-07-04 13:13:13.966235 ; 21.82 
195 ; Longs Tours ; 3 ; LT-3-2019-D-B ; 523 ; 2019-07-04 13:13:14.787952 ; 21.79 
196 ; Longs Tours ; 3 ; LT-3-2019-D-B ; 523 ; 2019-07-04 13:13:15.621502 ; 21.77 
197 ; Longs Tours ; 3 ; LT-3-2019-D-B ; 523 ; 2019-07-04 13:13:16.473755 ; 21.72 
198 ; Longs Tours ; 3 ; LT-3-2019-D-B ; 523 ; 2019-07-04 13:13:17.271703 ; 21.7 
199 ; Longs Tours ; 3 ; LT-3-2019-D-B ; 523 ; 2019-07-04 13:13:18.085622 ; 21.68 
200 ; Longs Tours ; 3 ; LT-3-2019-D-B ; 523 ; 2019-07-04 13:13:18.873853 ; 21.68 
201 ; Longs Tours ; 3 ; LT-3-2019-D-B ; 523 ; 2019-07-04 13:13:19.771138 ; 21.65 
202 ; Longs Tours ; 3 ; LT-3-2019-D-B ; 523 ; 2019-07-04 13:13:20.632773 ; 21.6 
203 ; Longs Tours ; 3 ; LT-3-2019-D-B ; 523 ; 2019-07-04 13:13:21.550608 ; 21.43 
204 ; Longs Tours ; 3 ; LT-3-2019-D-B ; 523 ; 2019-07-04 13:13:22.340574 ; 21.4 
205 ; Longs Tours ; 3 ; LT-3-2019-D-B ; 523 ; 2019-07-04 13:13:23.190753 ; 21.43 
206 ; Longs Tours ; 3 ; LT-3-2019-D-B ; 523 ; 2019-07-04 13:13:24.044990 ; 21.42 
207 ; Longs Tours ; 3 ; LT-3-2019-D-B ; 523 ; 2019-07-04 13:13:24.911556 ; 21.39 
208 ; Longs Tours ; 3 ; LT-3-2019-D-B ; 523 ; 2019-07-04 13:13:25.751689 ; 21.28 
209 ; Longs Tours ; 3 ; LT-3-2019-D-B ; 523 ; 2019-07-04 13:13:26.662654 ; 21.15 
210 ; Longs Tours ; 3 ; LT-3-2019-D-B ; 523 ; 2019-07-04 13:13:27.409357 ; 21.09 
211 ; Longs Tours ; 3 ; LT-3-2019-D-B ; 523 ; 2019-07-04 13:13:28.204192 ; 20.99 
212 ; Longs Tours ; 3 ; LT-3-2019-D-B ; 523 ; 2019-07-04 13:13:29.063588 ; 20.86 
213 ; Longs Tours ; 3 ; LT-3-2019-D-B ; 523 ; 2019-07-04 13:13:29.913828 ; 20.77 
214 ; Longs Tours ; 3 ; LT-3-2019-D-B ; 523 ; 2019-07-04 13:13:30.766596 ; 20.73 
215 ; Longs Tours ; 3 ; LT-3-2019-D-B ; 523 ; 2019-07-04 13:13:31.621457 ; 20.72 
216 ; Longs Tours ; 3 ; LT-3-2019-D-B ; 523 ; 2019-07-04 13:13:32.437859 ; 20.69 
217 ; Longs Tours ; 3 ; LT-3-2019-D-B ; 523 ; 2019-07-04 13:13:33.274986 ; 20.67 
218 ; Longs Tours ; 3 ; LT-3-2019-D-B ; 523 ; 2019-07-04 13:13:34.179526 ; 20.67 
219 ; Longs Tours ; 3 ; LT-3-2019-D-B ; 523 ; 2019-07-04 13:13:34.975503 ; 20.66 
220 ; Longs Tours ; 3 ; LT-3-2019-D-B ; 523 ; 2019-07-04 13:13:35.734957 ; 20.39 
221 ; Longs Tours ; 3 ; LT-3-2019-D-B ; 523 ; 2019-07-04 13:13:36.524102 ; 20.36 
222 ; Longs Tours ; 3 ; LT-3-2019-D-B ; 523 ; 2019-07-04 13:13:47.338534 ; 20.17 
223 ; Longs Tours ; 3 ; LT-3-2019-D-B ; 523 ; 2019-07-04 13:13:58.162914 ; 19.84 
224 ; Longs Tours ; 3 ; LT-3-2019-D-B ; 523 ; 2019-07-04 13:14:09.002837 ; 19.68 
225 ; Longs Tours ; 3 ; LT-3-2019-D-B ; 523 ; 2019-07-04 13:14:19.814642 ; 19.58 
226 ; Longs Tours ; 3 ; LT-3-2019-D-B ; 523 ; 2019-07-04 13:14:30.642721 ; 19.36 
227 ; Longs Tours ; 3 ; LT-3-2019-D-B ; 523 ; 2019-07-04 13:14:41.534166 ; 19.29 
228 ; Longs Tours ; 3 ; LT-3-2019-D-B ; 523 ; 2019-07-04 13:14:52.352016 ; 19.22 
229 ; Longs Tours ; 3 ; LT-3-2019-D-B ; 523 ; 2019-07-04 13:15:03.285557 ; 19.19 
230 ; Longs Tours ; 3 ; LT-3-2019-D-B ; 523 ; 2019-07-04 13:15:14.108398 ; 19.05 
231 ; Longs Tours ; 3 ; LT-3-2019-D-B ; 523 ; 2019-07-04 13:15:24.946652 ; 18.99 
232 ; Longs Tours ; 3 ; LT-3-2019-D-B ; 523 ; 2019-07-04 13:15:35.874841 ; 18.95 
233 ; Longs Tours ; 3 ; LT-3-2019-D-B ; 523 ; 2019-07-04 13:15:46.800764 ; 18.85 
234 ; Longs Tours ; 3 ; LT-3-2019-D-B ; 523 ; 2019-07-04 13:15:57.627911 ; 18.79 
235 ; Longs Tours ; 3 ; LT-3-2019-D-B ; 523 ; 2019-07-04 13:16:08.523615 ; 18.75 
236 ; Longs Tours ; 3 ; LT-3-2019-D-B ; 523 ; 2019-07-04 13:16:19.389778 ; 18.7 
237 ; Longs Tours ; 3 ; LT-3-2019-D-B ; 523 ; 2019-07-04 13:16:30.270250 ; 18.52 
238 ; Longs Tours ; 3 ; LT-3-2019-D-B ; 523 ; 2019-07-04 13:16:41.163754 ; 18.27 
239 ; Longs Tours ; 3 ; LT-3-2019-D-B ; 523 ; 2019-07-04 13:16:52.086727 ; 18.19 
240 ; Longs Tours ; 3 ; LT-3-2019-D-B ; 523 ; 2019-07-04 13:17:02.923551 ; 18.16 
241 ; Longs Tours ; 3 ; LT-3-2019-D-B ; 523 ; 2019-07-04 13:17:13.736229 ; 18.15 
242 ; Longs Tours ; 3 ; LT-3-2019-D-B ; 523 ; 2019-07-04 13:17:24.636698 ; 18.08 
243 ; Longs Tours ; 3 ; LT-3-2019-D-B ; 523 ; 2019-07-04 13:17:35.576411 ; 17.9 
244 ; Longs Tours ; 3 ; LT-3-2019-D-B ; 523 ; 2019-07-04 13:17:46.458598 ; 17.88 
245 ; Longs Tours ; 3 ; LT-3-2019-D-B ; 523 ; 2019-07-04 13:17:57.338448 ; 17.85 
246 ; Longs Tours ; 3 ; LT-3-2019-D-B ; 523 ; 2019-07-04 13:18:08.280508 ; 17.84 
247 ; Longs Tours ; 3 ; LT-3-2019-D-B ; 523 ; 2019-07-04 13:18:19.150725 ; 17.82 
248 ; Longs Tours ; 3 ; LT-3-2019-D-B ; 523 ; 2019-07-04 13:18:30.139790 ; 17.81 
249 ; Longs Tours ; 3 ; LT-3-2019-D-B ; 523 ; 2019-07-04 13:18:41.065748 ; 17.69 
250 ; Longs Tours ; 3 ; LT-3-2019-D-B ; 523 ; 2019-07-04 13:18:51.847138 ; 16.91 
251 ; Longs Tours ; 3 ; LT-3-2019-D-B ; 523 ; 2019-07-04 13:19:02.671293 ; 16.87 
252 ; Longs Tours ; 3 ; LT-3-2019-D-B ; 523 ; 2019-07-04 13:19:13.551486 ; 16.81 
253 ; Longs Tours ; 3 ; LT-3-2019-D-B ; 523 ; 2019-07-04 13:19:24.427161 ; 16.81 
254 ; Longs Tours ; 3 ; LT-3-2019-D-B ; 523 ; 2019-07-04 13:19:35.319236 ; 16.8 
255 ; Longs Tours ; 3 ; LT-3-2019-D-B ; 523 ; 2019-07-04 13:19:46.187939 ; 16.78 
256 ; Longs Tours ; 3 ; LT-3-2019-D-B ; 523 ; 2019-07-04 13:19:57.072098 ; 16.76 
257 ; Longs Tours ; 3 ; LT-3-2019-D-B ; 523 ; 2019-07-04 13:20:08.053671 ; 16.75 
258 ; Longs Tours ; 3 ; LT-3-2019-D-B ; 523 ; 2019-07-04 13:20:18.950558 ; 16.74 
259 ; Longs Tours ; 3 ; LT-3-2019-D-B ; 523 ; 2019-07-04 13:20:29.808001 ; 16.73 
260 ; Longs Tours ; 3 ; LT-3-2019-D-B ; 523 ; 2019-07-04 13:20:40.694703 ; 16.7 
261 ; Longs Tours ; 3 ; LT-3-2019-D-B ; 523 ; 2019-07-04 13:21:11.584736 ; 16.66 
262 ; Longs Tours ; 3 ; LT-3-2019-D-B ; 523 ; 2019-07-04 13:21:42.513516 ; 16.63 
263 ; Longs Tours ; 3 ; LT-3-2019-D-B ; 523 ; 2019-07-04 13:22:13.345212 ; 16.62 
264 ; Longs Tours ; 3 ; LT-3-2019-D-B ; 523 ; 2019-07-04 13:22:44.159199 ; 16.6 
265 ; Longs Tours ; 3 ; LT-3-2019-D-B ; 523 ; 2019-07-04 13:23:15.107568 ; 16.56 
266 ; Longs Tours ; 3 ; LT-3-2019-D-B ; 523 ; 2019-07-04 13:23:46.034068 ; 16.54 
267 ; Longs Tours ; 3 ; LT-3-2019-D-B ; 523 ; 2019-07-04 13:24:16.856003 ; 15.82 
268 ; Longs Tours ; 3 ; LT-3-2019-D-B ; 523 ; 2019-07-04 13:24:47.738721 ; 15.79 
269 ; Longs Tours ; 3 ; LT-3-2019-D-B ; 523 ; 2019-07-04 13:25:18.629853 ; 15.68 
270 ; Longs Tours ; 3 ; LT-3-2019-D-B ; 523 ; 2019-07-04 13:25:49.554095 ; 15.66 
271 ; Longs Tours ; 3 ; LT-3-2019-D-B ; 523 ; 2019-07-04 13:26:20.575720 ; 15.5 
