i ; campaign ; serie ; sample ; slake ; time ; mass 
1 ; Vissac ; Pa8 ; Vissac-2019-Pa8-A ; 696 ; 2019-07-22 09:33:48.652765 ; 124.67 
2 ; Vissac ; Pa8 ; Vissac-2019-Pa8-A ; 696 ; 2019-07-22 09:33:49.625729 ; 124.67 
3 ; Vissac ; Pa8 ; Vissac-2019-Pa8-A ; 696 ; 2019-07-22 09:33:50.429594 ; 124.67 
4 ; Vissac ; Pa8 ; Vissac-2019-Pa8-A ; 696 ; 2019-07-22 09:33:51.284086 ; 124.67 
5 ; Vissac ; Pa8 ; Vissac-2019-Pa8-A ; 696 ; 2019-07-22 09:33:52.141175 ; 124.67 
6 ; Vissac ; Pa8 ; Vissac-2019-Pa8-A ; 696 ; 2019-07-22 09:33:52.994527 ; 124.67 
7 ; Vissac ; Pa8 ; Vissac-2019-Pa8-A ; 696 ; 2019-07-22 09:33:53.836493 ; 111.58 
8 ; Vissac ; Pa8 ; Vissac-2019-Pa8-A ; 696 ; 2019-07-22 09:33:54.595336 ; 41.68 
9 ; Vissac ; Pa8 ; Vissac-2019-Pa8-A ; 696 ; 2019-07-22 09:33:55.341244 ; 39.69 
10 ; Vissac ; Pa8 ; Vissac-2019-Pa8-A ; 696 ; 2019-07-22 09:33:56.203043 ; 40.31 
11 ; Vissac ; Pa8 ; Vissac-2019-Pa8-A ; 696 ; 2019-07-22 09:33:57.152632 ; 41.58 
12 ; Vissac ; Pa8 ; Vissac-2019-Pa8-A ; 696 ; 2019-07-22 09:33:58.114590 ; 42.51 
13 ; Vissac ; Pa8 ; Vissac-2019-Pa8-A ; 696 ; 2019-07-22 09:33:59.072385 ; 43.35 
14 ; Vissac ; Pa8 ; Vissac-2019-Pa8-A ; 696 ; 2019-07-22 09:34:00.031307 ; 43.99 
15 ; Vissac ; Pa8 ; Vissac-2019-Pa8-A ; 696 ; 2019-07-22 09:34:00.998029 ; 44.65 
16 ; Vissac ; Pa8 ; Vissac-2019-Pa8-A ; 696 ; 2019-07-22 09:34:01.958119 ; 45.15 
17 ; Vissac ; Pa8 ; Vissac-2019-Pa8-A ; 696 ; 2019-07-22 09:34:02.912461 ; 45.64 
18 ; Vissac ; Pa8 ; Vissac-2019-Pa8-A ; 696 ; 2019-07-22 09:34:03.872636 ; 46.08 
19 ; Vissac ; Pa8 ; Vissac-2019-Pa8-A ; 696 ; 2019-07-22 09:34:04.829103 ; 46.5 
20 ; Vissac ; Pa8 ; Vissac-2019-Pa8-A ; 696 ; 2019-07-22 09:34:05.793155 ; 46.9 
21 ; Vissac ; Pa8 ; Vissac-2019-Pa8-A ; 696 ; 2019-07-22 09:34:06.760780 ; 47.26 
22 ; Vissac ; Pa8 ; Vissac-2019-Pa8-A ; 696 ; 2019-07-22 09:34:07.722828 ; 47.61 
23 ; Vissac ; Pa8 ; Vissac-2019-Pa8-A ; 696 ; 2019-07-22 09:34:08.676742 ; 47.94 
24 ; Vissac ; Pa8 ; Vissac-2019-Pa8-A ; 696 ; 2019-07-22 09:34:09.635506 ; 48.26 
25 ; Vissac ; Pa8 ; Vissac-2019-Pa8-A ; 696 ; 2019-07-22 09:34:10.596039 ; 48.56 
26 ; Vissac ; Pa8 ; Vissac-2019-Pa8-A ; 696 ; 2019-07-22 09:34:11.567702 ; 48.86 
27 ; Vissac ; Pa8 ; Vissac-2019-Pa8-A ; 696 ; 2019-07-22 09:34:12.514926 ; 49.14 
28 ; Vissac ; Pa8 ; Vissac-2019-Pa8-A ; 696 ; 2019-07-22 09:34:13.476066 ; 49.41 
29 ; Vissac ; Pa8 ; Vissac-2019-Pa8-A ; 696 ; 2019-07-22 09:34:14.433956 ; 49.67 
30 ; Vissac ; Pa8 ; Vissac-2019-Pa8-A ; 696 ; 2019-07-22 09:34:15.393329 ; 49.93 
31 ; Vissac ; Pa8 ; Vissac-2019-Pa8-A ; 696 ; 2019-07-22 09:34:16.351427 ; 50.16 
32 ; Vissac ; Pa8 ; Vissac-2019-Pa8-A ; 696 ; 2019-07-22 09:34:17.319176 ; 50.38 
33 ; Vissac ; Pa8 ; Vissac-2019-Pa8-A ; 696 ; 2019-07-22 09:34:18.269334 ; 50.61 
34 ; Vissac ; Pa8 ; Vissac-2019-Pa8-A ; 696 ; 2019-07-22 09:34:19.232474 ; 50.81 
35 ; Vissac ; Pa8 ; Vissac-2019-Pa8-A ; 696 ; 2019-07-22 09:34:20.192213 ; 51.02 
36 ; Vissac ; Pa8 ; Vissac-2019-Pa8-A ; 696 ; 2019-07-22 09:34:21.153132 ; 51.22 
37 ; Vissac ; Pa8 ; Vissac-2019-Pa8-A ; 696 ; 2019-07-22 09:34:22.117846 ; 51.41 
38 ; Vissac ; Pa8 ; Vissac-2019-Pa8-A ; 696 ; 2019-07-22 09:34:23.068939 ; 51.6 
39 ; Vissac ; Pa8 ; Vissac-2019-Pa8-A ; 696 ; 2019-07-22 09:34:24.027488 ; 51.78 
40 ; Vissac ; Pa8 ; Vissac-2019-Pa8-A ; 696 ; 2019-07-22 09:34:24.992035 ; 51.96 
41 ; Vissac ; Pa8 ; Vissac-2019-Pa8-A ; 696 ; 2019-07-22 09:34:25.948349 ; 52.13 
42 ; Vissac ; Pa8 ; Vissac-2019-Pa8-A ; 696 ; 2019-07-22 09:34:26.916146 ; 52.3 
43 ; Vissac ; Pa8 ; Vissac-2019-Pa8-A ; 696 ; 2019-07-22 09:34:27.873423 ; 52.45 
44 ; Vissac ; Pa8 ; Vissac-2019-Pa8-A ; 696 ; 2019-07-22 09:34:28.830846 ; 52.62 
45 ; Vissac ; Pa8 ; Vissac-2019-Pa8-A ; 696 ; 2019-07-22 09:34:29.789442 ; 52.78 
46 ; Vissac ; Pa8 ; Vissac-2019-Pa8-A ; 696 ; 2019-07-22 09:34:30.752941 ; 52.93 
47 ; Vissac ; Pa8 ; Vissac-2019-Pa8-A ; 696 ; 2019-07-22 09:34:31.710917 ; 53.07 
48 ; Vissac ; Pa8 ; Vissac-2019-Pa8-A ; 696 ; 2019-07-22 09:34:32.675776 ; 53.23 
49 ; Vissac ; Pa8 ; Vissac-2019-Pa8-A ; 696 ; 2019-07-22 09:34:33.630137 ; 53.35 
50 ; Vissac ; Pa8 ; Vissac-2019-Pa8-A ; 696 ; 2019-07-22 09:34:34.589499 ; 53.51 
51 ; Vissac ; Pa8 ; Vissac-2019-Pa8-A ; 696 ; 2019-07-22 09:34:35.550234 ; 53.62 
52 ; Vissac ; Pa8 ; Vissac-2019-Pa8-A ; 696 ; 2019-07-22 09:34:36.509735 ; 53.76 
53 ; Vissac ; Pa8 ; Vissac-2019-Pa8-A ; 696 ; 2019-07-22 09:34:37.474043 ; 53.89 
54 ; Vissac ; Pa8 ; Vissac-2019-Pa8-A ; 696 ; 2019-07-22 09:34:38.434008 ; 54.01 
55 ; Vissac ; Pa8 ; Vissac-2019-Pa8-A ; 696 ; 2019-07-22 09:34:39.393459 ; 54.13 
56 ; Vissac ; Pa8 ; Vissac-2019-Pa8-A ; 696 ; 2019-07-22 09:34:40.355062 ; 54.24 
57 ; Vissac ; Pa8 ; Vissac-2019-Pa8-A ; 696 ; 2019-07-22 09:34:41.312150 ; 54.36 
58 ; Vissac ; Pa8 ; Vissac-2019-Pa8-A ; 696 ; 2019-07-22 09:34:42.274948 ; 54.48 
59 ; Vissac ; Pa8 ; Vissac-2019-Pa8-A ; 696 ; 2019-07-22 09:34:43.234667 ; 54.59 
60 ; Vissac ; Pa8 ; Vissac-2019-Pa8-A ; 696 ; 2019-07-22 09:34:44.193526 ; 54.69 
61 ; Vissac ; Pa8 ; Vissac-2019-Pa8-A ; 696 ; 2019-07-22 09:34:45.150458 ; 54.8 
62 ; Vissac ; Pa8 ; Vissac-2019-Pa8-A ; 696 ; 2019-07-22 09:34:46.114931 ; 54.9 
63 ; Vissac ; Pa8 ; Vissac-2019-Pa8-A ; 696 ; 2019-07-22 09:34:47.087579 ; 55 
64 ; Vissac ; Pa8 ; Vissac-2019-Pa8-A ; 696 ; 2019-07-22 09:34:48.025361 ; 55.09 
65 ; Vissac ; Pa8 ; Vissac-2019-Pa8-A ; 696 ; 2019-07-22 09:34:48.990174 ; 55.18 
66 ; Vissac ; Pa8 ; Vissac-2019-Pa8-A ; 696 ; 2019-07-22 09:34:49.945545 ; 55.27 
67 ; Vissac ; Pa8 ; Vissac-2019-Pa8-A ; 696 ; 2019-07-22 09:34:50.911865 ; 55.37 
68 ; Vissac ; Pa8 ; Vissac-2019-Pa8-A ; 696 ; 2019-07-22 09:34:51.870810 ; 55.46 
69 ; Vissac ; Pa8 ; Vissac-2019-Pa8-A ; 696 ; 2019-07-22 09:34:52.828474 ; 55.54 
70 ; Vissac ; Pa8 ; Vissac-2019-Pa8-A ; 696 ; 2019-07-22 09:34:53.790510 ; 55.61 
71 ; Vissac ; Pa8 ; Vissac-2019-Pa8-A ; 696 ; 2019-07-22 09:34:54.539633 ; 55.7 
72 ; Vissac ; Pa8 ; Vissac-2019-Pa8-A ; 696 ; 2019-07-22 09:34:55.339370 ; 55.77 
73 ; Vissac ; Pa8 ; Vissac-2019-Pa8-A ; 696 ; 2019-07-22 09:34:56.139502 ; 55.84 
74 ; Vissac ; Pa8 ; Vissac-2019-Pa8-A ; 696 ; 2019-07-22 09:34:56.888855 ; 55.88 
75 ; Vissac ; Pa8 ; Vissac-2019-Pa8-A ; 696 ; 2019-07-22 09:34:57.738936 ; 55.98 
76 ; Vissac ; Pa8 ; Vissac-2019-Pa8-A ; 696 ; 2019-07-22 09:34:58.646451 ; 56.06 
77 ; Vissac ; Pa8 ; Vissac-2019-Pa8-A ; 696 ; 2019-07-22 09:34:59.496480 ; 56.13 
78 ; Vissac ; Pa8 ; Vissac-2019-Pa8-A ; 696 ; 2019-07-22 09:35:00.351372 ; 56.16 
79 ; Vissac ; Pa8 ; Vissac-2019-Pa8-A ; 696 ; 2019-07-22 09:35:01.212334 ; 56.25 
80 ; Vissac ; Pa8 ; Vissac-2019-Pa8-A ; 696 ; 2019-07-22 09:35:02.005836 ; 56.3 
81 ; Vissac ; Pa8 ; Vissac-2019-Pa8-A ; 696 ; 2019-07-22 09:35:02.908092 ; 56.36 
82 ; Vissac ; Pa8 ; Vissac-2019-Pa8-A ; 696 ; 2019-07-22 09:35:03.765652 ; 56.45 
83 ; Vissac ; Pa8 ; Vissac-2019-Pa8-A ; 696 ; 2019-07-22 09:35:04.673476 ; 56.51 
84 ; Vissac ; Pa8 ; Vissac-2019-Pa8-A ; 696 ; 2019-07-22 09:35:05.525283 ; 56.53 
85 ; Vissac ; Pa8 ; Vissac-2019-Pa8-A ; 696 ; 2019-07-22 09:35:06.331371 ; 56.62 
86 ; Vissac ; Pa8 ; Vissac-2019-Pa8-A ; 696 ; 2019-07-22 09:35:07.122636 ; 56.64 
87 ; Vissac ; Pa8 ; Vissac-2019-Pa8-A ; 696 ; 2019-07-22 09:35:07.926825 ; 56.73 
88 ; Vissac ; Pa8 ; Vissac-2019-Pa8-A ; 696 ; 2019-07-22 09:35:08.826628 ; 56.78 
89 ; Vissac ; Pa8 ; Vissac-2019-Pa8-A ; 696 ; 2019-07-22 09:35:09.576707 ; 56.84 
90 ; Vissac ; Pa8 ; Vissac-2019-Pa8-A ; 696 ; 2019-07-22 09:35:10.383674 ; 56.89 
91 ; Vissac ; Pa8 ; Vissac-2019-Pa8-A ; 696 ; 2019-07-22 09:35:11.335821 ; 56.99 
92 ; Vissac ; Pa8 ; Vissac-2019-Pa8-A ; 696 ; 2019-07-22 09:35:12.301388 ; 57.03 
93 ; Vissac ; Pa8 ; Vissac-2019-Pa8-A ; 696 ; 2019-07-22 09:35:13.201934 ; 57.08 
94 ; Vissac ; Pa8 ; Vissac-2019-Pa8-A ; 696 ; 2019-07-22 09:35:14.112716 ; 57.13 
95 ; Vissac ; Pa8 ; Vissac-2019-Pa8-A ; 696 ; 2019-07-22 09:35:14.916829 ; 57.18 
96 ; Vissac ; Pa8 ; Vissac-2019-Pa8-A ; 696 ; 2019-07-22 09:35:15.651165 ; 57.24 
97 ; Vissac ; Pa8 ; Vissac-2019-Pa8-A ; 696 ; 2019-07-22 09:35:16.513490 ; 57.31 
98 ; Vissac ; Pa8 ; Vissac-2019-Pa8-A ; 696 ; 2019-07-22 09:35:17.363867 ; 57.35 
99 ; Vissac ; Pa8 ; Vissac-2019-Pa8-A ; 696 ; 2019-07-22 09:35:18.216764 ; 57.36 
100 ; Vissac ; Pa8 ; Vissac-2019-Pa8-A ; 696 ; 2019-07-22 09:35:19.021747 ; 57.44 
101 ; Vissac ; Pa8 ; Vissac-2019-Pa8-A ; 696 ; 2019-07-22 09:35:19.870780 ; 57.46 
102 ; Vissac ; Pa8 ; Vissac-2019-Pa8-A ; 696 ; 2019-07-22 09:35:20.668902 ; 57.54 
103 ; Vissac ; Pa8 ; Vissac-2019-Pa8-A ; 696 ; 2019-07-22 09:35:21.630729 ; 57.61 
104 ; Vissac ; Pa8 ; Vissac-2019-Pa8-A ; 696 ; 2019-07-22 09:35:22.484222 ; 57.65 
105 ; Vissac ; Pa8 ; Vissac-2019-Pa8-A ; 696 ; 2019-07-22 09:35:23.442585 ; 57.68 
106 ; Vissac ; Pa8 ; Vissac-2019-Pa8-A ; 696 ; 2019-07-22 09:35:24.248950 ; 57.73 
107 ; Vissac ; Pa8 ; Vissac-2019-Pa8-A ; 696 ; 2019-07-22 09:35:25.047505 ; 57.78 
108 ; Vissac ; Pa8 ; Vissac-2019-Pa8-A ; 696 ; 2019-07-22 09:35:25.894041 ; 57.8 
109 ; Vissac ; Pa8 ; Vissac-2019-Pa8-A ; 696 ; 2019-07-22 09:35:26.697954 ; 57.83 
110 ; Vissac ; Pa8 ; Vissac-2019-Pa8-A ; 696 ; 2019-07-22 09:35:27.553625 ; 57.94 
111 ; Vissac ; Pa8 ; Vissac-2019-Pa8-A ; 696 ; 2019-07-22 09:35:28.464358 ; 57.95 
112 ; Vissac ; Pa8 ; Vissac-2019-Pa8-A ; 696 ; 2019-07-22 09:35:29.364796 ; 57.96 
113 ; Vissac ; Pa8 ; Vissac-2019-Pa8-A ; 696 ; 2019-07-22 09:35:30.170741 ; 57.98 
114 ; Vissac ; Pa8 ; Vissac-2019-Pa8-A ; 696 ; 2019-07-22 09:35:30.965140 ; 58.1 
115 ; Vissac ; Pa8 ; Vissac-2019-Pa8-A ; 696 ; 2019-07-22 09:35:31.812932 ; 58.14 
116 ; Vissac ; Pa8 ; Vissac-2019-Pa8-A ; 696 ; 2019-07-22 09:35:32.721189 ; 58.17 
117 ; Vissac ; Pa8 ; Vissac-2019-Pa8-A ; 696 ; 2019-07-22 09:35:33.586824 ; 58.2 
118 ; Vissac ; Pa8 ; Vissac-2019-Pa8-A ; 696 ; 2019-07-22 09:35:34.378570 ; 58.22 
119 ; Vissac ; Pa8 ; Vissac-2019-Pa8-A ; 696 ; 2019-07-22 09:35:35.232817 ; 58.31 
120 ; Vissac ; Pa8 ; Vissac-2019-Pa8-A ; 696 ; 2019-07-22 09:35:35.977235 ; 58.35 
121 ; Vissac ; Pa8 ; Vissac-2019-Pa8-A ; 696 ; 2019-07-22 09:35:36.826279 ; 58.37 
122 ; Vissac ; Pa8 ; Vissac-2019-Pa8-A ; 696 ; 2019-07-22 09:35:37.758281 ; 58.4 
123 ; Vissac ; Pa8 ; Vissac-2019-Pa8-A ; 696 ; 2019-07-22 09:35:38.697889 ; 58.45 
124 ; Vissac ; Pa8 ; Vissac-2019-Pa8-A ; 696 ; 2019-07-22 09:35:39.548310 ; 58.45 
125 ; Vissac ; Pa8 ; Vissac-2019-Pa8-A ; 696 ; 2019-07-22 09:35:40.292836 ; 58.48 
126 ; Vissac ; Pa8 ; Vissac-2019-Pa8-A ; 696 ; 2019-07-22 09:35:41.152446 ; 58.49 
127 ; Vissac ; Pa8 ; Vissac-2019-Pa8-A ; 696 ; 2019-07-22 09:35:42.013017 ; 58.62 
128 ; Vissac ; Pa8 ; Vissac-2019-Pa8-A ; 696 ; 2019-07-22 09:35:42.853107 ; 58.64 
129 ; Vissac ; Pa8 ; Vissac-2019-Pa8-A ; 696 ; 2019-07-22 09:35:43.780081 ; 58.67 
130 ; Vissac ; Pa8 ; Vissac-2019-Pa8-A ; 696 ; 2019-07-22 09:35:44.617913 ; 58.73 
131 ; Vissac ; Pa8 ; Vissac-2019-Pa8-A ; 696 ; 2019-07-22 09:35:45.630571 ; 58.77 
132 ; Vissac ; Pa8 ; Vissac-2019-Pa8-A ; 696 ; 2019-07-22 09:35:46.542559 ; 58.78 
133 ; Vissac ; Pa8 ; Vissac-2019-Pa8-A ; 696 ; 2019-07-22 09:35:47.336744 ; 58.79 
134 ; Vissac ; Pa8 ; Vissac-2019-Pa8-A ; 696 ; 2019-07-22 09:35:48.193335 ; 58.83 
135 ; Vissac ; Pa8 ; Vissac-2019-Pa8-A ; 696 ; 2019-07-22 09:35:49.044573 ; 58.87 
136 ; Vissac ; Pa8 ; Vissac-2019-Pa8-A ; 696 ; 2019-07-22 09:35:49.999888 ; 58.93 
137 ; Vissac ; Pa8 ; Vissac-2019-Pa8-A ; 696 ; 2019-07-22 09:35:50.805559 ; 58.94 
138 ; Vissac ; Pa8 ; Vissac-2019-Pa8-A ; 696 ; 2019-07-22 09:35:51.661166 ; 58.96 
139 ; Vissac ; Pa8 ; Vissac-2019-Pa8-A ; 696 ; 2019-07-22 09:35:52.509844 ; 58.97 
140 ; Vissac ; Pa8 ; Vissac-2019-Pa8-A ; 696 ; 2019-07-22 09:35:53.415663 ; 58.99 
141 ; Vissac ; Pa8 ; Vissac-2019-Pa8-A ; 696 ; 2019-07-22 09:35:54.217093 ; 59.07 
142 ; Vissac ; Pa8 ; Vissac-2019-Pa8-A ; 696 ; 2019-07-22 09:35:55.020447 ; 59.09 
143 ; Vissac ; Pa8 ; Vissac-2019-Pa8-A ; 696 ; 2019-07-22 09:35:55.871744 ; 59.1 
144 ; Vissac ; Pa8 ; Vissac-2019-Pa8-A ; 696 ; 2019-07-22 09:35:56.723896 ; 59.1 
145 ; Vissac ; Pa8 ; Vissac-2019-Pa8-A ; 696 ; 2019-07-22 09:35:57.467163 ; 59.18 
146 ; Vissac ; Pa8 ; Vissac-2019-Pa8-A ; 696 ; 2019-07-22 09:35:58.324118 ; 59.2 
147 ; Vissac ; Pa8 ; Vissac-2019-Pa8-A ; 696 ; 2019-07-22 09:35:59.177693 ; 59.2 
148 ; Vissac ; Pa8 ; Vissac-2019-Pa8-A ; 696 ; 2019-07-22 09:35:59.927057 ; 59.23 
149 ; Vissac ; Pa8 ; Vissac-2019-Pa8-A ; 696 ; 2019-07-22 09:36:00.772445 ; 59.23 
150 ; Vissac ; Pa8 ; Vissac-2019-Pa8-A ; 696 ; 2019-07-22 09:36:01.573852 ; 59.31 
151 ; Vissac ; Pa8 ; Vissac-2019-Pa8-A ; 696 ; 2019-07-22 09:36:02.378751 ; 59.32 
152 ; Vissac ; Pa8 ; Vissac-2019-Pa8-A ; 696 ; 2019-07-22 09:36:03.230003 ; 59.34 
153 ; Vissac ; Pa8 ; Vissac-2019-Pa8-A ; 696 ; 2019-07-22 09:36:04.041141 ; 59.36 
154 ; Vissac ; Pa8 ; Vissac-2019-Pa8-A ; 696 ; 2019-07-22 09:36:04.937556 ; 59.38 
155 ; Vissac ; Pa8 ; Vissac-2019-Pa8-A ; 696 ; 2019-07-22 09:36:05.790899 ; 59.44 
156 ; Vissac ; Pa8 ; Vissac-2019-Pa8-A ; 696 ; 2019-07-22 09:36:06.749394 ; 59.45 
157 ; Vissac ; Pa8 ; Vissac-2019-Pa8-A ; 696 ; 2019-07-22 09:36:07.658318 ; 59.46 
158 ; Vissac ; Pa8 ; Vissac-2019-Pa8-A ; 696 ; 2019-07-22 09:36:08.519545 ; 59.47 
159 ; Vissac ; Pa8 ; Vissac-2019-Pa8-A ; 696 ; 2019-07-22 09:36:09.420940 ; 59.49 
160 ; Vissac ; Pa8 ; Vissac-2019-Pa8-A ; 696 ; 2019-07-22 09:36:10.268902 ; 59.55 
161 ; Vissac ; Pa8 ; Vissac-2019-Pa8-A ; 696 ; 2019-07-22 09:36:11.179924 ; 59.56 
162 ; Vissac ; Pa8 ; Vissac-2019-Pa8-A ; 696 ; 2019-07-22 09:36:12.029712 ; 59.57 
163 ; Vissac ; Pa8 ; Vissac-2019-Pa8-A ; 696 ; 2019-07-22 09:36:12.883364 ; 59.58 
164 ; Vissac ; Pa8 ; Vissac-2019-Pa8-A ; 696 ; 2019-07-22 09:36:13.745946 ; 59.6 
165 ; Vissac ; Pa8 ; Vissac-2019-Pa8-A ; 696 ; 2019-07-22 09:36:14.589736 ; 59.59 
166 ; Vissac ; Pa8 ; Vissac-2019-Pa8-A ; 696 ; 2019-07-22 09:36:15.445045 ; 59.6 
167 ; Vissac ; Pa8 ; Vissac-2019-Pa8-A ; 696 ; 2019-07-22 09:36:16.190891 ; 59.65 
168 ; Vissac ; Pa8 ; Vissac-2019-Pa8-A ; 696 ; 2019-07-22 09:36:17.048688 ; 59.71 
169 ; Vissac ; Pa8 ; Vissac-2019-Pa8-A ; 696 ; 2019-07-22 09:36:17.891131 ; 59.72 
170 ; Vissac ; Pa8 ; Vissac-2019-Pa8-A ; 696 ; 2019-07-22 09:36:18.856069 ; 59.73 
171 ; Vissac ; Pa8 ; Vissac-2019-Pa8-A ; 696 ; 2019-07-22 09:36:19.709664 ; 59.73 
172 ; Vissac ; Pa8 ; Vissac-2019-Pa8-A ; 696 ; 2019-07-22 09:36:20.563845 ; 59.74 
173 ; Vissac ; Pa8 ; Vissac-2019-Pa8-A ; 696 ; 2019-07-22 09:36:21.469941 ; 59.73 
174 ; Vissac ; Pa8 ; Vissac-2019-Pa8-A ; 696 ; 2019-07-22 09:36:22.346604 ; 59.75 
175 ; Vissac ; Pa8 ; Vissac-2019-Pa8-A ; 696 ; 2019-07-22 09:36:23.177613 ; 59.81 
176 ; Vissac ; Pa8 ; Vissac-2019-Pa8-A ; 696 ; 2019-07-22 09:36:24.139337 ; 59.83 
177 ; Vissac ; Pa8 ; Vissac-2019-Pa8-A ; 696 ; 2019-07-22 09:36:24.990258 ; 59.84 
178 ; Vissac ; Pa8 ; Vissac-2019-Pa8-A ; 696 ; 2019-07-22 09:36:25.836487 ; 59.85 
179 ; Vissac ; Pa8 ; Vissac-2019-Pa8-A ; 696 ; 2019-07-22 09:36:26.708940 ; 59.86 
180 ; Vissac ; Pa8 ; Vissac-2019-Pa8-A ; 696 ; 2019-07-22 09:36:27.551683 ; 59.88 
181 ; Vissac ; Pa8 ; Vissac-2019-Pa8-A ; 696 ; 2019-07-22 09:36:28.403986 ; 59.87 
182 ; Vissac ; Pa8 ; Vissac-2019-Pa8-A ; 696 ; 2019-07-22 09:36:29.204386 ; 59.9 
183 ; Vissac ; Pa8 ; Vissac-2019-Pa8-A ; 696 ; 2019-07-22 09:36:30.059103 ; 59.9 
184 ; Vissac ; Pa8 ; Vissac-2019-Pa8-A ; 696 ; 2019-07-22 09:36:30.961953 ; 59.92 
185 ; Vissac ; Pa8 ; Vissac-2019-Pa8-A ; 696 ; 2019-07-22 09:36:31.874585 ; 59.94 
186 ; Vissac ; Pa8 ; Vissac-2019-Pa8-A ; 696 ; 2019-07-22 09:36:32.831107 ; 59.95 
187 ; Vissac ; Pa8 ; Vissac-2019-Pa8-A ; 696 ; 2019-07-22 09:36:33.579219 ; 59.96 
188 ; Vissac ; Pa8 ; Vissac-2019-Pa8-A ; 696 ; 2019-07-22 09:36:34.430655 ; 59.96 
189 ; Vissac ; Pa8 ; Vissac-2019-Pa8-A ; 696 ; 2019-07-22 09:36:35.281479 ; 59.99 
190 ; Vissac ; Pa8 ; Vissac-2019-Pa8-A ; 696 ; 2019-07-22 09:36:36.143613 ; 60 
191 ; Vissac ; Pa8 ; Vissac-2019-Pa8-A ; 696 ; 2019-07-22 09:36:36.989099 ; 60 
192 ; Vissac ; Pa8 ; Vissac-2019-Pa8-A ; 696 ; 2019-07-22 09:36:37.798058 ; 60.02 
193 ; Vissac ; Pa8 ; Vissac-2019-Pa8-A ; 696 ; 2019-07-22 09:36:38.591660 ; 60.05 
194 ; Vissac ; Pa8 ; Vissac-2019-Pa8-A ; 696 ; 2019-07-22 09:36:39.498296 ; 60.05 
195 ; Vissac ; Pa8 ; Vissac-2019-Pa8-A ; 696 ; 2019-07-22 09:36:40.409469 ; 60.06 
196 ; Vissac ; Pa8 ; Vissac-2019-Pa8-A ; 696 ; 2019-07-22 09:36:41.256014 ; 60.07 
197 ; Vissac ; Pa8 ; Vissac-2019-Pa8-A ; 696 ; 2019-07-22 09:36:42.109128 ; 60.07 
198 ; Vissac ; Pa8 ; Vissac-2019-Pa8-A ; 696 ; 2019-07-22 09:36:42.960824 ; 60.09 
199 ; Vissac ; Pa8 ; Vissac-2019-Pa8-A ; 696 ; 2019-07-22 09:36:43.809355 ; 60.11 
200 ; Vissac ; Pa8 ; Vissac-2019-Pa8-A ; 696 ; 2019-07-22 09:36:44.679123 ; 60.12 
201 ; Vissac ; Pa8 ; Vissac-2019-Pa8-A ; 696 ; 2019-07-22 09:36:45.578037 ; 60.13 
202 ; Vissac ; Pa8 ; Vissac-2019-Pa8-A ; 696 ; 2019-07-22 09:36:46.431262 ; 60.14 
203 ; Vissac ; Pa8 ; Vissac-2019-Pa8-A ; 696 ; 2019-07-22 09:36:47.286289 ; 60.14 
204 ; Vissac ; Pa8 ; Vissac-2019-Pa8-A ; 696 ; 2019-07-22 09:36:48.132442 ; 60.14 
205 ; Vissac ; Pa8 ; Vissac-2019-Pa8-A ; 696 ; 2019-07-22 09:36:49.041629 ; 60.15 
206 ; Vissac ; Pa8 ; Vissac-2019-Pa8-A ; 696 ; 2019-07-22 09:36:49.901192 ; 60.16 
207 ; Vissac ; Pa8 ; Vissac-2019-Pa8-A ; 696 ; 2019-07-22 09:37:00.760124 ; 60.28 
208 ; Vissac ; Pa8 ; Vissac-2019-Pa8-A ; 696 ; 2019-07-22 09:37:11.586024 ; 60.36 
209 ; Vissac ; Pa8 ; Vissac-2019-Pa8-A ; 696 ; 2019-07-22 09:37:22.576225 ; 60.41 
210 ; Vissac ; Pa8 ; Vissac-2019-Pa8-A ; 696 ; 2019-07-22 09:37:33.505421 ; 60.44 
211 ; Vissac ; Pa8 ; Vissac-2019-Pa8-A ; 696 ; 2019-07-22 09:37:44.499564 ; 60.47 
212 ; Vissac ; Pa8 ; Vissac-2019-Pa8-A ; 696 ; 2019-07-22 09:37:55.372834 ; 60.5 
213 ; Vissac ; Pa8 ; Vissac-2019-Pa8-A ; 696 ; 2019-07-22 09:38:06.359163 ; 60.53 
214 ; Vissac ; Pa8 ; Vissac-2019-Pa8-A ; 696 ; 2019-07-22 09:38:17.289886 ; 60.54 
215 ; Vissac ; Pa8 ; Vissac-2019-Pa8-A ; 696 ; 2019-07-22 09:38:28.173390 ; 60.56 
216 ; Vissac ; Pa8 ; Vissac-2019-Pa8-A ; 696 ; 2019-07-22 09:38:39.064019 ; 60.58 
217 ; Vissac ; Pa8 ; Vissac-2019-Pa8-A ; 696 ; 2019-07-22 09:38:49.986887 ; 60.59 
218 ; Vissac ; Pa8 ; Vissac-2019-Pa8-A ; 696 ; 2019-07-22 09:39:00.872690 ; 60.61 
219 ; Vissac ; Pa8 ; Vissac-2019-Pa8-A ; 696 ; 2019-07-22 09:39:11.745487 ; 60.61 
220 ; Vissac ; Pa8 ; Vissac-2019-Pa8-A ; 696 ; 2019-07-22 09:39:22.624277 ; 60.64 
221 ; Vissac ; Pa8 ; Vissac-2019-Pa8-A ; 696 ; 2019-07-22 09:39:33.517205 ; 60.63 
222 ; Vissac ; Pa8 ; Vissac-2019-Pa8-A ; 696 ; 2019-07-22 09:39:44.389335 ; 60.64 
223 ; Vissac ; Pa8 ; Vissac-2019-Pa8-A ; 696 ; 2019-07-22 09:39:55.265615 ; 60.66 
224 ; Vissac ; Pa8 ; Vissac-2019-Pa8-A ; 696 ; 2019-07-22 09:40:06.094211 ; 60.67 
225 ; Vissac ; Pa8 ; Vissac-2019-Pa8-A ; 696 ; 2019-07-22 09:40:16.976940 ; 60.69 
226 ; Vissac ; Pa8 ; Vissac-2019-Pa8-A ; 696 ; 2019-07-22 09:40:27.862082 ; 60.71 
227 ; Vissac ; Pa8 ; Vissac-2019-Pa8-A ; 696 ; 2019-07-22 09:40:38.789277 ; 60.72 
228 ; Vissac ; Pa8 ; Vissac-2019-Pa8-A ; 696 ; 2019-07-22 09:40:49.668853 ; 60.72 
229 ; Vissac ; Pa8 ; Vissac-2019-Pa8-A ; 696 ; 2019-07-22 09:41:00.542682 ; 60.72 
230 ; Vissac ; Pa8 ; Vissac-2019-Pa8-A ; 696 ; 2019-07-22 09:41:11.423558 ; 60.72 
231 ; Vissac ; Pa8 ; Vissac-2019-Pa8-A ; 696 ; 2019-07-22 09:41:22.310870 ; 60.72 
232 ; Vissac ; Pa8 ; Vissac-2019-Pa8-A ; 696 ; 2019-07-22 09:41:33.182837 ; 60.75 
233 ; Vissac ; Pa8 ; Vissac-2019-Pa8-A ; 696 ; 2019-07-22 09:41:44.072078 ; 60.75 
234 ; Vissac ; Pa8 ; Vissac-2019-Pa8-A ; 696 ; 2019-07-22 09:41:54.944594 ; 60.75 
235 ; Vissac ; Pa8 ; Vissac-2019-Pa8-A ; 696 ; 2019-07-22 09:42:05.821540 ; 60.74 
236 ; Vissac ; Pa8 ; Vissac-2019-Pa8-A ; 696 ; 2019-07-22 09:42:16.713612 ; 60.74 
237 ; Vissac ; Pa8 ; Vissac-2019-Pa8-A ; 696 ; 2019-07-22 09:42:27.579328 ; 60.74 
238 ; Vissac ; Pa8 ; Vissac-2019-Pa8-A ; 696 ; 2019-07-22 09:42:38.463935 ; 60.77 
239 ; Vissac ; Pa8 ; Vissac-2019-Pa8-A ; 696 ; 2019-07-22 09:42:49.294352 ; 60.77 
240 ; Vissac ; Pa8 ; Vissac-2019-Pa8-A ; 696 ; 2019-07-22 09:43:00.170826 ; 60.77 
241 ; Vissac ; Pa8 ; Vissac-2019-Pa8-A ; 696 ; 2019-07-22 09:43:11.057667 ; 60.76 
242 ; Vissac ; Pa8 ; Vissac-2019-Pa8-A ; 696 ; 2019-07-22 09:43:21.936326 ; 60.76 
243 ; Vissac ; Pa8 ; Vissac-2019-Pa8-A ; 696 ; 2019-07-22 09:43:32.823753 ; 60.76 
244 ; Vissac ; Pa8 ; Vissac-2019-Pa8-A ; 696 ; 2019-07-22 09:43:43.689756 ; 60.75 
245 ; Vissac ; Pa8 ; Vissac-2019-Pa8-A ; 696 ; 2019-07-22 09:43:54.572868 ; 60.78 
246 ; Vissac ; Pa8 ; Vissac-2019-Pa8-A ; 696 ; 2019-07-22 09:44:25.463508 ; 60.78 
247 ; Vissac ; Pa8 ; Vissac-2019-Pa8-A ; 696 ; 2019-07-22 09:44:56.384110 ; 60.77 
248 ; Vissac ; Pa8 ; Vissac-2019-Pa8-A ; 696 ; 2019-07-22 09:45:27.323407 ; 60.76 
249 ; Vissac ; Pa8 ; Vissac-2019-Pa8-A ; 696 ; 2019-07-22 09:45:58.252750 ; 60.79 
250 ; Vissac ; Pa8 ; Vissac-2019-Pa8-A ; 696 ; 2019-07-22 09:46:29.188603 ; 60.79 
251 ; Vissac ; Pa8 ; Vissac-2019-Pa8-A ; 696 ; 2019-07-22 09:47:00.124164 ; 60.79 
252 ; Vissac ; Pa8 ; Vissac-2019-Pa8-A ; 696 ; 2019-07-22 09:47:31.050021 ; 60.78 
253 ; Vissac ; Pa8 ; Vissac-2019-Pa8-A ; 696 ; 2019-07-22 09:48:01.985193 ; 60.77 
254 ; Vissac ; Pa8 ; Vissac-2019-Pa8-A ; 696 ; 2019-07-22 09:48:32.922568 ; 60.8 
255 ; Vissac ; Pa8 ; Vissac-2019-Pa8-A ; 696 ; 2019-07-22 09:49:03.852291 ; 60.8 
256 ; Vissac ; Pa8 ; Vissac-2019-Pa8-A ; 696 ; 2019-07-22 09:49:34.802654 ; 60.79 
257 ; Vissac ; Pa8 ; Vissac-2019-Pa8-A ; 696 ; 2019-07-22 09:50:05.720740 ; 60.79 
258 ; Vissac ; Pa8 ; Vissac-2019-Pa8-A ; 696 ; 2019-07-22 09:50:36.652004 ; 60.79 
259 ; Vissac ; Pa8 ; Vissac-2019-Pa8-A ; 696 ; 2019-07-22 09:51:07.583764 ; 60.79 
260 ; Vissac ; Pa8 ; Vissac-2019-Pa8-A ; 696 ; 2019-07-22 09:51:38.521723 ; 60.78 
261 ; Vissac ; Pa8 ; Vissac-2019-Pa8-A ; 696 ; 2019-07-22 09:52:09.461072 ; 60.8 
262 ; Vissac ; Pa8 ; Vissac-2019-Pa8-A ; 696 ; 2019-07-22 09:52:40.388008 ; 60.81 
263 ; Vissac ; Pa8 ; Vissac-2019-Pa8-A ; 696 ; 2019-07-22 09:53:11.323352 ; 60.81 
264 ; Vissac ; Pa8 ; Vissac-2019-Pa8-A ; 696 ; 2019-07-22 09:53:42.250639 ; 60.8 
265 ; Vissac ; Pa8 ; Vissac-2019-Pa8-A ; 696 ; 2019-07-22 09:54:13.190214 ; 60.79 
266 ; Vissac ; Pa8 ; Vissac-2019-Pa8-A ; 696 ; 2019-07-22 09:54:44.120452 ; 60.79 
267 ; Vissac ; Pa8 ; Vissac-2019-Pa8-A ; 696 ; 2019-07-22 09:55:15.048970 ; 60.79 
268 ; Vissac ; Pa8 ; Vissac-2019-Pa8-A ; 696 ; 2019-07-22 09:55:45.983775 ; 60.79 
269 ; Vissac ; Pa8 ; Vissac-2019-Pa8-A ; 696 ; 2019-07-22 09:56:16.950437 ; 60.79 
