i ; campaign ; serie ; sample ; slake ; time ; mass 
1 ; Les Fonds ; 21NT ; LF-21NT-2019-DH-A ; 649 ; 2019-07-17 12:02:32.142008 ; 135.82 
2 ; Les Fonds ; 21NT ; LF-21NT-2019-DH-A ; 649 ; 2019-07-17 12:02:33.099946 ; 135.82 
3 ; Les Fonds ; 21NT ; LF-21NT-2019-DH-A ; 649 ; 2019-07-17 12:02:33.948424 ; 135.81 
4 ; Les Fonds ; 21NT ; LF-21NT-2019-DH-A ; 649 ; 2019-07-17 12:02:34.803304 ; 135.82 
5 ; Les Fonds ; 21NT ; LF-21NT-2019-DH-A ; 649 ; 2019-07-17 12:02:35.660480 ; 135.82 
6 ; Les Fonds ; 21NT ; LF-21NT-2019-DH-A ; 649 ; 2019-07-17 12:02:36.508555 ; 135.82 
7 ; Les Fonds ; 21NT ; LF-21NT-2019-DH-A ; 649 ; 2019-07-17 12:02:37.355147 ; 84.76 
8 ; Les Fonds ; 21NT ; LF-21NT-2019-DH-A ; 649 ; 2019-07-17 12:02:38.171353 ; 52.88 
9 ; Les Fonds ; 21NT ; LF-21NT-2019-DH-A ; 649 ; 2019-07-17 12:02:39.129648 ; 56.49 
10 ; Les Fonds ; 21NT ; LF-21NT-2019-DH-A ; 649 ; 2019-07-17 12:02:40.084588 ; 57.47 
11 ; Les Fonds ; 21NT ; LF-21NT-2019-DH-A ; 649 ; 2019-07-17 12:02:41.043012 ; 58.81 
12 ; Les Fonds ; 21NT ; LF-21NT-2019-DH-A ; 649 ; 2019-07-17 12:02:42.007975 ; 59.45 
13 ; Les Fonds ; 21NT ; LF-21NT-2019-DH-A ; 649 ; 2019-07-17 12:02:42.962591 ; 60.15 
14 ; Les Fonds ; 21NT ; LF-21NT-2019-DH-A ; 649 ; 2019-07-17 12:02:43.934543 ; 60.49 
15 ; Les Fonds ; 21NT ; LF-21NT-2019-DH-A ; 649 ; 2019-07-17 12:02:44.887006 ; 60.66 
16 ; Les Fonds ; 21NT ; LF-21NT-2019-DH-A ; 649 ; 2019-07-17 12:02:45.841840 ; 60.96 
17 ; Les Fonds ; 21NT ; LF-21NT-2019-DH-A ; 649 ; 2019-07-17 12:02:46.805151 ; 60.9 
18 ; Les Fonds ; 21NT ; LF-21NT-2019-DH-A ; 649 ; 2019-07-17 12:02:47.766777 ; 61.01 
19 ; Les Fonds ; 21NT ; LF-21NT-2019-DH-A ; 649 ; 2019-07-17 12:02:48.734153 ; 60.91 
20 ; Les Fonds ; 21NT ; LF-21NT-2019-DH-A ; 649 ; 2019-07-17 12:02:49.689525 ; 60.62 
21 ; Les Fonds ; 21NT ; LF-21NT-2019-DH-A ; 649 ; 2019-07-17 12:02:50.646594 ; 60.55 
22 ; Les Fonds ; 21NT ; LF-21NT-2019-DH-A ; 649 ; 2019-07-17 12:02:51.606557 ; 60.49 
23 ; Les Fonds ; 21NT ; LF-21NT-2019-DH-A ; 649 ; 2019-07-17 12:02:52.462976 ; 60.13 
24 ; Les Fonds ; 21NT ; LF-21NT-2019-DH-A ; 649 ; 2019-07-17 12:02:53.202928 ; 59.95 
25 ; Les Fonds ; 21NT ; LF-21NT-2019-DH-A ; 649 ; 2019-07-17 12:02:54.016216 ; 59.83 
26 ; Les Fonds ; 21NT ; LF-21NT-2019-DH-A ; 649 ; 2019-07-17 12:02:54.830633 ; 59.74 
27 ; Les Fonds ; 21NT ; LF-21NT-2019-DH-A ; 649 ; 2019-07-17 12:02:55.765377 ; 59.46 
28 ; Les Fonds ; 21NT ; LF-21NT-2019-DH-A ; 649 ; 2019-07-17 12:02:56.565833 ; 58.94 
29 ; Les Fonds ; 21NT ; LF-21NT-2019-DH-A ; 649 ; 2019-07-17 12:02:57.311645 ; 58.42 
30 ; Les Fonds ; 21NT ; LF-21NT-2019-DH-A ; 649 ; 2019-07-17 12:02:58.108080 ; 57.65 
31 ; Les Fonds ; 21NT ; LF-21NT-2019-DH-A ; 649 ; 2019-07-17 12:02:58.921257 ; 57.43 
32 ; Les Fonds ; 21NT ; LF-21NT-2019-DH-A ; 649 ; 2019-07-17 12:02:59.659625 ; 57.16 
33 ; Les Fonds ; 21NT ; LF-21NT-2019-DH-A ; 649 ; 2019-07-17 12:03:00.460278 ; 56.61 
34 ; Les Fonds ; 21NT ; LF-21NT-2019-DH-A ; 649 ; 2019-07-17 12:03:01.257440 ; 56.06 
35 ; Les Fonds ; 21NT ; LF-21NT-2019-DH-A ; 649 ; 2019-07-17 12:03:02.007573 ; 55.67 
36 ; Les Fonds ; 21NT ; LF-21NT-2019-DH-A ; 649 ; 2019-07-17 12:03:02.814032 ; 54.6 
37 ; Les Fonds ; 21NT ; LF-21NT-2019-DH-A ; 649 ; 2019-07-17 12:03:03.609490 ; 52.98 
38 ; Les Fonds ; 21NT ; LF-21NT-2019-DH-A ; 649 ; 2019-07-17 12:03:04.352766 ; 51.31 
39 ; Les Fonds ; 21NT ; LF-21NT-2019-DH-A ; 649 ; 2019-07-17 12:03:05.148954 ; 51.03 
40 ; Les Fonds ; 21NT ; LF-21NT-2019-DH-A ; 649 ; 2019-07-17 12:03:05.954825 ; 50.56 
41 ; Les Fonds ; 21NT ; LF-21NT-2019-DH-A ; 649 ; 2019-07-17 12:03:06.700035 ; 49.71 
42 ; Les Fonds ; 21NT ; LF-21NT-2019-DH-A ; 649 ; 2019-07-17 12:03:07.509864 ; 49.23 
43 ; Les Fonds ; 21NT ; LF-21NT-2019-DH-A ; 649 ; 2019-07-17 12:03:08.297909 ; 49.01 
44 ; Les Fonds ; 21NT ; LF-21NT-2019-DH-A ; 649 ; 2019-07-17 12:03:09.048261 ; 48.68 
45 ; Les Fonds ; 21NT ; LF-21NT-2019-DH-A ; 649 ; 2019-07-17 12:03:09.847530 ; 48.03 
46 ; Les Fonds ; 21NT ; LF-21NT-2019-DH-A ; 649 ; 2019-07-17 12:03:10.647108 ; 47.47 
47 ; Les Fonds ; 21NT ; LF-21NT-2019-DH-A ; 649 ; 2019-07-17 12:03:11.402051 ; 47.05 
48 ; Les Fonds ; 21NT ; LF-21NT-2019-DH-A ; 649 ; 2019-07-17 12:03:12.190634 ; 46.6 
49 ; Les Fonds ; 21NT ; LF-21NT-2019-DH-A ; 649 ; 2019-07-17 12:03:12.994990 ; 46.15 
50 ; Les Fonds ; 21NT ; LF-21NT-2019-DH-A ; 649 ; 2019-07-17 12:03:13.739222 ; 45.38 
51 ; Les Fonds ; 21NT ; LF-21NT-2019-DH-A ; 649 ; 2019-07-17 12:03:14.540228 ; 43.86 
52 ; Les Fonds ; 21NT ; LF-21NT-2019-DH-A ; 649 ; 2019-07-17 12:03:15.334734 ; 42.88 
53 ; Les Fonds ; 21NT ; LF-21NT-2019-DH-A ; 649 ; 2019-07-17 12:03:16.094341 ; 42.46 
54 ; Les Fonds ; 21NT ; LF-21NT-2019-DH-A ; 649 ; 2019-07-17 12:03:16.884555 ; 41.65 
55 ; Les Fonds ; 21NT ; LF-21NT-2019-DH-A ; 649 ; 2019-07-17 12:03:17.687620 ; 40.23 
56 ; Les Fonds ; 21NT ; LF-21NT-2019-DH-A ; 649 ; 2019-07-17 12:03:18.437289 ; 38.38 
57 ; Les Fonds ; 21NT ; LF-21NT-2019-DH-A ; 649 ; 2019-07-17 12:03:19.231310 ; 37.43 
58 ; Les Fonds ; 21NT ; LF-21NT-2019-DH-A ; 649 ; 2019-07-17 12:03:20.033715 ; 36.83 
59 ; Les Fonds ; 21NT ; LF-21NT-2019-DH-A ; 649 ; 2019-07-17 12:03:20.788204 ; 36.33 
60 ; Les Fonds ; 21NT ; LF-21NT-2019-DH-A ; 649 ; 2019-07-17 12:03:21.581722 ; 35.64 
61 ; Les Fonds ; 21NT ; LF-21NT-2019-DH-A ; 649 ; 2019-07-17 12:03:22.377665 ; 35.13 
62 ; Les Fonds ; 21NT ; LF-21NT-2019-DH-A ; 649 ; 2019-07-17 12:03:23.122033 ; 34.7 
63 ; Les Fonds ; 21NT ; LF-21NT-2019-DH-A ; 649 ; 2019-07-17 12:03:23.924865 ; 34.19 
64 ; Les Fonds ; 21NT ; LF-21NT-2019-DH-A ; 649 ; 2019-07-17 12:03:24.750453 ; 33.56 
65 ; Les Fonds ; 21NT ; LF-21NT-2019-DH-A ; 649 ; 2019-07-17 12:03:25.685403 ; 32.85 
66 ; Les Fonds ; 21NT ; LF-21NT-2019-DH-A ; 649 ; 2019-07-17 12:03:26.488086 ; 32.42 
67 ; Les Fonds ; 21NT ; LF-21NT-2019-DH-A ; 649 ; 2019-07-17 12:03:27.226146 ; 31.56 
68 ; Les Fonds ; 21NT ; LF-21NT-2019-DH-A ; 649 ; 2019-07-17 12:03:28.031066 ; 30.51 
69 ; Les Fonds ; 21NT ; LF-21NT-2019-DH-A ; 649 ; 2019-07-17 12:03:28.829487 ; 29.86 
70 ; Les Fonds ; 21NT ; LF-21NT-2019-DH-A ; 649 ; 2019-07-17 12:03:29.586014 ; 29.13 
71 ; Les Fonds ; 21NT ; LF-21NT-2019-DH-A ; 649 ; 2019-07-17 12:03:30.378575 ; 28.1 
72 ; Les Fonds ; 21NT ; LF-21NT-2019-DH-A ; 649 ; 2019-07-17 12:03:31.173174 ; 27.49 
73 ; Les Fonds ; 21NT ; LF-21NT-2019-DH-A ; 649 ; 2019-07-17 12:03:31.925125 ; 26.87 
74 ; Les Fonds ; 21NT ; LF-21NT-2019-DH-A ; 649 ; 2019-07-17 12:03:32.726773 ; 26.33 
75 ; Les Fonds ; 21NT ; LF-21NT-2019-DH-A ; 649 ; 2019-07-17 12:03:33.533914 ; 26.03 
76 ; Les Fonds ; 21NT ; LF-21NT-2019-DH-A ; 649 ; 2019-07-17 12:03:34.274756 ; 25.62 
77 ; Les Fonds ; 21NT ; LF-21NT-2019-DH-A ; 649 ; 2019-07-17 12:03:35.074797 ; 25.3 
78 ; Les Fonds ; 21NT ; LF-21NT-2019-DH-A ; 649 ; 2019-07-17 12:03:35.874148 ; 25.07 
79 ; Les Fonds ; 21NT ; LF-21NT-2019-DH-A ; 649 ; 2019-07-17 12:03:36.622559 ; 24.88 
80 ; Les Fonds ; 21NT ; LF-21NT-2019-DH-A ; 649 ; 2019-07-17 12:03:37.420268 ; 24.66 
81 ; Les Fonds ; 21NT ; LF-21NT-2019-DH-A ; 649 ; 2019-07-17 12:03:38.226697 ; 24.4 
82 ; Les Fonds ; 21NT ; LF-21NT-2019-DH-A ; 649 ; 2019-07-17 12:03:38.966577 ; 23.95 
83 ; Les Fonds ; 21NT ; LF-21NT-2019-DH-A ; 649 ; 2019-07-17 12:03:39.780289 ; 23.18 
84 ; Les Fonds ; 21NT ; LF-21NT-2019-DH-A ; 649 ; 2019-07-17 12:03:40.723866 ; 22.82 
85 ; Les Fonds ; 21NT ; LF-21NT-2019-DH-A ; 649 ; 2019-07-17 12:03:41.522034 ; 22.44 
86 ; Les Fonds ; 21NT ; LF-21NT-2019-DH-A ; 649 ; 2019-07-17 12:03:42.317701 ; 22.07 
87 ; Les Fonds ; 21NT ; LF-21NT-2019-DH-A ; 649 ; 2019-07-17 12:03:43.078878 ; 21.85 
88 ; Les Fonds ; 21NT ; LF-21NT-2019-DH-A ; 649 ; 2019-07-17 12:03:43.867725 ; 21.59 
89 ; Les Fonds ; 21NT ; LF-21NT-2019-DH-A ; 649 ; 2019-07-17 12:03:44.666916 ; 21.42 
90 ; Les Fonds ; 21NT ; LF-21NT-2019-DH-A ; 649 ; 2019-07-17 12:03:45.417033 ; 21.26 
91 ; Les Fonds ; 21NT ; LF-21NT-2019-DH-A ; 649 ; 2019-07-17 12:03:46.210913 ; 21.07 
92 ; Les Fonds ; 21NT ; LF-21NT-2019-DH-A ; 649 ; 2019-07-17 12:03:47.023388 ; 20.95 
93 ; Les Fonds ; 21NT ; LF-21NT-2019-DH-A ; 649 ; 2019-07-17 12:03:47.767309 ; 20.78 
94 ; Les Fonds ; 21NT ; LF-21NT-2019-DH-A ; 649 ; 2019-07-17 12:03:48.564687 ; 20.55 
95 ; Les Fonds ; 21NT ; LF-21NT-2019-DH-A ; 649 ; 2019-07-17 12:03:49.365314 ; 20.32 
96 ; Les Fonds ; 21NT ; LF-21NT-2019-DH-A ; 649 ; 2019-07-17 12:03:50.105490 ; 20.03 
97 ; Les Fonds ; 21NT ; LF-21NT-2019-DH-A ; 649 ; 2019-07-17 12:03:50.908957 ; 19.82 
98 ; Les Fonds ; 21NT ; LF-21NT-2019-DH-A ; 649 ; 2019-07-17 12:03:51.717545 ; 19.68 
99 ; Les Fonds ; 21NT ; LF-21NT-2019-DH-A ; 649 ; 2019-07-17 12:03:52.454103 ; 19.44 
100 ; Les Fonds ; 21NT ; LF-21NT-2019-DH-A ; 649 ; 2019-07-17 12:03:53.250283 ; 19.13 
101 ; Les Fonds ; 21NT ; LF-21NT-2019-DH-A ; 649 ; 2019-07-17 12:03:54.056853 ; 18.92 
102 ; Les Fonds ; 21NT ; LF-21NT-2019-DH-A ; 649 ; 2019-07-17 12:03:54.809909 ; 18.74 
103 ; Les Fonds ; 21NT ; LF-21NT-2019-DH-A ; 649 ; 2019-07-17 12:03:55.605564 ; 18.65 
104 ; Les Fonds ; 21NT ; LF-21NT-2019-DH-A ; 649 ; 2019-07-17 12:03:56.410595 ; 18.58 
105 ; Les Fonds ; 21NT ; LF-21NT-2019-DH-A ; 649 ; 2019-07-17 12:03:57.143740 ; 18.49 
106 ; Les Fonds ; 21NT ; LF-21NT-2019-DH-A ; 649 ; 2019-07-17 12:03:57.944936 ; 18.39 
107 ; Les Fonds ; 21NT ; LF-21NT-2019-DH-A ; 649 ; 2019-07-17 12:03:58.748428 ; 18.29 
108 ; Les Fonds ; 21NT ; LF-21NT-2019-DH-A ; 649 ; 2019-07-17 12:03:59.494910 ; 18.18 
109 ; Les Fonds ; 21NT ; LF-21NT-2019-DH-A ; 649 ; 2019-07-17 12:04:00.299734 ; 17.92 
110 ; Les Fonds ; 21NT ; LF-21NT-2019-DH-A ; 649 ; 2019-07-17 12:04:01.096574 ; 17.75 
111 ; Les Fonds ; 21NT ; LF-21NT-2019-DH-A ; 649 ; 2019-07-17 12:04:01.841845 ; 17.62 
112 ; Les Fonds ; 21NT ; LF-21NT-2019-DH-A ; 649 ; 2019-07-17 12:04:02.644368 ; 17.51 
113 ; Les Fonds ; 21NT ; LF-21NT-2019-DH-A ; 649 ; 2019-07-17 12:04:03.441641 ; 17.33 
114 ; Les Fonds ; 21NT ; LF-21NT-2019-DH-A ; 649 ; 2019-07-17 12:04:04.185356 ; 17.14 
115 ; Les Fonds ; 21NT ; LF-21NT-2019-DH-A ; 649 ; 2019-07-17 12:04:04.997150 ; 16.92 
116 ; Les Fonds ; 21NT ; LF-21NT-2019-DH-A ; 649 ; 2019-07-17 12:04:05.787303 ; 16.65 
117 ; Les Fonds ; 21NT ; LF-21NT-2019-DH-A ; 649 ; 2019-07-17 12:04:06.534309 ; 16.35 
118 ; Les Fonds ; 21NT ; LF-21NT-2019-DH-A ; 649 ; 2019-07-17 12:04:07.331902 ; 16.11 
119 ; Les Fonds ; 21NT ; LF-21NT-2019-DH-A ; 649 ; 2019-07-17 12:04:08.136201 ; 15.92 
120 ; Les Fonds ; 21NT ; LF-21NT-2019-DH-A ; 649 ; 2019-07-17 12:04:08.893728 ; 15.62 
121 ; Les Fonds ; 21NT ; LF-21NT-2019-DH-A ; 649 ; 2019-07-17 12:04:09.684957 ; 15 
122 ; Les Fonds ; 21NT ; LF-21NT-2019-DH-A ; 649 ; 2019-07-17 12:04:10.484450 ; 14.23 
123 ; Les Fonds ; 21NT ; LF-21NT-2019-DH-A ; 649 ; 2019-07-17 12:04:11.224860 ; 13.77 
124 ; Les Fonds ; 21NT ; LF-21NT-2019-DH-A ; 649 ; 2019-07-17 12:04:12.026485 ; 13.68 
125 ; Les Fonds ; 21NT ; LF-21NT-2019-DH-A ; 649 ; 2019-07-17 12:04:12.820922 ; 13.61 
126 ; Les Fonds ; 21NT ; LF-21NT-2019-DH-A ; 649 ; 2019-07-17 12:04:13.585573 ; 13.57 
127 ; Les Fonds ; 21NT ; LF-21NT-2019-DH-A ; 649 ; 2019-07-17 12:04:14.427117 ; 13.47 
128 ; Les Fonds ; 21NT ; LF-21NT-2019-DH-A ; 649 ; 2019-07-17 12:04:15.278021 ; 13.18 
129 ; Les Fonds ; 21NT ; LF-21NT-2019-DH-A ; 649 ; 2019-07-17 12:04:16.243959 ; 12.83 
130 ; Les Fonds ; 21NT ; LF-21NT-2019-DH-A ; 649 ; 2019-07-17 12:04:17.200217 ; 12.69 
131 ; Les Fonds ; 21NT ; LF-21NT-2019-DH-A ; 649 ; 2019-07-17 12:04:18.170110 ; 12.67 
132 ; Les Fonds ; 21NT ; LF-21NT-2019-DH-A ; 649 ; 2019-07-17 12:04:19.015861 ; 12.66 
133 ; Les Fonds ; 21NT ; LF-21NT-2019-DH-A ; 649 ; 2019-07-17 12:04:19.974672 ; 12.62 
134 ; Les Fonds ; 21NT ; LF-21NT-2019-DH-A ; 649 ; 2019-07-17 12:04:20.830409 ; 12.6 
135 ; Les Fonds ; 21NT ; LF-21NT-2019-DH-A ; 649 ; 2019-07-17 12:04:21.682636 ; 12.56 
136 ; Les Fonds ; 21NT ; LF-21NT-2019-DH-A ; 649 ; 2019-07-17 12:04:22.588510 ; 12.41 
137 ; Les Fonds ; 21NT ; LF-21NT-2019-DH-A ; 649 ; 2019-07-17 12:04:23.450396 ; 12.34 
138 ; Les Fonds ; 21NT ; LF-21NT-2019-DH-A ; 649 ; 2019-07-17 12:04:24.290904 ; 12.35 
139 ; Les Fonds ; 21NT ; LF-21NT-2019-DH-A ; 649 ; 2019-07-17 12:04:25.043548 ; 12.32 
140 ; Les Fonds ; 21NT ; LF-21NT-2019-DH-A ; 649 ; 2019-07-17 12:04:25.894024 ; 12.27 
141 ; Les Fonds ; 21NT ; LF-21NT-2019-DH-A ; 649 ; 2019-07-17 12:04:26.805342 ; 12.01 
142 ; Les Fonds ; 21NT ; LF-21NT-2019-DH-A ; 649 ; 2019-07-17 12:04:27.668131 ; 11.95 
143 ; Les Fonds ; 21NT ; LF-21NT-2019-DH-A ; 649 ; 2019-07-17 12:04:28.511476 ; 11.91 
144 ; Les Fonds ; 21NT ; LF-21NT-2019-DH-A ; 649 ; 2019-07-17 12:04:29.357975 ; 11.87 
145 ; Les Fonds ; 21NT ; LF-21NT-2019-DH-A ; 649 ; 2019-07-17 12:04:30.215492 ; 11.85 
146 ; Les Fonds ; 21NT ; LF-21NT-2019-DH-A ; 649 ; 2019-07-17 12:04:31.067502 ; 11.86 
147 ; Les Fonds ; 21NT ; LF-21NT-2019-DH-A ; 649 ; 2019-07-17 12:04:31.873060 ; 11.75 
148 ; Les Fonds ; 21NT ; LF-21NT-2019-DH-A ; 649 ; 2019-07-17 12:04:32.679555 ; 11.72 
149 ; Les Fonds ; 21NT ; LF-21NT-2019-DH-A ; 649 ; 2019-07-17 12:04:33.524162 ; 11.57 
150 ; Les Fonds ; 21NT ; LF-21NT-2019-DH-A ; 649 ; 2019-07-17 12:04:34.480943 ; 11.46 
151 ; Les Fonds ; 21NT ; LF-21NT-2019-DH-A ; 649 ; 2019-07-17 12:04:35.280236 ; 11.45 
152 ; Les Fonds ; 21NT ; LF-21NT-2019-DH-A ; 649 ; 2019-07-17 12:04:36.085778 ; 11.42 
153 ; Les Fonds ; 21NT ; LF-21NT-2019-DH-A ; 649 ; 2019-07-17 12:04:37.051447 ; 11.41 
154 ; Les Fonds ; 21NT ; LF-21NT-2019-DH-A ; 649 ; 2019-07-17 12:04:37.896538 ; 11.36 
155 ; Les Fonds ; 21NT ; LF-21NT-2019-DH-A ; 649 ; 2019-07-17 12:04:38.645583 ; 11.32 
156 ; Les Fonds ; 21NT ; LF-21NT-2019-DH-A ; 649 ; 2019-07-17 12:04:39.496128 ; 11.32 
157 ; Les Fonds ; 21NT ; LF-21NT-2019-DH-A ; 649 ; 2019-07-17 12:04:40.287261 ; 11.2 
158 ; Les Fonds ; 21NT ; LF-21NT-2019-DH-A ; 649 ; 2019-07-17 12:04:41.148795 ; 11.11 
159 ; Les Fonds ; 21NT ; LF-21NT-2019-DH-A ; 649 ; 2019-07-17 12:04:42.116578 ; 11.07 
160 ; Les Fonds ; 21NT ; LF-21NT-2019-DH-A ; 649 ; 2019-07-17 12:04:43.067354 ; 11.06 
161 ; Les Fonds ; 21NT ; LF-21NT-2019-DH-A ; 649 ; 2019-07-17 12:04:43.920925 ; 11.03 
162 ; Les Fonds ; 21NT ; LF-21NT-2019-DH-A ; 649 ; 2019-07-17 12:04:44.881242 ; 11.02 
163 ; Les Fonds ; 21NT ; LF-21NT-2019-DH-A ; 649 ; 2019-07-17 12:04:45.803633 ; 10.92 
164 ; Les Fonds ; 21NT ; LF-21NT-2019-DH-A ; 649 ; 2019-07-17 12:04:46.705063 ; 10.91 
165 ; Les Fonds ; 21NT ; LF-21NT-2019-DH-A ; 649 ; 2019-07-17 12:04:47.605711 ; 10.88 
166 ; Les Fonds ; 21NT ; LF-21NT-2019-DH-A ; 649 ; 2019-07-17 12:04:48.456836 ; 10.85 
167 ; Les Fonds ; 21NT ; LF-21NT-2019-DH-A ; 649 ; 2019-07-17 12:04:49.356984 ; 10.73 
168 ; Les Fonds ; 21NT ; LF-21NT-2019-DH-A ; 649 ; 2019-07-17 12:04:50.162503 ; 10.69 
169 ; Les Fonds ; 21NT ; LF-21NT-2019-DH-A ; 649 ; 2019-07-17 12:04:51.028584 ; 10.67 
170 ; Les Fonds ; 21NT ; LF-21NT-2019-DH-A ; 649 ; 2019-07-17 12:04:51.927005 ; 10.66 
171 ; Les Fonds ; 21NT ; LF-21NT-2019-DH-A ; 649 ; 2019-07-17 12:04:52.881224 ; 10.65 
172 ; Les Fonds ; 21NT ; LF-21NT-2019-DH-A ; 649 ; 2019-07-17 12:04:53.626082 ; 10.57 
173 ; Les Fonds ; 21NT ; LF-21NT-2019-DH-A ; 649 ; 2019-07-17 12:04:54.427226 ; 10.48 
174 ; Les Fonds ; 21NT ; LF-21NT-2019-DH-A ; 649 ; 2019-07-17 12:04:55.225347 ; 10.35 
175 ; Les Fonds ; 21NT ; LF-21NT-2019-DH-A ; 649 ; 2019-07-17 12:04:56.042029 ; 10.3 
176 ; Les Fonds ; 21NT ; LF-21NT-2019-DH-A ; 649 ; 2019-07-17 12:04:56.884728 ; 10.27 
177 ; Les Fonds ; 21NT ; LF-21NT-2019-DH-A ; 649 ; 2019-07-17 12:04:57.806253 ; 10.24 
178 ; Les Fonds ; 21NT ; LF-21NT-2019-DH-A ; 649 ; 2019-07-17 12:04:58.801361 ; 10.18 
179 ; Les Fonds ; 21NT ; LF-21NT-2019-DH-A ; 649 ; 2019-07-17 12:04:59.708595 ; 10.12 
180 ; Les Fonds ; 21NT ; LF-21NT-2019-DH-A ; 649 ; 2019-07-17 12:05:00.569694 ; 10.1 
181 ; Les Fonds ; 21NT ; LF-21NT-2019-DH-A ; 649 ; 2019-07-17 12:05:01.417834 ; 10.04 
182 ; Les Fonds ; 21NT ; LF-21NT-2019-DH-A ; 649 ; 2019-07-17 12:05:02.315448 ; 10.03 
183 ; Les Fonds ; 21NT ; LF-21NT-2019-DH-A ; 649 ; 2019-07-17 12:05:03.174669 ; 9.96 
184 ; Les Fonds ; 21NT ; LF-21NT-2019-DH-A ; 649 ; 2019-07-17 12:05:03.974484 ; 9.96 
185 ; Les Fonds ; 21NT ; LF-21NT-2019-DH-A ; 649 ; 2019-07-17 12:05:04.770044 ; 9.87 
186 ; Les Fonds ; 21NT ; LF-21NT-2019-DH-A ; 649 ; 2019-07-17 12:05:05.741811 ; 9.86 
187 ; Les Fonds ; 21NT ; LF-21NT-2019-DH-A ; 649 ; 2019-07-17 12:05:06.693598 ; 9.84 
188 ; Les Fonds ; 21NT ; LF-21NT-2019-DH-A ; 649 ; 2019-07-17 12:05:07.554818 ; 9.81 
189 ; Les Fonds ; 21NT ; LF-21NT-2019-DH-A ; 649 ; 2019-07-17 12:05:08.512901 ; 9.76 
190 ; Les Fonds ; 21NT ; LF-21NT-2019-DH-A ; 649 ; 2019-07-17 12:05:09.411930 ; 9.71 
191 ; Les Fonds ; 21NT ; LF-21NT-2019-DH-A ; 649 ; 2019-07-17 12:05:10.382266 ; 9.69 
192 ; Les Fonds ; 21NT ; LF-21NT-2019-DH-A ; 649 ; 2019-07-17 12:05:11.173797 ; 9.66 
193 ; Les Fonds ; 21NT ; LF-21NT-2019-DH-A ; 649 ; 2019-07-17 12:05:12.084264 ; 9.57 
194 ; Les Fonds ; 21NT ; LF-21NT-2019-DH-A ; 649 ; 2019-07-17 12:05:13.041288 ; 9.51 
195 ; Les Fonds ; 21NT ; LF-21NT-2019-DH-A ; 649 ; 2019-07-17 12:05:13.946725 ; 9.46 
196 ; Les Fonds ; 21NT ; LF-21NT-2019-DH-A ; 649 ; 2019-07-17 12:05:14.747541 ; 9.44 
197 ; Les Fonds ; 21NT ; LF-21NT-2019-DH-A ; 649 ; 2019-07-17 12:05:15.716032 ; 9.42 
198 ; Les Fonds ; 21NT ; LF-21NT-2019-DH-A ; 649 ; 2019-07-17 12:05:16.511343 ; 9.38 
199 ; Les Fonds ; 21NT ; LF-21NT-2019-DH-A ; 649 ; 2019-07-17 12:05:17.305516 ; 9.15 
200 ; Les Fonds ; 21NT ; LF-21NT-2019-DH-A ; 649 ; 2019-07-17 12:05:18.269277 ; 9.03 
201 ; Les Fonds ; 21NT ; LF-21NT-2019-DH-A ; 649 ; 2019-07-17 12:05:19.121083 ; 8.89 
202 ; Les Fonds ; 21NT ; LF-21NT-2019-DH-A ; 649 ; 2019-07-17 12:05:19.869453 ; 8.47 
203 ; Les Fonds ; 21NT ; LF-21NT-2019-DH-A ; 649 ; 2019-07-17 12:05:20.619880 ; 8.13 
204 ; Les Fonds ; 21NT ; LF-21NT-2019-DH-A ; 649 ; 2019-07-17 12:05:21.362020 ; 7.59 
205 ; Les Fonds ; 21NT ; LF-21NT-2019-DH-A ; 649 ; 2019-07-17 12:05:22.104984 ; 6.68 
206 ; Les Fonds ; 21NT ; LF-21NT-2019-DH-A ; 649 ; 2019-07-17 12:05:22.854738 ; 5.84 
207 ; Les Fonds ; 21NT ; LF-21NT-2019-DH-A ; 649 ; 2019-07-17 12:05:23.601112 ; 5.69 
208 ; Les Fonds ; 21NT ; LF-21NT-2019-DH-A ; 649 ; 2019-07-17 12:05:24.357324 ; 5.57 
209 ; Les Fonds ; 21NT ; LF-21NT-2019-DH-A ; 649 ; 2019-07-17 12:05:25.091809 ; 5.43 
210 ; Les Fonds ; 21NT ; LF-21NT-2019-DH-A ; 649 ; 2019-07-17 12:05:25.842236 ; 5.36 
211 ; Les Fonds ; 21NT ; LF-21NT-2019-DH-A ; 649 ; 2019-07-17 12:05:26.639704 ; 5.32 
212 ; Les Fonds ; 21NT ; LF-21NT-2019-DH-A ; 649 ; 2019-07-17 12:05:27.498388 ; 5.3 
213 ; Les Fonds ; 21NT ; LF-21NT-2019-DH-A ; 649 ; 2019-07-17 12:05:28.344552 ; 5.3 
214 ; Les Fonds ; 21NT ; LF-21NT-2019-DH-A ; 649 ; 2019-07-17 12:05:29.202804 ; 5.3 
215 ; Les Fonds ; 21NT ; LF-21NT-2019-DH-A ; 649 ; 2019-07-17 12:05:30.050284 ; 5.29 
216 ; Les Fonds ; 21NT ; LF-21NT-2019-DH-A ; 649 ; 2019-07-17 12:05:30.909236 ; 5.27 
217 ; Les Fonds ; 21NT ; LF-21NT-2019-DH-A ; 649 ; 2019-07-17 12:05:31.767117 ; 5.27 
218 ; Les Fonds ; 21NT ; LF-21NT-2019-DH-A ; 649 ; 2019-07-17 12:05:32.610131 ; 5.27 
219 ; Les Fonds ; 21NT ; LF-21NT-2019-DH-A ; 649 ; 2019-07-17 12:05:43.475386 ; 5.19 
220 ; Les Fonds ; 21NT ; LF-21NT-2019-DH-A ; 649 ; 2019-07-17 12:05:54.363611 ; 5.12 
221 ; Les Fonds ; 21NT ; LF-21NT-2019-DH-A ; 649 ; 2019-07-17 12:06:05.346880 ; 5.08 
222 ; Les Fonds ; 21NT ; LF-21NT-2019-DH-A ; 649 ; 2019-07-17 12:06:16.330689 ; 5.04 
223 ; Les Fonds ; 21NT ; LF-21NT-2019-DH-A ; 649 ; 2019-07-17 12:06:27.158535 ; 4.99 
224 ; Les Fonds ; 21NT ; LF-21NT-2019-DH-A ; 649 ; 2019-07-17 12:06:37.984853 ; 4.96 
225 ; Les Fonds ; 21NT ; LF-21NT-2019-DH-A ; 649 ; 2019-07-17 12:06:48.872032 ; 4.94 
226 ; Les Fonds ; 21NT ; LF-21NT-2019-DH-A ; 649 ; 2019-07-17 12:06:59.800069 ; 4.91 
227 ; Les Fonds ; 21NT ; LF-21NT-2019-DH-A ; 649 ; 2019-07-17 12:07:10.677203 ; 4.91 
228 ; Les Fonds ; 21NT ; LF-21NT-2019-DH-A ; 649 ; 2019-07-17 12:07:21.556113 ; 4.88 
229 ; Les Fonds ; 21NT ; LF-21NT-2019-DH-A ; 649 ; 2019-07-17 12:07:32.435673 ; 4.88 
230 ; Les Fonds ; 21NT ; LF-21NT-2019-DH-A ; 649 ; 2019-07-17 12:07:43.315884 ; 4.87 
231 ; Les Fonds ; 21NT ; LF-21NT-2019-DH-A ; 649 ; 2019-07-17 12:07:54.203603 ; 4.81 
232 ; Les Fonds ; 21NT ; LF-21NT-2019-DH-A ; 649 ; 2019-07-17 12:08:05.026253 ; 4.79 
233 ; Les Fonds ; 21NT ; LF-21NT-2019-DH-A ; 649 ; 2019-07-17 12:08:15.953577 ; 4.78 
234 ; Les Fonds ; 21NT ; LF-21NT-2019-DH-A ; 649 ; 2019-07-17 12:08:26.837887 ; 4.75 
235 ; Les Fonds ; 21NT ; LF-21NT-2019-DH-A ; 649 ; 2019-07-17 12:08:37.719464 ; 4.74 
236 ; Les Fonds ; 21NT ; LF-21NT-2019-DH-A ; 649 ; 2019-07-17 12:08:48.603789 ; 4.73 
237 ; Les Fonds ; 21NT ; LF-21NT-2019-DH-A ; 649 ; 2019-07-17 12:08:59.482977 ; 4.73 
238 ; Les Fonds ; 21NT ; LF-21NT-2019-DH-A ; 649 ; 2019-07-17 12:09:10.361617 ; 4.72 
239 ; Les Fonds ; 21NT ; LF-21NT-2019-DH-A ; 649 ; 2019-07-17 12:09:21.244689 ; 4.73 
240 ; Les Fonds ; 21NT ; LF-21NT-2019-DH-A ; 649 ; 2019-07-17 12:09:32.117043 ; 4.72 
241 ; Les Fonds ; 21NT ; LF-21NT-2019-DH-A ; 649 ; 2019-07-17 12:09:43.013662 ; 4.71 
242 ; Les Fonds ; 21NT ; LF-21NT-2019-DH-A ; 649 ; 2019-07-17 12:09:53.983062 ; 4.71 
243 ; Les Fonds ; 21NT ; LF-21NT-2019-DH-A ; 649 ; 2019-07-17 12:10:04.863484 ; 4.7 
244 ; Les Fonds ; 21NT ; LF-21NT-2019-DH-A ; 649 ; 2019-07-17 12:10:15.757411 ; 4.7 
245 ; Les Fonds ; 21NT ; LF-21NT-2019-DH-A ; 649 ; 2019-07-17 12:10:26.620423 ; 4.7 
246 ; Les Fonds ; 21NT ; LF-21NT-2019-DH-A ; 649 ; 2019-07-17 12:10:37.502762 ; 4.69 
247 ; Les Fonds ; 21NT ; LF-21NT-2019-DH-A ; 649 ; 2019-07-17 12:10:48.389789 ; 4.69 
248 ; Les Fonds ; 21NT ; LF-21NT-2019-DH-A ; 649 ; 2019-07-17 12:10:59.261486 ; 4.54 
249 ; Les Fonds ; 21NT ; LF-21NT-2019-DH-A ; 649 ; 2019-07-17 12:11:10.198343 ; 4.53 
250 ; Les Fonds ; 21NT ; LF-21NT-2019-DH-A ; 649 ; 2019-07-17 12:11:21.076763 ; 4.51 
251 ; Les Fonds ; 21NT ; LF-21NT-2019-DH-A ; 649 ; 2019-07-17 12:11:32.011377 ; 4.5 
252 ; Les Fonds ; 21NT ; LF-21NT-2019-DH-A ; 649 ; 2019-07-17 12:11:42.899884 ; 4.49 
253 ; Les Fonds ; 21NT ; LF-21NT-2019-DH-A ; 649 ; 2019-07-17 12:11:53.772725 ; 4.46 
254 ; Les Fonds ; 21NT ; LF-21NT-2019-DH-A ; 649 ; 2019-07-17 12:12:04.652605 ; 4.46 
255 ; Les Fonds ; 21NT ; LF-21NT-2019-DH-A ; 649 ; 2019-07-17 12:12:15.528884 ; 4.45 
256 ; Les Fonds ; 21NT ; LF-21NT-2019-DH-A ; 649 ; 2019-07-17 12:12:26.410082 ; 4.44 
257 ; Les Fonds ; 21NT ; LF-21NT-2019-DH-A ; 649 ; 2019-07-17 12:12:37.400122 ; 4.43 
258 ; Les Fonds ; 21NT ; LF-21NT-2019-DH-A ; 649 ; 2019-07-17 12:13:08.282460 ; 4.4 
259 ; Les Fonds ; 21NT ; LF-21NT-2019-DH-A ; 649 ; 2019-07-17 12:13:39.102932 ; 4.39 
260 ; Les Fonds ; 21NT ; LF-21NT-2019-DH-A ; 649 ; 2019-07-17 12:14:09.983534 ; 4.36 
261 ; Les Fonds ; 21NT ; LF-21NT-2019-DH-A ; 649 ; 2019-07-17 12:14:40.867078 ; 4.32 
262 ; Les Fonds ; 21NT ; LF-21NT-2019-DH-A ; 649 ; 2019-07-17 12:15:11.797021 ; 4.28 
263 ; Les Fonds ; 21NT ; LF-21NT-2019-DH-A ; 649 ; 2019-07-17 12:15:42.742800 ; 4.26 
264 ; Les Fonds ; 21NT ; LF-21NT-2019-DH-A ; 649 ; 2019-07-17 12:16:13.666291 ; 4.24 
265 ; Les Fonds ; 21NT ; LF-21NT-2019-DH-A ; 649 ; 2019-07-17 12:16:44.492033 ; 4.22 
266 ; Les Fonds ; 21NT ; LF-21NT-2019-DH-A ; 649 ; 2019-07-17 12:17:15.425827 ; 4.21 
267 ; Les Fonds ; 21NT ; LF-21NT-2019-DH-A ; 649 ; 2019-07-17 12:17:46.355058 ; 4.2 
268 ; Les Fonds ; 21NT ; LF-21NT-2019-DH-A ; 649 ; 2019-07-17 12:18:17.297435 ; 4.19 
269 ; Les Fonds ; 21NT ; LF-21NT-2019-DH-A ; 649 ; 2019-07-17 12:18:48.222718 ; 4.19 
270 ; Les Fonds ; 21NT ; LF-21NT-2019-DH-A ; 649 ; 2019-07-17 12:19:19.151677 ; 4.18 
271 ; Les Fonds ; 21NT ; LF-21NT-2019-DH-A ; 649 ; 2019-07-17 12:19:50.037686 ; 4.16 
272 ; Les Fonds ; 21NT ; LF-21NT-2019-DH-A ; 649 ; 2019-07-17 12:20:20.972927 ; 4.16 
273 ; Les Fonds ; 21NT ; LF-21NT-2019-DH-A ; 649 ; 2019-07-17 12:20:51.808923 ; 4.16 
274 ; Les Fonds ; 21NT ; LF-21NT-2019-DH-A ; 649 ; 2019-07-17 12:21:22.726452 ; 4.16 
275 ; Les Fonds ; 21NT ; LF-21NT-2019-DH-A ; 649 ; 2019-07-17 12:21:53.661927 ; 4.15 
276 ; Les Fonds ; 21NT ; LF-21NT-2019-DH-A ; 649 ; 2019-07-17 12:22:24.598766 ; 4.15 
277 ; Les Fonds ; 21NT ; LF-21NT-2019-DH-A ; 649 ; 2019-07-17 12:22:55.526233 ; 4.14 
278 ; Les Fonds ; 21NT ; LF-21NT-2019-DH-A ; 649 ; 2019-07-17 12:23:26.469852 ; 4.13 
279 ; Les Fonds ; 21NT ; LF-21NT-2019-DH-A ; 649 ; 2019-07-17 12:23:57.397377 ; 4.13 
280 ; Les Fonds ; 21NT ; LF-21NT-2019-DH-A ; 649 ; 2019-07-17 12:24:28.327286 ; 4.13 
281 ; Les Fonds ; 21NT ; LF-21NT-2019-DH-A ; 649 ; 2019-07-17 12:24:59.264281 ; 4.13 
282 ; Les Fonds ; 21NT ; LF-21NT-2019-DH-A ; 649 ; 2019-07-17 12:25:30.190635 ; 4.12 
283 ; Les Fonds ; 21NT ; LF-21NT-2019-DH-A ; 649 ; 2019-07-17 12:26:01.130350 ; 4.11 
284 ; Les Fonds ; 21NT ; LF-21NT-2019-DH-A ; 649 ; 2019-07-17 12:26:32.069534 ; 4.1 
285 ; Les Fonds ; 21NT ; LF-21NT-2019-DH-A ; 649 ; 2019-07-17 12:27:03.025093 ; 4.09 
286 ; Les Fonds ; 21NT ; LF-21NT-2019-DH-A ; 649 ; 2019-07-17 12:27:33.958646 ; 4.09 
287 ; Les Fonds ; 21NT ; LF-21NT-2019-DH-A ; 649 ; 2019-07-17 12:28:04.888350 ; 4.07 
288 ; Les Fonds ; 21NT ; LF-21NT-2019-DH-A ; 649 ; 2019-07-17 12:28:35.771964 ; 4.08 
289 ; Les Fonds ; 21NT ; LF-21NT-2019-DH-A ; 649 ; 2019-07-17 12:29:06.709667 ; 4.07 
290 ; Les Fonds ; 21NT ; LF-21NT-2019-DH-A ; 649 ; 2019-07-17 12:29:37.640492 ; 4.08 
291 ; Les Fonds ; 21NT ; LF-21NT-2019-DH-A ; 649 ; 2019-07-17 12:30:08.571772 ; 4.07 
292 ; Les Fonds ; 21NT ; LF-21NT-2019-DH-A ; 649 ; 2019-07-17 12:30:39.503299 ; 4.08 
293 ; Les Fonds ; 21NT ; LF-21NT-2019-DH-A ; 649 ; 2019-07-17 12:31:10.437903 ; 4.08 
294 ; Les Fonds ; 21NT ; LF-21NT-2019-DH-A ; 649 ; 2019-07-17 12:31:41.373566 ; 4.07 
295 ; Les Fonds ; 21NT ; LF-21NT-2019-DH-A ; 649 ; 2019-07-17 12:32:12.305587 ; 4.07 
296 ; Les Fonds ; 21NT ; LF-21NT-2019-DH-A ; 649 ; 2019-07-17 12:32:43.232982 ; 4.06 
297 ; Les Fonds ; 21NT ; LF-21NT-2019-DH-A ; 649 ; 2019-07-17 12:33:14.169775 ; 4.06 
298 ; Les Fonds ; 21NT ; LF-21NT-2019-DH-A ; 649 ; 2019-07-17 12:33:45.099020 ; 4.06 
299 ; Les Fonds ; 21NT ; LF-21NT-2019-DH-A ; 649 ; 2019-07-17 12:34:15.989751 ; 4.06 
300 ; Les Fonds ; 21NT ; LF-21NT-2019-DH-A ; 649 ; 2019-07-17 12:34:46.913112 ; 4.05 
301 ; Les Fonds ; 21NT ; LF-21NT-2019-DH-A ; 649 ; 2019-07-17 12:35:17.849905 ; 4.05 
302 ; Les Fonds ; 21NT ; LF-21NT-2019-DH-A ; 649 ; 2019-07-17 12:35:48.792856 ; 4.06 
303 ; Les Fonds ; 21NT ; LF-21NT-2019-DH-A ; 649 ; 2019-07-17 12:36:19.721459 ; 4.05 
304 ; Les Fonds ; 21NT ; LF-21NT-2019-DH-A ; 649 ; 2019-07-17 12:36:50.651081 ; 4.05 
305 ; Les Fonds ; 21NT ; LF-21NT-2019-DH-A ; 649 ; 2019-07-17 12:37:21.588761 ; 4.05 
306 ; Les Fonds ; 21NT ; LF-21NT-2019-DH-A ; 649 ; 2019-07-17 12:37:52.512912 ; 4.04 
307 ; Les Fonds ; 21NT ; LF-21NT-2019-DH-A ; 649 ; 2019-07-17 12:38:23.449036 ; 4.04 
308 ; Les Fonds ; 21NT ; LF-21NT-2019-DH-A ; 649 ; 2019-07-17 12:38:54.381162 ; 4.03 
309 ; Les Fonds ; 21NT ; LF-21NT-2019-DH-A ; 649 ; 2019-07-17 12:39:25.211900 ; 4.02 
310 ; Les Fonds ; 21NT ; LF-21NT-2019-DH-A ; 649 ; 2019-07-17 12:39:56.152022 ; 4.02 
311 ; Les Fonds ; 21NT ; LF-21NT-2019-DH-A ; 649 ; 2019-07-17 12:40:27.073533 ; 4.01 
312 ; Les Fonds ; 21NT ; LF-21NT-2019-DH-A ; 649 ; 2019-07-17 12:40:58.007182 ; 4.02 
313 ; Les Fonds ; 21NT ; LF-21NT-2019-DH-A ; 649 ; 2019-07-17 12:41:28.946837 ; 4.01 
314 ; Les Fonds ; 21NT ; LF-21NT-2019-DH-A ; 649 ; 2019-07-17 12:41:59.876203 ; 4 
315 ; Les Fonds ; 21NT ; LF-21NT-2019-DH-A ; 649 ; 2019-07-17 12:42:30.822839 ; 4 
316 ; Les Fonds ; 21NT ; LF-21NT-2019-DH-A ; 649 ; 2019-07-17 12:43:01.740152 ; 4.01 
317 ; Les Fonds ; 21NT ; LF-21NT-2019-DH-A ; 649 ; 2019-07-17 12:43:32.678238 ; 4 
318 ; Les Fonds ; 21NT ; LF-21NT-2019-DH-A ; 649 ; 2019-07-17 12:44:03.609432 ; 3.99 
319 ; Les Fonds ; 21NT ; LF-21NT-2019-DH-A ; 649 ; 2019-07-17 12:44:34.436946 ; 3.98 
320 ; Les Fonds ; 21NT ; LF-21NT-2019-DH-A ; 649 ; 2019-07-17 12:45:05.369862 ; 3.99 
321 ; Les Fonds ; 21NT ; LF-21NT-2019-DH-A ; 649 ; 2019-07-17 12:45:36.310108 ; 3.99 
322 ; Les Fonds ; 21NT ; LF-21NT-2019-DH-A ; 649 ; 2019-07-17 12:46:07.234316 ; 3.99 
323 ; Les Fonds ; 21NT ; LF-21NT-2019-DH-A ; 649 ; 2019-07-17 12:46:38.167618 ; 3.98 
324 ; Les Fonds ; 21NT ; LF-21NT-2019-DH-A ; 649 ; 2019-07-17 12:47:09.105101 ; 3.99 
325 ; Les Fonds ; 21NT ; LF-21NT-2019-DH-A ; 649 ; 2019-07-17 12:47:40.037590 ; 3.98 
326 ; Les Fonds ; 21NT ; LF-21NT-2019-DH-A ; 649 ; 2019-07-17 12:48:10.977312 ; 3.99 
327 ; Les Fonds ; 21NT ; LF-21NT-2019-DH-A ; 649 ; 2019-07-17 12:48:41.907712 ; 3.98 
328 ; Les Fonds ; 21NT ; LF-21NT-2019-DH-A ; 649 ; 2019-07-17 12:49:12.827715 ; 3.98 
329 ; Les Fonds ; 21NT ; LF-21NT-2019-DH-A ; 649 ; 2019-07-17 12:49:43.767529 ; 3.98 
330 ; Les Fonds ; 21NT ; LF-21NT-2019-DH-A ; 649 ; 2019-07-17 12:50:14.699588 ; 3.98 
331 ; Les Fonds ; 21NT ; LF-21NT-2019-DH-A ; 649 ; 2019-07-17 12:50:45.640480 ; 3.98 
332 ; Les Fonds ; 21NT ; LF-21NT-2019-DH-A ; 649 ; 2019-07-17 12:51:16.568126 ; 3.97 
333 ; Les Fonds ; 21NT ; LF-21NT-2019-DH-A ; 649 ; 2019-07-17 12:51:47.502589 ; 3.97 
334 ; Les Fonds ; 21NT ; LF-21NT-2019-DH-A ; 649 ; 2019-07-17 12:52:18.433275 ; 3.96 
335 ; Les Fonds ; 21NT ; LF-21NT-2019-DH-A ; 649 ; 2019-07-17 12:52:49.369933 ; 3.96 
336 ; Les Fonds ; 21NT ; LF-21NT-2019-DH-A ; 649 ; 2019-07-17 12:53:20.300616 ; 3.96 
337 ; Les Fonds ; 21NT ; LF-21NT-2019-DH-A ; 649 ; 2019-07-17 12:53:51.239212 ; 3.96 
338 ; Les Fonds ; 21NT ; LF-21NT-2019-DH-A ; 649 ; 2019-07-17 12:54:22.166025 ; 3.96 
339 ; Les Fonds ; 21NT ; LF-21NT-2019-DH-A ; 649 ; 2019-07-17 12:54:53.099830 ; 3.96 
340 ; Les Fonds ; 21NT ; LF-21NT-2019-DH-A ; 649 ; 2019-07-17 12:55:24.034516 ; 3.95 
341 ; Les Fonds ; 21NT ; LF-21NT-2019-DH-A ; 649 ; 2019-07-17 12:55:54.969260 ; 3.94 
342 ; Les Fonds ; 21NT ; LF-21NT-2019-DH-A ; 649 ; 2019-07-17 12:56:25.914453 ; 3.94 
343 ; Les Fonds ; 21NT ; LF-21NT-2019-DH-A ; 649 ; 2019-07-17 12:56:56.834153 ; 3.93 
344 ; Les Fonds ; 21NT ; LF-21NT-2019-DH-A ; 649 ; 2019-07-17 12:57:27.784515 ; 3.92 
345 ; Les Fonds ; 21NT ; LF-21NT-2019-DH-A ; 649 ; 2019-07-17 12:57:58.705354 ; 3.92 
346 ; Les Fonds ; 21NT ; LF-21NT-2019-DH-A ; 649 ; 2019-07-17 12:58:29.633436 ; 3.91 
347 ; Les Fonds ; 21NT ; LF-21NT-2019-DH-A ; 649 ; 2019-07-17 12:59:00.577907 ; 3.91 
348 ; Les Fonds ; 21NT ; LF-21NT-2019-DH-A ; 649 ; 2019-07-17 12:59:31.502563 ; 3.91 
349 ; Les Fonds ; 21NT ; LF-21NT-2019-DH-A ; 649 ; 2019-07-17 13:00:02.432215 ; 3.91 
350 ; Les Fonds ; 21NT ; LF-21NT-2019-DH-A ; 649 ; 2019-07-17 13:00:33.365066 ; 3.9 
351 ; Les Fonds ; 21NT ; LF-21NT-2019-DH-A ; 649 ; 2019-07-17 13:01:04.302188 ; 3.9 
352 ; Les Fonds ; 21NT ; LF-21NT-2019-DH-A ; 649 ; 2019-07-17 13:01:35.231145 ; 3.86 
353 ; Les Fonds ; 21NT ; LF-21NT-2019-DH-A ; 649 ; 2019-07-17 13:02:06.177649 ; 3.86 
354 ; Les Fonds ; 21NT ; LF-21NT-2019-DH-A ; 649 ; 2019-07-17 13:02:37.099726 ; 3.86 
355 ; Les Fonds ; 21NT ; LF-21NT-2019-DH-A ; 649 ; 2019-07-17 13:03:08.030797 ; 3.86 
356 ; Les Fonds ; 21NT ; LF-21NT-2019-DH-A ; 649 ; 2019-07-17 13:03:38.966825 ; 3.85 
357 ; Les Fonds ; 21NT ; LF-21NT-2019-DH-A ; 649 ; 2019-07-17 13:04:09.906350 ; 3.85 
358 ; Les Fonds ; 21NT ; LF-21NT-2019-DH-A ; 649 ; 2019-07-17 13:04:40.844422 ; 3.84 
359 ; Les Fonds ; 21NT ; LF-21NT-2019-DH-A ; 649 ; 2019-07-17 13:05:11.772836 ; 3.84 
360 ; Les Fonds ; 21NT ; LF-21NT-2019-DH-A ; 649 ; 2019-07-17 13:05:42.648827 ; 3.84 
361 ; Les Fonds ; 21NT ; LF-21NT-2019-DH-A ; 649 ; 2019-07-17 13:06:13.580648 ; 3.85 
362 ; Les Fonds ; 21NT ; LF-21NT-2019-DH-A ; 649 ; 2019-07-17 13:06:44.519552 ; 3.85 
363 ; Les Fonds ; 21NT ; LF-21NT-2019-DH-A ; 649 ; 2019-07-17 13:07:15.450155 ; 3.84 
364 ; Les Fonds ; 21NT ; LF-21NT-2019-DH-A ; 649 ; 2019-07-17 13:07:46.390743 ; 3.84 
365 ; Les Fonds ; 21NT ; LF-21NT-2019-DH-A ; 649 ; 2019-07-17 13:08:17.346737 ; 3.82 
