i ; campaign ; serie ; sample ; slake ; time ; mass 
1 ; Les Fonds ; 17NT ; LF-17NT-2019-H-B ; 608 ; 2019-07-12 13:29:41.838723 ; 135.81 
2 ; Les Fonds ; 17NT ; LF-17NT-2019-H-B ; 608 ; 2019-07-12 13:29:42.979684 ; 135.71 
3 ; Les Fonds ; 17NT ; LF-17NT-2019-H-B ; 608 ; 2019-07-12 13:29:44.027126 ; 135.65 
4 ; Les Fonds ; 17NT ; LF-17NT-2019-H-B ; 608 ; 2019-07-12 13:29:45.110188 ; NA 
5 ; Les Fonds ; 17NT ; LF-17NT-2019-H-B ; 608 ; 2019-07-12 13:29:46.137197 ; 134.82 
6 ; Les Fonds ; 17NT ; LF-17NT-2019-H-B ; 608 ; 2019-07-12 13:29:47.169788 ; 57.32 
7 ; Les Fonds ; 17NT ; LF-17NT-2019-H-B ; 608 ; 2019-07-12 13:29:48.238711 ; 53.05 
