i ; campaign ; serie ; sample ; slake ; time ; mass 
1 ; Longs Tours ; 1 ; LT-1-2019-D-B ; 527 ; 2019-07-04 13:49:19.257319 ; 132.9 
2 ; Longs Tours ; 1 ; LT-1-2019-D-B ; 527 ; 2019-07-04 13:49:20.073384 ; 132.9 
3 ; Longs Tours ; 1 ; LT-1-2019-D-B ; 527 ; 2019-07-04 13:49:20.940393 ; 132.9 
4 ; Longs Tours ; 1 ; LT-1-2019-D-B ; 527 ; 2019-07-04 13:49:21.778976 ; 132.9 
5 ; Longs Tours ; 1 ; LT-1-2019-D-B ; 527 ; 2019-07-04 13:49:22.629597 ; 132.9 
6 ; Longs Tours ; 1 ; LT-1-2019-D-B ; 527 ; 2019-07-04 13:49:23.480249 ; 132.9 
7 ; Longs Tours ; 1 ; LT-1-2019-D-B ; 527 ; 2019-07-04 13:49:24.285712 ; 69.83 
8 ; Longs Tours ; 1 ; LT-1-2019-D-B ; 527 ; 2019-07-04 13:49:25.145423 ; 55.23 
9 ; Longs Tours ; 1 ; LT-1-2019-D-B ; 527 ; 2019-07-04 13:49:26.102808 ; 53.9 
10 ; Longs Tours ; 1 ; LT-1-2019-D-B ; 527 ; 2019-07-04 13:49:27.060490 ; 55.06 
11 ; Longs Tours ; 1 ; LT-1-2019-D-B ; 527 ; 2019-07-04 13:49:28.026001 ; 54.96 
12 ; Longs Tours ; 1 ; LT-1-2019-D-B ; 527 ; 2019-07-04 13:49:28.996211 ; 54.93 
13 ; Longs Tours ; 1 ; LT-1-2019-D-B ; 527 ; 2019-07-04 13:49:29.942100 ; 55.15 
14 ; Longs Tours ; 1 ; LT-1-2019-D-B ; 527 ; 2019-07-04 13:49:30.901943 ; 55.19 
15 ; Longs Tours ; 1 ; LT-1-2019-D-B ; 527 ; 2019-07-04 13:49:31.862751 ; 55.24 
16 ; Longs Tours ; 1 ; LT-1-2019-D-B ; 527 ; 2019-07-04 13:49:32.661376 ; 55.21 
17 ; Longs Tours ; 1 ; LT-1-2019-D-B ; 527 ; 2019-07-04 13:49:33.570062 ; 55.08 
18 ; Longs Tours ; 1 ; LT-1-2019-D-B ; 527 ; 2019-07-04 13:49:34.534094 ; 55.1 
19 ; Longs Tours ; 1 ; LT-1-2019-D-B ; 527 ; 2019-07-04 13:49:35.384303 ; 54.84 
20 ; Longs Tours ; 1 ; LT-1-2019-D-B ; 527 ; 2019-07-04 13:49:36.303676 ; 54.61 
21 ; Longs Tours ; 1 ; LT-1-2019-D-B ; 527 ; 2019-07-04 13:49:37.198735 ; 54.59 
22 ; Longs Tours ; 1 ; LT-1-2019-D-B ; 527 ; 2019-07-04 13:49:38.105303 ; 54.59 
23 ; Longs Tours ; 1 ; LT-1-2019-D-B ; 527 ; 2019-07-04 13:49:38.849176 ; 54.57 
24 ; Longs Tours ; 1 ; LT-1-2019-D-B ; 527 ; 2019-07-04 13:49:39.704003 ; 54.4 
25 ; Longs Tours ; 1 ; LT-1-2019-D-B ; 527 ; 2019-07-04 13:49:40.658534 ; 54 
26 ; Longs Tours ; 1 ; LT-1-2019-D-B ; 527 ; 2019-07-04 13:49:41.570029 ; 53.32 
27 ; Longs Tours ; 1 ; LT-1-2019-D-B ; 527 ; 2019-07-04 13:49:42.478302 ; 53.04 
28 ; Longs Tours ; 1 ; LT-1-2019-D-B ; 527 ; 2019-07-04 13:49:43.395330 ; 52.92 
29 ; Longs Tours ; 1 ; LT-1-2019-D-B ; 527 ; 2019-07-04 13:49:44.295346 ; 52.7 
30 ; Longs Tours ; 1 ; LT-1-2019-D-B ; 527 ; 2019-07-04 13:49:45.200190 ; 52.54 
31 ; Longs Tours ; 1 ; LT-1-2019-D-B ; 527 ; 2019-07-04 13:49:46.103341 ; 52.43 
32 ; Longs Tours ; 1 ; LT-1-2019-D-B ; 527 ; 2019-07-04 13:49:47.003840 ; 52.21 
33 ; Longs Tours ; 1 ; LT-1-2019-D-B ; 527 ; 2019-07-04 13:49:47.961556 ; 51.99 
34 ; Longs Tours ; 1 ; LT-1-2019-D-B ; 527 ; 2019-07-04 13:49:48.925996 ; 51.76 
35 ; Longs Tours ; 1 ; LT-1-2019-D-B ; 527 ; 2019-07-04 13:49:49.884982 ; 51.53 
36 ; Longs Tours ; 1 ; LT-1-2019-D-B ; 527 ; 2019-07-04 13:49:50.854496 ; 51.41 
37 ; Longs Tours ; 1 ; LT-1-2019-D-B ; 527 ; 2019-07-04 13:49:51.808017 ; 51.26 
38 ; Longs Tours ; 1 ; LT-1-2019-D-B ; 527 ; 2019-07-04 13:49:52.768021 ; 51.07 
39 ; Longs Tours ; 1 ; LT-1-2019-D-B ; 527 ; 2019-07-04 13:49:53.723945 ; 50.7 
40 ; Longs Tours ; 1 ; LT-1-2019-D-B ; 527 ; 2019-07-04 13:49:54.684901 ; 50.48 
41 ; Longs Tours ; 1 ; LT-1-2019-D-B ; 527 ; 2019-07-04 13:49:55.643792 ; 50.29 
42 ; Longs Tours ; 1 ; LT-1-2019-D-B ; 527 ; 2019-07-04 13:49:56.603923 ; 50.08 
43 ; Longs Tours ; 1 ; LT-1-2019-D-B ; 527 ; 2019-07-04 13:49:57.565015 ; 49.57 
44 ; Longs Tours ; 1 ; LT-1-2019-D-B ; 527 ; 2019-07-04 13:49:58.548570 ; 49.09 
45 ; Longs Tours ; 1 ; LT-1-2019-D-B ; 527 ; 2019-07-04 13:49:59.483530 ; 48.9 
46 ; Longs Tours ; 1 ; LT-1-2019-D-B ; 527 ; 2019-07-04 13:50:00.445970 ; 48.7 
47 ; Longs Tours ; 1 ; LT-1-2019-D-B ; 527 ; 2019-07-04 13:50:01.405975 ; 48.15 
48 ; Longs Tours ; 1 ; LT-1-2019-D-B ; 527 ; 2019-07-04 13:50:02.369132 ; 47.51 
49 ; Longs Tours ; 1 ; LT-1-2019-D-B ; 527 ; 2019-07-04 13:50:03.328168 ; 46.97 
50 ; Longs Tours ; 1 ; LT-1-2019-D-B ; 527 ; 2019-07-04 13:50:04.285372 ; 46.35 
51 ; Longs Tours ; 1 ; LT-1-2019-D-B ; 527 ; 2019-07-04 13:50:05.245057 ; 45.74 
52 ; Longs Tours ; 1 ; LT-1-2019-D-B ; 527 ; 2019-07-04 13:50:06.222856 ; 45.23 
53 ; Longs Tours ; 1 ; LT-1-2019-D-B ; 527 ; 2019-07-04 13:50:07.166120 ; 45.07 
54 ; Longs Tours ; 1 ; LT-1-2019-D-B ; 527 ; 2019-07-04 13:50:08.127951 ; 44.86 
55 ; Longs Tours ; 1 ; LT-1-2019-D-B ; 527 ; 2019-07-04 13:50:09.084746 ; 44.42 
56 ; Longs Tours ; 1 ; LT-1-2019-D-B ; 527 ; 2019-07-04 13:50:10.044106 ; 44.04 
57 ; Longs Tours ; 1 ; LT-1-2019-D-B ; 527 ; 2019-07-04 13:50:11.006058 ; 43.67 
58 ; Longs Tours ; 1 ; LT-1-2019-D-B ; 527 ; 2019-07-04 13:50:11.962743 ; 43.41 
59 ; Longs Tours ; 1 ; LT-1-2019-D-B ; 527 ; 2019-07-04 13:50:12.924272 ; 43.4 
60 ; Longs Tours ; 1 ; LT-1-2019-D-B ; 527 ; 2019-07-04 13:50:13.791109 ; 43.39 
61 ; Longs Tours ; 1 ; LT-1-2019-D-B ; 527 ; 2019-07-04 13:50:14.631011 ; 43.38 
62 ; Longs Tours ; 1 ; LT-1-2019-D-B ; 527 ; 2019-07-04 13:50:15.429177 ; 43.34 
63 ; Longs Tours ; 1 ; LT-1-2019-D-B ; 527 ; 2019-07-04 13:50:16.284525 ; 43.15 
64 ; Longs Tours ; 1 ; LT-1-2019-D-B ; 527 ; 2019-07-04 13:50:17.192086 ; 43.04 
65 ; Longs Tours ; 1 ; LT-1-2019-D-B ; 527 ; 2019-07-04 13:50:17.990818 ; 42.9 
66 ; Longs Tours ; 1 ; LT-1-2019-D-B ; 527 ; 2019-07-04 13:50:18.794588 ; 42.81 
67 ; Longs Tours ; 1 ; LT-1-2019-D-B ; 527 ; 2019-07-04 13:50:19.594727 ; 42.55 
68 ; Longs Tours ; 1 ; LT-1-2019-D-B ; 527 ; 2019-07-04 13:50:20.560657 ; 42.43 
69 ; Longs Tours ; 1 ; LT-1-2019-D-B ; 527 ; 2019-07-04 13:50:21.457669 ; 42.37 
70 ; Longs Tours ; 1 ; LT-1-2019-D-B ; 527 ; 2019-07-04 13:50:22.262744 ; 42.25 
71 ; Longs Tours ; 1 ; LT-1-2019-D-B ; 527 ; 2019-07-04 13:50:23.111694 ; 42.06 
72 ; Longs Tours ; 1 ; LT-1-2019-D-B ; 527 ; 2019-07-04 13:50:23.966095 ; 41.74 
73 ; Longs Tours ; 1 ; LT-1-2019-D-B ; 527 ; 2019-07-04 13:50:24.818215 ; 41.4 
74 ; Longs Tours ; 1 ; LT-1-2019-D-B ; 527 ; 2019-07-04 13:50:25.672765 ; 41.15 
75 ; Longs Tours ; 1 ; LT-1-2019-D-B ; 527 ; 2019-07-04 13:50:26.521058 ; 40.9 
76 ; Longs Tours ; 1 ; LT-1-2019-D-B ; 527 ; 2019-07-04 13:50:27.378090 ; 40.74 
77 ; Longs Tours ; 1 ; LT-1-2019-D-B ; 527 ; 2019-07-04 13:50:28.232011 ; 40.5 
78 ; Longs Tours ; 1 ; LT-1-2019-D-B ; 527 ; 2019-07-04 13:50:29.085608 ; 40.16 
79 ; Longs Tours ; 1 ; LT-1-2019-D-B ; 527 ; 2019-07-04 13:50:29.937015 ; 39.54 
80 ; Longs Tours ; 1 ; LT-1-2019-D-B ; 527 ; 2019-07-04 13:50:30.793517 ; 38.93 
81 ; Longs Tours ; 1 ; LT-1-2019-D-B ; 527 ; 2019-07-04 13:50:31.642909 ; 38.77 
82 ; Longs Tours ; 1 ; LT-1-2019-D-B ; 527 ; 2019-07-04 13:50:32.495761 ; 38.68 
83 ; Longs Tours ; 1 ; LT-1-2019-D-B ; 527 ; 2019-07-04 13:50:33.352269 ; 38.5 
84 ; Longs Tours ; 1 ; LT-1-2019-D-B ; 527 ; 2019-07-04 13:50:34.205288 ; 38.22 
85 ; Longs Tours ; 1 ; LT-1-2019-D-B ; 527 ; 2019-07-04 13:50:35.070067 ; 37.74 
86 ; Longs Tours ; 1 ; LT-1-2019-D-B ; 527 ; 2019-07-04 13:50:35.914724 ; 37.24 
87 ; Longs Tours ; 1 ; LT-1-2019-D-B ; 527 ; 2019-07-04 13:50:36.767355 ; 36.96 
88 ; Longs Tours ; 1 ; LT-1-2019-D-B ; 527 ; 2019-07-04 13:50:37.620399 ; 36.79 
89 ; Longs Tours ; 1 ; LT-1-2019-D-B ; 527 ; 2019-07-04 13:50:38.470969 ; 36.68 
90 ; Longs Tours ; 1 ; LT-1-2019-D-B ; 527 ; 2019-07-04 13:50:39.325887 ; 36.65 
91 ; Longs Tours ; 1 ; LT-1-2019-D-B ; 527 ; 2019-07-04 13:50:40.178750 ; 36.6 
92 ; Longs Tours ; 1 ; LT-1-2019-D-B ; 527 ; 2019-07-04 13:50:40.925833 ; 36.52 
93 ; Longs Tours ; 1 ; LT-1-2019-D-B ; 527 ; 2019-07-04 13:50:41.747048 ; 36.46 
94 ; Longs Tours ; 1 ; LT-1-2019-D-B ; 527 ; 2019-07-04 13:50:42.630783 ; 36.44 
95 ; Longs Tours ; 1 ; LT-1-2019-D-B ; 527 ; 2019-07-04 13:50:43.532757 ; 36.43 
96 ; Longs Tours ; 1 ; LT-1-2019-D-B ; 527 ; 2019-07-04 13:50:44.286991 ; 36.28 
97 ; Longs Tours ; 1 ; LT-1-2019-D-B ; 527 ; 2019-07-04 13:50:45.138644 ; 36.19 
98 ; Longs Tours ; 1 ; LT-1-2019-D-B ; 527 ; 2019-07-04 13:50:45.990511 ; 36.09 
99 ; Longs Tours ; 1 ; LT-1-2019-D-B ; 527 ; 2019-07-04 13:50:46.953021 ; 36.03 
100 ; Longs Tours ; 1 ; LT-1-2019-D-B ; 527 ; 2019-07-04 13:50:47.767576 ; 35.78 
101 ; Longs Tours ; 1 ; LT-1-2019-D-B ; 527 ; 2019-07-04 13:50:48.565425 ; 35.65 
102 ; Longs Tours ; 1 ; LT-1-2019-D-B ; 527 ; 2019-07-04 13:50:49.348334 ; 35.16 
103 ; Longs Tours ; 1 ; LT-1-2019-D-B ; 527 ; 2019-07-04 13:50:50.154738 ; 35.02 
104 ; Longs Tours ; 1 ; LT-1-2019-D-B ; 527 ; 2019-07-04 13:50:50.947489 ; 34.86 
105 ; Longs Tours ; 1 ; LT-1-2019-D-B ; 527 ; 2019-07-04 13:50:51.751312 ; 34.71 
106 ; Longs Tours ; 1 ; LT-1-2019-D-B ; 527 ; 2019-07-04 13:50:52.552925 ; 34.61 
107 ; Longs Tours ; 1 ; LT-1-2019-D-B ; 527 ; 2019-07-04 13:50:53.346506 ; 34.47 
108 ; Longs Tours ; 1 ; LT-1-2019-D-B ; 527 ; 2019-07-04 13:50:54.151457 ; 34.43 
109 ; Longs Tours ; 1 ; LT-1-2019-D-B ; 527 ; 2019-07-04 13:50:54.967656 ; 34.39 
110 ; Longs Tours ; 1 ; LT-1-2019-D-B ; 527 ; 2019-07-04 13:50:55.858760 ; 34.3 
111 ; Longs Tours ; 1 ; LT-1-2019-D-B ; 527 ; 2019-07-04 13:50:56.820487 ; 34.27 
112 ; Longs Tours ; 1 ; LT-1-2019-D-B ; 527 ; 2019-07-04 13:50:57.678470 ; 34.25 
113 ; Longs Tours ; 1 ; LT-1-2019-D-B ; 527 ; 2019-07-04 13:50:58.520789 ; 34.21 
114 ; Longs Tours ; 1 ; LT-1-2019-D-B ; 527 ; 2019-07-04 13:50:59.382011 ; 34.16 
115 ; Longs Tours ; 1 ; LT-1-2019-D-B ; 527 ; 2019-07-04 13:51:00.231335 ; 34.15 
116 ; Longs Tours ; 1 ; LT-1-2019-D-B ; 527 ; 2019-07-04 13:51:01.087457 ; 34.09 
117 ; Longs Tours ; 1 ; LT-1-2019-D-B ; 527 ; 2019-07-04 13:51:01.955538 ; 34.05 
118 ; Longs Tours ; 1 ; LT-1-2019-D-B ; 527 ; 2019-07-04 13:51:02.841445 ; 34.04 
119 ; Longs Tours ; 1 ; LT-1-2019-D-B ; 527 ; 2019-07-04 13:51:03.701979 ; 34.02 
120 ; Longs Tours ; 1 ; LT-1-2019-D-B ; 527 ; 2019-07-04 13:51:04.546793 ; 34.02 
121 ; Longs Tours ; 1 ; LT-1-2019-D-B ; 527 ; 2019-07-04 13:51:05.347851 ; 33.99 
122 ; Longs Tours ; 1 ; LT-1-2019-D-B ; 527 ; 2019-07-04 13:51:06.204228 ; 33.99 
123 ; Longs Tours ; 1 ; LT-1-2019-D-B ; 527 ; 2019-07-04 13:51:07.000675 ; 33.94 
124 ; Longs Tours ; 1 ; LT-1-2019-D-B ; 527 ; 2019-07-04 13:51:07.857261 ; 33.94 
125 ; Longs Tours ; 1 ; LT-1-2019-D-B ; 527 ; 2019-07-04 13:51:08.721513 ; 33.93 
126 ; Longs Tours ; 1 ; LT-1-2019-D-B ; 527 ; 2019-07-04 13:51:09.619369 ; 33.92 
127 ; Longs Tours ; 1 ; LT-1-2019-D-B ; 527 ; 2019-07-04 13:51:10.415576 ; 33.84 
128 ; Longs Tours ; 1 ; LT-1-2019-D-B ; 527 ; 2019-07-04 13:51:11.275877 ; 33.83 
129 ; Longs Tours ; 1 ; LT-1-2019-D-B ; 527 ; 2019-07-04 13:51:12.182570 ; 33.81 
130 ; Longs Tours ; 1 ; LT-1-2019-D-B ; 527 ; 2019-07-04 13:51:13.141729 ; 33.8 
131 ; Longs Tours ; 1 ; LT-1-2019-D-B ; 527 ; 2019-07-04 13:51:13.990754 ; 33.77 
132 ; Longs Tours ; 1 ; LT-1-2019-D-B ; 527 ; 2019-07-04 13:51:14.954302 ; 33.76 
133 ; Longs Tours ; 1 ; LT-1-2019-D-B ; 527 ; 2019-07-04 13:51:15.872306 ; 33.76 
134 ; Longs Tours ; 1 ; LT-1-2019-D-B ; 527 ; 2019-07-04 13:51:16.708163 ; 33.76 
135 ; Longs Tours ; 1 ; LT-1-2019-D-B ; 527 ; 2019-07-04 13:51:17.562423 ; 33.72 
136 ; Longs Tours ; 1 ; LT-1-2019-D-B ; 527 ; 2019-07-04 13:51:18.414274 ; 33.71 
137 ; Longs Tours ; 1 ; LT-1-2019-D-B ; 527 ; 2019-07-04 13:51:19.164948 ; 33.69 
138 ; Longs Tours ; 1 ; LT-1-2019-D-B ; 527 ; 2019-07-04 13:51:20.017440 ; 33.58 
139 ; Longs Tours ; 1 ; LT-1-2019-D-B ; 527 ; 2019-07-04 13:51:20.981546 ; 33.43 
140 ; Longs Tours ; 1 ; LT-1-2019-D-B ; 527 ; 2019-07-04 13:51:21.781866 ; 33.38 
141 ; Longs Tours ; 1 ; LT-1-2019-D-B ; 527 ; 2019-07-04 13:51:22.578178 ; 33.37 
142 ; Longs Tours ; 1 ; LT-1-2019-D-B ; 527 ; 2019-07-04 13:51:23.439238 ; 33.35 
143 ; Longs Tours ; 1 ; LT-1-2019-D-B ; 527 ; 2019-07-04 13:51:24.289535 ; 33.34 
144 ; Longs Tours ; 1 ; LT-1-2019-D-B ; 527 ; 2019-07-04 13:51:25.137768 ; 33.34 
145 ; Longs Tours ; 1 ; LT-1-2019-D-B ; 527 ; 2019-07-04 13:51:25.990625 ; 33.35 
146 ; Longs Tours ; 1 ; LT-1-2019-D-B ; 527 ; 2019-07-04 13:51:26.741321 ; 33.33 
147 ; Longs Tours ; 1 ; LT-1-2019-D-B ; 527 ; 2019-07-04 13:51:27.592233 ; 33.32 
148 ; Longs Tours ; 1 ; LT-1-2019-D-B ; 527 ; 2019-07-04 13:51:28.440413 ; 33.32 
149 ; Longs Tours ; 1 ; LT-1-2019-D-B ; 527 ; 2019-07-04 13:51:29.294027 ; 33.31 
150 ; Longs Tours ; 1 ; LT-1-2019-D-B ; 527 ; 2019-07-04 13:51:30.163755 ; 33.3 
151 ; Longs Tours ; 1 ; LT-1-2019-D-B ; 527 ; 2019-07-04 13:51:31.004845 ; 33.3 
152 ; Longs Tours ; 1 ; LT-1-2019-D-B ; 527 ; 2019-07-04 13:51:31.854958 ; 33.29 
153 ; Longs Tours ; 1 ; LT-1-2019-D-B ; 527 ; 2019-07-04 13:51:32.710727 ; 33.29 
154 ; Longs Tours ; 1 ; LT-1-2019-D-B ; 527 ; 2019-07-04 13:51:33.562687 ; 33.26 
155 ; Longs Tours ; 1 ; LT-1-2019-D-B ; 527 ; 2019-07-04 13:51:34.413930 ; 33.23 
156 ; Longs Tours ; 1 ; LT-1-2019-D-B ; 527 ; 2019-07-04 13:51:35.217468 ; 33.2 
157 ; Longs Tours ; 1 ; LT-1-2019-D-B ; 527 ; 2019-07-04 13:51:36.177608 ; 33.19 
158 ; Longs Tours ; 1 ; LT-1-2019-D-B ; 527 ; 2019-07-04 13:51:37.150813 ; 33.16 
159 ; Longs Tours ; 1 ; LT-1-2019-D-B ; 527 ; 2019-07-04 13:51:37.991909 ; 33.08 
160 ; Longs Tours ; 1 ; LT-1-2019-D-B ; 527 ; 2019-07-04 13:51:38.745639 ; 32.89 
161 ; Longs Tours ; 1 ; LT-1-2019-D-B ; 527 ; 2019-07-04 13:51:39.486134 ; 32.88 
162 ; Longs Tours ; 1 ; LT-1-2019-D-B ; 527 ; 2019-07-04 13:51:40.333940 ; 32.89 
163 ; Longs Tours ; 1 ; LT-1-2019-D-B ; 527 ; 2019-07-04 13:51:41.195358 ; 32.87 
164 ; Longs Tours ; 1 ; LT-1-2019-D-B ; 527 ; 2019-07-04 13:51:42.044256 ; 32.86 
165 ; Longs Tours ; 1 ; LT-1-2019-D-B ; 527 ; 2019-07-04 13:51:42.898991 ; 32.86 
166 ; Longs Tours ; 1 ; LT-1-2019-D-B ; 527 ; 2019-07-04 13:51:43.761520 ; 32.86 
167 ; Longs Tours ; 1 ; LT-1-2019-D-B ; 527 ; 2019-07-04 13:51:44.603961 ; 32.84 
168 ; Longs Tours ; 1 ; LT-1-2019-D-B ; 527 ; 2019-07-04 13:51:45.453824 ; 32.83 
169 ; Longs Tours ; 1 ; LT-1-2019-D-B ; 527 ; 2019-07-04 13:51:46.315771 ; 32.83 
170 ; Longs Tours ; 1 ; LT-1-2019-D-B ; 527 ; 2019-07-04 13:51:47.162042 ; 32.84 
171 ; Longs Tours ; 1 ; LT-1-2019-D-B ; 527 ; 2019-07-04 13:51:47.912308 ; 32.83 
172 ; Longs Tours ; 1 ; LT-1-2019-D-B ; 527 ; 2019-07-04 13:51:48.769175 ; 32.82 
173 ; Longs Tours ; 1 ; LT-1-2019-D-B ; 527 ; 2019-07-04 13:51:49.618591 ; 32.82 
174 ; Longs Tours ; 1 ; LT-1-2019-D-B ; 527 ; 2019-07-04 13:51:50.462639 ; 32.81 
175 ; Longs Tours ; 1 ; LT-1-2019-D-B ; 527 ; 2019-07-04 13:51:51.338013 ; 32.8 
176 ; Longs Tours ; 1 ; LT-1-2019-D-B ; 527 ; 2019-07-04 13:51:52.181591 ; 32.79 
177 ; Longs Tours ; 1 ; LT-1-2019-D-B ; 527 ; 2019-07-04 13:51:52.977056 ; 32.79 
178 ; Longs Tours ; 1 ; LT-1-2019-D-B ; 527 ; 2019-07-04 13:51:53.820898 ; 32.78 
179 ; Longs Tours ; 1 ; LT-1-2019-D-B ; 527 ; 2019-07-04 13:51:54.688120 ; 32.78 
180 ; Longs Tours ; 1 ; LT-1-2019-D-B ; 527 ; 2019-07-04 13:51:55.528891 ; 32.78 
181 ; Longs Tours ; 1 ; LT-1-2019-D-B ; 527 ; 2019-07-04 13:51:56.387338 ; 32.77 
182 ; Longs Tours ; 1 ; LT-1-2019-D-B ; 527 ; 2019-07-04 13:51:57.248235 ; 32.77 
183 ; Longs Tours ; 1 ; LT-1-2019-D-B ; 527 ; 2019-07-04 13:51:58.109662 ; 32.76 
184 ; Longs Tours ; 1 ; LT-1-2019-D-B ; 527 ; 2019-07-04 13:51:58.950899 ; 32.76 
185 ; Longs Tours ; 1 ; LT-1-2019-D-B ; 527 ; 2019-07-04 13:51:59.813612 ; 32.76 
186 ; Longs Tours ; 1 ; LT-1-2019-D-B ; 527 ; 2019-07-04 13:52:00.655415 ; 32.75 
187 ; Longs Tours ; 1 ; LT-1-2019-D-B ; 527 ; 2019-07-04 13:52:01.511627 ; 32.75 
188 ; Longs Tours ; 1 ; LT-1-2019-D-B ; 527 ; 2019-07-04 13:52:02.256442 ; 32.74 
189 ; Longs Tours ; 1 ; LT-1-2019-D-B ; 527 ; 2019-07-04 13:52:03.111093 ; 32.74 
190 ; Longs Tours ; 1 ; LT-1-2019-D-B ; 527 ; 2019-07-04 13:52:03.964545 ; 32.74 
191 ; Longs Tours ; 1 ; LT-1-2019-D-B ; 527 ; 2019-07-04 13:52:04.827027 ; 32.73 
192 ; Longs Tours ; 1 ; LT-1-2019-D-B ; 527 ; 2019-07-04 13:52:05.676396 ; 32.71 
193 ; Longs Tours ; 1 ; LT-1-2019-D-B ; 527 ; 2019-07-04 13:52:06.521128 ; 32.62 
194 ; Longs Tours ; 1 ; LT-1-2019-D-B ; 527 ; 2019-07-04 13:52:07.485630 ; 32.59 
195 ; Longs Tours ; 1 ; LT-1-2019-D-B ; 527 ; 2019-07-04 13:52:08.284381 ; 32.59 
196 ; Longs Tours ; 1 ; LT-1-2019-D-B ; 527 ; 2019-07-04 13:52:09.134361 ; 32.6 
197 ; Longs Tours ; 1 ; LT-1-2019-D-B ; 527 ; 2019-07-04 13:52:10.045716 ; 32.58 
198 ; Longs Tours ; 1 ; LT-1-2019-D-B ; 527 ; 2019-07-04 13:52:10.903291 ; 32.57 
199 ; Longs Tours ; 1 ; LT-1-2019-D-B ; 527 ; 2019-07-04 13:52:11.780337 ; 32.57 
200 ; Longs Tours ; 1 ; LT-1-2019-D-B ; 527 ; 2019-07-04 13:52:12.604100 ; 32.56 
201 ; Longs Tours ; 1 ; LT-1-2019-D-B ; 527 ; 2019-07-04 13:52:13.456890 ; 32.55 
202 ; Longs Tours ; 1 ; LT-1-2019-D-B ; 527 ; 2019-07-04 13:52:14.312972 ; 32.54 
203 ; Longs Tours ; 1 ; LT-1-2019-D-B ; 527 ; 2019-07-04 13:52:15.167668 ; 32.54 
204 ; Longs Tours ; 1 ; LT-1-2019-D-B ; 527 ; 2019-07-04 13:52:16.016089 ; 32.54 
205 ; Longs Tours ; 1 ; LT-1-2019-D-B ; 527 ; 2019-07-04 13:52:16.870468 ; 32.53 
206 ; Longs Tours ; 1 ; LT-1-2019-D-B ; 527 ; 2019-07-04 13:52:17.723541 ; 32.52 
207 ; Longs Tours ; 1 ; LT-1-2019-D-B ; 527 ; 2019-07-04 13:52:18.474339 ; 32.51 
208 ; Longs Tours ; 1 ; LT-1-2019-D-B ; 527 ; 2019-07-04 13:52:19.321043 ; 32.51 
209 ; Longs Tours ; 1 ; LT-1-2019-D-B ; 527 ; 2019-07-04 13:52:20.176717 ; 32.51 
210 ; Longs Tours ; 1 ; LT-1-2019-D-B ; 527 ; 2019-07-04 13:52:30.981358 ; 32.43 
211 ; Longs Tours ; 1 ; LT-1-2019-D-B ; 527 ; 2019-07-04 13:52:41.870140 ; 32.38 
212 ; Longs Tours ; 1 ; LT-1-2019-D-B ; 527 ; 2019-07-04 13:52:52.746824 ; 32.31 
213 ; Longs Tours ; 1 ; LT-1-2019-D-B ; 527 ; 2019-07-04 13:53:03.632133 ; 32.27 
214 ; Longs Tours ; 1 ; LT-1-2019-D-B ; 527 ; 2019-07-04 13:53:14.510102 ; 32.17 
215 ; Longs Tours ; 1 ; LT-1-2019-D-B ; 527 ; 2019-07-04 13:53:25.518994 ; 31.93 
216 ; Longs Tours ; 1 ; LT-1-2019-D-B ; 527 ; 2019-07-04 13:53:36.432666 ; 31.9 
217 ; Longs Tours ; 1 ; LT-1-2019-D-B ; 527 ; 2019-07-04 13:53:47.414885 ; 31.84 
218 ; Longs Tours ; 1 ; LT-1-2019-D-B ; 527 ; 2019-07-04 13:53:58.243217 ; 31.78 
219 ; Longs Tours ; 1 ; LT-1-2019-D-B ; 527 ; 2019-07-04 13:54:09.178769 ; 31.74 
220 ; Longs Tours ; 1 ; LT-1-2019-D-B ; 527 ; 2019-07-04 13:54:20.160764 ; 31.7 
221 ; Longs Tours ; 1 ; LT-1-2019-D-B ; 527 ; 2019-07-04 13:54:30.881623 ; 31.64 
222 ; Longs Tours ; 1 ; LT-1-2019-D-B ; 527 ; 2019-07-04 13:54:41.866326 ; 31.61 
223 ; Longs Tours ; 1 ; LT-1-2019-D-B ; 527 ; 2019-07-04 13:54:52.710097 ; 31.58 
224 ; Longs Tours ; 1 ; LT-1-2019-D-B ; 527 ; 2019-07-04 13:55:03.687140 ; 31.56 
225 ; Longs Tours ; 1 ; LT-1-2019-D-B ; 527 ; 2019-07-04 13:55:14.507916 ; 31.54 
226 ; Longs Tours ; 1 ; LT-1-2019-D-B ; 527 ; 2019-07-04 13:55:25.496573 ; 31.53 
227 ; Longs Tours ; 1 ; LT-1-2019-D-B ; 527 ; 2019-07-04 13:55:36.376924 ; 31.51 
228 ; Longs Tours ; 1 ; LT-1-2019-D-B ; 527 ; 2019-07-04 13:55:47.256737 ; 31.46 
229 ; Longs Tours ; 1 ; LT-1-2019-D-B ; 527 ; 2019-07-04 13:55:58.247210 ; 31.44 
230 ; Longs Tours ; 1 ; LT-1-2019-D-B ; 527 ; 2019-07-04 13:56:09.123697 ; 31.41 
231 ; Longs Tours ; 1 ; LT-1-2019-D-B ; 527 ; 2019-07-04 13:56:19.967784 ; 31.37 
232 ; Longs Tours ; 1 ; LT-1-2019-D-B ; 527 ; 2019-07-04 13:56:30.834099 ; 31.33 
233 ; Longs Tours ; 1 ; LT-1-2019-D-B ; 527 ; 2019-07-04 13:56:41.659757 ; 31.29 
234 ; Longs Tours ; 1 ; LT-1-2019-D-B ; 527 ; 2019-07-04 13:56:52.483598 ; 31.28 
235 ; Longs Tours ; 1 ; LT-1-2019-D-B ; 527 ; 2019-07-04 13:57:03.363384 ; 31.25 
236 ; Longs Tours ; 1 ; LT-1-2019-D-B ; 527 ; 2019-07-04 13:57:14.192507 ; 31.2 
237 ; Longs Tours ; 1 ; LT-1-2019-D-B ; 527 ; 2019-07-04 13:57:25.071581 ; 31.19 
238 ; Longs Tours ; 1 ; LT-1-2019-D-B ; 527 ; 2019-07-04 13:57:35.974143 ; 31.17 
239 ; Longs Tours ; 1 ; LT-1-2019-D-B ; 527 ; 2019-07-04 13:57:46.775436 ; 31.16 
240 ; Longs Tours ; 1 ; LT-1-2019-D-B ; 527 ; 2019-07-04 13:57:57.655285 ; 31.14 
241 ; Longs Tours ; 1 ; LT-1-2019-D-B ; 527 ; 2019-07-04 13:58:08.532261 ; 31.12 
242 ; Longs Tours ; 1 ; LT-1-2019-D-B ; 527 ; 2019-07-04 13:58:19.414135 ; 31.11 
243 ; Longs Tours ; 1 ; LT-1-2019-D-B ; 527 ; 2019-07-04 13:58:30.296433 ; 31.09 
244 ; Longs Tours ; 1 ; LT-1-2019-D-B ; 527 ; 2019-07-04 13:58:41.177418 ; 31.08 
245 ; Longs Tours ; 1 ; LT-1-2019-D-B ; 527 ; 2019-07-04 13:58:52.057165 ; 31.05 
246 ; Longs Tours ; 1 ; LT-1-2019-D-B ; 527 ; 2019-07-04 13:59:02.903025 ; 31.04 
247 ; Longs Tours ; 1 ; LT-1-2019-D-B ; 527 ; 2019-07-04 13:59:13.765719 ; 31.04 
248 ; Longs Tours ; 1 ; LT-1-2019-D-B ; 527 ; 2019-07-04 13:59:24.586037 ; 31.03 
249 ; Longs Tours ; 1 ; LT-1-2019-D-B ; 527 ; 2019-07-04 13:59:55.467810 ; 30.95 
250 ; Longs Tours ; 1 ; LT-1-2019-D-B ; 527 ; 2019-07-04 14:00:26.430337 ; 30.89 
251 ; Longs Tours ; 1 ; LT-1-2019-D-B ; 527 ; 2019-07-04 14:00:57.366380 ; 30.82 
252 ; Longs Tours ; 1 ; LT-1-2019-D-B ; 527 ; 2019-07-04 14:01:28.297515 ; 30.77 
253 ; Longs Tours ; 1 ; LT-1-2019-D-B ; 527 ; 2019-07-04 14:01:59.139409 ; 30.73 
254 ; Longs Tours ; 1 ; LT-1-2019-D-B ; 527 ; 2019-07-04 14:02:30.005344 ; 30.65 
255 ; Longs Tours ; 1 ; LT-1-2019-D-B ; 527 ; 2019-07-04 14:03:00.937115 ; 30.62 
256 ; Longs Tours ; 1 ; LT-1-2019-D-B ; 527 ; 2019-07-04 14:03:31.872505 ; 30.62 
257 ; Longs Tours ; 1 ; LT-1-2019-D-B ; 527 ; 2019-07-04 14:04:02.807964 ; 30.58 
258 ; Longs Tours ; 1 ; LT-1-2019-D-B ; 527 ; 2019-07-04 14:04:33.685607 ; 30.53 
259 ; Longs Tours ; 1 ; LT-1-2019-D-B ; 527 ; 2019-07-04 14:05:04.551848 ; 30.47 
