i ; campaign ; serie ; sample ; slake ; time ; mass 
1 ; Vissac ; Pa13 ; Vissac-2019-Pa13-F ; 662 ; 2019-07-18 10:46:27.016020 ; 141.23 
2 ; Vissac ; Pa13 ; Vissac-2019-Pa13-F ; 662 ; 2019-07-18 10:46:27.977492 ; 141.2 
3 ; Vissac ; Pa13 ; Vissac-2019-Pa13-F ; 662 ; 2019-07-18 10:46:28.839913 ; 141.04 
4 ; Vissac ; Pa13 ; Vissac-2019-Pa13-F ; 662 ; 2019-07-18 10:46:29.638852 ; 141.04 
5 ; Vissac ; Pa13 ; Vissac-2019-Pa13-F ; 662 ; 2019-07-18 10:46:30.487698 ; 141.04 
6 ; Vissac ; Pa13 ; Vissac-2019-Pa13-F ; 662 ; 2019-07-18 10:46:31.352554 ; 141.04 
7 ; Vissac ; Pa13 ; Vissac-2019-Pa13-F ; 662 ; 2019-07-18 10:46:32.087810 ; 75.45 
8 ; Vissac ; Pa13 ; Vissac-2019-Pa13-F ; 662 ; 2019-07-18 10:46:32.940304 ; 54.7 
9 ; Vissac ; Pa13 ; Vissac-2019-Pa13-F ; 662 ; 2019-07-18 10:46:33.799630 ; 54.47 
10 ; Vissac ; Pa13 ; Vissac-2019-Pa13-F ; 662 ; 2019-07-18 10:46:34.654312 ; 55.59 
11 ; Vissac ; Pa13 ; Vissac-2019-Pa13-F ; 662 ; 2019-07-18 10:46:35.507610 ; 56.29 
12 ; Vissac ; Pa13 ; Vissac-2019-Pa13-F ; 662 ; 2019-07-18 10:46:36.366449 ; 56.87 
13 ; Vissac ; Pa13 ; Vissac-2019-Pa13-F ; 662 ; 2019-07-18 10:46:37.210331 ; 57.37 
14 ; Vissac ; Pa13 ; Vissac-2019-Pa13-F ; 662 ; 2019-07-18 10:46:38.070748 ; 57.81 
15 ; Vissac ; Pa13 ; Vissac-2019-Pa13-F ; 662 ; 2019-07-18 10:46:38.920634 ; 58.22 
16 ; Vissac ; Pa13 ; Vissac-2019-Pa13-F ; 662 ; 2019-07-18 10:46:39.775144 ; 58.58 
17 ; Vissac ; Pa13 ; Vissac-2019-Pa13-F ; 662 ; 2019-07-18 10:46:40.623493 ; 58.91 
18 ; Vissac ; Pa13 ; Vissac-2019-Pa13-F ; 662 ; 2019-07-18 10:46:41.485762 ; 59.23 
19 ; Vissac ; Pa13 ; Vissac-2019-Pa13-F ; 662 ; 2019-07-18 10:46:42.331016 ; 59.53 
20 ; Vissac ; Pa13 ; Vissac-2019-Pa13-F ; 662 ; 2019-07-18 10:46:43.185441 ; 59.81 
21 ; Vissac ; Pa13 ; Vissac-2019-Pa13-F ; 662 ; 2019-07-18 10:46:44.035540 ; 60.07 
22 ; Vissac ; Pa13 ; Vissac-2019-Pa13-F ; 662 ; 2019-07-18 10:46:44.889413 ; 60.34 
23 ; Vissac ; Pa13 ; Vissac-2019-Pa13-F ; 662 ; 2019-07-18 10:46:45.743729 ; 60.58 
24 ; Vissac ; Pa13 ; Vissac-2019-Pa13-F ; 662 ; 2019-07-18 10:46:46.604400 ; 60.82 
25 ; Vissac ; Pa13 ; Vissac-2019-Pa13-F ; 662 ; 2019-07-18 10:46:47.452733 ; 61.06 
26 ; Vissac ; Pa13 ; Vissac-2019-Pa13-F ; 662 ; 2019-07-18 10:46:48.305991 ; 61.28 
27 ; Vissac ; Pa13 ; Vissac-2019-Pa13-F ; 662 ; 2019-07-18 10:46:49.161417 ; 61.49 
28 ; Vissac ; Pa13 ; Vissac-2019-Pa13-F ; 662 ; 2019-07-18 10:46:50.007183 ; 61.7 
29 ; Vissac ; Pa13 ; Vissac-2019-Pa13-F ; 662 ; 2019-07-18 10:46:50.862443 ; 61.89 
30 ; Vissac ; Pa13 ; Vissac-2019-Pa13-F ; 662 ; 2019-07-18 10:46:51.818112 ; 62.11 
31 ; Vissac ; Pa13 ; Vissac-2019-Pa13-F ; 662 ; 2019-07-18 10:46:52.782874 ; 62.28 
32 ; Vissac ; Pa13 ; Vissac-2019-Pa13-F ; 662 ; 2019-07-18 10:46:53.636782 ; 62.43 
33 ; Vissac ; Pa13 ; Vissac-2019-Pa13-F ; 662 ; 2019-07-18 10:46:54.492321 ; 62.59 
34 ; Vissac ; Pa13 ; Vissac-2019-Pa13-F ; 662 ; 2019-07-18 10:46:55.343358 ; 62.73 
35 ; Vissac ; Pa13 ; Vissac-2019-Pa13-F ; 662 ; 2019-07-18 10:46:56.199094 ; 62.87 
36 ; Vissac ; Pa13 ; Vissac-2019-Pa13-F ; 662 ; 2019-07-18 10:46:57.052239 ; 63.01 
37 ; Vissac ; Pa13 ; Vissac-2019-Pa13-F ; 662 ; 2019-07-18 10:46:57.903852 ; 63.15 
38 ; Vissac ; Pa13 ; Vissac-2019-Pa13-F ; 662 ; 2019-07-18 10:46:58.757718 ; 63.27 
39 ; Vissac ; Pa13 ; Vissac-2019-Pa13-F ; 662 ; 2019-07-18 10:46:59.612557 ; 63.4 
40 ; Vissac ; Pa13 ; Vissac-2019-Pa13-F ; 662 ; 2019-07-18 10:47:00.466233 ; 63.52 
41 ; Vissac ; Pa13 ; Vissac-2019-Pa13-F ; 662 ; 2019-07-18 10:47:01.321609 ; 63.62 
42 ; Vissac ; Pa13 ; Vissac-2019-Pa13-F ; 662 ; 2019-07-18 10:47:02.170129 ; 63.7 
43 ; Vissac ; Pa13 ; Vissac-2019-Pa13-F ; 662 ; 2019-07-18 10:47:03.022498 ; 63.81 
44 ; Vissac ; Pa13 ; Vissac-2019-Pa13-F ; 662 ; 2019-07-18 10:47:03.880206 ; 63.91 
45 ; Vissac ; Pa13 ; Vissac-2019-Pa13-F ; 662 ; 2019-07-18 10:47:04.726562 ; 64.02 
46 ; Vissac ; Pa13 ; Vissac-2019-Pa13-F ; 662 ; 2019-07-18 10:47:05.580510 ; 64.12 
47 ; Vissac ; Pa13 ; Vissac-2019-Pa13-F ; 662 ; 2019-07-18 10:47:06.434852 ; 64.22 
48 ; Vissac ; Pa13 ; Vissac-2019-Pa13-F ; 662 ; 2019-07-18 10:47:07.288377 ; 64.32 
49 ; Vissac ; Pa13 ; Vissac-2019-Pa13-F ; 662 ; 2019-07-18 10:47:08.144940 ; 64.41 
50 ; Vissac ; Pa13 ; Vissac-2019-Pa13-F ; 662 ; 2019-07-18 10:47:08.992187 ; 64.5 
51 ; Vissac ; Pa13 ; Vissac-2019-Pa13-F ; 662 ; 2019-07-18 10:47:09.850764 ; 64.6 
52 ; Vissac ; Pa13 ; Vissac-2019-Pa13-F ; 662 ; 2019-07-18 10:47:10.699286 ; 64.69 
53 ; Vissac ; Pa13 ; Vissac-2019-Pa13-F ; 662 ; 2019-07-18 10:47:11.557305 ; 64.78 
54 ; Vissac ; Pa13 ; Vissac-2019-Pa13-F ; 662 ; 2019-07-18 10:47:12.405297 ; 64.86 
55 ; Vissac ; Pa13 ; Vissac-2019-Pa13-F ; 662 ; 2019-07-18 10:47:13.268542 ; 64.94 
56 ; Vissac ; Pa13 ; Vissac-2019-Pa13-F ; 662 ; 2019-07-18 10:47:14.114478 ; 65.02 
57 ; Vissac ; Pa13 ; Vissac-2019-Pa13-F ; 662 ; 2019-07-18 10:47:14.965205 ; 65.09 
58 ; Vissac ; Pa13 ; Vissac-2019-Pa13-F ; 662 ; 2019-07-18 10:47:15.819147 ; 65.16 
59 ; Vissac ; Pa13 ; Vissac-2019-Pa13-F ; 662 ; 2019-07-18 10:47:16.673942 ; 65.23 
60 ; Vissac ; Pa13 ; Vissac-2019-Pa13-F ; 662 ; 2019-07-18 10:47:17.527750 ; 65.34 
61 ; Vissac ; Pa13 ; Vissac-2019-Pa13-F ; 662 ; 2019-07-18 10:47:18.487103 ; 65.38 
62 ; Vissac ; Pa13 ; Vissac-2019-Pa13-F ; 662 ; 2019-07-18 10:47:19.291740 ; 65.42 
63 ; Vissac ; Pa13 ; Vissac-2019-Pa13-F ; 662 ; 2019-07-18 10:47:20.193283 ; 65.49 
64 ; Vissac ; Pa13 ; Vissac-2019-Pa13-F ; 662 ; 2019-07-18 10:47:20.938056 ; 65.57 
65 ; Vissac ; Pa13 ; Vissac-2019-Pa13-F ; 662 ; 2019-07-18 10:47:21.735788 ; 65.61 
66 ; Vissac ; Pa13 ; Vissac-2019-Pa13-F ; 662 ; 2019-07-18 10:47:22.541783 ; 65.65 
67 ; Vissac ; Pa13 ; Vissac-2019-Pa13-F ; 662 ; 2019-07-18 10:47:23.392481 ; 65.76 
68 ; Vissac ; Pa13 ; Vissac-2019-Pa13-F ; 662 ; 2019-07-18 10:47:24.359626 ; 65.82 
69 ; Vissac ; Pa13 ; Vissac-2019-Pa13-F ; 662 ; 2019-07-18 10:47:25.206854 ; 65.85 
70 ; Vissac ; Pa13 ; Vissac-2019-Pa13-F ; 662 ; 2019-07-18 10:47:25.957115 ; 65.89 
71 ; Vissac ; Pa13 ; Vissac-2019-Pa13-F ; 662 ; 2019-07-18 10:47:26.802813 ; 65.98 
72 ; Vissac ; Pa13 ; Vissac-2019-Pa13-F ; 662 ; 2019-07-18 10:47:27.662375 ; 66.03 
73 ; Vissac ; Pa13 ; Vissac-2019-Pa13-F ; 662 ; 2019-07-18 10:47:28.461937 ; 66.06 
74 ; Vissac ; Pa13 ; Vissac-2019-Pa13-F ; 662 ; 2019-07-18 10:47:29.320568 ; 66.13 
75 ; Vissac ; Pa13 ; Vissac-2019-Pa13-F ; 662 ; 2019-07-18 10:47:30.115942 ; 66.17 
76 ; Vissac ; Pa13 ; Vissac-2019-Pa13-F ; 662 ; 2019-07-18 10:47:31.016824 ; 66.21 
77 ; Vissac ; Pa13 ; Vissac-2019-Pa13-F ; 662 ; 2019-07-18 10:47:31.823924 ; 66.25 
78 ; Vissac ; Pa13 ; Vissac-2019-Pa13-F ; 662 ; 2019-07-18 10:47:32.673495 ; 66.36 
79 ; Vissac ; Pa13 ; Vissac-2019-Pa13-F ; 662 ; 2019-07-18 10:47:33.475210 ; 66.38 
80 ; Vissac ; Pa13 ; Vissac-2019-Pa13-F ; 662 ; 2019-07-18 10:47:34.334899 ; 66.41 
81 ; Vissac ; Pa13 ; Vissac-2019-Pa13-F ; 662 ; 2019-07-18 10:47:35.287971 ; 66.43 
82 ; Vissac ; Pa13 ; Vissac-2019-Pa13-F ; 662 ; 2019-07-18 10:47:36.084017 ; 66.48 
83 ; Vissac ; Pa13 ; Vissac-2019-Pa13-F ; 662 ; 2019-07-18 10:47:36.937539 ; 66.54 
84 ; Vissac ; Pa13 ; Vissac-2019-Pa13-F ; 662 ; 2019-07-18 10:47:37.793185 ; 66.64 
85 ; Vissac ; Pa13 ; Vissac-2019-Pa13-F ; 662 ; 2019-07-18 10:47:38.768952 ; 66.67 
86 ; Vissac ; Pa13 ; Vissac-2019-Pa13-F ; 662 ; 2019-07-18 10:47:39.613811 ; 66.71 
87 ; Vissac ; Pa13 ; Vissac-2019-Pa13-F ; 662 ; 2019-07-18 10:47:40.512865 ; 66.73 
88 ; Vissac ; Pa13 ; Vissac-2019-Pa13-F ; 662 ; 2019-07-18 10:47:41.366255 ; 66.73 
89 ; Vissac ; Pa13 ; Vissac-2019-Pa13-F ; 662 ; 2019-07-18 10:47:42.162587 ; 66.85 
90 ; Vissac ; Pa13 ; Vissac-2019-Pa13-F ; 662 ; 2019-07-18 10:47:43.018414 ; 66.89 
91 ; Vissac ; Pa13 ; Vissac-2019-Pa13-F ; 662 ; 2019-07-18 10:47:43.878863 ; 66.94 
92 ; Vissac ; Pa13 ; Vissac-2019-Pa13-F ; 662 ; 2019-07-18 10:47:44.674182 ; 66.97 
93 ; Vissac ; Pa13 ; Vissac-2019-Pa13-F ; 662 ; 2019-07-18 10:47:45.427139 ; 67.02 
94 ; Vissac ; Pa13 ; Vissac-2019-Pa13-F ; 662 ; 2019-07-18 10:47:46.277562 ; 67.05 
95 ; Vissac ; Pa13 ; Vissac-2019-Pa13-F ; 662 ; 2019-07-18 10:47:47.073122 ; 67.1 
96 ; Vissac ; Pa13 ; Vissac-2019-Pa13-F ; 662 ; 2019-07-18 10:47:47.978060 ; 67.13 
97 ; Vissac ; Pa13 ; Vissac-2019-Pa13-F ; 662 ; 2019-07-18 10:47:48.886880 ; 67.15 
98 ; Vissac ; Pa13 ; Vissac-2019-Pa13-F ; 662 ; 2019-07-18 10:47:49.739969 ; 67.25 
99 ; Vissac ; Pa13 ; Vissac-2019-Pa13-F ; 662 ; 2019-07-18 10:47:50.598544 ; 67.26 
100 ; Vissac ; Pa13 ; Vissac-2019-Pa13-F ; 662 ; 2019-07-18 10:47:51.393535 ; 67.31 
101 ; Vissac ; Pa13 ; Vissac-2019-Pa13-F ; 662 ; 2019-07-18 10:47:52.246350 ; 67.34 
102 ; Vissac ; Pa13 ; Vissac-2019-Pa13-F ; 662 ; 2019-07-18 10:47:53.100891 ; 67.41 
103 ; Vissac ; Pa13 ; Vissac-2019-Pa13-F ; 662 ; 2019-07-18 10:47:54.003350 ; 67.45 
104 ; Vissac ; Pa13 ; Vissac-2019-Pa13-F ; 662 ; 2019-07-18 10:47:54.808129 ; 67.45 
105 ; Vissac ; Pa13 ; Vissac-2019-Pa13-F ; 662 ; 2019-07-18 10:47:55.609136 ; 67.53 
106 ; Vissac ; Pa13 ; Vissac-2019-Pa13-F ; 662 ; 2019-07-18 10:47:56.408083 ; 67.56 
107 ; Vissac ; Pa13 ; Vissac-2019-Pa13-F ; 662 ; 2019-07-18 10:47:57.258333 ; 67.58 
108 ; Vissac ; Pa13 ; Vissac-2019-Pa13-F ; 662 ; 2019-07-18 10:47:58.169003 ; 67.59 
109 ; Vissac ; Pa13 ; Vissac-2019-Pa13-F ; 662 ; 2019-07-18 10:47:58.911224 ; 67.63 
110 ; Vissac ; Pa13 ; Vissac-2019-Pa13-F ; 662 ; 2019-07-18 10:47:59.782772 ; 67.65 
111 ; Vissac ; Pa13 ; Vissac-2019-Pa13-F ; 662 ; 2019-07-18 10:48:00.785053 ; 67.68 
112 ; Vissac ; Pa13 ; Vissac-2019-Pa13-F ; 662 ; 2019-07-18 10:48:01.634802 ; 67.72 
113 ; Vissac ; Pa13 ; Vissac-2019-Pa13-F ; 662 ; 2019-07-18 10:48:02.543290 ; 67.81 
114 ; Vissac ; Pa13 ; Vissac-2019-Pa13-F ; 662 ; 2019-07-18 10:48:03.286204 ; 67.83 
115 ; Vissac ; Pa13 ; Vissac-2019-Pa13-F ; 662 ; 2019-07-18 10:48:04.140882 ; 67.85 
116 ; Vissac ; Pa13 ; Vissac-2019-Pa13-F ; 662 ; 2019-07-18 10:48:04.936018 ; 67.85 
117 ; Vissac ; Pa13 ; Vissac-2019-Pa13-F ; 662 ; 2019-07-18 10:48:05.806181 ; 67.88 
118 ; Vissac ; Pa13 ; Vissac-2019-Pa13-F ; 662 ; 2019-07-18 10:48:06.650795 ; 67.9 
119 ; Vissac ; Pa13 ; Vissac-2019-Pa13-F ; 662 ; 2019-07-18 10:48:07.501360 ; 67.96 
120 ; Vissac ; Pa13 ; Vissac-2019-Pa13-F ; 662 ; 2019-07-18 10:48:08.461655 ; 67.97 
121 ; Vissac ; Pa13 ; Vissac-2019-Pa13-F ; 662 ; 2019-07-18 10:48:09.367233 ; 67.99 
122 ; Vissac ; Pa13 ; Vissac-2019-Pa13-F ; 662 ; 2019-07-18 10:48:10.220294 ; 68.03 
123 ; Vissac ; Pa13 ; Vissac-2019-Pa13-F ; 662 ; 2019-07-18 10:48:11.078840 ; 68.05 
124 ; Vissac ; Pa13 ; Vissac-2019-Pa13-F ; 662 ; 2019-07-18 10:48:11.978086 ; 68.05 
125 ; Vissac ; Pa13 ; Vissac-2019-Pa13-F ; 662 ; 2019-07-18 10:48:12.829626 ; 68.15 
126 ; Vissac ; Pa13 ; Vissac-2019-Pa13-F ; 662 ; 2019-07-18 10:48:13.793609 ; 68.16 
127 ; Vissac ; Pa13 ; Vissac-2019-Pa13-F ; 662 ; 2019-07-18 10:48:14.768764 ; 68.16 
128 ; Vissac ; Pa13 ; Vissac-2019-Pa13-F ; 662 ; 2019-07-18 10:48:15.551667 ; 68.18 
129 ; Vissac ; Pa13 ; Vissac-2019-Pa13-F ; 662 ; 2019-07-18 10:48:16.413435 ; 68.22 
130 ; Vissac ; Pa13 ; Vissac-2019-Pa13-F ; 662 ; 2019-07-18 10:48:17.260105 ; 68.3 
131 ; Vissac ; Pa13 ; Vissac-2019-Pa13-F ; 662 ; 2019-07-18 10:48:18.113922 ; 68.31 
132 ; Vissac ; Pa13 ; Vissac-2019-Pa13-F ; 662 ; 2019-07-18 10:48:18.962428 ; 68.32 
133 ; Vissac ; Pa13 ; Vissac-2019-Pa13-F ; 662 ; 2019-07-18 10:48:19.877032 ; 68.34 
134 ; Vissac ; Pa13 ; Vissac-2019-Pa13-F ; 662 ; 2019-07-18 10:48:20.727306 ; 68.36 
135 ; Vissac ; Pa13 ; Vissac-2019-Pa13-F ; 662 ; 2019-07-18 10:48:21.637508 ; 68.41 
136 ; Vissac ; Pa13 ; Vissac-2019-Pa13-F ; 662 ; 2019-07-18 10:48:22.596779 ; 68.44 
137 ; Vissac ; Pa13 ; Vissac-2019-Pa13-F ; 662 ; 2019-07-18 10:48:23.446503 ; 68.45 
138 ; Vissac ; Pa13 ; Vissac-2019-Pa13-F ; 662 ; 2019-07-18 10:48:24.302050 ; 68.48 
139 ; Vissac ; Pa13 ; Vissac-2019-Pa13-F ; 662 ; 2019-07-18 10:48:25.260141 ; 68.49 
140 ; Vissac ; Pa13 ; Vissac-2019-Pa13-F ; 662 ; 2019-07-18 10:48:26.114221 ; 68.5 
141 ; Vissac ; Pa13 ; Vissac-2019-Pa13-F ; 662 ; 2019-07-18 10:48:26.916111 ; 68.56 
142 ; Vissac ; Pa13 ; Vissac-2019-Pa13-F ; 662 ; 2019-07-18 10:48:27.820122 ; 68.56 
143 ; Vissac ; Pa13 ; Vissac-2019-Pa13-F ; 662 ; 2019-07-18 10:48:28.671720 ; 68.57 
144 ; Vissac ; Pa13 ; Vissac-2019-Pa13-F ; 662 ; 2019-07-18 10:48:29.475447 ; 68.58 
145 ; Vissac ; Pa13 ; Vissac-2019-Pa13-F ; 662 ; 2019-07-18 10:48:30.380640 ; 68.61 
146 ; Vissac ; Pa13 ; Vissac-2019-Pa13-F ; 662 ; 2019-07-18 10:48:31.232437 ; 68.62 
147 ; Vissac ; Pa13 ; Vissac-2019-Pa13-F ; 662 ; 2019-07-18 10:48:32.091775 ; 68.66 
148 ; Vissac ; Pa13 ; Vissac-2019-Pa13-F ; 662 ; 2019-07-18 10:48:32.934182 ; 68.69 
149 ; Vissac ; Pa13 ; Vissac-2019-Pa13-F ; 662 ; 2019-07-18 10:48:33.793031 ; 68.69 
150 ; Vissac ; Pa13 ; Vissac-2019-Pa13-F ; 662 ; 2019-07-18 10:48:34.643566 ; 68.7 
151 ; Vissac ; Pa13 ; Vissac-2019-Pa13-F ; 662 ; 2019-07-18 10:48:35.449849 ; 68.71 
152 ; Vissac ; Pa13 ; Vissac-2019-Pa13-F ; 662 ; 2019-07-18 10:48:36.300501 ; 68.72 
153 ; Vissac ; Pa13 ; Vissac-2019-Pa13-F ; 662 ; 2019-07-18 10:48:37.152944 ; 68.72 
154 ; Vissac ; Pa13 ; Vissac-2019-Pa13-F ; 662 ; 2019-07-18 10:48:38.003199 ; 68.73 
155 ; Vissac ; Pa13 ; Vissac-2019-Pa13-F ; 662 ; 2019-07-18 10:48:38.967689 ; 68.75 
156 ; Vissac ; Pa13 ; Vissac-2019-Pa13-F ; 662 ; 2019-07-18 10:48:39.820665 ; 68.76 
157 ; Vissac ; Pa13 ; Vissac-2019-Pa13-F ; 662 ; 2019-07-18 10:48:40.675432 ; 68.81 
158 ; Vissac ; Pa13 ; Vissac-2019-Pa13-F ; 662 ; 2019-07-18 10:48:41.532302 ; 68.82 
159 ; Vissac ; Pa13 ; Vissac-2019-Pa13-F ; 662 ; 2019-07-18 10:48:42.379787 ; 68.82 
160 ; Vissac ; Pa13 ; Vissac-2019-Pa13-F ; 662 ; 2019-07-18 10:48:43.239927 ; 68.83 
161 ; Vissac ; Pa13 ; Vissac-2019-Pa13-F ; 662 ; 2019-07-18 10:48:44.087474 ; 68.84 
162 ; Vissac ; Pa13 ; Vissac-2019-Pa13-F ; 662 ; 2019-07-18 10:48:44.990404 ; 68.85 
163 ; Vissac ; Pa13 ; Vissac-2019-Pa13-F ; 662 ; 2019-07-18 10:48:45.845687 ; 68.87 
164 ; Vissac ; Pa13 ; Vissac-2019-Pa13-F ; 662 ; 2019-07-18 10:48:46.700121 ; 68.88 
165 ; Vissac ; Pa13 ; Vissac-2019-Pa13-F ; 662 ; 2019-07-18 10:48:47.557271 ; 68.87 
166 ; Vissac ; Pa13 ; Vissac-2019-Pa13-F ; 662 ; 2019-07-18 10:48:48.358149 ; 68.89 
167 ; Vissac ; Pa13 ; Vissac-2019-Pa13-F ; 662 ; 2019-07-18 10:48:49.209457 ; 68.9 
168 ; Vissac ; Pa13 ; Vissac-2019-Pa13-F ; 662 ; 2019-07-18 10:48:50.059229 ; 68.91 
169 ; Vissac ; Pa13 ; Vissac-2019-Pa13-F ; 662 ; 2019-07-18 10:48:50.912004 ; 68.94 
170 ; Vissac ; Pa13 ; Vissac-2019-Pa13-F ; 662 ; 2019-07-18 10:48:51.769131 ; 68.96 
171 ; Vissac ; Pa13 ; Vissac-2019-Pa13-F ; 662 ; 2019-07-18 10:48:52.729774 ; 68.96 
172 ; Vissac ; Pa13 ; Vissac-2019-Pa13-F ; 662 ; 2019-07-18 10:48:53.582326 ; 68.97 
173 ; Vissac ; Pa13 ; Vissac-2019-Pa13-F ; 662 ; 2019-07-18 10:48:54.432863 ; 68.98 
174 ; Vissac ; Pa13 ; Vissac-2019-Pa13-F ; 662 ; 2019-07-18 10:48:55.287214 ; 68.99 
175 ; Vissac ; Pa13 ; Vissac-2019-Pa13-F ; 662 ; 2019-07-18 10:48:56.140618 ; 69.01 
176 ; Vissac ; Pa13 ; Vissac-2019-Pa13-F ; 662 ; 2019-07-18 10:48:56.990097 ; 69.01 
177 ; Vissac ; Pa13 ; Vissac-2019-Pa13-F ; 662 ; 2019-07-18 10:48:57.842766 ; 69.02 
178 ; Vissac ; Pa13 ; Vissac-2019-Pa13-F ; 662 ; 2019-07-18 10:48:58.706286 ; 69.03 
179 ; Vissac ; Pa13 ; Vissac-2019-Pa13-F ; 662 ; 2019-07-18 10:48:59.555613 ; 69.03 
180 ; Vissac ; Pa13 ; Vissac-2019-Pa13-F ; 662 ; 2019-07-18 10:49:00.401939 ; 69.03 
181 ; Vissac ; Pa13 ; Vissac-2019-Pa13-F ; 662 ; 2019-07-18 10:49:01.259392 ; 69.07 
182 ; Vissac ; Pa13 ; Vissac-2019-Pa13-F ; 662 ; 2019-07-18 10:49:02.117403 ; 69.08 
183 ; Vissac ; Pa13 ; Vissac-2019-Pa13-F ; 662 ; 2019-07-18 10:49:02.963986 ; 69.08 
184 ; Vissac ; Pa13 ; Vissac-2019-Pa13-F ; 662 ; 2019-07-18 10:49:03.815544 ; 69.08 
185 ; Vissac ; Pa13 ; Vissac-2019-Pa13-F ; 662 ; 2019-07-18 10:49:04.677922 ; 69.08 
186 ; Vissac ; Pa13 ; Vissac-2019-Pa13-F ; 662 ; 2019-07-18 10:49:05.524861 ; 69.09 
187 ; Vissac ; Pa13 ; Vissac-2019-Pa13-F ; 662 ; 2019-07-18 10:49:06.378495 ; 69.09 
188 ; Vissac ; Pa13 ; Vissac-2019-Pa13-F ; 662 ; 2019-07-18 10:49:07.233934 ; 69.09 
189 ; Vissac ; Pa13 ; Vissac-2019-Pa13-F ; 662 ; 2019-07-18 10:49:08.080677 ; 69.1 
190 ; Vissac ; Pa13 ; Vissac-2019-Pa13-F ; 662 ; 2019-07-18 10:49:08.889454 ; 69.1 
191 ; Vissac ; Pa13 ; Vissac-2019-Pa13-F ; 662 ; 2019-07-18 10:49:09.742663 ; 69.11 
192 ; Vissac ; Pa13 ; Vissac-2019-Pa13-F ; 662 ; 2019-07-18 10:49:10.594444 ; 69.11 
193 ; Vissac ; Pa13 ; Vissac-2019-Pa13-F ; 662 ; 2019-07-18 10:49:11.446363 ; 69.11 
194 ; Vissac ; Pa13 ; Vissac-2019-Pa13-F ; 662 ; 2019-07-18 10:49:12.296925 ; 69.1 
195 ; Vissac ; Pa13 ; Vissac-2019-Pa13-F ; 662 ; 2019-07-18 10:49:13.156509 ; 69.11 
196 ; Vissac ; Pa13 ; Vissac-2019-Pa13-F ; 662 ; 2019-07-18 10:49:14.004817 ; 69.11 
197 ; Vissac ; Pa13 ; Vissac-2019-Pa13-F ; 662 ; 2019-07-18 10:49:14.856643 ; 69.11 
198 ; Vissac ; Pa13 ; Vissac-2019-Pa13-F ; 662 ; 2019-07-18 10:49:15.718704 ; 69.11 
199 ; Vissac ; Pa13 ; Vissac-2019-Pa13-F ; 662 ; 2019-07-18 10:49:16.566486 ; 69.11 
200 ; Vissac ; Pa13 ; Vissac-2019-Pa13-F ; 662 ; 2019-07-18 10:49:17.416797 ; 69.11 
201 ; Vissac ; Pa13 ; Vissac-2019-Pa13-F ; 662 ; 2019-07-18 10:49:18.272737 ; 69.11 
202 ; Vissac ; Pa13 ; Vissac-2019-Pa13-F ; 662 ; 2019-07-18 10:49:19.122635 ; 69.11 
203 ; Vissac ; Pa13 ; Vissac-2019-Pa13-F ; 662 ; 2019-07-18 10:49:19.972988 ; 69.1 
204 ; Vissac ; Pa13 ; Vissac-2019-Pa13-F ; 662 ; 2019-07-18 10:49:20.830515 ; 69.1 
205 ; Vissac ; Pa13 ; Vissac-2019-Pa13-F ; 662 ; 2019-07-18 10:49:21.688422 ; 69.09 
206 ; Vissac ; Pa13 ; Vissac-2019-Pa13-F ; 662 ; 2019-07-18 10:49:22.539761 ; 69.09 
207 ; Vissac ; Pa13 ; Vissac-2019-Pa13-F ; 662 ; 2019-07-18 10:49:23.388834 ; 69.09 
208 ; Vissac ; Pa13 ; Vissac-2019-Pa13-F ; 662 ; 2019-07-18 10:49:24.241734 ; 69.1 
209 ; Vissac ; Pa13 ; Vissac-2019-Pa13-F ; 662 ; 2019-07-18 10:49:25.101494 ; 69.1 
210 ; Vissac ; Pa13 ; Vissac-2019-Pa13-F ; 662 ; 2019-07-18 10:49:25.946096 ; 69.1 
211 ; Vissac ; Pa13 ; Vissac-2019-Pa13-F ; 662 ; 2019-07-18 10:49:26.807677 ; 69.1 
212 ; Vissac ; Pa13 ; Vissac-2019-Pa13-F ; 662 ; 2019-07-18 10:49:27.655936 ; 69.1 
213 ; Vissac ; Pa13 ; Vissac-2019-Pa13-F ; 662 ; 2019-07-18 10:49:38.519290 ; 69.08 
214 ; Vissac ; Pa13 ; Vissac-2019-Pa13-F ; 662 ; 2019-07-18 10:49:49.509131 ; 69.06 
215 ; Vissac ; Pa13 ; Vissac-2019-Pa13-F ; 662 ; 2019-07-18 10:50:00.393299 ; 69.02 
216 ; Vissac ; Pa13 ; Vissac-2019-Pa13-F ; 662 ; 2019-07-18 10:50:11.268985 ; 69 
217 ; Vissac ; Pa13 ; Vissac-2019-Pa13-F ; 662 ; 2019-07-18 10:50:22.158140 ; 68.97 
218 ; Vissac ; Pa13 ; Vissac-2019-Pa13-F ; 662 ; 2019-07-18 10:50:33.137808 ; 68.93 
219 ; Vissac ; Pa13 ; Vissac-2019-Pa13-F ; 662 ; 2019-07-18 10:50:44.015930 ; 68.91 
220 ; Vissac ; Pa13 ; Vissac-2019-Pa13-F ; 662 ; 2019-07-18 10:50:54.843477 ; 68.91 
221 ; Vissac ; Pa13 ; Vissac-2019-Pa13-F ; 662 ; 2019-07-18 10:51:05.719659 ; 68.88 
222 ; Vissac ; Pa13 ; Vissac-2019-Pa13-F ; 662 ; 2019-07-18 10:51:16.656058 ; 68.9 
223 ; Vissac ; Pa13 ; Vissac-2019-Pa13-F ; 662 ; 2019-07-18 10:51:27.541069 ; 68.87 
224 ; Vissac ; Pa13 ; Vissac-2019-Pa13-F ; 662 ; 2019-07-18 10:51:38.415552 ; 68.85 
225 ; Vissac ; Pa13 ; Vissac-2019-Pa13-F ; 662 ; 2019-07-18 10:51:49.351328 ; 68.83 
226 ; Vissac ; Pa13 ; Vissac-2019-Pa13-F ; 662 ; 2019-07-18 10:52:00.338323 ; 68.81 
227 ; Vissac ; Pa13 ; Vissac-2019-Pa13-F ; 662 ; 2019-07-18 10:52:11.221750 ; 68.78 
228 ; Vissac ; Pa13 ; Vissac-2019-Pa13-F ; 662 ; 2019-07-18 10:52:22.097696 ; 68.81 
229 ; Vissac ; Pa13 ; Vissac-2019-Pa13-F ; 662 ; 2019-07-18 10:52:32.985113 ; 68.8 
230 ; Vissac ; Pa13 ; Vissac-2019-Pa13-F ; 662 ; 2019-07-18 10:52:43.859991 ; 68.8 
231 ; Vissac ; Pa13 ; Vissac-2019-Pa13-F ; 662 ; 2019-07-18 10:52:54.736345 ; 68.78 
232 ; Vissac ; Pa13 ; Vissac-2019-Pa13-F ; 662 ; 2019-07-18 10:53:05.668795 ; 68.81 
233 ; Vissac ; Pa13 ; Vissac-2019-Pa13-F ; 662 ; 2019-07-18 10:53:16.658787 ; 68.79 
234 ; Vissac ; Pa13 ; Vissac-2019-Pa13-F ; 662 ; 2019-07-18 10:53:27.547204 ; 68.79 
235 ; Vissac ; Pa13 ; Vissac-2019-Pa13-F ; 662 ; 2019-07-18 10:53:38.415045 ; 68.77 
236 ; Vissac ; Pa13 ; Vissac-2019-Pa13-F ; 662 ; 2019-07-18 10:53:49.405678 ; 68.76 
237 ; Vissac ; Pa13 ; Vissac-2019-Pa13-F ; 662 ; 2019-07-18 10:54:00.289507 ; 68.74 
238 ; Vissac ; Pa13 ; Vissac-2019-Pa13-F ; 662 ; 2019-07-18 10:54:11.164478 ; 68.74 
239 ; Vissac ; Pa13 ; Vissac-2019-Pa13-F ; 662 ; 2019-07-18 10:54:22.040808 ; 68.73 
240 ; Vissac ; Pa13 ; Vissac-2019-Pa13-F ; 662 ; 2019-07-18 10:54:32.879629 ; 68.75 
241 ; Vissac ; Pa13 ; Vissac-2019-Pa13-F ; 662 ; 2019-07-18 10:54:43.749798 ; 68.75 
242 ; Vissac ; Pa13 ; Vissac-2019-Pa13-F ; 662 ; 2019-07-18 10:54:54.628087 ; 68.73 
243 ; Vissac ; Pa13 ; Vissac-2019-Pa13-F ; 662 ; 2019-07-18 10:55:05.511949 ; 68.72 
244 ; Vissac ; Pa13 ; Vissac-2019-Pa13-F ; 662 ; 2019-07-18 10:55:16.390121 ; 68.71 
245 ; Vissac ; Pa13 ; Vissac-2019-Pa13-F ; 662 ; 2019-07-18 10:55:27.270792 ; 68.71 
246 ; Vissac ; Pa13 ; Vissac-2019-Pa13-F ; 662 ; 2019-07-18 10:55:38.150804 ; 68.7 
247 ; Vissac ; Pa13 ; Vissac-2019-Pa13-F ; 662 ; 2019-07-18 10:55:48.922550 ; 68.7 
248 ; Vissac ; Pa13 ; Vissac-2019-Pa13-F ; 662 ; 2019-07-18 10:55:59.797003 ; 68.68 
249 ; Vissac ; Pa13 ; Vissac-2019-Pa13-F ; 662 ; 2019-07-18 10:56:10.682640 ; 68.68 
250 ; Vissac ; Pa13 ; Vissac-2019-Pa13-F ; 662 ; 2019-07-18 10:56:21.561439 ; 68.68 
251 ; Vissac ; Pa13 ; Vissac-2019-Pa13-F ; 662 ; 2019-07-18 10:56:32.440612 ; 68.68 
252 ; Vissac ; Pa13 ; Vissac-2019-Pa13-F ; 662 ; 2019-07-18 10:57:03.316321 ; 68.66 
253 ; Vissac ; Pa13 ; Vissac-2019-Pa13-F ; 662 ; 2019-07-18 10:57:34.202429 ; 68.66 
254 ; Vissac ; Pa13 ; Vissac-2019-Pa13-F ; 662 ; 2019-07-18 10:58:05.082033 ; 68.67 
255 ; Vissac ; Pa13 ; Vissac-2019-Pa13-F ; 662 ; 2019-07-18 10:58:36.015382 ; 68.66 
256 ; Vissac ; Pa13 ; Vissac-2019-Pa13-F ; 662 ; 2019-07-18 10:59:06.951269 ; 68.64 
257 ; Vissac ; Pa13 ; Vissac-2019-Pa13-F ; 662 ; 2019-07-18 10:59:37.783441 ; 68.63 
258 ; Vissac ; Pa13 ; Vissac-2019-Pa13-F ; 662 ; 2019-07-18 11:00:08.712112 ; 68.63 
259 ; Vissac ; Pa13 ; Vissac-2019-Pa13-F ; 662 ; 2019-07-18 11:00:39.642493 ; 68.63 
260 ; Vissac ; Pa13 ; Vissac-2019-Pa13-F ; 662 ; 2019-07-18 11:01:10.572107 ; 68.62 
261 ; Vissac ; Pa13 ; Vissac-2019-Pa13-F ; 662 ; 2019-07-18 11:01:41.508878 ; 68.61 
262 ; Vissac ; Pa13 ; Vissac-2019-Pa13-F ; 662 ; 2019-07-18 11:02:12.438410 ; 68.61 
263 ; Vissac ; Pa13 ; Vissac-2019-Pa13-F ; 662 ; 2019-07-18 11:02:43.385120 ; 68.59 
264 ; Vissac ; Pa13 ; Vissac-2019-Pa13-F ; 662 ; 2019-07-18 11:03:14.312857 ; 68.6 
265 ; Vissac ; Pa13 ; Vissac-2019-Pa13-F ; 662 ; 2019-07-18 11:03:45.244814 ; 68.6 
266 ; Vissac ; Pa13 ; Vissac-2019-Pa13-F ; 662 ; 2019-07-18 11:04:16.174726 ; 68.6 
267 ; Vissac ; Pa13 ; Vissac-2019-Pa13-F ; 662 ; 2019-07-18 11:04:47.105545 ; 68.6 
268 ; Vissac ; Pa13 ; Vissac-2019-Pa13-F ; 662 ; 2019-07-18 11:05:18.039905 ; 68.6 
269 ; Vissac ; Pa13 ; Vissac-2019-Pa13-F ; 662 ; 2019-07-18 11:05:48.980925 ; 68.6 
270 ; Vissac ; Pa13 ; Vissac-2019-Pa13-F ; 662 ; 2019-07-18 11:06:19.905774 ; 68.61 
271 ; Vissac ; Pa13 ; Vissac-2019-Pa13-F ; 662 ; 2019-07-18 11:06:50.837763 ; 68.62 
272 ; Vissac ; Pa13 ; Vissac-2019-Pa13-F ; 662 ; 2019-07-18 11:07:21.775416 ; 68.61 
273 ; Vissac ; Pa13 ; Vissac-2019-Pa13-F ; 662 ; 2019-07-18 11:07:52.602843 ; 68.65 
274 ; Vissac ; Pa13 ; Vissac-2019-Pa13-F ; 662 ; 2019-07-18 11:08:23.537051 ; 68.66 
275 ; Vissac ; Pa13 ; Vissac-2019-Pa13-F ; 662 ; 2019-07-18 11:08:54.475531 ; 68.65 
276 ; Vissac ; Pa13 ; Vissac-2019-Pa13-F ; 662 ; 2019-07-18 11:09:25.401340 ; 68.65 
277 ; Vissac ; Pa13 ; Vissac-2019-Pa13-F ; 662 ; 2019-07-18 11:09:56.334493 ; 68.66 
278 ; Vissac ; Pa13 ; Vissac-2019-Pa13-F ; 662 ; 2019-07-18 11:10:27.271459 ; 68.66 
279 ; Vissac ; Pa13 ; Vissac-2019-Pa13-F ; 662 ; 2019-07-18 11:10:58.200924 ; 68.67 
280 ; Vissac ; Pa13 ; Vissac-2019-Pa13-F ; 662 ; 2019-07-18 11:11:29.143177 ; 68.68 
281 ; Vissac ; Pa13 ; Vissac-2019-Pa13-F ; 662 ; 2019-07-18 11:11:59.956840 ; 68.68 
282 ; Vissac ; Pa13 ; Vissac-2019-Pa13-F ; 662 ; 2019-07-18 11:12:30.895750 ; 68.68 
283 ; Vissac ; Pa13 ; Vissac-2019-Pa13-F ; 662 ; 2019-07-18 11:13:01.827696 ; 68.69 
284 ; Vissac ; Pa13 ; Vissac-2019-Pa13-F ; 662 ; 2019-07-18 11:13:32.775901 ; 68.7 
285 ; Vissac ; Pa13 ; Vissac-2019-Pa13-F ; 662 ; 2019-07-18 11:14:03.749502 ; 68.68 
286 ; Vissac ; Pa13 ; Vissac-2019-Pa13-F ; 662 ; 2019-07-18 11:14:34.697349 ; 68.69 
287 ; Vissac ; Pa13 ; Vissac-2019-Pa13-F ; 662 ; 2019-07-18 11:15:05.616889 ; 68.71 
288 ; Vissac ; Pa13 ; Vissac-2019-Pa13-F ; 662 ; 2019-07-18 11:15:36.551060 ; 68.71 
289 ; Vissac ; Pa13 ; Vissac-2019-Pa13-F ; 662 ; 2019-07-18 11:16:07.478831 ; 68.71 
290 ; Vissac ; Pa13 ; Vissac-2019-Pa13-F ; 662 ; 2019-07-18 11:16:38.404847 ; 68.71 
291 ; Vissac ; Pa13 ; Vissac-2019-Pa13-F ; 662 ; 2019-07-18 11:17:09.345761 ; 68.72 
292 ; Vissac ; Pa13 ; Vissac-2019-Pa13-F ; 662 ; 2019-07-18 11:17:40.285423 ; 68.73 
293 ; Vissac ; Pa13 ; Vissac-2019-Pa13-F ; 662 ; 2019-07-18 11:18:11.164213 ; 68.73 
294 ; Vissac ; Pa13 ; Vissac-2019-Pa13-F ; 662 ; 2019-07-18 11:18:42.092291 ; 68.73 
295 ; Vissac ; Pa13 ; Vissac-2019-Pa13-F ; 662 ; 2019-07-18 11:19:13.026456 ; 68.74 
296 ; Vissac ; Pa13 ; Vissac-2019-Pa13-F ; 662 ; 2019-07-18 11:19:43.965997 ; 68.74 
297 ; Vissac ; Pa13 ; Vissac-2019-Pa13-F ; 662 ; 2019-07-18 11:20:14.897555 ; 68.75 
298 ; Vissac ; Pa13 ; Vissac-2019-Pa13-F ; 662 ; 2019-07-18 11:20:45.842347 ; 68.75 
299 ; Vissac ; Pa13 ; Vissac-2019-Pa13-F ; 662 ; 2019-07-18 11:21:16.756306 ; 68.76 
300 ; Vissac ; Pa13 ; Vissac-2019-Pa13-F ; 662 ; 2019-07-18 11:21:47.767425 ; 68.77 
301 ; Vissac ; Pa13 ; Vissac-2019-Pa13-F ; 662 ; 2019-07-18 11:22:18.694963 ; 68.74 
302 ; Vissac ; Pa13 ; Vissac-2019-Pa13-F ; 662 ; 2019-07-18 11:22:49.619316 ; 68.75 
303 ; Vissac ; Pa13 ; Vissac-2019-Pa13-F ; 662 ; 2019-07-18 11:23:20.558093 ; 68.76 
304 ; Vissac ; Pa13 ; Vissac-2019-Pa13-F ; 662 ; 2019-07-18 11:23:51.488396 ; 68.78 
305 ; Vissac ; Pa13 ; Vissac-2019-Pa13-F ; 662 ; 2019-07-18 11:24:22.422039 ; 68.78 
306 ; Vissac ; Pa13 ; Vissac-2019-Pa13-F ; 662 ; 2019-07-18 11:24:53.351859 ; 68.79 
307 ; Vissac ; Pa13 ; Vissac-2019-Pa13-F ; 662 ; 2019-07-18 11:25:24.283520 ; 68.79 
308 ; Vissac ; Pa13 ; Vissac-2019-Pa13-F ; 662 ; 2019-07-18 11:25:55.215889 ; 68.8 
309 ; Vissac ; Pa13 ; Vissac-2019-Pa13-F ; 662 ; 2019-07-18 11:26:26.155877 ; 68.81 
310 ; Vissac ; Pa13 ; Vissac-2019-Pa13-F ; 662 ; 2019-07-18 11:26:57.034005 ; 68.82 
311 ; Vissac ; Pa13 ; Vissac-2019-Pa13-F ; 662 ; 2019-07-18 11:27:27.963907 ; 68.82 
312 ; Vissac ; Pa13 ; Vissac-2019-Pa13-F ; 662 ; 2019-07-18 11:27:58.893174 ; 68.84 
313 ; Vissac ; Pa13 ; Vissac-2019-Pa13-F ; 662 ; 2019-07-18 11:28:29.821177 ; 68.84 
314 ; Vissac ; Pa13 ; Vissac-2019-Pa13-F ; 662 ; 2019-07-18 11:29:00.762037 ; 68.85 
315 ; Vissac ; Pa13 ; Vissac-2019-Pa13-F ; 662 ; 2019-07-18 11:29:31.702347 ; 68.86 
316 ; Vissac ; Pa13 ; Vissac-2019-Pa13-F ; 662 ; 2019-07-18 11:30:02.522303 ; 68.87 
317 ; Vissac ; Pa13 ; Vissac-2019-Pa13-F ; 662 ; 2019-07-18 11:30:33.482012 ; 68.88 
318 ; Vissac ; Pa13 ; Vissac-2019-Pa13-F ; 662 ; 2019-07-18 11:31:04.415009 ; 68.89 
319 ; Vissac ; Pa13 ; Vissac-2019-Pa13-F ; 662 ; 2019-07-18 11:31:35.352629 ; 68.9 
320 ; Vissac ; Pa13 ; Vissac-2019-Pa13-F ; 662 ; 2019-07-18 11:32:06.293904 ; 68.96 
321 ; Vissac ; Pa13 ; Vissac-2019-Pa13-F ; 662 ; 2019-07-18 11:32:37.219459 ; 68.97 
322 ; Vissac ; Pa13 ; Vissac-2019-Pa13-F ; 662 ; 2019-07-18 11:33:08.145298 ; 68.98 
323 ; Vissac ; Pa13 ; Vissac-2019-Pa13-F ; 662 ; 2019-07-18 11:33:39.086960 ; 68.99 
324 ; Vissac ; Pa13 ; Vissac-2019-Pa13-F ; 662 ; 2019-07-18 11:34:09.908197 ; 69 
325 ; Vissac ; Pa13 ; Vissac-2019-Pa13-F ; 662 ; 2019-07-18 11:34:40.846346 ; 69.01 
326 ; Vissac ; Pa13 ; Vissac-2019-Pa13-F ; 662 ; 2019-07-18 11:35:11.800793 ; 69.02 
327 ; Vissac ; Pa13 ; Vissac-2019-Pa13-F ; 662 ; 2019-07-18 11:35:42.662151 ; 69.03 
328 ; Vissac ; Pa13 ; Vissac-2019-Pa13-F ; 662 ; 2019-07-18 11:36:13.590166 ; 69.04 
329 ; Vissac ; Pa13 ; Vissac-2019-Pa13-F ; 662 ; 2019-07-18 11:36:44.472527 ; 69.05 
330 ; Vissac ; Pa13 ; Vissac-2019-Pa13-F ; 662 ; 2019-07-18 11:37:15.403565 ; 69.06 
331 ; Vissac ; Pa13 ; Vissac-2019-Pa13-F ; 662 ; 2019-07-18 11:37:46.350477 ; 69.07 
332 ; Vissac ; Pa13 ; Vissac-2019-Pa13-F ; 662 ; 2019-07-18 11:38:17.303117 ; 69.08 
