i ; campaign ; serie ; sample ; slake ; time ; mass 
1 ; Longs Tours ; 1 ; LT-1-2019-D-C ; 526 ; 2019-07-04 13:35:46.937138 ; 137.73 
2 ; Longs Tours ; 1 ; LT-1-2019-D-C ; 526 ; 2019-07-04 13:35:48.046722 ; 137.73 
3 ; Longs Tours ; 1 ; LT-1-2019-D-C ; 526 ; 2019-07-04 13:35:49.083741 ; 137.73 
4 ; Longs Tours ; 1 ; LT-1-2019-D-C ; 526 ; 2019-07-04 13:35:50.155330 ; NA 
5 ; Longs Tours ; 1 ; LT-1-2019-D-C ; 526 ; 2019-07-04 13:35:51.199974 ; 137.73 
6 ; Longs Tours ; 1 ; LT-1-2019-D-C ; 526 ; 2019-07-04 13:35:52.235874 ; 114.83 
7 ; Longs Tours ; 1 ; LT-1-2019-D-C ; 526 ; 2019-07-04 13:35:53.300775 ; 54.46 
8 ; Longs Tours ; 1 ; LT-1-2019-D-C ; 526 ; 2019-07-04 13:35:54.341685 ; 56.15 
9 ; Longs Tours ; 1 ; LT-1-2019-D-C ; 526 ; 2019-07-04 13:35:55.390513 ; 56.87 
10 ; Longs Tours ; 1 ; LT-1-2019-D-C ; 526 ; 2019-07-04 13:35:56.449865 ; 57.34 
11 ; Longs Tours ; 1 ; LT-1-2019-D-C ; 526 ; 2019-07-04 13:35:57.491650 ; 57.41 
12 ; Longs Tours ; 1 ; LT-1-2019-D-C ; 526 ; 2019-07-04 13:35:58.529829 ; 57.52 
13 ; Longs Tours ; 1 ; LT-1-2019-D-C ; 526 ; 2019-07-04 13:35:59.590559 ; 57.55 
14 ; Longs Tours ; 1 ; LT-1-2019-D-C ; 526 ; 2019-07-04 13:36:00.637414 ; 57.5 
15 ; Longs Tours ; 1 ; LT-1-2019-D-C ; 526 ; 2019-07-04 13:36:01.679187 ; 57.5 
16 ; Longs Tours ; 1 ; LT-1-2019-D-C ; 526 ; 2019-07-04 13:36:02.752968 ; 57.46 
17 ; Longs Tours ; 1 ; LT-1-2019-D-C ; 526 ; 2019-07-04 13:36:03.784820 ; 57.36 
18 ; Longs Tours ; 1 ; LT-1-2019-D-C ; 526 ; 2019-07-04 13:36:04.830529 ; 57.31 
19 ; Longs Tours ; 1 ; LT-1-2019-D-C ; 526 ; 2019-07-04 13:36:05.901148 ; 57.3 
20 ; Longs Tours ; 1 ; LT-1-2019-D-C ; 526 ; 2019-07-04 13:36:06.928729 ; 57.26 
21 ; Longs Tours ; 1 ; LT-1-2019-D-C ; 526 ; 2019-07-04 13:36:07.970054 ; 57.24 
22 ; Longs Tours ; 1 ; LT-1-2019-D-C ; 526 ; 2019-07-04 13:36:09.041970 ; 57.17 
23 ; Longs Tours ; 1 ; LT-1-2019-D-C ; 526 ; 2019-07-04 13:36:10.075286 ; 57.1 
24 ; Longs Tours ; 1 ; LT-1-2019-D-C ; 526 ; 2019-07-04 13:36:11.135215 ; 56.84 
25 ; Longs Tours ; 1 ; LT-1-2019-D-C ; 526 ; 2019-07-04 13:36:12.158705 ; 56.6 
26 ; Longs Tours ; 1 ; LT-1-2019-D-C ; 526 ; 2019-07-04 13:36:13.222122 ; 56.3 
27 ; Longs Tours ; 1 ; LT-1-2019-D-C ; 526 ; 2019-07-04 13:36:14.266676 ; 55.96 
28 ; Longs Tours ; 1 ; LT-1-2019-D-C ; 526 ; 2019-07-04 13:36:15.304605 ; 55.73 
29 ; Longs Tours ; 1 ; LT-1-2019-D-C ; 526 ; 2019-07-04 13:36:16.367878 ; 55.4 
30 ; Longs Tours ; 1 ; LT-1-2019-D-C ; 526 ; 2019-07-04 13:36:17.411884 ; 55.07 
31 ; Longs Tours ; 1 ; LT-1-2019-D-C ; 526 ; 2019-07-04 13:36:18.459949 ; 54.81 
32 ; Longs Tours ; 1 ; LT-1-2019-D-C ; 526 ; 2019-07-04 13:36:19.515409 ; 54.48 
33 ; Longs Tours ; 1 ; LT-1-2019-D-C ; 526 ; 2019-07-04 13:36:20.556619 ; 54.18 
34 ; Longs Tours ; 1 ; LT-1-2019-D-C ; 526 ; 2019-07-04 13:36:21.597647 ; 54.11 
35 ; Longs Tours ; 1 ; LT-1-2019-D-C ; 526 ; 2019-07-04 13:36:22.663766 ; 53.66 
36 ; Longs Tours ; 1 ; LT-1-2019-D-C ; 526 ; 2019-07-04 13:36:23.704789 ; 53.39 
37 ; Longs Tours ; 1 ; LT-1-2019-D-C ; 526 ; 2019-07-04 13:36:24.744589 ; 52.74 
38 ; Longs Tours ; 1 ; LT-1-2019-D-C ; 526 ; 2019-07-04 13:36:25.816023 ; 52.14 
39 ; Longs Tours ; 1 ; LT-1-2019-D-C ; 526 ; 2019-07-04 13:36:26.850277 ; 51.87 
40 ; Longs Tours ; 1 ; LT-1-2019-D-C ; 526 ; 2019-07-04 13:36:27.890007 ; 51.6 
41 ; Longs Tours ; 1 ; LT-1-2019-D-C ; 526 ; 2019-07-04 13:36:28.959020 ; 51.48 
42 ; Longs Tours ; 1 ; LT-1-2019-D-C ; 526 ; 2019-07-04 13:36:30.000650 ; 51.18 
43 ; Longs Tours ; 1 ; LT-1-2019-D-C ; 526 ; 2019-07-04 13:36:31.035744 ; 50.66 
44 ; Longs Tours ; 1 ; LT-1-2019-D-C ; 526 ; 2019-07-04 13:36:32.100455 ; NA 
45 ; Longs Tours ; 1 ; LT-1-2019-D-C ; 526 ; 2019-07-04 13:36:33.146694 ; 49.25 
46 ; Longs Tours ; 1 ; LT-1-2019-D-C ; 526 ; 2019-07-04 13:36:34.196664 ; 48.93 
47 ; Longs Tours ; 1 ; LT-1-2019-D-C ; 526 ; 2019-07-04 13:36:35.250931 ; 47.86 
48 ; Longs Tours ; 1 ; LT-1-2019-D-C ; 526 ; 2019-07-04 13:36:36.288875 ; 47.58 
49 ; Longs Tours ; 1 ; LT-1-2019-D-C ; 526 ; 2019-07-04 13:36:37.330015 ; 47.35 
50 ; Longs Tours ; 1 ; LT-1-2019-D-C ; 526 ; 2019-07-04 13:36:38.398860 ; 47.25 
51 ; Longs Tours ; 1 ; LT-1-2019-D-C ; 526 ; 2019-07-04 13:36:39.436365 ; 47.1 
52 ; Longs Tours ; 1 ; LT-1-2019-D-C ; 526 ; 2019-07-04 13:36:40.479788 ; 46.93 
53 ; Longs Tours ; 1 ; LT-1-2019-D-C ; 526 ; 2019-07-04 13:36:41.553666 ; 46.78 
54 ; Longs Tours ; 1 ; LT-1-2019-D-C ; 526 ; 2019-07-04 13:36:42.584426 ; 46.67 
55 ; Longs Tours ; 1 ; LT-1-2019-D-C ; 526 ; 2019-07-04 13:36:43.621396 ; 46.57 
56 ; Longs Tours ; 1 ; LT-1-2019-D-C ; 526 ; 2019-07-04 13:36:44.660433 ; 46.47 
57 ; Longs Tours ; 1 ; LT-1-2019-D-C ; 526 ; 2019-07-04 13:36:45.727027 ; 46.34 
58 ; Longs Tours ; 1 ; LT-1-2019-D-C ; 526 ; 2019-07-04 13:36:46.769242 ; 46.19 
59 ; Longs Tours ; 1 ; LT-1-2019-D-C ; 526 ; 2019-07-04 13:36:47.821897 ; 46.06 
60 ; Longs Tours ; 1 ; LT-1-2019-D-C ; 526 ; 2019-07-04 13:36:48.887384 ; 45.82 
61 ; Longs Tours ; 1 ; LT-1-2019-D-C ; 526 ; 2019-07-04 13:36:49.915690 ; 45.77 
62 ; Longs Tours ; 1 ; LT-1-2019-D-C ; 526 ; 2019-07-04 13:36:50.952684 ; 45.68 
63 ; Longs Tours ; 1 ; LT-1-2019-D-C ; 526 ; 2019-07-04 13:36:52.022870 ; 45.59 
64 ; Longs Tours ; 1 ; LT-1-2019-D-C ; 526 ; 2019-07-04 13:36:53.066339 ; 45.48 
65 ; Longs Tours ; 1 ; LT-1-2019-D-C ; 526 ; 2019-07-04 13:36:54.100405 ; 45.35 
66 ; Longs Tours ; 1 ; LT-1-2019-D-C ; 526 ; 2019-07-04 13:36:55.172423 ; 44.76 
67 ; Longs Tours ; 1 ; LT-1-2019-D-C ; 526 ; 2019-07-04 13:36:56.217400 ; 44.22 
68 ; Longs Tours ; 1 ; LT-1-2019-D-C ; 526 ; 2019-07-04 13:36:57.250832 ; 43.45 
69 ; Longs Tours ; 1 ; LT-1-2019-D-C ; 526 ; 2019-07-04 13:36:58.316956 ; 43.38 
70 ; Longs Tours ; 1 ; LT-1-2019-D-C ; 526 ; 2019-07-04 13:36:59.354783 ; 43.12 
71 ; Longs Tours ; 1 ; LT-1-2019-D-C ; 526 ; 2019-07-04 13:37:00.396879 ; 43.04 
72 ; Longs Tours ; 1 ; LT-1-2019-D-C ; 526 ; 2019-07-04 13:37:01.464437 ; 42.72 
73 ; Longs Tours ; 1 ; LT-1-2019-D-C ; 526 ; 2019-07-04 13:37:02.501157 ; 42.65 
74 ; Longs Tours ; 1 ; LT-1-2019-D-C ; 526 ; 2019-07-04 13:37:03.545303 ; 42.54 
75 ; Longs Tours ; 1 ; LT-1-2019-D-C ; 526 ; 2019-07-04 13:37:04.618860 ; 42.53 
76 ; Longs Tours ; 1 ; LT-1-2019-D-C ; 526 ; 2019-07-04 13:37:05.658481 ; 42.23 
77 ; Longs Tours ; 1 ; LT-1-2019-D-C ; 526 ; 2019-07-04 13:37:06.690715 ; 41.89 
78 ; Longs Tours ; 1 ; LT-1-2019-D-C ; 526 ; 2019-07-04 13:37:07.754559 ; 41.54 
79 ; Longs Tours ; 1 ; LT-1-2019-D-C ; 526 ; 2019-07-04 13:37:08.813451 ; 41.24 
80 ; Longs Tours ; 1 ; LT-1-2019-D-C ; 526 ; 2019-07-04 13:37:09.837858 ; 40.98 
81 ; Longs Tours ; 1 ; LT-1-2019-D-C ; 526 ; 2019-07-04 13:37:10.900632 ; 40.88 
82 ; Longs Tours ; 1 ; LT-1-2019-D-C ; 526 ; 2019-07-04 13:37:11.956947 ; NA 
83 ; Longs Tours ; 1 ; LT-1-2019-D-C ; 526 ; 2019-07-04 13:37:12.981650 ; 40.65 
84 ; Longs Tours ; 1 ; LT-1-2019-D-C ; 526 ; 2019-07-04 13:37:14.024993 ; 40.5 
85 ; Longs Tours ; 1 ; LT-1-2019-D-C ; 526 ; 2019-07-04 13:37:15.088572 ; 40.03 
86 ; Longs Tours ; 1 ; LT-1-2019-D-C ; 526 ; 2019-07-04 13:37:16.131471 ; 39.73 
87 ; Longs Tours ; 1 ; LT-1-2019-D-C ; 526 ; 2019-07-04 13:37:17.171318 ; 39.18 
88 ; Longs Tours ; 1 ; LT-1-2019-D-C ; 526 ; 2019-07-04 13:37:18.235900 ; 38.86 
89 ; Longs Tours ; 1 ; LT-1-2019-D-C ; 526 ; 2019-07-04 13:37:19.286210 ; 38.06 
90 ; Longs Tours ; 1 ; LT-1-2019-D-C ; 526 ; 2019-07-04 13:37:20.314825 ; 37.77 
91 ; Longs Tours ; 1 ; LT-1-2019-D-C ; 526 ; 2019-07-04 13:37:21.384176 ; 37.68 
92 ; Longs Tours ; 1 ; LT-1-2019-D-C ; 526 ; 2019-07-04 13:37:22.423199 ; 37.41 
93 ; Longs Tours ; 1 ; LT-1-2019-D-C ; 526 ; 2019-07-04 13:37:23.464219 ; 36.85 
94 ; Longs Tours ; 1 ; LT-1-2019-D-C ; 526 ; 2019-07-04 13:37:24.530450 ; 36.32 
95 ; Longs Tours ; 1 ; LT-1-2019-D-C ; 526 ; 2019-07-04 13:37:25.568730 ; 36.08 
96 ; Longs Tours ; 1 ; LT-1-2019-D-C ; 526 ; 2019-07-04 13:37:26.618307 ; 35.74 
97 ; Longs Tours ; 1 ; LT-1-2019-D-C ; 526 ; 2019-07-04 13:37:27.677467 ; 35.46 
98 ; Longs Tours ; 1 ; LT-1-2019-D-C ; 526 ; 2019-07-04 13:37:28.715365 ; 35.15 
99 ; Longs Tours ; 1 ; LT-1-2019-D-C ; 526 ; 2019-07-04 13:37:29.773296 ; 34.9 
100 ; Longs Tours ; 1 ; LT-1-2019-D-C ; 526 ; 2019-07-04 13:37:30.823961 ; 34.35 
101 ; Longs Tours ; 1 ; LT-1-2019-D-C ; 526 ; 2019-07-04 13:37:31.864006 ; 34.13 
102 ; Longs Tours ; 1 ; LT-1-2019-D-C ; 526 ; 2019-07-04 13:37:32.905748 ; 33.81 
103 ; Longs Tours ; 1 ; LT-1-2019-D-C ; 526 ; 2019-07-04 13:37:33.981664 ; 33.76 
104 ; Longs Tours ; 1 ; LT-1-2019-D-C ; 526 ; 2019-07-04 13:37:35.009399 ; 33.64 
105 ; Longs Tours ; 1 ; LT-1-2019-D-C ; 526 ; 2019-07-04 13:37:36.051686 ; 33.51 
106 ; Longs Tours ; 1 ; LT-1-2019-D-C ; 526 ; 2019-07-04 13:37:37.116966 ; 33.38 
107 ; Longs Tours ; 1 ; LT-1-2019-D-C ; 526 ; 2019-07-04 13:37:38.158274 ; 33.09 
108 ; Longs Tours ; 1 ; LT-1-2019-D-C ; 526 ; 2019-07-04 13:37:39.194494 ; 32.43 
109 ; Longs Tours ; 1 ; LT-1-2019-D-C ; 526 ; 2019-07-04 13:37:40.235456 ; 31 
110 ; Longs Tours ; 1 ; LT-1-2019-D-C ; 526 ; 2019-07-04 13:37:41.312499 ; 30.64 
111 ; Longs Tours ; 1 ; LT-1-2019-D-C ; 526 ; 2019-07-04 13:37:42.343237 ; 30.53 
112 ; Longs Tours ; 1 ; LT-1-2019-D-C ; 526 ; 2019-07-04 13:37:43.383787 ; 30.42 
113 ; Longs Tours ; 1 ; LT-1-2019-D-C ; 526 ; 2019-07-04 13:37:44.448399 ; 30.35 
114 ; Longs Tours ; 1 ; LT-1-2019-D-C ; 526 ; 2019-07-04 13:37:45.492676 ; 30.27 
115 ; Longs Tours ; 1 ; LT-1-2019-D-C ; 526 ; 2019-07-04 13:37:46.531653 ; 30.17 
116 ; Longs Tours ; 1 ; LT-1-2019-D-C ; 526 ; 2019-07-04 13:37:47.598922 ; 30.08 
117 ; Longs Tours ; 1 ; LT-1-2019-D-C ; 526 ; 2019-07-04 13:37:48.644145 ; 29.98 
118 ; Longs Tours ; 1 ; LT-1-2019-D-C ; 526 ; 2019-07-04 13:37:49.679112 ; 29.89 
119 ; Longs Tours ; 1 ; LT-1-2019-D-C ; 526 ; 2019-07-04 13:37:50.745658 ; 29.82 
120 ; Longs Tours ; 1 ; LT-1-2019-D-C ; 526 ; 2019-07-04 13:37:51.783992 ; 29.78 
121 ; Longs Tours ; 1 ; LT-1-2019-D-C ; 526 ; 2019-07-04 13:37:52.823418 ; 29.69 
122 ; Longs Tours ; 1 ; LT-1-2019-D-C ; 526 ; 2019-07-04 13:37:53.897461 ; 29.58 
123 ; Longs Tours ; 1 ; LT-1-2019-D-C ; 526 ; 2019-07-04 13:37:54.930981 ; 29.47 
124 ; Longs Tours ; 1 ; LT-1-2019-D-C ; 526 ; 2019-07-04 13:37:55.981085 ; 29.36 
125 ; Longs Tours ; 1 ; LT-1-2019-D-C ; 526 ; 2019-07-04 13:37:57.033624 ; 29.3 
126 ; Longs Tours ; 1 ; LT-1-2019-D-C ; 526 ; 2019-07-04 13:37:58.076815 ; 29.24 
127 ; Longs Tours ; 1 ; LT-1-2019-D-C ; 526 ; 2019-07-04 13:37:59.116788 ; 29.17 
128 ; Longs Tours ; 1 ; LT-1-2019-D-C ; 526 ; 2019-07-04 13:38:00.188594 ; 29.07 
129 ; Longs Tours ; 1 ; LT-1-2019-D-C ; 526 ; 2019-07-04 13:38:01.223690 ; 29 
130 ; Longs Tours ; 1 ; LT-1-2019-D-C ; 526 ; 2019-07-04 13:38:02.261045 ; NA 
131 ; Longs Tours ; 1 ; LT-1-2019-D-C ; 526 ; 2019-07-04 13:38:03.348926 ; 28.89 
132 ; Longs Tours ; 1 ; LT-1-2019-D-C ; 526 ; 2019-07-04 13:38:04.368580 ; 28.84 
133 ; Longs Tours ; 1 ; LT-1-2019-D-C ; 526 ; 2019-07-04 13:38:05.410603 ; 28.79 
134 ; Longs Tours ; 1 ; LT-1-2019-D-C ; 526 ; 2019-07-04 13:38:06.475663 ; 28.69 
135 ; Longs Tours ; 1 ; LT-1-2019-D-C ; 526 ; 2019-07-04 13:38:07.518043 ; 28.55 
136 ; Longs Tours ; 1 ; LT-1-2019-D-C ; 526 ; 2019-07-04 13:38:08.556953 ; 28.41 
137 ; Longs Tours ; 1 ; LT-1-2019-D-C ; 526 ; 2019-07-04 13:38:09.625149 ; 28.12 
138 ; Longs Tours ; 1 ; LT-1-2019-D-C ; 526 ; 2019-07-04 13:38:10.662721 ; 28.05 
139 ; Longs Tours ; 1 ; LT-1-2019-D-C ; 526 ; 2019-07-04 13:38:11.712250 ; 27.93 
140 ; Longs Tours ; 1 ; LT-1-2019-D-C ; 526 ; 2019-07-04 13:38:12.742967 ; 27.8 
141 ; Longs Tours ; 1 ; LT-1-2019-D-C ; 526 ; 2019-07-04 13:38:13.808311 ; 27.67 
142 ; Longs Tours ; 1 ; LT-1-2019-D-C ; 526 ; 2019-07-04 13:38:14.847517 ; 27.36 
143 ; Longs Tours ; 1 ; LT-1-2019-D-C ; 526 ; 2019-07-04 13:38:15.889343 ; 27.09 
144 ; Longs Tours ; 1 ; LT-1-2019-D-C ; 526 ; 2019-07-04 13:38:16.958281 ; 27.01 
145 ; Longs Tours ; 1 ; LT-1-2019-D-C ; 526 ; 2019-07-04 13:38:17.994982 ; 26.9 
146 ; Longs Tours ; 1 ; LT-1-2019-D-C ; 526 ; 2019-07-04 13:38:19.052598 ; 26.83 
147 ; Longs Tours ; 1 ; LT-1-2019-D-C ; 526 ; 2019-07-04 13:38:20.104486 ; NA 
148 ; Longs Tours ; 1 ; LT-1-2019-D-C ; 526 ; 2019-07-04 13:38:21.144942 ; 26.37 
149 ; Longs Tours ; 1 ; LT-1-2019-D-C ; 526 ; 2019-07-04 13:38:22.183963 ; 25.88 
150 ; Longs Tours ; 1 ; LT-1-2019-D-C ; 526 ; 2019-07-04 13:38:23.248498 ; 25.38 
151 ; Longs Tours ; 1 ; LT-1-2019-D-C ; 526 ; 2019-07-04 13:38:24.290118 ; 25.31 
152 ; Longs Tours ; 1 ; LT-1-2019-D-C ; 526 ; 2019-07-04 13:38:25.329956 ; 25.25 
153 ; Longs Tours ; 1 ; LT-1-2019-D-C ; 526 ; 2019-07-04 13:38:26.406665 ; 25.21 
154 ; Longs Tours ; 1 ; LT-1-2019-D-C ; 526 ; 2019-07-04 13:38:27.433660 ; 25.19 
155 ; Longs Tours ; 1 ; LT-1-2019-D-C ; 526 ; 2019-07-04 13:38:28.477946 ; 25.14 
156 ; Longs Tours ; 1 ; LT-1-2019-D-C ; 526 ; 2019-07-04 13:38:29.540872 ; 25.08 
157 ; Longs Tours ; 1 ; LT-1-2019-D-C ; 526 ; 2019-07-04 13:38:30.583993 ; 25 
158 ; Longs Tours ; 1 ; LT-1-2019-D-C ; 526 ; 2019-07-04 13:38:31.621581 ; 24.94 
159 ; Longs Tours ; 1 ; LT-1-2019-D-C ; 526 ; 2019-07-04 13:38:32.690826 ; 24.86 
160 ; Longs Tours ; 1 ; LT-1-2019-D-C ; 526 ; 2019-07-04 13:38:33.739283 ; 24.79 
161 ; Longs Tours ; 1 ; LT-1-2019-D-C ; 526 ; 2019-07-04 13:38:34.770608 ; 24.73 
162 ; Longs Tours ; 1 ; LT-1-2019-D-C ; 526 ; 2019-07-04 13:38:35.828886 ; 24.69 
163 ; Longs Tours ; 1 ; LT-1-2019-D-C ; 526 ; 2019-07-04 13:38:36.876132 ; 24.67 
164 ; Longs Tours ; 1 ; LT-1-2019-D-C ; 526 ; 2019-07-04 13:38:37.919566 ; 24.64 
165 ; Longs Tours ; 1 ; LT-1-2019-D-C ; 526 ; 2019-07-04 13:38:38.986638 ; 24.62 
166 ; Longs Tours ; 1 ; LT-1-2019-D-C ; 526 ; 2019-07-04 13:38:40.024179 ; 24.58 
167 ; Longs Tours ; 1 ; LT-1-2019-D-C ; 526 ; 2019-07-04 13:38:41.073135 ; 24.56 
168 ; Longs Tours ; 1 ; LT-1-2019-D-C ; 526 ; 2019-07-04 13:38:42.104095 ; 24.54 
169 ; Longs Tours ; 1 ; LT-1-2019-D-C ; 526 ; 2019-07-04 13:38:43.170695 ; 24.51 
170 ; Longs Tours ; 1 ; LT-1-2019-D-C ; 526 ; 2019-07-04 13:38:44.214145 ; 24.47 
171 ; Longs Tours ; 1 ; LT-1-2019-D-C ; 526 ; 2019-07-04 13:38:45.255119 ; 24.45 
172 ; Longs Tours ; 1 ; LT-1-2019-D-C ; 526 ; 2019-07-04 13:38:46.315781 ; 24.42 
173 ; Longs Tours ; 1 ; LT-1-2019-D-C ; 526 ; 2019-07-04 13:38:47.356101 ; 24.4 
174 ; Longs Tours ; 1 ; LT-1-2019-D-C ; 526 ; 2019-07-04 13:38:48.409417 ; 24.36 
175 ; Longs Tours ; 1 ; LT-1-2019-D-C ; 526 ; 2019-07-04 13:38:59.466912 ; 23.97 
176 ; Longs Tours ; 1 ; LT-1-2019-D-C ; 526 ; 2019-07-04 13:39:10.481182 ; 23.44 
177 ; Longs Tours ; 1 ; LT-1-2019-D-C ; 526 ; 2019-07-04 13:39:21.470675 ; 22.35 
178 ; Longs Tours ; 1 ; LT-1-2019-D-C ; 526 ; 2019-07-04 13:39:32.481420 ; 21.74 
179 ; Longs Tours ; 1 ; LT-1-2019-D-C ; 526 ; 2019-07-04 13:39:43.496435 ; 21.32 
180 ; Longs Tours ; 1 ; LT-1-2019-D-C ; 526 ; 2019-07-04 13:39:54.510284 ; 20.92 
181 ; Longs Tours ; 1 ; LT-1-2019-D-C ; 526 ; 2019-07-04 13:40:05.534378 ; 20.75 
182 ; Longs Tours ; 1 ; LT-1-2019-D-C ; 526 ; 2019-07-04 13:40:16.538433 ; 20.63 
183 ; Longs Tours ; 1 ; LT-1-2019-D-C ; 526 ; 2019-07-04 13:40:27.547192 ; 20.51 
184 ; Longs Tours ; 1 ; LT-1-2019-D-C ; 526 ; 2019-07-04 13:40:38.560331 ; 20.51 
185 ; Longs Tours ; 1 ; LT-1-2019-D-C ; 526 ; 2019-07-04 13:40:49.572235 ; 20.44 
186 ; Longs Tours ; 1 ; LT-1-2019-D-C ; 526 ; 2019-07-04 13:41:00.564223 ; 20.19 
187 ; Longs Tours ; 1 ; LT-1-2019-D-C ; 526 ; 2019-07-04 13:41:11.577682 ; 20.09 
188 ; Longs Tours ; 1 ; LT-1-2019-D-C ; 526 ; 2019-07-04 13:41:22.601665 ; 20.09 
189 ; Longs Tours ; 1 ; LT-1-2019-D-C ; 526 ; 2019-07-04 13:41:33.604131 ; 20.09 
190 ; Longs Tours ; 1 ; LT-1-2019-D-C ; 526 ; 2019-07-04 13:41:44.614615 ; 20.03 
191 ; Longs Tours ; 1 ; LT-1-2019-D-C ; 526 ; 2019-07-04 13:41:55.633985 ; 19.97 
192 ; Longs Tours ; 1 ; LT-1-2019-D-C ; 526 ; 2019-07-04 13:42:06.646259 ; 19.97 
193 ; Longs Tours ; 1 ; LT-1-2019-D-C ; 526 ; 2019-07-04 13:42:17.650959 ; 19.61 
194 ; Longs Tours ; 1 ; LT-1-2019-D-C ; 526 ; 2019-07-04 13:42:28.642210 ; 19.39 
195 ; Longs Tours ; 1 ; LT-1-2019-D-C ; 526 ; 2019-07-04 13:42:39.665335 ; 18.91 
196 ; Longs Tours ; 1 ; LT-1-2019-D-C ; 526 ; 2019-07-04 13:42:50.667691 ; 18.87 
197 ; Longs Tours ; 1 ; LT-1-2019-D-C ; 526 ; 2019-07-04 13:43:01.680290 ; 18.87 
198 ; Longs Tours ; 1 ; LT-1-2019-D-C ; 526 ; 2019-07-04 13:43:12.692803 ; 18.87 
199 ; Longs Tours ; 1 ; LT-1-2019-D-C ; 526 ; 2019-07-04 13:43:23.704271 ; 18.87 
200 ; Longs Tours ; 1 ; LT-1-2019-D-C ; 526 ; 2019-07-04 13:43:34.718027 ; 18.87 
201 ; Longs Tours ; 1 ; LT-1-2019-D-C ; 526 ; 2019-07-04 13:43:45.731649 ; 18.87 
202 ; Longs Tours ; 1 ; LT-1-2019-D-C ; 526 ; 2019-07-04 13:43:56.720206 ; 18.87 
203 ; Longs Tours ; 1 ; LT-1-2019-D-C ; 526 ; 2019-07-04 13:44:07.741455 ; 18.87 
204 ; Longs Tours ; 1 ; LT-1-2019-D-C ; 526 ; 2019-07-04 13:44:18.747567 ; 18.87 
205 ; Longs Tours ; 1 ; LT-1-2019-D-C ; 526 ; 2019-07-04 13:44:29.777917 ; 18.87 
206 ; Longs Tours ; 1 ; LT-1-2019-D-C ; 526 ; 2019-07-04 13:44:40.771991 ; 18.87 
207 ; Longs Tours ; 1 ; LT-1-2019-D-C ; 526 ; 2019-07-04 13:44:51.784928 ; 18.91 
208 ; Longs Tours ; 1 ; LT-1-2019-D-C ; 526 ; 2019-07-04 13:45:02.806929 ; 18.91 
209 ; Longs Tours ; 1 ; LT-1-2019-D-C ; 526 ; 2019-07-04 13:45:13.813899 ; 18.91 
210 ; Longs Tours ; 1 ; LT-1-2019-D-C ; 526 ; 2019-07-04 13:45:24.816409 ; 18.91 
211 ; Longs Tours ; 1 ; LT-1-2019-D-C ; 526 ; 2019-07-04 13:45:35.809067 ; 18.91 
212 ; Longs Tours ; 1 ; LT-1-2019-D-C ; 526 ; 2019-07-04 13:45:46.824244 ; 18.91 
213 ; Longs Tours ; 1 ; LT-1-2019-D-C ; 526 ; 2019-07-04 13:46:17.826404 ; 18.91 
214 ; Longs Tours ; 1 ; LT-1-2019-D-C ; 526 ; 2019-07-04 13:46:48.771451 ; 18.91 
215 ; Longs Tours ; 1 ; LT-1-2019-D-C ; 526 ; 2019-07-04 13:47:19.707097 ; 18.91 
216 ; Longs Tours ; 1 ; LT-1-2019-D-C ; 526 ; 2019-07-04 13:47:50.637885 ; 18.91 
217 ; Longs Tours ; 1 ; LT-1-2019-D-C ; 526 ; 2019-07-04 13:48:21.573774 ; 18.91 
218 ; Longs Tours ; 1 ; LT-1-2019-D-C ; 526 ; 2019-07-04 13:48:52.520054 ; 18.91 
219 ; Longs Tours ; 1 ; LT-1-2019-D-C ; 526 ; 2019-07-04 13:49:23.446340 ; 18.91 
220 ; Longs Tours ; 1 ; LT-1-2019-D-C ; 526 ; 2019-07-04 13:49:54.371480 ; 18.91 
221 ; Longs Tours ; 1 ; LT-1-2019-D-C ; 526 ; 2019-07-04 13:50:25.309826 ; 18.91 
222 ; Longs Tours ; 1 ; LT-1-2019-D-C ; 526 ; 2019-07-04 13:50:56.237682 ; 18.91 
223 ; Longs Tours ; 1 ; LT-1-2019-D-C ; 526 ; 2019-07-04 13:51:27.210929 ; 18.91 
