i ; campaign ; serie ; sample ; slake ; time ; mass 
1 ; Longs Tours ; 3 ; LT-3-2019-D-D ; 456 ; 2019-07-02 14:32:47.308669 ; 133.08 
2 ; Longs Tours ; 3 ; LT-3-2019-D-D ; 456 ; 2019-07-02 14:32:48.285404 ; 133.08 
3 ; Longs Tours ; 3 ; LT-3-2019-D-D ; 456 ; 2019-07-02 14:32:49.134541 ; 133.08 
4 ; Longs Tours ; 3 ; LT-3-2019-D-D ; 456 ; 2019-07-02 14:32:49.989031 ; 133.09 
5 ; Longs Tours ; 3 ; LT-3-2019-D-D ; 456 ; 2019-07-02 14:32:50.850123 ; 133.09 
6 ; Longs Tours ; 3 ; LT-3-2019-D-D ; 456 ; 2019-07-02 14:32:51.711518 ; 133.09 
7 ; Longs Tours ; 3 ; LT-3-2019-D-D ; 456 ; 2019-07-02 14:32:52.650681 ; 109.11 
8 ; Longs Tours ; 3 ; LT-3-2019-D-D ; 456 ; 2019-07-02 14:32:53.677007 ; 55.85 
9 ; Longs Tours ; 3 ; LT-3-2019-D-D ; 456 ; 2019-07-02 14:32:54.422253 ; 57.52 
10 ; Longs Tours ; 3 ; LT-3-2019-D-D ; 456 ; 2019-07-02 14:32:55.168586 ; 59.83 
11 ; Longs Tours ; 3 ; LT-3-2019-D-D ; 456 ; 2019-07-02 14:32:56.038099 ; 59.79 
12 ; Longs Tours ; 3 ; LT-3-2019-D-D ; 456 ; 2019-07-02 14:32:56.981594 ; 59.95 
13 ; Longs Tours ; 3 ; LT-3-2019-D-D ; 456 ; 2019-07-02 14:32:57.945595 ; 60.17 
14 ; Longs Tours ; 3 ; LT-3-2019-D-D ; 456 ; 2019-07-02 14:32:58.903724 ; 60.31 
15 ; Longs Tours ; 3 ; LT-3-2019-D-D ; 456 ; 2019-07-02 14:32:59.877935 ; 60.01 
16 ; Longs Tours ; 3 ; LT-3-2019-D-D ; 456 ; 2019-07-02 14:33:00.834399 ; 59.88 
17 ; Longs Tours ; 3 ; LT-3-2019-D-D ; 456 ; 2019-07-02 14:33:01.782875 ; 59.73 
18 ; Longs Tours ; 3 ; LT-3-2019-D-D ; 456 ; 2019-07-02 14:33:02.741554 ; 59.26 
19 ; Longs Tours ; 3 ; LT-3-2019-D-D ; 456 ; 2019-07-02 14:33:03.705802 ; 58.78 
20 ; Longs Tours ; 3 ; LT-3-2019-D-D ; 456 ; 2019-07-02 14:33:04.671316 ; 58.25 
21 ; Longs Tours ; 3 ; LT-3-2019-D-D ; 456 ; 2019-07-02 14:33:05.626108 ; 58.16 
22 ; Longs Tours ; 3 ; LT-3-2019-D-D ; 456 ; 2019-07-02 14:33:06.583300 ; 57.94 
23 ; Longs Tours ; 3 ; LT-3-2019-D-D ; 456 ; 2019-07-02 14:33:07.539254 ; 57.71 
24 ; Longs Tours ; 3 ; LT-3-2019-D-D ; 456 ; 2019-07-02 14:33:08.498304 ; 57.71 
25 ; Longs Tours ; 3 ; LT-3-2019-D-D ; 456 ; 2019-07-02 14:33:09.361488 ; 57.34 
26 ; Longs Tours ; 3 ; LT-3-2019-D-D ; 456 ; 2019-07-02 14:33:10.261921 ; 56.59 
27 ; Longs Tours ; 3 ; LT-3-2019-D-D ; 456 ; 2019-07-02 14:33:11.168244 ; 55.95 
28 ; Longs Tours ; 3 ; LT-3-2019-D-D ; 456 ; 2019-07-02 14:33:12.084491 ; 55.29 
29 ; Longs Tours ; 3 ; LT-3-2019-D-D ; 456 ; 2019-07-02 14:33:13.047056 ; 54.83 
30 ; Longs Tours ; 3 ; LT-3-2019-D-D ; 456 ; 2019-07-02 14:33:13.946559 ; 54.85 
31 ; Longs Tours ; 3 ; LT-3-2019-D-D ; 456 ; 2019-07-02 14:33:14.797180 ; 54.86 
32 ; Longs Tours ; 3 ; LT-3-2019-D-D ; 456 ; 2019-07-02 14:33:15.646596 ; 54.85 
33 ; Longs Tours ; 3 ; LT-3-2019-D-D ; 456 ; 2019-07-02 14:33:16.503784 ; 54.81 
34 ; Longs Tours ; 3 ; LT-3-2019-D-D ; 456 ; 2019-07-02 14:33:17.370903 ; 54.47 
35 ; Longs Tours ; 3 ; LT-3-2019-D-D ; 456 ; 2019-07-02 14:33:18.105127 ; 54.26 
36 ; Longs Tours ; 3 ; LT-3-2019-D-D ; 456 ; 2019-07-02 14:33:18.955104 ; 53.63 
37 ; Longs Tours ; 3 ; LT-3-2019-D-D ; 456 ; 2019-07-02 14:33:19.915747 ; 52.39 
38 ; Longs Tours ; 3 ; LT-3-2019-D-D ; 456 ; 2019-07-02 14:33:20.878549 ; 51.69 
39 ; Longs Tours ; 3 ; LT-3-2019-D-D ; 456 ; 2019-07-02 14:33:21.847813 ; 51.22 
40 ; Longs Tours ; 3 ; LT-3-2019-D-D ; 456 ; 2019-07-02 14:33:22.800241 ; 50.83 
41 ; Longs Tours ; 3 ; LT-3-2019-D-D ; 456 ; 2019-07-02 14:33:23.759113 ; 50.4 
42 ; Longs Tours ; 3 ; LT-3-2019-D-D ; 456 ; 2019-07-02 14:33:24.717252 ; 49.98 
43 ; Longs Tours ; 3 ; LT-3-2019-D-D ; 456 ; 2019-07-02 14:33:25.682898 ; 49.63 
44 ; Longs Tours ; 3 ; LT-3-2019-D-D ; 456 ; 2019-07-02 14:33:26.638220 ; 49 
45 ; Longs Tours ; 3 ; LT-3-2019-D-D ; 456 ; 2019-07-02 14:33:27.597046 ; 48.57 
46 ; Longs Tours ; 3 ; LT-3-2019-D-D ; 456 ; 2019-07-02 14:33:28.558045 ; 48.3 
47 ; Longs Tours ; 3 ; LT-3-2019-D-D ; 456 ; 2019-07-02 14:33:29.516987 ; 48.19 
48 ; Longs Tours ; 3 ; LT-3-2019-D-D ; 456 ; 2019-07-02 14:33:30.490628 ; 48.12 
49 ; Longs Tours ; 3 ; LT-3-2019-D-D ; 456 ; 2019-07-02 14:33:31.384196 ; 47.74 
50 ; Longs Tours ; 3 ; LT-3-2019-D-D ; 456 ; 2019-07-02 14:33:32.188111 ; 47.21 
51 ; Longs Tours ; 3 ; LT-3-2019-D-D ; 456 ; 2019-07-02 14:33:33.144370 ; 46.35 
52 ; Longs Tours ; 3 ; LT-3-2019-D-D ; 456 ; 2019-07-02 14:33:33.958015 ; 45.08 
53 ; Longs Tours ; 3 ; LT-3-2019-D-D ; 456 ; 2019-07-02 14:33:34.905214 ; 44.79 
54 ; Longs Tours ; 3 ; LT-3-2019-D-D ; 456 ; 2019-07-02 14:33:35.703340 ; 44.66 
55 ; Longs Tours ; 3 ; LT-3-2019-D-D ; 456 ; 2019-07-02 14:33:36.511037 ; 43.55 
56 ; Longs Tours ; 3 ; LT-3-2019-D-D ; 456 ; 2019-07-02 14:33:37.464746 ; 42.37 
57 ; Longs Tours ; 3 ; LT-3-2019-D-D ; 456 ; 2019-07-02 14:33:38.274903 ; 40.63 
58 ; Longs Tours ; 3 ; LT-3-2019-D-D ; 456 ; 2019-07-02 14:33:39.220907 ; 40.4 
59 ; Longs Tours ; 3 ; LT-3-2019-D-D ; 456 ; 2019-07-02 14:33:40.021400 ; 40.23 
60 ; Longs Tours ; 3 ; LT-3-2019-D-D ; 456 ; 2019-07-02 14:33:40.772304 ; 40.03 
61 ; Longs Tours ; 3 ; LT-3-2019-D-D ; 456 ; 2019-07-02 14:33:41.581023 ; 39.9 
62 ; Longs Tours ; 3 ; LT-3-2019-D-D ; 456 ; 2019-07-02 14:33:42.532962 ; 39.75 
63 ; Longs Tours ; 3 ; LT-3-2019-D-D ; 456 ; 2019-07-02 14:33:43.271699 ; 39.54 
64 ; Longs Tours ; 3 ; LT-3-2019-D-D ; 456 ; 2019-07-02 14:33:44.024029 ; 39.37 
65 ; Longs Tours ; 3 ; LT-3-2019-D-D ; 456 ; 2019-07-02 14:33:44.770487 ; 39.19 
66 ; Longs Tours ; 3 ; LT-3-2019-D-D ; 456 ; 2019-07-02 14:33:45.526028 ; 38.83 
67 ; Longs Tours ; 3 ; LT-3-2019-D-D ; 456 ; 2019-07-02 14:33:46.254293 ; 38.46 
68 ; Longs Tours ; 3 ; LT-3-2019-D-D ; 456 ; 2019-07-02 14:33:47.007912 ; 38.22 
69 ; Longs Tours ; 3 ; LT-3-2019-D-D ; 456 ; 2019-07-02 14:33:47.752452 ; 38.06 
70 ; Longs Tours ; 3 ; LT-3-2019-D-D ; 456 ; 2019-07-02 14:33:48.510279 ; 37.96 
71 ; Longs Tours ; 3 ; LT-3-2019-D-D ; 456 ; 2019-07-02 14:33:49.241134 ; 37.93 
72 ; Longs Tours ; 3 ; LT-3-2019-D-D ; 456 ; 2019-07-02 14:33:50.101158 ; 37.86 
73 ; Longs Tours ; 3 ; LT-3-2019-D-D ; 456 ; 2019-07-02 14:33:51.057801 ; 37.82 
74 ; Longs Tours ; 3 ; LT-3-2019-D-D ; 456 ; 2019-07-02 14:33:52.028122 ; 37.75 
75 ; Longs Tours ; 3 ; LT-3-2019-D-D ; 456 ; 2019-07-02 14:33:52.928097 ; 37.77 
76 ; Longs Tours ; 3 ; LT-3-2019-D-D ; 456 ; 2019-07-02 14:33:53.778649 ; 37.78 
77 ; Longs Tours ; 3 ; LT-3-2019-D-D ; 456 ; 2019-07-02 14:33:54.635492 ; 37.78 
78 ; Longs Tours ; 3 ; LT-3-2019-D-D ; 456 ; 2019-07-02 14:33:55.479571 ; 37.77 
79 ; Longs Tours ; 3 ; LT-3-2019-D-D ; 456 ; 2019-07-02 14:33:56.349932 ; 37.75 
80 ; Longs Tours ; 3 ; LT-3-2019-D-D ; 456 ; 2019-07-02 14:33:57.195746 ; 37.63 
81 ; Longs Tours ; 3 ; LT-3-2019-D-D ; 456 ; 2019-07-02 14:33:57.993105 ; 37.58 
82 ; Longs Tours ; 3 ; LT-3-2019-D-D ; 456 ; 2019-07-02 14:33:58.844408 ; 37.47 
83 ; Longs Tours ; 3 ; LT-3-2019-D-D ; 456 ; 2019-07-02 14:33:59.763348 ; 37.38 
84 ; Longs Tours ; 3 ; LT-3-2019-D-D ; 456 ; 2019-07-02 14:34:00.661215 ; 37.2 
85 ; Longs Tours ; 3 ; LT-3-2019-D-D ; 456 ; 2019-07-02 14:34:01.456789 ; 37.05 
86 ; Longs Tours ; 3 ; LT-3-2019-D-D ; 456 ; 2019-07-02 14:34:02.257665 ; 37.01 
87 ; Longs Tours ; 3 ; LT-3-2019-D-D ; 456 ; 2019-07-02 14:34:03.057142 ; 36.99 
88 ; Longs Tours ; 3 ; LT-3-2019-D-D ; 456 ; 2019-07-02 14:34:03.873240 ; 36.95 
89 ; Longs Tours ; 3 ; LT-3-2019-D-D ; 456 ; 2019-07-02 14:34:04.817749 ; 36.89 
90 ; Longs Tours ; 3 ; LT-3-2019-D-D ; 456 ; 2019-07-02 14:34:05.728744 ; 36.74 
91 ; Longs Tours ; 3 ; LT-3-2019-D-D ; 456 ; 2019-07-02 14:34:06.628521 ; 36.61 
92 ; Longs Tours ; 3 ; LT-3-2019-D-D ; 456 ; 2019-07-02 14:34:07.601912 ; 36.52 
93 ; Longs Tours ; 3 ; LT-3-2019-D-D ; 456 ; 2019-07-02 14:34:08.553741 ; 36.48 
94 ; Longs Tours ; 3 ; LT-3-2019-D-D ; 456 ; 2019-07-02 14:34:09.351227 ; 36.41 
95 ; Longs Tours ; 3 ; LT-3-2019-D-D ; 456 ; 2019-07-02 14:34:10.207217 ; 36.3 
96 ; Longs Tours ; 3 ; LT-3-2019-D-D ; 456 ; 2019-07-02 14:34:11.020508 ; 36.22 
97 ; Longs Tours ; 3 ; LT-3-2019-D-D ; 456 ; 2019-07-02 14:34:11.811156 ; 36.14 
98 ; Longs Tours ; 3 ; LT-3-2019-D-D ; 456 ; 2019-07-02 14:34:12.658339 ; 36.12 
99 ; Longs Tours ; 3 ; LT-3-2019-D-D ; 456 ; 2019-07-02 14:34:13.505655 ; 36.1 
100 ; Longs Tours ; 3 ; LT-3-2019-D-D ; 456 ; 2019-07-02 14:34:14.532062 ; 35.94 
101 ; Longs Tours ; 3 ; LT-3-2019-D-D ; 456 ; 2019-07-02 14:34:15.443497 ; 35.56 
102 ; Longs Tours ; 3 ; LT-3-2019-D-D ; 456 ; 2019-07-02 14:34:16.392791 ; 35.45 
103 ; Longs Tours ; 3 ; LT-3-2019-D-D ; 456 ; 2019-07-02 14:34:17.354984 ; 35.36 
104 ; Longs Tours ; 3 ; LT-3-2019-D-D ; 456 ; 2019-07-02 14:34:18.313404 ; 35.33 
105 ; Longs Tours ; 3 ; LT-3-2019-D-D ; 456 ; 2019-07-02 14:34:19.110021 ; 35.11 
106 ; Longs Tours ; 3 ; LT-3-2019-D-D ; 456 ; 2019-07-02 14:34:20.036056 ; 35 
107 ; Longs Tours ; 3 ; LT-3-2019-D-D ; 456 ; 2019-07-02 14:34:20.925695 ; 34.96 
108 ; Longs Tours ; 3 ; LT-3-2019-D-D ; 456 ; 2019-07-02 14:34:21.832117 ; 34.94 
109 ; Longs Tours ; 3 ; LT-3-2019-D-D ; 456 ; 2019-07-02 14:34:22.634142 ; 34.79 
110 ; Longs Tours ; 3 ; LT-3-2019-D-D ; 456 ; 2019-07-02 14:34:23.441929 ; 34.74 
111 ; Longs Tours ; 3 ; LT-3-2019-D-D ; 456 ; 2019-07-02 14:34:24.234409 ; 34.74 
112 ; Longs Tours ; 3 ; LT-3-2019-D-D ; 456 ; 2019-07-02 14:34:25.080115 ; 34.73 
113 ; Longs Tours ; 3 ; LT-3-2019-D-D ; 456 ; 2019-07-02 14:34:25.887156 ; 34.62 
114 ; Longs Tours ; 3 ; LT-3-2019-D-D ; 456 ; 2019-07-02 14:34:26.685031 ; 34.55 
115 ; Longs Tours ; 3 ; LT-3-2019-D-D ; 456 ; 2019-07-02 14:34:27.547270 ; 34.53 
116 ; Longs Tours ; 3 ; LT-3-2019-D-D ; 456 ; 2019-07-02 14:34:28.338843 ; 34.52 
117 ; Longs Tours ; 3 ; LT-3-2019-D-D ; 456 ; 2019-07-02 14:34:29.140852 ; 34.5 
118 ; Longs Tours ; 3 ; LT-3-2019-D-D ; 456 ; 2019-07-02 14:34:29.992194 ; 34.5 
119 ; Longs Tours ; 3 ; LT-3-2019-D-D ; 456 ; 2019-07-02 14:34:30.846694 ; 34.49 
120 ; Longs Tours ; 3 ; LT-3-2019-D-D ; 456 ; 2019-07-02 14:34:31.754966 ; 34.47 
121 ; Longs Tours ; 3 ; LT-3-2019-D-D ; 456 ; 2019-07-02 14:34:32.606824 ; 34.5 
122 ; Longs Tours ; 3 ; LT-3-2019-D-D ; 456 ; 2019-07-02 14:34:33.506978 ; 34.46 
123 ; Longs Tours ; 3 ; LT-3-2019-D-D ; 456 ; 2019-07-02 14:34:34.417668 ; 34.43 
124 ; Longs Tours ; 3 ; LT-3-2019-D-D ; 456 ; 2019-07-02 14:34:35.337198 ; 34.42 
125 ; Longs Tours ; 3 ; LT-3-2019-D-D ; 456 ; 2019-07-02 14:34:36.178787 ; 34.44 
126 ; Longs Tours ; 3 ; LT-3-2019-D-D ; 456 ; 2019-07-02 14:34:37.089915 ; 34.42 
127 ; Longs Tours ; 3 ; LT-3-2019-D-D ; 456 ; 2019-07-02 14:34:37.939584 ; 34.42 
128 ; Longs Tours ; 3 ; LT-3-2019-D-D ; 456 ; 2019-07-02 14:34:38.744277 ; 34.41 
129 ; Longs Tours ; 3 ; LT-3-2019-D-D ; 456 ; 2019-07-02 14:34:39.595121 ; 34.39 
130 ; Longs Tours ; 3 ; LT-3-2019-D-D ; 456 ; 2019-07-02 14:34:40.492802 ; 34.33 
131 ; Longs Tours ; 3 ; LT-3-2019-D-D ; 456 ; 2019-07-02 14:34:41.244054 ; 34.21 
132 ; Longs Tours ; 3 ; LT-3-2019-D-D ; 456 ; 2019-07-02 14:34:41.991418 ; 34.19 
133 ; Longs Tours ; 3 ; LT-3-2019-D-D ; 456 ; 2019-07-02 14:34:42.854755 ; 34.17 
134 ; Longs Tours ; 3 ; LT-3-2019-D-D ; 456 ; 2019-07-02 14:34:43.703729 ; 34.15 
135 ; Longs Tours ; 3 ; LT-3-2019-D-D ; 456 ; 2019-07-02 14:34:44.440235 ; 34.13 
136 ; Longs Tours ; 3 ; LT-3-2019-D-D ; 456 ; 2019-07-02 14:34:45.191831 ; 34.12 
137 ; Longs Tours ; 3 ; LT-3-2019-D-D ; 456 ; 2019-07-02 14:34:45.954749 ; 34.09 
138 ; Longs Tours ; 3 ; LT-3-2019-D-D ; 456 ; 2019-07-02 14:34:46.799405 ; 34.07 
139 ; Longs Tours ; 3 ; LT-3-2019-D-D ; 456 ; 2019-07-02 14:34:47.643637 ; 34.04 
140 ; Longs Tours ; 3 ; LT-3-2019-D-D ; 456 ; 2019-07-02 14:34:48.443890 ; 34.02 
141 ; Longs Tours ; 3 ; LT-3-2019-D-D ; 456 ; 2019-07-02 14:34:49.297343 ; 34.01 
142 ; Longs Tours ; 3 ; LT-3-2019-D-D ; 456 ; 2019-07-02 14:34:50.167437 ; 34 
143 ; Longs Tours ; 3 ; LT-3-2019-D-D ; 456 ; 2019-07-02 14:34:51.007622 ; 33.99 
144 ; Longs Tours ; 3 ; LT-3-2019-D-D ; 456 ; 2019-07-02 14:34:51.820096 ; 33.99 
145 ; Longs Tours ; 3 ; LT-3-2019-D-D ; 456 ; 2019-07-02 14:34:52.657329 ; 33.98 
146 ; Longs Tours ; 3 ; LT-3-2019-D-D ; 456 ; 2019-07-02 14:34:53.510080 ; 33.97 
147 ; Longs Tours ; 3 ; LT-3-2019-D-D ; 456 ; 2019-07-02 14:34:54.316336 ; 33.96 
148 ; Longs Tours ; 3 ; LT-3-2019-D-D ; 456 ; 2019-07-02 14:34:55.218050 ; 33.96 
149 ; Longs Tours ; 3 ; LT-3-2019-D-D ; 456 ; 2019-07-02 14:34:56.013634 ; 33.89 
150 ; Longs Tours ; 3 ; LT-3-2019-D-D ; 456 ; 2019-07-02 14:34:56.875727 ; 33.8 
151 ; Longs Tours ; 3 ; LT-3-2019-D-D ; 456 ; 2019-07-02 14:34:57.738269 ; 33.73 
152 ; Longs Tours ; 3 ; LT-3-2019-D-D ; 456 ; 2019-07-02 14:34:58.574677 ; 33.71 
153 ; Longs Tours ; 3 ; LT-3-2019-D-D ; 456 ; 2019-07-02 14:34:59.431446 ; 33.7 
154 ; Longs Tours ; 3 ; LT-3-2019-D-D ; 456 ; 2019-07-02 14:35:00.285412 ; 33.71 
155 ; Longs Tours ; 3 ; LT-3-2019-D-D ; 456 ; 2019-07-02 14:35:01.045969 ; 33.69 
156 ; Longs Tours ; 3 ; LT-3-2019-D-D ; 456 ; 2019-07-02 14:35:01.887880 ; 33.69 
157 ; Longs Tours ; 3 ; LT-3-2019-D-D ; 456 ; 2019-07-02 14:35:02.733627 ; 33.68 
158 ; Longs Tours ; 3 ; LT-3-2019-D-D ; 456 ; 2019-07-02 14:35:03.585820 ; 33.67 
159 ; Longs Tours ; 3 ; LT-3-2019-D-D ; 456 ; 2019-07-02 14:35:04.445823 ; 33.66 
160 ; Longs Tours ; 3 ; LT-3-2019-D-D ; 456 ; 2019-07-02 14:35:05.311966 ; 33.66 
161 ; Longs Tours ; 3 ; LT-3-2019-D-D ; 456 ; 2019-07-02 14:35:06.150257 ; 33.66 
162 ; Longs Tours ; 3 ; LT-3-2019-D-D ; 456 ; 2019-07-02 14:35:06.999502 ; 33.66 
163 ; Longs Tours ; 3 ; LT-3-2019-D-D ; 456 ; 2019-07-02 14:35:07.854701 ; 33.65 
164 ; Longs Tours ; 3 ; LT-3-2019-D-D ; 456 ; 2019-07-02 14:35:08.712330 ; 33.64 
165 ; Longs Tours ; 3 ; LT-3-2019-D-D ; 456 ; 2019-07-02 14:35:09.630693 ; 33.63 
166 ; Longs Tours ; 3 ; LT-3-2019-D-D ; 456 ; 2019-07-02 14:35:10.475565 ; 33.63 
167 ; Longs Tours ; 3 ; LT-3-2019-D-D ; 456 ; 2019-07-02 14:35:11.322054 ; 33.63 
168 ; Longs Tours ; 3 ; LT-3-2019-D-D ; 456 ; 2019-07-02 14:35:12.174155 ; 33.63 
169 ; Longs Tours ; 3 ; LT-3-2019-D-D ; 456 ; 2019-07-02 14:35:13.041399 ; 33.62 
170 ; Longs Tours ; 3 ; LT-3-2019-D-D ; 456 ; 2019-07-02 14:35:13.887516 ; 33.62 
171 ; Longs Tours ; 3 ; LT-3-2019-D-D ; 456 ; 2019-07-02 14:35:14.735121 ; 33.61 
172 ; Longs Tours ; 3 ; LT-3-2019-D-D ; 456 ; 2019-07-02 14:35:15.588214 ; 33.61 
173 ; Longs Tours ; 3 ; LT-3-2019-D-D ; 456 ; 2019-07-02 14:35:16.441066 ; 33.62 
174 ; Longs Tours ; 3 ; LT-3-2019-D-D ; 456 ; 2019-07-02 14:35:17.312787 ; 33.62 
175 ; Longs Tours ; 3 ; LT-3-2019-D-D ; 456 ; 2019-07-02 14:35:18.147768 ; 33.62 
176 ; Longs Tours ; 3 ; LT-3-2019-D-D ; 456 ; 2019-07-02 14:35:19.004236 ; 33.62 
177 ; Longs Tours ; 3 ; LT-3-2019-D-D ; 456 ; 2019-07-02 14:35:19.853579 ; 33.61 
178 ; Longs Tours ; 3 ; LT-3-2019-D-D ; 456 ; 2019-07-02 14:35:20.727158 ; 33.61 
179 ; Longs Tours ; 3 ; LT-3-2019-D-D ; 456 ; 2019-07-02 14:35:21.559687 ; 33.6 
180 ; Longs Tours ; 3 ; LT-3-2019-D-D ; 456 ; 2019-07-02 14:35:22.417185 ; 33.59 
181 ; Longs Tours ; 3 ; LT-3-2019-D-D ; 456 ; 2019-07-02 14:35:23.272345 ; 33.59 
182 ; Longs Tours ; 3 ; LT-3-2019-D-D ; 456 ; 2019-07-02 14:35:24.230483 ; 33.58 
183 ; Longs Tours ; 3 ; LT-3-2019-D-D ; 456 ; 2019-07-02 14:35:25.100521 ; 33.58 
184 ; Longs Tours ; 3 ; LT-3-2019-D-D ; 456 ; 2019-07-02 14:35:25.936104 ; 33.58 
185 ; Longs Tours ; 3 ; LT-3-2019-D-D ; 456 ; 2019-07-02 14:35:26.788055 ; 33.48 
186 ; Longs Tours ; 3 ; LT-3-2019-D-D ; 456 ; 2019-07-02 14:35:27.644181 ; 33.43 
187 ; Longs Tours ; 3 ; LT-3-2019-D-D ; 456 ; 2019-07-02 14:35:28.603003 ; 33.42 
188 ; Longs Tours ; 3 ; LT-3-2019-D-D ; 456 ; 2019-07-02 14:35:29.474586 ; 33.42 
189 ; Longs Tours ; 3 ; LT-3-2019-D-D ; 456 ; 2019-07-02 14:35:30.307738 ; 33.42 
190 ; Longs Tours ; 3 ; LT-3-2019-D-D ; 456 ; 2019-07-02 14:35:31.162864 ; 33.42 
191 ; Longs Tours ; 3 ; LT-3-2019-D-D ; 456 ; 2019-07-02 14:35:32.016077 ; 33.4 
192 ; Longs Tours ; 3 ; LT-3-2019-D-D ; 456 ; 2019-07-02 14:35:32.902741 ; 33.39 
193 ; Longs Tours ; 3 ; LT-3-2019-D-D ; 456 ; 2019-07-02 14:35:33.830569 ; 33.39 
194 ; Longs Tours ; 3 ; LT-3-2019-D-D ; 456 ; 2019-07-02 14:35:34.680240 ; 33.39 
195 ; Longs Tours ; 3 ; LT-3-2019-D-D ; 456 ; 2019-07-02 14:35:35.528919 ; 33.38 
196 ; Longs Tours ; 3 ; LT-3-2019-D-D ; 456 ; 2019-07-02 14:35:36.391260 ; 33.37 
197 ; Longs Tours ; 3 ; LT-3-2019-D-D ; 456 ; 2019-07-02 14:35:37.255649 ; 33.36 
198 ; Longs Tours ; 3 ; LT-3-2019-D-D ; 456 ; 2019-07-02 14:35:38.099613 ; 33.36 
199 ; Longs Tours ; 3 ; LT-3-2019-D-D ; 456 ; 2019-07-02 14:35:38.893133 ; 33.32 
200 ; Longs Tours ; 3 ; LT-3-2019-D-D ; 456 ; 2019-07-02 14:35:39.644130 ; 33.11 
201 ; Longs Tours ; 3 ; LT-3-2019-D-D ; 456 ; 2019-07-02 14:35:40.388521 ; 33.03 
202 ; Longs Tours ; 3 ; LT-3-2019-D-D ; 456 ; 2019-07-02 14:35:41.254345 ; 33.01 
203 ; Longs Tours ; 3 ; LT-3-2019-D-D ; 456 ; 2019-07-02 14:35:42.154806 ; 33.01 
204 ; Longs Tours ; 3 ; LT-3-2019-D-D ; 456 ; 2019-07-02 14:35:42.998456 ; 33.01 
205 ; Longs Tours ; 3 ; LT-3-2019-D-D ; 456 ; 2019-07-02 14:35:43.857365 ; 33.01 
206 ; Longs Tours ; 3 ; LT-3-2019-D-D ; 456 ; 2019-07-02 14:35:44.709875 ; 33.01 
207 ; Longs Tours ; 3 ; LT-3-2019-D-D ; 456 ; 2019-07-02 14:35:45.563474 ; 33 
208 ; Longs Tours ; 3 ; LT-3-2019-D-D ; 456 ; 2019-07-02 14:35:46.418572 ; 33 
209 ; Longs Tours ; 3 ; LT-3-2019-D-D ; 456 ; 2019-07-02 14:35:47.270564 ; 33 
210 ; Longs Tours ; 3 ; LT-3-2019-D-D ; 456 ; 2019-07-02 14:35:48.120663 ; 32.99 
211 ; Longs Tours ; 3 ; LT-3-2019-D-D ; 456 ; 2019-07-02 14:35:59.000945 ; 32.89 
212 ; Longs Tours ; 3 ; LT-3-2019-D-D ; 456 ; 2019-07-02 14:36:09.812846 ; 32.83 
213 ; Longs Tours ; 3 ; LT-3-2019-D-D ; 456 ; 2019-07-02 14:36:20.697219 ; 32.67 
214 ; Longs Tours ; 3 ; LT-3-2019-D-D ; 456 ; 2019-07-02 14:36:31.525328 ; 32.2 
215 ; Longs Tours ; 3 ; LT-3-2019-D-D ; 456 ; 2019-07-02 14:36:42.455230 ; 32.16 
216 ; Longs Tours ; 3 ; LT-3-2019-D-D ; 456 ; 2019-07-02 14:36:53.343796 ; 31.96 
217 ; Longs Tours ; 3 ; LT-3-2019-D-D ; 456 ; 2019-07-02 14:37:04.324267 ; 31.77 
218 ; Longs Tours ; 3 ; LT-3-2019-D-D ; 456 ; 2019-07-02 14:37:15.308832 ; 31.7 
219 ; Longs Tours ; 3 ; LT-3-2019-D-D ; 456 ; 2019-07-02 14:37:26.294697 ; 31.67 
220 ; Longs Tours ; 3 ; LT-3-2019-D-D ; 456 ; 2019-07-02 14:37:37.188197 ; 31.64 
221 ; Longs Tours ; 3 ; LT-3-2019-D-D ; 456 ; 2019-07-02 14:37:48.004478 ; 31.63 
222 ; Longs Tours ; 3 ; LT-3-2019-D-D ; 456 ; 2019-07-02 14:37:58.880129 ; 31.6 
223 ; Longs Tours ; 3 ; LT-3-2019-D-D ; 456 ; 2019-07-02 14:38:09.708415 ; 31.56 
224 ; Longs Tours ; 3 ; LT-3-2019-D-D ; 456 ; 2019-07-02 14:38:20.599377 ; 31.53 
225 ; Longs Tours ; 3 ; LT-3-2019-D-D ; 456 ; 2019-07-02 14:38:31.526895 ; 31.51 
226 ; Longs Tours ; 3 ; LT-3-2019-D-D ; 456 ; 2019-07-02 14:38:42.405004 ; 31.44 
227 ; Longs Tours ; 3 ; LT-3-2019-D-D ; 456 ; 2019-07-02 14:38:53.290244 ; 31.42 
228 ; Longs Tours ; 3 ; LT-3-2019-D-D ; 456 ; 2019-07-02 14:39:04.165103 ; 31.4 
229 ; Longs Tours ; 3 ; LT-3-2019-D-D ; 456 ; 2019-07-02 14:39:15.165833 ; 31.37 
230 ; Longs Tours ; 3 ; LT-3-2019-D-D ; 456 ; 2019-07-02 14:39:26.139355 ; 31.37 
231 ; Longs Tours ; 3 ; LT-3-2019-D-D ; 456 ; 2019-07-02 14:39:37.014155 ; 31.35 
232 ; Longs Tours ; 3 ; LT-3-2019-D-D ; 456 ; 2019-07-02 14:39:48.001204 ; 31.34 
233 ; Longs Tours ; 3 ; LT-3-2019-D-D ; 456 ; 2019-07-02 14:39:58.893313 ; 31.33 
234 ; Longs Tours ; 3 ; LT-3-2019-D-D ; 456 ; 2019-07-02 14:40:09.776670 ; 31.31 
235 ; Longs Tours ; 3 ; LT-3-2019-D-D ; 456 ; 2019-07-02 14:40:20.641818 ; 31.29 
236 ; Longs Tours ; 3 ; LT-3-2019-D-D ; 456 ; 2019-07-02 14:40:31.524838 ; 31.29 
237 ; Longs Tours ; 3 ; LT-3-2019-D-D ; 456 ; 2019-07-02 14:40:42.407864 ; 31.27 
238 ; Longs Tours ; 3 ; LT-3-2019-D-D ; 456 ; 2019-07-02 14:40:53.286642 ; 31.16 
239 ; Longs Tours ; 3 ; LT-3-2019-D-D ; 456 ; 2019-07-02 14:41:04.111924 ; 31.15 
240 ; Longs Tours ; 3 ; LT-3-2019-D-D ; 456 ; 2019-07-02 14:41:14.990982 ; 31.14 
241 ; Longs Tours ; 3 ; LT-3-2019-D-D ; 456 ; 2019-07-02 14:41:25.972613 ; 31.14 
242 ; Longs Tours ; 3 ; LT-3-2019-D-D ; 456 ; 2019-07-02 14:41:36.862405 ; 31.14 
243 ; Longs Tours ; 3 ; LT-3-2019-D-D ; 456 ; 2019-07-02 14:41:47.734243 ; 31.13 
244 ; Longs Tours ; 3 ; LT-3-2019-D-D ; 456 ; 2019-07-02 14:41:58.621234 ; 31.12 
245 ; Longs Tours ; 3 ; LT-3-2019-D-D ; 456 ; 2019-07-02 14:42:09.496100 ; 31.12 
246 ; Longs Tours ; 3 ; LT-3-2019-D-D ; 456 ; 2019-07-02 14:42:20.381331 ; 31.05 
247 ; Longs Tours ; 3 ; LT-3-2019-D-D ; 456 ; 2019-07-02 14:42:31.314212 ; 31.04 
248 ; Longs Tours ; 3 ; LT-3-2019-D-D ; 456 ; 2019-07-02 14:42:42.195825 ; 31.03 
249 ; Longs Tours ; 3 ; LT-3-2019-D-D ; 456 ; 2019-07-02 14:42:53.122801 ; 31.01 
250 ; Longs Tours ; 3 ; LT-3-2019-D-D ; 456 ; 2019-07-02 14:43:24.012047 ; 30.96 
251 ; Longs Tours ; 3 ; LT-3-2019-D-D ; 456 ; 2019-07-02 14:43:54.943080 ; 30.91 
252 ; Longs Tours ; 3 ; LT-3-2019-D-D ; 456 ; 2019-07-02 14:44:25.818811 ; 30.88 
253 ; Longs Tours ; 3 ; LT-3-2019-D-D ; 456 ; 2019-07-02 14:44:56.804269 ; 30.84 
254 ; Longs Tours ; 3 ; LT-3-2019-D-D ; 456 ; 2019-07-02 14:45:27.751985 ; 30.76 
255 ; Longs Tours ; 3 ; LT-3-2019-D-D ; 456 ; 2019-07-02 14:45:58.724220 ; 30.71 
256 ; Longs Tours ; 3 ; LT-3-2019-D-D ; 456 ; 2019-07-02 14:46:29.552932 ; 30.63 
257 ; Longs Tours ; 3 ; LT-3-2019-D-D ; 456 ; 2019-07-02 14:47:00.377202 ; 30.57 
258 ; Longs Tours ; 3 ; LT-3-2019-D-D ; 456 ; 2019-07-02 14:47:31.376849 ; 30.44 
259 ; Longs Tours ; 3 ; LT-3-2019-D-D ; 456 ; 2019-07-02 14:48:02.193258 ; 30.33 
260 ; Longs Tours ; 3 ; LT-3-2019-D-D ; 456 ; 2019-07-02 14:48:33.111062 ; 30.25 
