i ; campaign ; serie ; sample ; slake ; time ; mass 
1 ; Les Fonds ; 3NT ; LF-3NT-2019-DH-E ; 587 ; 2019-07-11 15:58:53.332690 ; 132.44 
2 ; Les Fonds ; 3NT ; LF-3NT-2019-DH-E ; 587 ; 2019-07-11 15:58:54.439736 ; 132.44 
3 ; Les Fonds ; 3NT ; LF-3NT-2019-DH-E ; 587 ; 2019-07-11 15:58:55.467332 ; 132.44 
4 ; Les Fonds ; 3NT ; LF-3NT-2019-DH-E ; 587 ; 2019-07-11 15:58:56.530648 ; 132.43 
5 ; Les Fonds ; 3NT ; LF-3NT-2019-DH-E ; 587 ; 2019-07-11 15:58:57.577793 ; 132.43 
6 ; Les Fonds ; 3NT ; LF-3NT-2019-DH-E ; 587 ; 2019-07-11 15:58:58.614874 ; 117.2 
7 ; Les Fonds ; 3NT ; LF-3NT-2019-DH-E ; 587 ; 2019-07-11 15:58:59.656391 ; 54.38 
8 ; Les Fonds ; 3NT ; LF-3NT-2019-DH-E ; 587 ; 2019-07-11 15:59:00.743126 ; 51.37 
9 ; Les Fonds ; 3NT ; LF-3NT-2019-DH-E ; 587 ; 2019-07-11 15:59:01.766420 ; 52.96 
10 ; Les Fonds ; 3NT ; LF-3NT-2019-DH-E ; 587 ; 2019-07-11 15:59:02.818927 ; 54.84 
11 ; Les Fonds ; 3NT ; LF-3NT-2019-DH-E ; 587 ; 2019-07-11 15:59:03.878418 ; 55.89 
12 ; Les Fonds ; 3NT ; LF-3NT-2019-DH-E ; 587 ; 2019-07-11 15:59:04.909511 ; 57.09 
13 ; Les Fonds ; 3NT ; LF-3NT-2019-DH-E ; 587 ; 2019-07-11 15:59:05.954527 ; 57.98 
14 ; Les Fonds ; 3NT ; LF-3NT-2019-DH-E ; 587 ; 2019-07-11 15:59:07.021110 ; 58.67 
15 ; Les Fonds ; 3NT ; LF-3NT-2019-DH-E ; 587 ; 2019-07-11 15:59:08.059294 ; 59.25 
16 ; Les Fonds ; 3NT ; LF-3NT-2019-DH-E ; 587 ; 2019-07-11 15:59:09.100284 ; 59.81 
17 ; Les Fonds ; 3NT ; LF-3NT-2019-DH-E ; 587 ; 2019-07-11 15:59:10.179680 ; 60.31 
18 ; Les Fonds ; 3NT ; LF-3NT-2019-DH-E ; 587 ; 2019-07-11 15:59:11.206603 ; 60.65 
19 ; Les Fonds ; 3NT ; LF-3NT-2019-DH-E ; 587 ; 2019-07-11 15:59:12.248123 ; 61.15 
20 ; Les Fonds ; 3NT ; LF-3NT-2019-DH-E ; 587 ; 2019-07-11 15:59:13.314459 ; 61.41 
21 ; Les Fonds ; 3NT ; LF-3NT-2019-DH-E ; 587 ; 2019-07-11 15:59:14.350104 ; 61.72 
22 ; Les Fonds ; 3NT ; LF-3NT-2019-DH-E ; 587 ; 2019-07-11 15:59:15.392266 ; 62.03 
23 ; Les Fonds ; 3NT ; LF-3NT-2019-DH-E ; 587 ; 2019-07-11 15:59:16.460164 ; 62.28 
24 ; Les Fonds ; 3NT ; LF-3NT-2019-DH-E ; 587 ; 2019-07-11 15:59:17.498885 ; 62.34 
25 ; Les Fonds ; 3NT ; LF-3NT-2019-DH-E ; 587 ; 2019-07-11 15:59:18.554114 ; 62.59 
26 ; Les Fonds ; 3NT ; LF-3NT-2019-DH-E ; 587 ; 2019-07-11 15:59:19.606292 ; 62.69 
27 ; Les Fonds ; 3NT ; LF-3NT-2019-DH-E ; 587 ; 2019-07-11 15:59:20.646112 ; 62.8 
28 ; Les Fonds ; 3NT ; LF-3NT-2019-DH-E ; 587 ; 2019-07-11 15:59:21.684897 ; 62.84 
29 ; Les Fonds ; 3NT ; LF-3NT-2019-DH-E ; 587 ; 2019-07-11 15:59:22.750293 ; 62.86 
30 ; Les Fonds ; 3NT ; LF-3NT-2019-DH-E ; 587 ; 2019-07-11 15:59:23.789980 ; 62.9 
31 ; Les Fonds ; 3NT ; LF-3NT-2019-DH-E ; 587 ; 2019-07-11 15:59:24.823023 ; 62.88 
32 ; Les Fonds ; 3NT ; LF-3NT-2019-DH-E ; 587 ; 2019-07-11 15:59:25.909546 ; 62.82 
33 ; Les Fonds ; 3NT ; LF-3NT-2019-DH-E ; 587 ; 2019-07-11 15:59:26.933185 ; 62.8 
34 ; Les Fonds ; 3NT ; LF-3NT-2019-DH-E ; 587 ; 2019-07-11 15:59:27.975853 ; 62.8 
35 ; Les Fonds ; 3NT ; LF-3NT-2019-DH-E ; 587 ; 2019-07-11 15:59:29.037413 ; 62.81 
36 ; Les Fonds ; 3NT ; LF-3NT-2019-DH-E ; 587 ; 2019-07-11 15:59:30.083682 ; 62.43 
37 ; Les Fonds ; 3NT ; LF-3NT-2019-DH-E ; 587 ; 2019-07-11 15:59:31.120649 ; 62.03 
38 ; Les Fonds ; 3NT ; LF-3NT-2019-DH-E ; 587 ; 2019-07-11 15:59:32.186758 ; 61.75 
39 ; Les Fonds ; 3NT ; LF-3NT-2019-DH-E ; 587 ; 2019-07-11 15:59:33.228239 ; 61.5 
40 ; Les Fonds ; 3NT ; LF-3NT-2019-DH-E ; 587 ; 2019-07-11 15:59:34.296168 ; 60.79 
41 ; Les Fonds ; 3NT ; LF-3NT-2019-DH-E ; 587 ; 2019-07-11 15:59:35.309714 ; 60.2 
42 ; Les Fonds ; 3NT ; LF-3NT-2019-DH-E ; 587 ; 2019-07-11 15:59:36.375365 ; 59.61 
43 ; Les Fonds ; 3NT ; LF-3NT-2019-DH-E ; 587 ; 2019-07-11 15:59:37.414111 ; 59.25 
44 ; Les Fonds ; 3NT ; LF-3NT-2019-DH-E ; 587 ; 2019-07-11 15:59:38.452424 ; 59.16 
45 ; Les Fonds ; 3NT ; LF-3NT-2019-DH-E ; 587 ; 2019-07-11 15:59:39.519515 ; 59.05 
46 ; Les Fonds ; 3NT ; LF-3NT-2019-DH-E ; 587 ; 2019-07-11 15:59:40.563400 ; 58.96 
47 ; Les Fonds ; 3NT ; LF-3NT-2019-DH-E ; 587 ; 2019-07-11 15:59:41.617782 ; 58.85 
48 ; Les Fonds ; 3NT ; LF-3NT-2019-DH-E ; 587 ; 2019-07-11 15:59:42.669492 ; 58.73 
49 ; Les Fonds ; 3NT ; LF-3NT-2019-DH-E ; 587 ; 2019-07-11 15:59:43.709532 ; 58.44 
50 ; Les Fonds ; 3NT ; LF-3NT-2019-DH-E ; 587 ; 2019-07-11 15:59:44.745736 ; 57.58 
51 ; Les Fonds ; 3NT ; LF-3NT-2019-DH-E ; 587 ; 2019-07-11 15:59:45.811207 ; 56.88 
52 ; Les Fonds ; 3NT ; LF-3NT-2019-DH-E ; 587 ; 2019-07-11 15:59:46.855123 ; 56.05 
53 ; Les Fonds ; 3NT ; LF-3NT-2019-DH-E ; 587 ; 2019-07-11 15:59:47.894497 ; 55.98 
54 ; Les Fonds ; 3NT ; LF-3NT-2019-DH-E ; 587 ; 2019-07-11 15:59:48.960418 ; 55.69 
55 ; Les Fonds ; 3NT ; LF-3NT-2019-DH-E ; 587 ; 2019-07-11 15:59:50.019448 ; 55.21 
56 ; Les Fonds ; 3NT ; LF-3NT-2019-DH-E ; 587 ; 2019-07-11 15:59:51.044997 ; 54.96 
57 ; Les Fonds ; 3NT ; LF-3NT-2019-DH-E ; 587 ; 2019-07-11 15:59:52.106446 ; 54.85 
58 ; Les Fonds ; 3NT ; LF-3NT-2019-DH-E ; 587 ; 2019-07-11 15:59:53.147101 ; 54.73 
59 ; Les Fonds ; 3NT ; LF-3NT-2019-DH-E ; 587 ; 2019-07-11 15:59:54.186476 ; NA 
60 ; Les Fonds ; 3NT ; LF-3NT-2019-DH-E ; 587 ; 2019-07-11 15:59:55.256791 ; 54.52 
61 ; Les Fonds ; 3NT ; LF-3NT-2019-DH-E ; 587 ; 2019-07-11 15:59:56.296199 ; 54.41 
62 ; Les Fonds ; 3NT ; LF-3NT-2019-DH-E ; 587 ; 2019-07-11 15:59:57.346581 ; 54.3 
63 ; Les Fonds ; 3NT ; LF-3NT-2019-DH-E ; 587 ; 2019-07-11 15:59:58.405821 ; 54.2 
64 ; Les Fonds ; 3NT ; LF-3NT-2019-DH-E ; 587 ; 2019-07-11 15:59:59.443114 ; 53.93 
65 ; Les Fonds ; 3NT ; LF-3NT-2019-DH-E ; 587 ; 2019-07-11 16:00:00.483954 ; 53.64 
66 ; Les Fonds ; 3NT ; LF-3NT-2019-DH-E ; 587 ; 2019-07-11 16:00:01.548519 ; 53.55 
67 ; Les Fonds ; 3NT ; LF-3NT-2019-DH-E ; 587 ; 2019-07-11 16:00:02.585578 ; 53.43 
68 ; Les Fonds ; 3NT ; LF-3NT-2019-DH-E ; 587 ; 2019-07-11 16:00:03.624635 ; 52.91 
69 ; Les Fonds ; 3NT ; LF-3NT-2019-DH-E ; 587 ; 2019-07-11 16:00:04.693436 ; 51.56 
70 ; Les Fonds ; 3NT ; LF-3NT-2019-DH-E ; 587 ; 2019-07-11 16:00:05.745994 ; 51.23 
71 ; Les Fonds ; 3NT ; LF-3NT-2019-DH-E ; 587 ; 2019-07-11 16:00:06.788470 ; 50.96 
72 ; Les Fonds ; 3NT ; LF-3NT-2019-DH-E ; 587 ; 2019-07-11 16:00:07.812822 ; 50.89 
73 ; Les Fonds ; 3NT ; LF-3NT-2019-DH-E ; 587 ; 2019-07-11 16:00:08.879933 ; 50.79 
74 ; Les Fonds ; 3NT ; LF-3NT-2019-DH-E ; 587 ; 2019-07-11 16:00:09.920087 ; 50.31 
75 ; Les Fonds ; 3NT ; LF-3NT-2019-DH-E ; 587 ; 2019-07-11 16:00:10.959815 ; 50.02 
76 ; Les Fonds ; 3NT ; LF-3NT-2019-DH-E ; 587 ; 2019-07-11 16:00:12.025696 ; 49.87 
77 ; Les Fonds ; 3NT ; LF-3NT-2019-DH-E ; 587 ; 2019-07-11 16:00:13.079420 ; 49.77 
78 ; Les Fonds ; 3NT ; LF-3NT-2019-DH-E ; 587 ; 2019-07-11 16:00:14.111280 ; 49.73 
79 ; Les Fonds ; 3NT ; LF-3NT-2019-DH-E ; 587 ; 2019-07-11 16:00:15.174883 ; NA 
80 ; Les Fonds ; 3NT ; LF-3NT-2019-DH-E ; 587 ; 2019-07-11 16:00:16.218358 ; 49.67 
81 ; Les Fonds ; 3NT ; LF-3NT-2019-DH-E ; 587 ; 2019-07-11 16:00:17.256561 ; 49.63 
82 ; Les Fonds ; 3NT ; LF-3NT-2019-DH-E ; 587 ; 2019-07-11 16:00:18.319323 ; 49.59 
83 ; Les Fonds ; 3NT ; LF-3NT-2019-DH-E ; 587 ; 2019-07-11 16:00:19.362912 ; 49.55 
84 ; Les Fonds ; 3NT ; LF-3NT-2019-DH-E ; 587 ; 2019-07-11 16:00:20.402794 ; 49.49 
85 ; Les Fonds ; 3NT ; LF-3NT-2019-DH-E ; 587 ; 2019-07-11 16:00:21.486337 ; 49.4 
86 ; Les Fonds ; 3NT ; LF-3NT-2019-DH-E ; 587 ; 2019-07-11 16:00:22.506497 ; 49.33 
87 ; Les Fonds ; 3NT ; LF-3NT-2019-DH-E ; 587 ; 2019-07-11 16:00:23.546336 ; 49.29 
88 ; Les Fonds ; 3NT ; LF-3NT-2019-DH-E ; 587 ; 2019-07-11 16:00:24.616438 ; 49.25 
89 ; Les Fonds ; 3NT ; LF-3NT-2019-DH-E ; 587 ; 2019-07-11 16:00:25.654515 ; 49.21 
90 ; Les Fonds ; 3NT ; LF-3NT-2019-DH-E ; 587 ; 2019-07-11 16:00:26.693365 ; 49.11 
91 ; Les Fonds ; 3NT ; LF-3NT-2019-DH-E ; 587 ; 2019-07-11 16:00:27.773473 ; 48.91 
92 ; Les Fonds ; 3NT ; LF-3NT-2019-DH-E ; 587 ; 2019-07-11 16:00:28.813232 ; 48.86 
93 ; Les Fonds ; 3NT ; LF-3NT-2019-DH-E ; 587 ; 2019-07-11 16:00:29.842577 ; 48.83 
94 ; Les Fonds ; 3NT ; LF-3NT-2019-DH-E ; 587 ; 2019-07-11 16:00:30.914525 ; 48.56 
95 ; Les Fonds ; 3NT ; LF-3NT-2019-DH-E ; 587 ; 2019-07-11 16:00:31.950300 ; 48.11 
96 ; Les Fonds ; 3NT ; LF-3NT-2019-DH-E ; 587 ; 2019-07-11 16:00:32.990370 ; 48.05 
97 ; Les Fonds ; 3NT ; LF-3NT-2019-DH-E ; 587 ; 2019-07-11 16:00:34.052349 ; 47.92 
98 ; Les Fonds ; 3NT ; LF-3NT-2019-DH-E ; 587 ; 2019-07-11 16:00:35.096517 ; 47.76 
99 ; Les Fonds ; 3NT ; LF-3NT-2019-DH-E ; 587 ; 2019-07-11 16:00:36.135315 ; NA 
100 ; Les Fonds ; 3NT ; LF-3NT-2019-DH-E ; 587 ; 2019-07-11 16:00:37.189156 ; 47.25 
101 ; Les Fonds ; 3NT ; LF-3NT-2019-DH-E ; 587 ; 2019-07-11 16:00:38.241830 ; 47 
102 ; Les Fonds ; 3NT ; LF-3NT-2019-DH-E ; 587 ; 2019-07-11 16:00:39.281811 ; 46.87 
103 ; Les Fonds ; 3NT ; LF-3NT-2019-DH-E ; 587 ; 2019-07-11 16:00:40.320446 ; 46.74 
104 ; Les Fonds ; 3NT ; LF-3NT-2019-DH-E ; 587 ; 2019-07-11 16:00:41.386189 ; 46.65 
105 ; Les Fonds ; 3NT ; LF-3NT-2019-DH-E ; 587 ; 2019-07-11 16:00:42.428743 ; 46.57 
106 ; Les Fonds ; 3NT ; LF-3NT-2019-DH-E ; 587 ; 2019-07-11 16:00:43.470807 ; 46.52 
107 ; Les Fonds ; 3NT ; LF-3NT-2019-DH-E ; 587 ; 2019-07-11 16:00:44.546489 ; 46.47 
108 ; Les Fonds ; 3NT ; LF-3NT-2019-DH-E ; 587 ; 2019-07-11 16:00:45.574633 ; 46.43 
109 ; Les Fonds ; 3NT ; LF-3NT-2019-DH-E ; 587 ; 2019-07-11 16:00:46.617092 ; 46.4 
110 ; Les Fonds ; 3NT ; LF-3NT-2019-DH-E ; 587 ; 2019-07-11 16:00:47.682085 ; 46.34 
111 ; Les Fonds ; 3NT ; LF-3NT-2019-DH-E ; 587 ; 2019-07-11 16:00:48.737146 ; 46.29 
112 ; Les Fonds ; 3NT ; LF-3NT-2019-DH-E ; 587 ; 2019-07-11 16:00:49.762344 ; 46.25 
113 ; Les Fonds ; 3NT ; LF-3NT-2019-DH-E ; 587 ; 2019-07-11 16:00:50.824101 ; 46.23 
114 ; Les Fonds ; 3NT ; LF-3NT-2019-DH-E ; 587 ; 2019-07-11 16:00:51.867856 ; 46.2 
115 ; Les Fonds ; 3NT ; LF-3NT-2019-DH-E ; 587 ; 2019-07-11 16:00:52.923471 ; 46.18 
116 ; Les Fonds ; 3NT ; LF-3NT-2019-DH-E ; 587 ; 2019-07-11 16:00:53.971512 ; 46.12 
117 ; Les Fonds ; 3NT ; LF-3NT-2019-DH-E ; 587 ; 2019-07-11 16:00:55.016827 ; 46.02 
118 ; Les Fonds ; 3NT ; LF-3NT-2019-DH-E ; 587 ; 2019-07-11 16:00:56.054718 ; 45.92 
119 ; Les Fonds ; 3NT ; LF-3NT-2019-DH-E ; 587 ; 2019-07-11 16:00:57.121329 ; 45.86 
120 ; Les Fonds ; 3NT ; LF-3NT-2019-DH-E ; 587 ; 2019-07-11 16:00:58.163291 ; 45.81 
121 ; Les Fonds ; 3NT ; LF-3NT-2019-DH-E ; 587 ; 2019-07-11 16:00:59.202705 ; 45.73 
122 ; Les Fonds ; 3NT ; LF-3NT-2019-DH-E ; 587 ; 2019-07-11 16:01:00.283855 ; 45.59 
123 ; Les Fonds ; 3NT ; LF-3NT-2019-DH-E ; 587 ; 2019-07-11 16:01:01.307109 ; 45.46 
124 ; Les Fonds ; 3NT ; LF-3NT-2019-DH-E ; 587 ; 2019-07-11 16:01:02.346379 ; 45.4 
125 ; Les Fonds ; 3NT ; LF-3NT-2019-DH-E ; 587 ; 2019-07-11 16:01:03.413462 ; 45.38 
126 ; Les Fonds ; 3NT ; LF-3NT-2019-DH-E ; 587 ; 2019-07-11 16:01:04.456338 ; 45.37 
127 ; Les Fonds ; 3NT ; LF-3NT-2019-DH-E ; 587 ; 2019-07-11 16:01:05.495470 ; 45.35 
128 ; Les Fonds ; 3NT ; LF-3NT-2019-DH-E ; 587 ; 2019-07-11 16:01:06.533362 ; 45.33 
129 ; Les Fonds ; 3NT ; LF-3NT-2019-DH-E ; 587 ; 2019-07-11 16:01:07.616064 ; 45.31 
130 ; Les Fonds ; 3NT ; LF-3NT-2019-DH-E ; 587 ; 2019-07-11 16:01:08.643805 ; 45.27 
131 ; Les Fonds ; 3NT ; LF-3NT-2019-DH-E ; 587 ; 2019-07-11 16:01:09.680846 ; 45.22 
132 ; Les Fonds ; 3NT ; LF-3NT-2019-DH-E ; 587 ; 2019-07-11 16:01:10.750357 ; 45.18 
133 ; Les Fonds ; 3NT ; LF-3NT-2019-DH-E ; 587 ; 2019-07-11 16:01:11.786767 ; 45.18 
134 ; Les Fonds ; 3NT ; LF-3NT-2019-DH-E ; 587 ; 2019-07-11 16:01:12.823517 ; 45.18 
135 ; Les Fonds ; 3NT ; LF-3NT-2019-DH-E ; 587 ; 2019-07-11 16:01:13.892734 ; 45.17 
136 ; Les Fonds ; 3NT ; LF-3NT-2019-DH-E ; 587 ; 2019-07-11 16:01:14.933513 ; 45.17 
137 ; Les Fonds ; 3NT ; LF-3NT-2019-DH-E ; 587 ; 2019-07-11 16:01:15.983271 ; 45.17 
138 ; Les Fonds ; 3NT ; LF-3NT-2019-DH-E ; 587 ; 2019-07-11 16:01:17.038324 ; 45.17 
139 ; Les Fonds ; 3NT ; LF-3NT-2019-DH-E ; 587 ; 2019-07-11 16:01:18.076388 ; 45.17 
140 ; Les Fonds ; 3NT ; LF-3NT-2019-DH-E ; 587 ; 2019-07-11 16:01:19.119014 ; 45.17 
141 ; Les Fonds ; 3NT ; LF-3NT-2019-DH-E ; 587 ; 2019-07-11 16:01:20.182754 ; 45.17 
142 ; Les Fonds ; 3NT ; LF-3NT-2019-DH-E ; 587 ; 2019-07-11 16:01:21.225579 ; 45.17 
143 ; Les Fonds ; 3NT ; LF-3NT-2019-DH-E ; 587 ; 2019-07-11 16:01:22.262035 ; 45.17 
144 ; Les Fonds ; 3NT ; LF-3NT-2019-DH-E ; 587 ; 2019-07-11 16:01:23.329975 ; 45.17 
145 ; Les Fonds ; 3NT ; LF-3NT-2019-DH-E ; 587 ; 2019-07-11 16:01:24.385084 ; 45.17 
146 ; Les Fonds ; 3NT ; LF-3NT-2019-DH-E ; 587 ; 2019-07-11 16:01:25.408425 ; 45.17 
147 ; Les Fonds ; 3NT ; LF-3NT-2019-DH-E ; 587 ; 2019-07-11 16:01:26.474785 ; 45.17 
148 ; Les Fonds ; 3NT ; LF-3NT-2019-DH-E ; 587 ; 2019-07-11 16:01:27.515724 ; 45.17 
149 ; Les Fonds ; 3NT ; LF-3NT-2019-DH-E ; 587 ; 2019-07-11 16:01:28.556615 ; 45.17 
150 ; Les Fonds ; 3NT ; LF-3NT-2019-DH-E ; 587 ; 2019-07-11 16:01:29.622459 ; 45.17 
151 ; Les Fonds ; 3NT ; LF-3NT-2019-DH-E ; 587 ; 2019-07-11 16:01:30.662153 ; 45.17 
152 ; Les Fonds ; 3NT ; LF-3NT-2019-DH-E ; 587 ; 2019-07-11 16:01:31.702049 ; 45.17 
153 ; Les Fonds ; 3NT ; LF-3NT-2019-DH-E ; 587 ; 2019-07-11 16:01:32.772292 ; 45.17 
154 ; Les Fonds ; 3NT ; LF-3NT-2019-DH-E ; 587 ; 2019-07-11 16:01:33.817713 ; 45.14 
155 ; Les Fonds ; 3NT ; LF-3NT-2019-DH-E ; 587 ; 2019-07-11 16:01:34.856688 ; 45.1 
156 ; Les Fonds ; 3NT ; LF-3NT-2019-DH-E ; 587 ; 2019-07-11 16:01:35.893158 ; 45.01 
157 ; Les Fonds ; 3NT ; LF-3NT-2019-DH-E ; 587 ; 2019-07-11 16:01:36.962876 ; 44.87 
158 ; Les Fonds ; 3NT ; LF-3NT-2019-DH-E ; 587 ; 2019-07-11 16:01:37.999968 ; 44.76 
159 ; Les Fonds ; 3NT ; LF-3NT-2019-DH-E ; 587 ; 2019-07-11 16:01:39.042391 ; 44.68 
160 ; Les Fonds ; 3NT ; LF-3NT-2019-DH-E ; 587 ; 2019-07-11 16:01:40.111758 ; 44.64 
161 ; Les Fonds ; 3NT ; LF-3NT-2019-DH-E ; 587 ; 2019-07-11 16:01:41.164639 ; 44.59 
162 ; Les Fonds ; 3NT ; LF-3NT-2019-DH-E ; 587 ; 2019-07-11 16:01:42.187544 ; 44.53 
163 ; Les Fonds ; 3NT ; LF-3NT-2019-DH-E ; 587 ; 2019-07-11 16:01:43.252854 ; 44.44 
164 ; Les Fonds ; 3NT ; LF-3NT-2019-DH-E ; 587 ; 2019-07-11 16:01:44.293053 ; 44.33 
165 ; Les Fonds ; 3NT ; LF-3NT-2019-DH-E ; 587 ; 2019-07-11 16:01:45.333443 ; 44.21 
166 ; Les Fonds ; 3NT ; LF-3NT-2019-DH-E ; 587 ; 2019-07-11 16:01:46.403494 ; 44.13 
167 ; Les Fonds ; 3NT ; LF-3NT-2019-DH-E ; 587 ; 2019-07-11 16:01:47.441069 ; 44.08 
168 ; Les Fonds ; 3NT ; LF-3NT-2019-DH-E ; 587 ; 2019-07-11 16:01:48.497818 ; 44.05 
169 ; Les Fonds ; 3NT ; LF-3NT-2019-DH-E ; 587 ; 2019-07-11 16:01:49.546627 ; 44.02 
170 ; Les Fonds ; 3NT ; LF-3NT-2019-DH-E ; 587 ; 2019-07-11 16:01:50.588321 ; 44 
171 ; Les Fonds ; 3NT ; LF-3NT-2019-DH-E ; 587 ; 2019-07-11 16:01:51.625448 ; 44 
172 ; Les Fonds ; 3NT ; LF-3NT-2019-DH-E ; 587 ; 2019-07-11 16:01:52.687892 ; 44 
173 ; Les Fonds ; 3NT ; LF-3NT-2019-DH-E ; 587 ; 2019-07-11 16:01:53.728582 ; 44 
174 ; Les Fonds ; 3NT ; LF-3NT-2019-DH-E ; 587 ; 2019-07-11 16:01:54.784403 ; 44 
175 ; Les Fonds ; 3NT ; LF-3NT-2019-DH-E ; 587 ; 2019-07-11 16:02:05.846053 ; 43.44 
176 ; Les Fonds ; 3NT ; LF-3NT-2019-DH-E ; 587 ; 2019-07-11 16:02:16.849820 ; 43.11 
177 ; Les Fonds ; 3NT ; LF-3NT-2019-DH-E ; 587 ; 2019-07-11 16:02:27.848293 ; 42.97 
178 ; Les Fonds ; 3NT ; LF-3NT-2019-DH-E ; 587 ; 2019-07-11 16:02:38.862825 ; 42.92 
179 ; Les Fonds ; 3NT ; LF-3NT-2019-DH-E ; 587 ; 2019-07-11 16:02:49.880343 ; 42.84 
180 ; Les Fonds ; 3NT ; LF-3NT-2019-DH-E ; 587 ; 2019-07-11 16:03:00.892819 ; 42.84 
181 ; Les Fonds ; 3NT ; LF-3NT-2019-DH-E ; 587 ; 2019-07-11 16:03:11.898202 ; 42.76 
182 ; Les Fonds ; 3NT ; LF-3NT-2019-DH-E ; 587 ; 2019-07-11 16:03:22.918868 ; 42.73 
183 ; Les Fonds ; 3NT ; LF-3NT-2019-DH-E ; 587 ; 2019-07-11 16:03:33.944347 ; 42.69 
184 ; Les Fonds ; 3NT ; LF-3NT-2019-DH-E ; 587 ; 2019-07-11 16:03:44.944071 ; 42.69 
185 ; Les Fonds ; 3NT ; LF-3NT-2019-DH-E ; 587 ; 2019-07-11 16:03:55.932865 ; 42.69 
186 ; Les Fonds ; 3NT ; LF-3NT-2019-DH-E ; 587 ; 2019-07-11 16:04:06.937709 ; 42.69 
187 ; Les Fonds ; 3NT ; LF-3NT-2019-DH-E ; 587 ; 2019-07-11 16:04:17.953261 ; 42.69 
188 ; Les Fonds ; 3NT ; LF-3NT-2019-DH-E ; 587 ; 2019-07-11 16:04:28.962866 ; 42.69 
189 ; Les Fonds ; 3NT ; LF-3NT-2019-DH-E ; 587 ; 2019-07-11 16:04:39.981333 ; 42.69 
190 ; Les Fonds ; 3NT ; LF-3NT-2019-DH-E ; 587 ; 2019-07-11 16:04:50.995444 ; 42.48 
191 ; Les Fonds ; 3NT ; LF-3NT-2019-DH-E ; 587 ; 2019-07-11 16:05:02.030197 ; 42.48 
192 ; Les Fonds ; 3NT ; LF-3NT-2019-DH-E ; 587 ; 2019-07-11 16:05:13.021553 ; 42.48 
193 ; Les Fonds ; 3NT ; LF-3NT-2019-DH-E ; 587 ; 2019-07-11 16:05:24.007257 ; 42.48 
194 ; Les Fonds ; 3NT ; LF-3NT-2019-DH-E ; 587 ; 2019-07-11 16:05:35.022014 ; 42.48 
195 ; Les Fonds ; 3NT ; LF-3NT-2019-DH-E ; 587 ; 2019-07-11 16:05:46.038387 ; 42.48 
196 ; Les Fonds ; 3NT ; LF-3NT-2019-DH-E ; 587 ; 2019-07-11 16:05:57.048892 ; 42.16 
197 ; Les Fonds ; 3NT ; LF-3NT-2019-DH-E ; 587 ; 2019-07-11 16:06:08.067584 ; 42.16 
198 ; Les Fonds ; 3NT ; LF-3NT-2019-DH-E ; 587 ; 2019-07-11 16:06:19.093280 ; 42.16 
199 ; Les Fonds ; 3NT ; LF-3NT-2019-DH-E ; 587 ; 2019-07-11 16:06:30.086470 ; 42.11 
200 ; Les Fonds ; 3NT ; LF-3NT-2019-DH-E ; 587 ; 2019-07-11 16:06:41.102161 ; 42.11 
201 ; Les Fonds ; 3NT ; LF-3NT-2019-DH-E ; 587 ; 2019-07-11 16:06:52.087513 ; 42.11 
202 ; Les Fonds ; 3NT ; LF-3NT-2019-DH-E ; 587 ; 2019-07-11 16:07:03.099053 ; 42.04 
203 ; Les Fonds ; 3NT ; LF-3NT-2019-DH-E ; 587 ; 2019-07-11 16:07:14.121470 ; 42.04 
204 ; Les Fonds ; 3NT ; LF-3NT-2019-DH-E ; 587 ; 2019-07-11 16:07:25.125529 ; 42.04 
205 ; Les Fonds ; 3NT ; LF-3NT-2019-DH-E ; 587 ; 2019-07-11 16:07:36.135988 ; 42.04 
206 ; Les Fonds ; 3NT ; LF-3NT-2019-DH-E ; 587 ; 2019-07-11 16:07:47.168331 ; 42.04 
207 ; Les Fonds ; 3NT ; LF-3NT-2019-DH-E ; 587 ; 2019-07-11 16:07:58.168420 ; 42.04 
208 ; Les Fonds ; 3NT ; LF-3NT-2019-DH-E ; 587 ; 2019-07-11 16:08:09.179624 ; 41.93 
209 ; Les Fonds ; 3NT ; LF-3NT-2019-DH-E ; 587 ; 2019-07-11 16:08:20.168092 ; 41.65 
210 ; Les Fonds ; 3NT ; LF-3NT-2019-DH-E ; 587 ; 2019-07-11 16:08:31.183276 ; 41.65 
211 ; Les Fonds ; 3NT ; LF-3NT-2019-DH-E ; 587 ; 2019-07-11 16:08:42.195153 ; 41.65 
212 ; Les Fonds ; 3NT ; LF-3NT-2019-DH-E ; 587 ; 2019-07-11 16:08:53.206618 ; 41.65 
213 ; Les Fonds ; 3NT ; LF-3NT-2019-DH-E ; 587 ; 2019-07-11 16:09:24.216221 ; 41.65 
214 ; Les Fonds ; 3NT ; LF-3NT-2019-DH-E ; 587 ; 2019-07-11 16:09:55.169523 ; 41.65 
215 ; Les Fonds ; 3NT ; LF-3NT-2019-DH-E ; 587 ; 2019-07-11 16:10:26.085543 ; 41.65 
216 ; Les Fonds ; 3NT ; LF-3NT-2019-DH-E ; 587 ; 2019-07-11 16:10:57.023356 ; 41.65 
217 ; Les Fonds ; 3NT ; LF-3NT-2019-DH-E ; 587 ; 2019-07-11 16:11:27.946350 ; 41.58 
218 ; Les Fonds ; 3NT ; LF-3NT-2019-DH-E ; 587 ; 2019-07-11 16:11:58.891819 ; 41.58 
219 ; Les Fonds ; 3NT ; LF-3NT-2019-DH-E ; 587 ; 2019-07-11 16:12:29.818317 ; 41.58 
220 ; Les Fonds ; 3NT ; LF-3NT-2019-DH-E ; 587 ; 2019-07-11 16:13:00.769455 ; 41.58 
221 ; Les Fonds ; 3NT ; LF-3NT-2019-DH-E ; 587 ; 2019-07-11 16:13:31.705660 ; 41.58 
222 ; Les Fonds ; 3NT ; LF-3NT-2019-DH-E ; 587 ; 2019-07-11 16:14:02.620661 ; 41.58 
223 ; Les Fonds ; 3NT ; LF-3NT-2019-DH-E ; 587 ; 2019-07-11 16:14:33.595130 ; 41.58 
