i ; campaign ; serie ; sample ; slake ; time ; mass 
1 ; Longs Tours ; 6 ; LT-6-2019-D-D ; 490 ; 2019-07-03 13:33:46.185219 ; 140.06 
2 ; Longs Tours ; 6 ; LT-6-2019-D-D ; 490 ; 2019-07-03 13:33:47.074352 ; 140.06 
3 ; Longs Tours ; 6 ; LT-6-2019-D-D ; 490 ; 2019-07-03 13:33:47.928916 ; 140.06 
4 ; Longs Tours ; 6 ; LT-6-2019-D-D ; 490 ; 2019-07-03 13:33:48.781417 ; 140.05 
5 ; Longs Tours ; 6 ; LT-6-2019-D-D ; 490 ; 2019-07-03 13:33:49.638543 ; 140.05 
6 ; Longs Tours ; 6 ; LT-6-2019-D-D ; 490 ; 2019-07-03 13:33:50.495954 ; 140.05 
7 ; Longs Tours ; 6 ; LT-6-2019-D-D ; 490 ; 2019-07-03 13:33:51.337071 ; 140.05 
8 ; Longs Tours ; 6 ; LT-6-2019-D-D ; 490 ; 2019-07-03 13:33:52.194888 ; 126.98 
9 ; Longs Tours ; 6 ; LT-6-2019-D-D ; 490 ; 2019-07-03 13:33:53.052139 ; 67.4 
10 ; Longs Tours ; 6 ; LT-6-2019-D-D ; 490 ; 2019-07-03 13:33:53.804477 ; 57.69 
11 ; Longs Tours ; 6 ; LT-6-2019-D-D ; 490 ; 2019-07-03 13:33:54.546751 ; 60.05 
12 ; Longs Tours ; 6 ; LT-6-2019-D-D ; 490 ; 2019-07-03 13:33:55.404539 ; 61.29 
13 ; Longs Tours ; 6 ; LT-6-2019-D-D ; 490 ; 2019-07-03 13:33:56.363071 ; 61.12 
14 ; Longs Tours ; 6 ; LT-6-2019-D-D ; 490 ; 2019-07-03 13:33:57.323240 ; 60.89 
15 ; Longs Tours ; 6 ; LT-6-2019-D-D ; 490 ; 2019-07-03 13:33:58.118524 ; 60.85 
16 ; Longs Tours ; 6 ; LT-6-2019-D-D ; 490 ; 2019-07-03 13:33:58.923950 ; 60.74 
17 ; Longs Tours ; 6 ; LT-6-2019-D-D ; 490 ; 2019-07-03 13:33:59.724077 ; 60.44 
18 ; Longs Tours ; 6 ; LT-6-2019-D-D ; 490 ; 2019-07-03 13:34:00.527050 ; 60.05 
19 ; Longs Tours ; 6 ; LT-6-2019-D-D ; 490 ; 2019-07-03 13:34:01.369438 ; 59.46 
20 ; Longs Tours ; 6 ; LT-6-2019-D-D ; 490 ; 2019-07-03 13:34:02.174415 ; 57.95 
21 ; Longs Tours ; 6 ; LT-6-2019-D-D ; 490 ; 2019-07-03 13:34:02.972297 ; 56.11 
22 ; Longs Tours ; 6 ; LT-6-2019-D-D ; 490 ; 2019-07-03 13:34:03.776436 ; 55.09 
23 ; Longs Tours ; 6 ; LT-6-2019-D-D ; 490 ; 2019-07-03 13:34:04.575982 ; 54.49 
24 ; Longs Tours ; 6 ; LT-6-2019-D-D ; 490 ; 2019-07-03 13:34:05.430701 ; 53.98 
25 ; Longs Tours ; 6 ; LT-6-2019-D-D ; 490 ; 2019-07-03 13:34:06.232016 ; 53.36 
26 ; Longs Tours ; 6 ; LT-6-2019-D-D ; 490 ; 2019-07-03 13:34:07.030719 ; 52.54 
27 ; Longs Tours ; 6 ; LT-6-2019-D-D ; 490 ; 2019-07-03 13:34:07.826595 ; 52 
28 ; Longs Tours ; 6 ; LT-6-2019-D-D ; 490 ; 2019-07-03 13:34:08.632354 ; 51.56 
29 ; Longs Tours ; 6 ; LT-6-2019-D-D ; 490 ; 2019-07-03 13:34:09.493583 ; 51.5 
30 ; Longs Tours ; 6 ; LT-6-2019-D-D ; 490 ; 2019-07-03 13:34:10.287102 ; 51.09 
31 ; Longs Tours ; 6 ; LT-6-2019-D-D ; 490 ; 2019-07-03 13:34:11.135782 ; 50.7 
32 ; Longs Tours ; 6 ; LT-6-2019-D-D ; 490 ; 2019-07-03 13:34:11.878748 ; 50.14 
33 ; Longs Tours ; 6 ; LT-6-2019-D-D ; 490 ; 2019-07-03 13:34:12.626870 ; 49.44 
34 ; Longs Tours ; 6 ; LT-6-2019-D-D ; 490 ; 2019-07-03 13:34:13.371070 ; 48.82 
35 ; Longs Tours ; 6 ; LT-6-2019-D-D ; 490 ; 2019-07-03 13:34:14.127823 ; 48.39 
36 ; Longs Tours ; 6 ; LT-6-2019-D-D ; 490 ; 2019-07-03 13:34:14.869810 ; 48.03 
37 ; Longs Tours ; 6 ; LT-6-2019-D-D ; 490 ; 2019-07-03 13:34:15.617909 ; 47.68 
38 ; Longs Tours ; 6 ; LT-6-2019-D-D ; 490 ; 2019-07-03 13:34:16.356713 ; 47.5 
39 ; Longs Tours ; 6 ; LT-6-2019-D-D ; 490 ; 2019-07-03 13:34:17.106136 ; 47.12 
40 ; Longs Tours ; 6 ; LT-6-2019-D-D ; 490 ; 2019-07-03 13:34:17.854751 ; 46.81 
41 ; Longs Tours ; 6 ; LT-6-2019-D-D ; 490 ; 2019-07-03 13:34:18.606290 ; 46.43 
42 ; Longs Tours ; 6 ; LT-6-2019-D-D ; 490 ; 2019-07-03 13:34:19.344054 ; 45.95 
43 ; Longs Tours ; 6 ; LT-6-2019-D-D ; 490 ; 2019-07-03 13:34:20.093340 ; 45.59 
44 ; Longs Tours ; 6 ; LT-6-2019-D-D ; 490 ; 2019-07-03 13:34:20.840106 ; 45.41 
45 ; Longs Tours ; 6 ; LT-6-2019-D-D ; 490 ; 2019-07-03 13:34:21.584856 ; 44.91 
46 ; Longs Tours ; 6 ; LT-6-2019-D-D ; 490 ; 2019-07-03 13:34:22.329494 ; 44.75 
47 ; Longs Tours ; 6 ; LT-6-2019-D-D ; 490 ; 2019-07-03 13:34:23.089707 ; 43.83 
48 ; Longs Tours ; 6 ; LT-6-2019-D-D ; 490 ; 2019-07-03 13:34:23.831252 ; 43.09 
49 ; Longs Tours ; 6 ; LT-6-2019-D-D ; 490 ; 2019-07-03 13:34:24.578574 ; 42.47 
50 ; Longs Tours ; 6 ; LT-6-2019-D-D ; 490 ; 2019-07-03 13:34:25.321199 ; 42.11 
51 ; Longs Tours ; 6 ; LT-6-2019-D-D ; 490 ; 2019-07-03 13:34:26.064410 ; 41.83 
52 ; Longs Tours ; 6 ; LT-6-2019-D-D ; 490 ; 2019-07-03 13:34:26.814393 ; 41.36 
53 ; Longs Tours ; 6 ; LT-6-2019-D-D ; 490 ; 2019-07-03 13:34:27.569869 ; 41 
54 ; Longs Tours ; 6 ; LT-6-2019-D-D ; 490 ; 2019-07-03 13:34:28.305589 ; 40.67 
55 ; Longs Tours ; 6 ; LT-6-2019-D-D ; 490 ; 2019-07-03 13:34:29.051863 ; 40.23 
56 ; Longs Tours ; 6 ; LT-6-2019-D-D ; 490 ; 2019-07-03 13:34:29.795011 ; 39.89 
57 ; Longs Tours ; 6 ; LT-6-2019-D-D ; 490 ; 2019-07-03 13:34:30.542734 ; 39.53 
58 ; Longs Tours ; 6 ; LT-6-2019-D-D ; 490 ; 2019-07-03 13:34:31.294535 ; 39.2 
59 ; Longs Tours ; 6 ; LT-6-2019-D-D ; 490 ; 2019-07-03 13:34:32.042945 ; 38.73 
60 ; Longs Tours ; 6 ; LT-6-2019-D-D ; 490 ; 2019-07-03 13:34:32.787484 ; 38.16 
61 ; Longs Tours ; 6 ; LT-6-2019-D-D ; 490 ; 2019-07-03 13:34:33.530152 ; 37.09 
62 ; Longs Tours ; 6 ; LT-6-2019-D-D ; 490 ; 2019-07-03 13:34:34.272467 ; 36.65 
63 ; Longs Tours ; 6 ; LT-6-2019-D-D ; 490 ; 2019-07-03 13:34:35.029018 ; 36.02 
64 ; Longs Tours ; 6 ; LT-6-2019-D-D ; 490 ; 2019-07-03 13:34:35.769447 ; 35.52 
65 ; Longs Tours ; 6 ; LT-6-2019-D-D ; 490 ; 2019-07-03 13:34:36.526118 ; 34.86 
66 ; Longs Tours ; 6 ; LT-6-2019-D-D ; 490 ; 2019-07-03 13:34:37.259617 ; 34.54 
67 ; Longs Tours ; 6 ; LT-6-2019-D-D ; 490 ; 2019-07-03 13:34:38.012614 ; 33.65 
68 ; Longs Tours ; 6 ; LT-6-2019-D-D ; 490 ; 2019-07-03 13:34:38.760086 ; 33.25 
69 ; Longs Tours ; 6 ; LT-6-2019-D-D ; 490 ; 2019-07-03 13:34:39.503401 ; 32.82 
70 ; Longs Tours ; 6 ; LT-6-2019-D-D ; 490 ; 2019-07-03 13:34:40.244641 ; 32.5 
71 ; Longs Tours ; 6 ; LT-6-2019-D-D ; 490 ; 2019-07-03 13:34:41.002362 ; 32.11 
72 ; Longs Tours ; 6 ; LT-6-2019-D-D ; 490 ; 2019-07-03 13:34:41.751779 ; 31.9 
73 ; Longs Tours ; 6 ; LT-6-2019-D-D ; 490 ; 2019-07-03 13:34:42.490483 ; 31.73 
74 ; Longs Tours ; 6 ; LT-6-2019-D-D ; 490 ; 2019-07-03 13:34:43.229518 ; 31.4 
75 ; Longs Tours ; 6 ; LT-6-2019-D-D ; 490 ; 2019-07-03 13:34:43.982381 ; 31.05 
76 ; Longs Tours ; 6 ; LT-6-2019-D-D ; 490 ; 2019-07-03 13:34:44.729479 ; 30.72 
77 ; Longs Tours ; 6 ; LT-6-2019-D-D ; 490 ; 2019-07-03 13:34:45.485412 ; 30.42 
78 ; Longs Tours ; 6 ; LT-6-2019-D-D ; 490 ; 2019-07-03 13:34:46.221759 ; 30.19 
79 ; Longs Tours ; 6 ; LT-6-2019-D-D ; 490 ; 2019-07-03 13:34:46.965583 ; 29.88 
80 ; Longs Tours ; 6 ; LT-6-2019-D-D ; 490 ; 2019-07-03 13:34:47.719960 ; 29.48 
81 ; Longs Tours ; 6 ; LT-6-2019-D-D ; 490 ; 2019-07-03 13:34:48.461618 ; 29.14 
82 ; Longs Tours ; 6 ; LT-6-2019-D-D ; 490 ; 2019-07-03 13:34:49.206141 ; 28.72 
83 ; Longs Tours ; 6 ; LT-6-2019-D-D ; 490 ; 2019-07-03 13:34:49.962520 ; 28.28 
84 ; Longs Tours ; 6 ; LT-6-2019-D-D ; 490 ; 2019-07-03 13:34:50.703538 ; 27.22 
85 ; Longs Tours ; 6 ; LT-6-2019-D-D ; 490 ; 2019-07-03 13:34:51.454455 ; 26.41 
86 ; Longs Tours ; 6 ; LT-6-2019-D-D ; 490 ; 2019-07-03 13:34:52.194946 ; 25.98 
87 ; Longs Tours ; 6 ; LT-6-2019-D-D ; 490 ; 2019-07-03 13:34:52.946254 ; 25.59 
88 ; Longs Tours ; 6 ; LT-6-2019-D-D ; 490 ; 2019-07-03 13:34:53.692505 ; 25.33 
89 ; Longs Tours ; 6 ; LT-6-2019-D-D ; 490 ; 2019-07-03 13:34:54.445026 ; 25.08 
90 ; Longs Tours ; 6 ; LT-6-2019-D-D ; 490 ; 2019-07-03 13:34:55.181952 ; 24.81 
91 ; Longs Tours ; 6 ; LT-6-2019-D-D ; 490 ; 2019-07-03 13:34:55.932465 ; 24.49 
92 ; Longs Tours ; 6 ; LT-6-2019-D-D ; 490 ; 2019-07-03 13:34:56.675840 ; 24.28 
93 ; Longs Tours ; 6 ; LT-6-2019-D-D ; 490 ; 2019-07-03 13:34:57.423174 ; 24.13 
94 ; Longs Tours ; 6 ; LT-6-2019-D-D ; 490 ; 2019-07-03 13:34:58.166846 ; 23.89 
95 ; Longs Tours ; 6 ; LT-6-2019-D-D ; 490 ; 2019-07-03 13:34:58.925864 ; 23.18 
96 ; Longs Tours ; 6 ; LT-6-2019-D-D ; 490 ; 2019-07-03 13:34:59.662246 ; 22.6 
97 ; Longs Tours ; 6 ; LT-6-2019-D-D ; 490 ; 2019-07-03 13:35:00.413627 ; 22.27 
98 ; Longs Tours ; 6 ; LT-6-2019-D-D ; 490 ; 2019-07-03 13:35:01.154060 ; 21.9 
99 ; Longs Tours ; 6 ; LT-6-2019-D-D ; 490 ; 2019-07-03 13:35:01.904493 ; 21.35 
100 ; Longs Tours ; 6 ; LT-6-2019-D-D ; 490 ; 2019-07-03 13:35:02.654903 ; 20.34 
101 ; Longs Tours ; 6 ; LT-6-2019-D-D ; 490 ; 2019-07-03 13:35:03.403329 ; 19.76 
102 ; Longs Tours ; 6 ; LT-6-2019-D-D ; 490 ; 2019-07-03 13:35:04.137778 ; 19.45 
103 ; Longs Tours ; 6 ; LT-6-2019-D-D ; 490 ; 2019-07-03 13:35:04.892665 ; 19.18 
104 ; Longs Tours ; 6 ; LT-6-2019-D-D ; 490 ; 2019-07-03 13:35:05.636409 ; 19 
105 ; Longs Tours ; 6 ; LT-6-2019-D-D ; 490 ; 2019-07-03 13:35:06.382325 ; 18.81 
106 ; Longs Tours ; 6 ; LT-6-2019-D-D ; 490 ; 2019-07-03 13:35:07.133277 ; 18.59 
107 ; Longs Tours ; 6 ; LT-6-2019-D-D ; 490 ; 2019-07-03 13:35:07.884528 ; 18.35 
108 ; Longs Tours ; 6 ; LT-6-2019-D-D ; 490 ; 2019-07-03 13:35:08.626038 ; 18.06 
109 ; Longs Tours ; 6 ; LT-6-2019-D-D ; 490 ; 2019-07-03 13:35:09.364543 ; 17.82 
110 ; Longs Tours ; 6 ; LT-6-2019-D-D ; 490 ; 2019-07-03 13:35:10.120329 ; 17.7 
111 ; Longs Tours ; 6 ; LT-6-2019-D-D ; 490 ; 2019-07-03 13:35:10.864850 ; 17.4 
112 ; Longs Tours ; 6 ; LT-6-2019-D-D ; 490 ; 2019-07-03 13:35:11.616587 ; 17.1 
113 ; Longs Tours ; 6 ; LT-6-2019-D-D ; 490 ; 2019-07-03 13:35:12.352923 ; 16.93 
114 ; Longs Tours ; 6 ; LT-6-2019-D-D ; 490 ; 2019-07-03 13:35:13.107291 ; 16.76 
115 ; Longs Tours ; 6 ; LT-6-2019-D-D ; 490 ; 2019-07-03 13:35:13.845288 ; 16.52 
116 ; Longs Tours ; 6 ; LT-6-2019-D-D ; 490 ; 2019-07-03 13:35:14.596810 ; 16.33 
117 ; Longs Tours ; 6 ; LT-6-2019-D-D ; 490 ; 2019-07-03 13:35:15.341422 ; 16.17 
118 ; Longs Tours ; 6 ; LT-6-2019-D-D ; 490 ; 2019-07-03 13:35:16.099386 ; 16.01 
119 ; Longs Tours ; 6 ; LT-6-2019-D-D ; 490 ; 2019-07-03 13:35:16.829630 ; 15.74 
120 ; Longs Tours ; 6 ; LT-6-2019-D-D ; 490 ; 2019-07-03 13:35:17.584538 ; 15.43 
121 ; Longs Tours ; 6 ; LT-6-2019-D-D ; 490 ; 2019-07-03 13:35:18.328075 ; 14.97 
122 ; Longs Tours ; 6 ; LT-6-2019-D-D ; 490 ; 2019-07-03 13:35:19.076277 ; 14.1 
123 ; Longs Tours ; 6 ; LT-6-2019-D-D ; 490 ; 2019-07-03 13:35:19.823842 ; 13.71 
124 ; Longs Tours ; 6 ; LT-6-2019-D-D ; 490 ; 2019-07-03 13:35:20.580946 ; 13.61 
125 ; Longs Tours ; 6 ; LT-6-2019-D-D ; 490 ; 2019-07-03 13:35:21.311989 ; 13.52 
126 ; Longs Tours ; 6 ; LT-6-2019-D-D ; 490 ; 2019-07-03 13:35:22.061141 ; 13.31 
127 ; Longs Tours ; 6 ; LT-6-2019-D-D ; 490 ; 2019-07-03 13:35:22.822699 ; 13.18 
128 ; Longs Tours ; 6 ; LT-6-2019-D-D ; 490 ; 2019-07-03 13:35:23.556342 ; 13.1 
129 ; Longs Tours ; 6 ; LT-6-2019-D-D ; 490 ; 2019-07-03 13:35:24.299605 ; 13.01 
130 ; Longs Tours ; 6 ; LT-6-2019-D-D ; 490 ; 2019-07-03 13:35:25.060842 ; 12.95 
131 ; Longs Tours ; 6 ; LT-6-2019-D-D ; 490 ; 2019-07-03 13:35:25.818306 ; 12.91 
132 ; Longs Tours ; 6 ; LT-6-2019-D-D ; 490 ; 2019-07-03 13:35:26.595522 ; 12.85 
133 ; Longs Tours ; 6 ; LT-6-2019-D-D ; 490 ; 2019-07-03 13:35:27.499209 ; 12.77 
134 ; Longs Tours ; 6 ; LT-6-2019-D-D ; 490 ; 2019-07-03 13:35:28.412809 ; 12.71 
135 ; Longs Tours ; 6 ; LT-6-2019-D-D ; 490 ; 2019-07-03 13:35:29.215621 ; 12.63 
136 ; Longs Tours ; 6 ; LT-6-2019-D-D ; 490 ; 2019-07-03 13:35:30.118783 ; 12.54 
137 ; Longs Tours ; 6 ; LT-6-2019-D-D ; 490 ; 2019-07-03 13:35:31.027543 ; 12.5 
138 ; Longs Tours ; 6 ; LT-6-2019-D-D ; 490 ; 2019-07-03 13:35:31.933521 ; 12.47 
139 ; Longs Tours ; 6 ; LT-6-2019-D-D ; 490 ; 2019-07-03 13:35:32.783032 ; 12.34 
140 ; Longs Tours ; 6 ; LT-6-2019-D-D ; 490 ; 2019-07-03 13:35:33.531386 ; 12.18 
141 ; Longs Tours ; 6 ; LT-6-2019-D-D ; 490 ; 2019-07-03 13:35:34.333499 ; 12 
142 ; Longs Tours ; 6 ; LT-6-2019-D-D ; 490 ; 2019-07-03 13:35:35.131520 ; 11.82 
143 ; Longs Tours ; 6 ; LT-6-2019-D-D ; 490 ; 2019-07-03 13:35:35.876859 ; 11.73 
144 ; Longs Tours ; 6 ; LT-6-2019-D-D ; 490 ; 2019-07-03 13:35:36.679523 ; 11.64 
145 ; Longs Tours ; 6 ; LT-6-2019-D-D ; 490 ; 2019-07-03 13:35:37.477872 ; 11.51 
146 ; Longs Tours ; 6 ; LT-6-2019-D-D ; 490 ; 2019-07-03 13:35:38.219014 ; 11.18 
147 ; Longs Tours ; 6 ; LT-6-2019-D-D ; 490 ; 2019-07-03 13:35:39.031009 ; 11.08 
148 ; Longs Tours ; 6 ; LT-6-2019-D-D ; 490 ; 2019-07-03 13:35:39.819651 ; 10.95 
149 ; Longs Tours ; 6 ; LT-6-2019-D-D ; 490 ; 2019-07-03 13:35:40.679295 ; 10.82 
150 ; Longs Tours ; 6 ; LT-6-2019-D-D ; 490 ; 2019-07-03 13:35:41.529775 ; 10.69 
151 ; Longs Tours ; 6 ; LT-6-2019-D-D ; 490 ; 2019-07-03 13:35:42.379450 ; 10.53 
152 ; Longs Tours ; 6 ; LT-6-2019-D-D ; 490 ; 2019-07-03 13:35:43.247493 ; 10.17 
153 ; Longs Tours ; 6 ; LT-6-2019-D-D ; 490 ; 2019-07-03 13:35:44.092237 ; 9.9 
154 ; Longs Tours ; 6 ; LT-6-2019-D-D ; 490 ; 2019-07-03 13:35:44.947085 ; 9.74 
155 ; Longs Tours ; 6 ; LT-6-2019-D-D ; 490 ; 2019-07-03 13:35:45.799679 ; 9.54 
156 ; Longs Tours ; 6 ; LT-6-2019-D-D ; 490 ; 2019-07-03 13:35:46.654079 ; 9.26 
157 ; Longs Tours ; 6 ; LT-6-2019-D-D ; 490 ; 2019-07-03 13:35:47.502601 ; 8.99 
158 ; Longs Tours ; 6 ; LT-6-2019-D-D ; 490 ; 2019-07-03 13:35:48.361002 ; 8.82 
159 ; Longs Tours ; 6 ; LT-6-2019-D-D ; 490 ; 2019-07-03 13:35:49.213388 ; 8.67 
160 ; Longs Tours ; 6 ; LT-6-2019-D-D ; 490 ; 2019-07-03 13:35:50.066858 ; 8.61 
161 ; Longs Tours ; 6 ; LT-6-2019-D-D ; 490 ; 2019-07-03 13:35:50.919244 ; 8.51 
162 ; Longs Tours ; 6 ; LT-6-2019-D-D ; 490 ; 2019-07-03 13:35:51.719253 ; 8.43 
163 ; Longs Tours ; 6 ; LT-6-2019-D-D ; 490 ; 2019-07-03 13:35:52.516221 ; 8.4 
164 ; Longs Tours ; 6 ; LT-6-2019-D-D ; 490 ; 2019-07-03 13:35:53.322190 ; 8.28 
165 ; Longs Tours ; 6 ; LT-6-2019-D-D ; 490 ; 2019-07-03 13:35:54.115907 ; 8.18 
166 ; Longs Tours ; 6 ; LT-6-2019-D-D ; 490 ; 2019-07-03 13:35:54.968959 ; 8.01 
167 ; Longs Tours ; 6 ; LT-6-2019-D-D ; 490 ; 2019-07-03 13:35:55.716332 ; 7.81 
168 ; Longs Tours ; 6 ; LT-6-2019-D-D ; 490 ; 2019-07-03 13:35:56.462224 ; 7.53 
169 ; Longs Tours ; 6 ; LT-6-2019-D-D ; 490 ; 2019-07-03 13:35:57.206874 ; 7.29 
170 ; Longs Tours ; 6 ; LT-6-2019-D-D ; 490 ; 2019-07-03 13:35:57.966556 ; 7.08 
171 ; Longs Tours ; 6 ; LT-6-2019-D-D ; 490 ; 2019-07-03 13:35:58.707095 ; 6.89 
172 ; Longs Tours ; 6 ; LT-6-2019-D-D ; 490 ; 2019-07-03 13:35:59.449119 ; 6.8 
173 ; Longs Tours ; 6 ; LT-6-2019-D-D ; 490 ; 2019-07-03 13:36:00.192786 ; 6.52 
174 ; Longs Tours ; 6 ; LT-6-2019-D-D ; 490 ; 2019-07-03 13:36:00.944826 ; 6.42 
175 ; Longs Tours ; 6 ; LT-6-2019-D-D ; 490 ; 2019-07-03 13:36:01.693393 ; 6.27 
176 ; Longs Tours ; 6 ; LT-6-2019-D-D ; 490 ; 2019-07-03 13:36:02.444653 ; 5.74 
177 ; Longs Tours ; 6 ; LT-6-2019-D-D ; 490 ; 2019-07-03 13:36:03.183986 ; 5.28 
178 ; Longs Tours ; 6 ; LT-6-2019-D-D ; 490 ; 2019-07-03 13:36:03.935446 ; 5.12 
179 ; Longs Tours ; 6 ; LT-6-2019-D-D ; 490 ; 2019-07-03 13:36:04.679473 ; 5.03 
180 ; Longs Tours ; 6 ; LT-6-2019-D-D ; 490 ; 2019-07-03 13:36:05.424319 ; 4.84 
181 ; Longs Tours ; 6 ; LT-6-2019-D-D ; 490 ; 2019-07-03 13:36:06.164948 ; 4.42 
182 ; Longs Tours ; 6 ; LT-6-2019-D-D ; 490 ; 2019-07-03 13:36:06.927680 ; 4.33 
