i ; campaign ; serie ; sample ; slake ; time ; mass 
1 ; Les Fonds ; 15NT ; LF-15NT-2019-DH-MB-C ; 718 ; 2019-07-23 10:48:13.380424 ; 107.97 
2 ; Les Fonds ; 15NT ; LF-15NT-2019-DH-MB-C ; 718 ; 2019-07-23 10:48:14.453717 ; 107.99 
3 ; Les Fonds ; 15NT ; LF-15NT-2019-DH-MB-C ; 718 ; 2019-07-23 10:48:15.519293 ; 107.99 
4 ; Les Fonds ; 15NT ; LF-15NT-2019-DH-MB-C ; 718 ; 2019-07-23 10:48:16.550373 ; 108 
5 ; Les Fonds ; 15NT ; LF-15NT-2019-DH-MB-C ; 718 ; 2019-07-23 10:48:17.598747 ; 108 
6 ; Les Fonds ; 15NT ; LF-15NT-2019-DH-MB-C ; 718 ; 2019-07-23 10:48:18.658776 ; 108 
7 ; Les Fonds ; 15NT ; LF-15NT-2019-DH-MB-C ; 718 ; 2019-07-23 10:48:19.699205 ; 107.69 
8 ; Les Fonds ; 15NT ; LF-15NT-2019-DH-MB-C ; 718 ; 2019-07-23 10:48:20.754735 ; 72.52 
9 ; Les Fonds ; 15NT ; LF-15NT-2019-DH-MB-C ; 718 ; 2019-07-23 10:48:21.799884 ; 46.28 
10 ; Les Fonds ; 15NT ; LF-15NT-2019-DH-MB-C ; 718 ; 2019-07-23 10:48:22.852247 ; 47.56 
11 ; Les Fonds ; 15NT ; LF-15NT-2019-DH-MB-C ; 718 ; 2019-07-23 10:48:23.887658 ; 46.98 
12 ; Les Fonds ; 15NT ; LF-15NT-2019-DH-MB-C ; 718 ; 2019-07-23 10:48:24.927138 ; 47.29 
13 ; Les Fonds ; 15NT ; LF-15NT-2019-DH-MB-C ; 718 ; 2019-07-23 10:48:25.997291 ; 47.35 
14 ; Les Fonds ; 15NT ; LF-15NT-2019-DH-MB-C ; 718 ; 2019-07-23 10:48:27.043232 ; 46.83 
15 ; Les Fonds ; 15NT ; LF-15NT-2019-DH-MB-C ; 718 ; 2019-07-23 10:48:28.075993 ; 45.67 
16 ; Les Fonds ; 15NT ; LF-15NT-2019-DH-MB-C ; 718 ; 2019-07-23 10:48:29.142937 ; 44.78 
17 ; Les Fonds ; 15NT ; LF-15NT-2019-DH-MB-C ; 718 ; 2019-07-23 10:48:30.183709 ; 43.6 
18 ; Les Fonds ; 15NT ; LF-15NT-2019-DH-MB-C ; 718 ; 2019-07-23 10:48:31.223229 ; 42.34 
19 ; Les Fonds ; 15NT ; LF-15NT-2019-DH-MB-C ; 718 ; 2019-07-23 10:48:32.293767 ; 41.56 
20 ; Les Fonds ; 15NT ; LF-15NT-2019-DH-MB-C ; 718 ; 2019-07-23 10:48:33.339248 ; 41.01 
21 ; Les Fonds ; 15NT ; LF-15NT-2019-DH-MB-C ; 718 ; 2019-07-23 10:48:34.371022 ; 40.24 
22 ; Les Fonds ; 15NT ; LF-15NT-2019-DH-MB-C ; 718 ; 2019-07-23 10:48:35.435114 ; 39.98 
23 ; Les Fonds ; 15NT ; LF-15NT-2019-DH-MB-C ; 718 ; 2019-07-23 10:48:36.476994 ; 39.25 
24 ; Les Fonds ; 15NT ; LF-15NT-2019-DH-MB-C ; 718 ; 2019-07-23 10:48:37.517902 ; 38.78 
25 ; Les Fonds ; 15NT ; LF-15NT-2019-DH-MB-C ; 718 ; 2019-07-23 10:48:38.583562 ; 37.98 
26 ; Les Fonds ; 15NT ; LF-15NT-2019-DH-MB-C ; 718 ; 2019-07-23 10:48:39.630992 ; 36.75 
27 ; Les Fonds ; 15NT ; LF-15NT-2019-DH-MB-C ; 718 ; 2019-07-23 10:48:40.665535 ; 35.98 
28 ; Les Fonds ; 15NT ; LF-15NT-2019-DH-MB-C ; 718 ; 2019-07-23 10:48:41.731216 ; 35.3 
29 ; Les Fonds ; 15NT ; LF-15NT-2019-DH-MB-C ; 718 ; 2019-07-23 10:48:42.785841 ; 35.07 
30 ; Les Fonds ; 15NT ; LF-15NT-2019-DH-MB-C ; 718 ; 2019-07-23 10:48:43.810408 ; 34.59 
31 ; Les Fonds ; 15NT ; LF-15NT-2019-DH-MB-C ; 718 ; 2019-07-23 10:48:44.876514 ; 34.09 
32 ; Les Fonds ; 15NT ; LF-15NT-2019-DH-MB-C ; 718 ; 2019-07-23 10:48:45.926745 ; 33.57 
33 ; Les Fonds ; 15NT ; LF-15NT-2019-DH-MB-C ; 718 ; 2019-07-23 10:48:46.961532 ; 32.81 
34 ; Les Fonds ; 15NT ; LF-15NT-2019-DH-MB-C ; 718 ; 2019-07-23 10:48:47.996331 ; 32.54 
35 ; Les Fonds ; 15NT ; LF-15NT-2019-DH-MB-C ; 718 ; 2019-07-23 10:48:49.065471 ; 32.27 
36 ; Les Fonds ; 15NT ; LF-15NT-2019-DH-MB-C ; 718 ; 2019-07-23 10:48:50.105880 ; 31.75 
37 ; Les Fonds ; 15NT ; LF-15NT-2019-DH-MB-C ; 718 ; 2019-07-23 10:48:51.144954 ; 31.46 
38 ; Les Fonds ; 15NT ; LF-15NT-2019-DH-MB-C ; 718 ; 2019-07-23 10:48:52.217301 ; 30.96 
39 ; Les Fonds ; 15NT ; LF-15NT-2019-DH-MB-C ; 718 ; 2019-07-23 10:48:53.251872 ; 30.64 
40 ; Les Fonds ; 15NT ; LF-15NT-2019-DH-MB-C ; 718 ; 2019-07-23 10:48:54.291226 ; 30.14 
41 ; Les Fonds ; 15NT ; LF-15NT-2019-DH-MB-C ; 718 ; 2019-07-23 10:48:55.358716 ; 30.05 
42 ; Les Fonds ; 15NT ; LF-15NT-2019-DH-MB-C ; 718 ; 2019-07-23 10:48:56.398505 ; 29.82 
43 ; Les Fonds ; 15NT ; LF-15NT-2019-DH-MB-C ; 718 ; 2019-07-23 10:48:57.437100 ; 29.74 
44 ; Les Fonds ; 15NT ; LF-15NT-2019-DH-MB-C ; 718 ; 2019-07-23 10:48:58.508749 ; 29.58 
45 ; Les Fonds ; 15NT ; LF-15NT-2019-DH-MB-C ; 718 ; 2019-07-23 10:48:59.540737 ; 29.44 
46 ; Les Fonds ; 15NT ; LF-15NT-2019-DH-MB-C ; 718 ; 2019-07-23 10:49:00.585777 ; 29.36 
47 ; Les Fonds ; 15NT ; LF-15NT-2019-DH-MB-C ; 718 ; 2019-07-23 10:49:01.650278 ; 29.28 
48 ; Les Fonds ; 15NT ; LF-15NT-2019-DH-MB-C ; 718 ; 2019-07-23 10:49:02.687367 ; 29.2 
49 ; Les Fonds ; 15NT ; LF-15NT-2019-DH-MB-C ; 718 ; 2019-07-23 10:49:03.731040 ; 29.11 
50 ; Les Fonds ; 15NT ; LF-15NT-2019-DH-MB-C ; 718 ; 2019-07-23 10:49:04.802118 ; 29.01 
51 ; Les Fonds ; 15NT ; LF-15NT-2019-DH-MB-C ; 718 ; 2019-07-23 10:49:05.838095 ; 28.91 
52 ; Les Fonds ; 15NT ; LF-15NT-2019-DH-MB-C ; 718 ; 2019-07-23 10:49:06.876235 ; 28.8 
53 ; Les Fonds ; 15NT ; LF-15NT-2019-DH-MB-C ; 718 ; 2019-07-23 10:49:07.944160 ; 28.7 
54 ; Les Fonds ; 15NT ; LF-15NT-2019-DH-MB-C ; 718 ; 2019-07-23 10:49:08.982595 ; 28.61 
55 ; Les Fonds ; 15NT ; LF-15NT-2019-DH-MB-C ; 718 ; 2019-07-23 10:49:10.022352 ; 28.51 
56 ; Les Fonds ; 15NT ; LF-15NT-2019-DH-MB-C ; 718 ; 2019-07-23 10:49:11.093685 ; 28.43 
57 ; Les Fonds ; 15NT ; LF-15NT-2019-DH-MB-C ; 718 ; 2019-07-23 10:49:12.127506 ; 28.34 
58 ; Les Fonds ; 15NT ; LF-15NT-2019-DH-MB-C ; 718 ; 2019-07-23 10:49:13.168456 ; 28.07 
59 ; Les Fonds ; 15NT ; LF-15NT-2019-DH-MB-C ; 718 ; 2019-07-23 10:49:14.234874 ; 27.82 
60 ; Les Fonds ; 15NT ; LF-15NT-2019-DH-MB-C ; 718 ; 2019-07-23 10:49:15.274207 ; 27.72 
61 ; Les Fonds ; 15NT ; LF-15NT-2019-DH-MB-C ; 718 ; 2019-07-23 10:49:16.316771 ; 27.62 
62 ; Les Fonds ; 15NT ; LF-15NT-2019-DH-MB-C ; 718 ; 2019-07-23 10:49:17.386812 ; 27.57 
63 ; Les Fonds ; 15NT ; LF-15NT-2019-DH-MB-C ; 718 ; 2019-07-23 10:49:18.528744 ; 27.54 
64 ; Les Fonds ; 15NT ; LF-15NT-2019-DH-MB-C ; 718 ; 2019-07-23 10:49:19.465415 ; 27.49 
65 ; Les Fonds ; 15NT ; LF-15NT-2019-DH-MB-C ; 718 ; 2019-07-23 10:49:20.501901 ; 27.45 
66 ; Les Fonds ; 15NT ; LF-15NT-2019-DH-MB-C ; 718 ; 2019-07-23 10:49:21.567902 ; 27.41 
67 ; Les Fonds ; 15NT ; LF-15NT-2019-DH-MB-C ; 718 ; 2019-07-23 10:49:22.609123 ; 27.37 
68 ; Les Fonds ; 15NT ; LF-15NT-2019-DH-MB-C ; 718 ; 2019-07-23 10:49:23.661890 ; 27.27 
69 ; Les Fonds ; 15NT ; LF-15NT-2019-DH-MB-C ; 718 ; 2019-07-23 10:49:24.715155 ; 27.18 
70 ; Les Fonds ; 15NT ; LF-15NT-2019-DH-MB-C ; 718 ; 2019-07-23 10:49:25.754143 ; 27.1 
71 ; Les Fonds ; 15NT ; LF-15NT-2019-DH-MB-C ; 718 ; 2019-07-23 10:49:26.797266 ; 27.02 
72 ; Les Fonds ; 15NT ; LF-15NT-2019-DH-MB-C ; 718 ; 2019-07-23 10:49:27.868632 ; 26.89 
73 ; Les Fonds ; 15NT ; LF-15NT-2019-DH-MB-C ; 718 ; 2019-07-23 10:49:28.909633 ; 26.76 
74 ; Les Fonds ; 15NT ; LF-15NT-2019-DH-MB-C ; 718 ; 2019-07-23 10:49:29.942620 ; 26.65 
75 ; Les Fonds ; 15NT ; LF-15NT-2019-DH-MB-C ; 718 ; 2019-07-23 10:49:31.008649 ; 26.57 
76 ; Les Fonds ; 15NT ; LF-15NT-2019-DH-MB-C ; 718 ; 2019-07-23 10:49:32.049030 ; 26.49 
77 ; Les Fonds ; 15NT ; LF-15NT-2019-DH-MB-C ; 718 ; 2019-07-23 10:49:33.089719 ; 26.41 
78 ; Les Fonds ; 15NT ; LF-15NT-2019-DH-MB-C ; 718 ; 2019-07-23 10:49:34.158776 ; 26.36 
79 ; Les Fonds ; 15NT ; LF-15NT-2019-DH-MB-C ; 718 ; 2019-07-23 10:49:35.203618 ; 26.32 
80 ; Les Fonds ; 15NT ; LF-15NT-2019-DH-MB-C ; 718 ; 2019-07-23 10:49:36.237541 ; 26.27 
81 ; Les Fonds ; 15NT ; LF-15NT-2019-DH-MB-C ; 718 ; 2019-07-23 10:49:37.301564 ; 26.22 
82 ; Les Fonds ; 15NT ; LF-15NT-2019-DH-MB-C ; 718 ; 2019-07-23 10:49:38.341877 ; 26.18 
83 ; Les Fonds ; 15NT ; LF-15NT-2019-DH-MB-C ; 718 ; 2019-07-23 10:49:39.386748 ; 26.16 
84 ; Les Fonds ; 15NT ; LF-15NT-2019-DH-MB-C ; 718 ; 2019-07-23 10:49:40.451821 ; 26.14 
85 ; Les Fonds ; 15NT ; LF-15NT-2019-DH-MB-C ; 718 ; 2019-07-23 10:49:41.496587 ; 26.1 
86 ; Les Fonds ; 15NT ; LF-15NT-2019-DH-MB-C ; 718 ; 2019-07-23 10:49:42.528742 ; 26.06 
87 ; Les Fonds ; 15NT ; LF-15NT-2019-DH-MB-C ; 718 ; 2019-07-23 10:49:43.595965 ; 26.03 
88 ; Les Fonds ; 15NT ; LF-15NT-2019-DH-MB-C ; 718 ; 2019-07-23 10:49:44.638253 ; 25.99 
89 ; Les Fonds ; 15NT ; LF-15NT-2019-DH-MB-C ; 718 ; 2019-07-23 10:49:45.674052 ; 25.97 
90 ; Les Fonds ; 15NT ; LF-15NT-2019-DH-MB-C ; 718 ; 2019-07-23 10:49:46.744179 ; 25.95 
91 ; Les Fonds ; 15NT ; LF-15NT-2019-DH-MB-C ; 718 ; 2019-07-23 10:49:47.809951 ; 25.93 
92 ; Les Fonds ; 15NT ; LF-15NT-2019-DH-MB-C ; 718 ; 2019-07-23 10:49:48.810971 ; 25.91 
93 ; Les Fonds ; 15NT ; LF-15NT-2019-DH-MB-C ; 718 ; 2019-07-23 10:49:49.857267 ; 25.87 
94 ; Les Fonds ; 15NT ; LF-15NT-2019-DH-MB-C ; 718 ; 2019-07-23 10:49:50.928457 ; 25.83 
95 ; Les Fonds ; 15NT ; LF-15NT-2019-DH-MB-C ; 718 ; 2019-07-23 10:49:51.964221 ; 25.79 
96 ; Les Fonds ; 15NT ; LF-15NT-2019-DH-MB-C ; 718 ; 2019-07-23 10:49:53.008114 ; 25.79 
97 ; Les Fonds ; 15NT ; LF-15NT-2019-DH-MB-C ; 718 ; 2019-07-23 10:49:54.074537 ; 25.77 
98 ; Les Fonds ; 15NT ; LF-15NT-2019-DH-MB-C ; 718 ; 2019-07-23 10:49:55.110260 ; 25.74 
99 ; Les Fonds ; 15NT ; LF-15NT-2019-DH-MB-C ; 718 ; 2019-07-23 10:49:56.150762 ; 25.72 
100 ; Les Fonds ; 15NT ; LF-15NT-2019-DH-MB-C ; 718 ; 2019-07-23 10:49:57.218795 ; 25.67 
101 ; Les Fonds ; 15NT ; LF-15NT-2019-DH-MB-C ; 718 ; 2019-07-23 10:49:58.258355 ; 25.64 
102 ; Les Fonds ; 15NT ; LF-15NT-2019-DH-MB-C ; 718 ; 2019-07-23 10:49:59.304352 ; 25.59 
103 ; Les Fonds ; 15NT ; LF-15NT-2019-DH-MB-C ; 718 ; 2019-07-23 10:50:00.364218 ; 25.53 
104 ; Les Fonds ; 15NT ; LF-15NT-2019-DH-MB-C ; 718 ; 2019-07-23 10:50:01.404345 ; 25.46 
105 ; Les Fonds ; 15NT ; LF-15NT-2019-DH-MB-C ; 718 ; 2019-07-23 10:50:02.445447 ; 25.41 
106 ; Les Fonds ; 15NT ; LF-15NT-2019-DH-MB-C ; 718 ; 2019-07-23 10:50:03.510479 ; 25.33 
107 ; Les Fonds ; 15NT ; LF-15NT-2019-DH-MB-C ; 718 ; 2019-07-23 10:50:04.551700 ; 25.25 
108 ; Les Fonds ; 15NT ; LF-15NT-2019-DH-MB-C ; 718 ; 2019-07-23 10:50:05.597315 ; 25.18 
109 ; Les Fonds ; 15NT ; LF-15NT-2019-DH-MB-C ; 718 ; 2019-07-23 10:50:06.658557 ; 25.14 
110 ; Les Fonds ; 15NT ; LF-15NT-2019-DH-MB-C ; 718 ; 2019-07-23 10:50:07.700738 ; 25.14 
111 ; Les Fonds ; 15NT ; LF-15NT-2019-DH-MB-C ; 718 ; 2019-07-23 10:50:08.737351 ; 25.13 
112 ; Les Fonds ; 15NT ; LF-15NT-2019-DH-MB-C ; 718 ; 2019-07-23 10:50:09.803820 ; 25.11 
113 ; Les Fonds ; 15NT ; LF-15NT-2019-DH-MB-C ; 718 ; 2019-07-23 10:50:10.842931 ; 25.07 
114 ; Les Fonds ; 15NT ; LF-15NT-2019-DH-MB-C ; 718 ; 2019-07-23 10:50:11.897199 ; NA 
115 ; Les Fonds ; 15NT ; LF-15NT-2019-DH-MB-C ; 718 ; 2019-07-23 10:50:12.953534 ; 25.81 
116 ; Les Fonds ; 15NT ; LF-15NT-2019-DH-MB-C ; 718 ; 2019-07-23 10:50:13.995769 ; NA 
117 ; Les Fonds ; 15NT ; LF-15NT-2019-DH-MB-C ; 718 ; 2019-07-23 10:50:15.047746 ; 24.91 
118 ; Les Fonds ; 15NT ; LF-15NT-2019-DH-MB-C ; 718 ; 2019-07-23 10:50:16.097922 ; NA 
119 ; Les Fonds ; 15NT ; LF-15NT-2019-DH-MB-C ; 718 ; 2019-07-23 10:50:17.143752 ; 24.82 
120 ; Les Fonds ; 15NT ; LF-15NT-2019-DH-MB-C ; 718 ; 2019-07-23 10:50:18.183510 ; NA 
121 ; Les Fonds ; 15NT ; LF-15NT-2019-DH-MB-C ; 718 ; 2019-07-23 10:50:19.245599 ; 24.7 
122 ; Les Fonds ; 15NT ; LF-15NT-2019-DH-MB-C ; 718 ; 2019-07-23 10:50:20.286697 ; 24.69 
123 ; Les Fonds ; 15NT ; LF-15NT-2019-DH-MB-C ; 718 ; 2019-07-23 10:50:21.327298 ; 24.67 
124 ; Les Fonds ; 15NT ; LF-15NT-2019-DH-MB-C ; 718 ; 2019-07-23 10:50:22.366166 ; 24.62 
125 ; Les Fonds ; 15NT ; LF-15NT-2019-DH-MB-C ; 718 ; 2019-07-23 10:50:23.442334 ; 24.61 
126 ; Les Fonds ; 15NT ; LF-15NT-2019-DH-MB-C ; 718 ; 2019-07-23 10:50:24.471624 ; 24.57 
127 ; Les Fonds ; 15NT ; LF-15NT-2019-DH-MB-C ; 718 ; 2019-07-23 10:50:25.510614 ; 24.57 
128 ; Les Fonds ; 15NT ; LF-15NT-2019-DH-MB-C ; 718 ; 2019-07-23 10:50:26.574967 ; 24.55 
129 ; Les Fonds ; 15NT ; LF-15NT-2019-DH-MB-C ; 718 ; 2019-07-23 10:50:27.624334 ; 24.55 
130 ; Les Fonds ; 15NT ; LF-15NT-2019-DH-MB-C ; 718 ; 2019-07-23 10:50:28.655312 ; 24.55 
131 ; Les Fonds ; 15NT ; LF-15NT-2019-DH-MB-C ; 718 ; 2019-07-23 10:50:29.735943 ; 24.55 
132 ; Les Fonds ; 15NT ; LF-15NT-2019-DH-MB-C ; 718 ; 2019-07-23 10:50:30.777011 ; 24.55 
133 ; Les Fonds ; 15NT ; LF-15NT-2019-DH-MB-C ; 718 ; 2019-07-23 10:50:31.799736 ; 24.51 
134 ; Les Fonds ; 15NT ; LF-15NT-2019-DH-MB-C ; 718 ; 2019-07-23 10:50:32.872169 ; 24.42 
135 ; Les Fonds ; 15NT ; LF-15NT-2019-DH-MB-C ; 718 ; 2019-07-23 10:50:33.916652 ; 24.35 
136 ; Les Fonds ; 15NT ; LF-15NT-2019-DH-MB-C ; 718 ; 2019-07-23 10:50:34.955657 ; 24.31 
137 ; Les Fonds ; 15NT ; LF-15NT-2019-DH-MB-C ; 718 ; 2019-07-23 10:50:36.029123 ; 24.29 
138 ; Les Fonds ; 15NT ; LF-15NT-2019-DH-MB-C ; 718 ; 2019-07-23 10:50:37.062032 ; 24.28 
139 ; Les Fonds ; 15NT ; LF-15NT-2019-DH-MB-C ; 718 ; 2019-07-23 10:50:38.101186 ; 24.26 
140 ; Les Fonds ; 15NT ; LF-15NT-2019-DH-MB-C ; 718 ; 2019-07-23 10:50:39.166618 ; 24.24 
141 ; Les Fonds ; 15NT ; LF-15NT-2019-DH-MB-C ; 718 ; 2019-07-23 10:50:40.203890 ; 24.22 
142 ; Les Fonds ; 15NT ; LF-15NT-2019-DH-MB-C ; 718 ; 2019-07-23 10:50:41.244963 ; 24.2 
143 ; Les Fonds ; 15NT ; LF-15NT-2019-DH-MB-C ; 718 ; 2019-07-23 10:50:42.322726 ; 24.18 
144 ; Les Fonds ; 15NT ; LF-15NT-2019-DH-MB-C ; 718 ; 2019-07-23 10:50:43.355098 ; 24.17 
145 ; Les Fonds ; 15NT ; LF-15NT-2019-DH-MB-C ; 718 ; 2019-07-23 10:50:44.396145 ; 24.15 
146 ; Les Fonds ; 15NT ; LF-15NT-2019-DH-MB-C ; 718 ; 2019-07-23 10:50:45.457107 ; 24.13 
147 ; Les Fonds ; 15NT ; LF-15NT-2019-DH-MB-C ; 718 ; 2019-07-23 10:50:46.497436 ; 24.11 
148 ; Les Fonds ; 15NT ; LF-15NT-2019-DH-MB-C ; 718 ; 2019-07-23 10:50:47.540555 ; 24.04 
149 ; Les Fonds ; 15NT ; LF-15NT-2019-DH-MB-C ; 718 ; 2019-07-23 10:50:48.617138 ; 23.94 
150 ; Les Fonds ; 15NT ; LF-15NT-2019-DH-MB-C ; 718 ; 2019-07-23 10:50:49.653417 ; 23.86 
151 ; Les Fonds ; 15NT ; LF-15NT-2019-DH-MB-C ; 718 ; 2019-07-23 10:50:50.687210 ; 23.78 
152 ; Les Fonds ; 15NT ; LF-15NT-2019-DH-MB-C ; 718 ; 2019-07-23 10:50:51.730048 ; 23.74 
153 ; Les Fonds ; 15NT ; LF-15NT-2019-DH-MB-C ; 718 ; 2019-07-23 10:50:52.795253 ; 23.68 
154 ; Les Fonds ; 15NT ; LF-15NT-2019-DH-MB-C ; 718 ; 2019-07-23 10:50:53.833460 ; 23.6 
155 ; Les Fonds ; 15NT ; LF-15NT-2019-DH-MB-C ; 718 ; 2019-07-23 10:50:54.883211 ; 23.56 
156 ; Les Fonds ; 15NT ; LF-15NT-2019-DH-MB-C ; 718 ; 2019-07-23 10:50:55.939160 ; 23.48 
157 ; Les Fonds ; 15NT ; LF-15NT-2019-DH-MB-C ; 718 ; 2019-07-23 10:50:56.980653 ; 23.38 
158 ; Les Fonds ; 15NT ; LF-15NT-2019-DH-MB-C ; 718 ; 2019-07-23 10:50:58.025082 ; 23.25 
159 ; Les Fonds ; 15NT ; LF-15NT-2019-DH-MB-C ; 718 ; 2019-07-23 10:50:59.087825 ; 22.98 
160 ; Les Fonds ; 15NT ; LF-15NT-2019-DH-MB-C ; 718 ; 2019-07-23 10:51:00.124131 ; 22.88 
161 ; Les Fonds ; 15NT ; LF-15NT-2019-DH-MB-C ; 718 ; 2019-07-23 10:51:01.172114 ; 22.6 
162 ; Les Fonds ; 15NT ; LF-15NT-2019-DH-MB-C ; 718 ; 2019-07-23 10:51:02.229969 ; 22.51 
163 ; Les Fonds ; 15NT ; LF-15NT-2019-DH-MB-C ; 718 ; 2019-07-23 10:51:03.270813 ; 22.38 
164 ; Les Fonds ; 15NT ; LF-15NT-2019-DH-MB-C ; 718 ; 2019-07-23 10:51:04.311293 ; 22.29 
165 ; Les Fonds ; 15NT ; LF-15NT-2019-DH-MB-C ; 718 ; 2019-07-23 10:51:05.382314 ; 22.19 
166 ; Les Fonds ; 15NT ; LF-15NT-2019-DH-MB-C ; 718 ; 2019-07-23 10:51:06.428511 ; 22.08 
167 ; Les Fonds ; 15NT ; LF-15NT-2019-DH-MB-C ; 718 ; 2019-07-23 10:51:07.461998 ; 21.99 
168 ; Les Fonds ; 15NT ; LF-15NT-2019-DH-MB-C ; 718 ; 2019-07-23 10:51:08.528671 ; 21.95 
169 ; Les Fonds ; 15NT ; LF-15NT-2019-DH-MB-C ; 718 ; 2019-07-23 10:51:09.565526 ; 21.93 
170 ; Les Fonds ; 15NT ; LF-15NT-2019-DH-MB-C ; 718 ; 2019-07-23 10:51:10.603931 ; 21.9 
171 ; Les Fonds ; 15NT ; LF-15NT-2019-DH-MB-C ; 718 ; 2019-07-23 10:51:11.675479 ; 21.88 
172 ; Les Fonds ; 15NT ; LF-15NT-2019-DH-MB-C ; 718 ; 2019-07-23 10:51:12.721365 ; 21.88 
173 ; Les Fonds ; 15NT ; LF-15NT-2019-DH-MB-C ; 718 ; 2019-07-23 10:51:13.747892 ; 21.86 
174 ; Les Fonds ; 15NT ; LF-15NT-2019-DH-MB-C ; 718 ; 2019-07-23 10:51:14.817503 ; 21.84 
175 ; Les Fonds ; 15NT ; LF-15NT-2019-DH-MB-C ; 718 ; 2019-07-23 10:51:25.867774 ; 21.55 
176 ; Les Fonds ; 15NT ; LF-15NT-2019-DH-MB-C ; 718 ; 2019-07-23 10:51:36.881617 ; 21.52 
177 ; Les Fonds ; 15NT ; LF-15NT-2019-DH-MB-C ; 718 ; 2019-07-23 10:51:47.895962 ; 21.52 
178 ; Les Fonds ; 15NT ; LF-15NT-2019-DH-MB-C ; 718 ; 2019-07-23 10:51:58.915439 ; 21.52 
179 ; Les Fonds ; 15NT ; LF-15NT-2019-DH-MB-C ; 718 ; 2019-07-23 10:52:09.892868 ; 21.19 
180 ; Les Fonds ; 15NT ; LF-15NT-2019-DH-MB-C ; 718 ; 2019-07-23 10:52:20.909667 ; 21.19 
181 ; Les Fonds ; 15NT ; LF-15NT-2019-DH-MB-C ; 718 ; 2019-07-23 10:52:31.918736 ; 20.78 
182 ; Les Fonds ; 15NT ; LF-15NT-2019-DH-MB-C ; 718 ; 2019-07-23 10:52:42.931269 ; 20.2 
183 ; Les Fonds ; 15NT ; LF-15NT-2019-DH-MB-C ; 718 ; 2019-07-23 10:52:53.950567 ; 19.64 
184 ; Les Fonds ; 15NT ; LF-15NT-2019-DH-MB-C ; 718 ; 2019-07-23 10:53:04.968239 ; 19.63 
185 ; Les Fonds ; 15NT ; LF-15NT-2019-DH-MB-C ; 718 ; 2019-07-23 10:53:15.972643 ; 19.5 
186 ; Les Fonds ; 15NT ; LF-15NT-2019-DH-MB-C ; 718 ; 2019-07-23 10:53:26.990657 ; 19.29 
187 ; Les Fonds ; 15NT ; LF-15NT-2019-DH-MB-C ; 718 ; 2019-07-23 10:53:37.977348 ; 19.1 
188 ; Les Fonds ; 15NT ; LF-15NT-2019-DH-MB-C ; 718 ; 2019-07-23 10:53:48.991943 ; 18.98 
189 ; Les Fonds ; 15NT ; LF-15NT-2019-DH-MB-C ; 718 ; 2019-07-23 10:54:00.007684 ; 18.98 
190 ; Les Fonds ; 15NT ; LF-15NT-2019-DH-MB-C ; 718 ; 2019-07-23 10:54:11.011053 ; 18.98 
191 ; Les Fonds ; 15NT ; LF-15NT-2019-DH-MB-C ; 718 ; 2019-07-23 10:54:22.027050 ; 18.93 
192 ; Les Fonds ; 15NT ; LF-15NT-2019-DH-MB-C ; 718 ; 2019-07-23 10:54:33.041203 ; 18.93 
193 ; Les Fonds ; 15NT ; LF-15NT-2019-DH-MB-C ; 718 ; 2019-07-23 10:54:44.052724 ; 18.8 
194 ; Les Fonds ; 15NT ; LF-15NT-2019-DH-MB-C ; 718 ; 2019-07-23 10:54:55.071092 ; 18.59 
195 ; Les Fonds ; 15NT ; LF-15NT-2019-DH-MB-C ; 718 ; 2019-07-23 10:55:06.066443 ; 18.51 
196 ; Les Fonds ; 15NT ; LF-15NT-2019-DH-MB-C ; 718 ; 2019-07-23 10:55:17.070038 ; 18.51 
197 ; Les Fonds ; 15NT ; LF-15NT-2019-DH-MB-C ; 718 ; 2019-07-23 10:55:28.081691 ; 18.51 
198 ; Les Fonds ; 15NT ; LF-15NT-2019-DH-MB-C ; 718 ; 2019-07-23 10:55:39.091163 ; 18.51 
199 ; Les Fonds ; 15NT ; LF-15NT-2019-DH-MB-C ; 718 ; 2019-07-23 10:55:50.105796 ; 18.51 
200 ; Les Fonds ; 15NT ; LF-15NT-2019-DH-MB-C ; 718 ; 2019-07-23 10:56:01.119582 ; 18.51 
201 ; Les Fonds ; 15NT ; LF-15NT-2019-DH-MB-C ; 718 ; 2019-07-23 10:56:12.141976 ; 18.51 
202 ; Les Fonds ; 15NT ; LF-15NT-2019-DH-MB-C ; 718 ; 2019-07-23 10:56:23.148909 ; 18.51 
203 ; Les Fonds ; 15NT ; LF-15NT-2019-DH-MB-C ; 718 ; 2019-07-23 10:56:34.131837 ; 18.12 
204 ; Les Fonds ; 15NT ; LF-15NT-2019-DH-MB-C ; 718 ; 2019-07-23 10:56:45.149048 ; 17.96 
205 ; Les Fonds ; 15NT ; LF-15NT-2019-DH-MB-C ; 718 ; 2019-07-23 10:56:56.163543 ; 17.96 
206 ; Les Fonds ; 15NT ; LF-15NT-2019-DH-MB-C ; 718 ; 2019-07-23 10:57:07.173689 ; 17.1 
207 ; Les Fonds ; 15NT ; LF-15NT-2019-DH-MB-C ; 718 ; 2019-07-23 10:57:18.196148 ; 16.48 
208 ; Les Fonds ; 15NT ; LF-15NT-2019-DH-MB-C ; 718 ; 2019-07-23 10:57:29.202054 ; 16.47 
209 ; Les Fonds ; 15NT ; LF-15NT-2019-DH-MB-C ; 718 ; 2019-07-23 10:57:40.220271 ; 15.91 
210 ; Les Fonds ; 15NT ; LF-15NT-2019-DH-MB-C ; 718 ; 2019-07-23 10:57:51.229835 ; 15.85 
211 ; Les Fonds ; 15NT ; LF-15NT-2019-DH-MB-C ; 718 ; 2019-07-23 10:58:02.216508 ; 15.85 
212 ; Les Fonds ; 15NT ; LF-15NT-2019-DH-MB-C ; 718 ; 2019-07-23 10:58:13.221689 ; 15.82 
213 ; Les Fonds ; 15NT ; LF-15NT-2019-DH-MB-C ; 718 ; 2019-07-23 10:58:44.245143 ; 15.81 
214 ; Les Fonds ; 15NT ; LF-15NT-2019-DH-MB-C ; 718 ; 2019-07-23 10:59:15.179455 ; 15.25 
215 ; Les Fonds ; 15NT ; LF-15NT-2019-DH-MB-C ; 718 ; 2019-07-23 10:59:46.110414 ; 15.25 
216 ; Les Fonds ; 15NT ; LF-15NT-2019-DH-MB-C ; 718 ; 2019-07-23 11:00:17.039227 ; 15.25 
217 ; Les Fonds ; 15NT ; LF-15NT-2019-DH-MB-C ; 718 ; 2019-07-23 11:00:47.971507 ; 15.12 
218 ; Les Fonds ; 15NT ; LF-15NT-2019-DH-MB-C ; 718 ; 2019-07-23 11:01:18.919700 ; 15.12 
219 ; Les Fonds ; 15NT ; LF-15NT-2019-DH-MB-C ; 718 ; 2019-07-23 11:01:49.840265 ; 15.12 
220 ; Les Fonds ; 15NT ; LF-15NT-2019-DH-MB-C ; 718 ; 2019-07-23 11:02:20.769826 ; 15.12 
221 ; Les Fonds ; 15NT ; LF-15NT-2019-DH-MB-C ; 718 ; 2019-07-23 11:02:51.705654 ; 15.12 
222 ; Les Fonds ; 15NT ; LF-15NT-2019-DH-MB-C ; 718 ; 2019-07-23 11:03:22.637600 ; 15.12 
223 ; Les Fonds ; 15NT ; LF-15NT-2019-DH-MB-C ; 718 ; 2019-07-23 11:03:53.572797 ; 15.12 
224 ; Les Fonds ; 15NT ; LF-15NT-2019-DH-MB-C ; 718 ; 2019-07-23 11:04:24.509559 ; 14.84 
225 ; Les Fonds ; 15NT ; LF-15NT-2019-DH-MB-C ; 718 ; 2019-07-23 11:04:55.441406 ; 14.6 
226 ; Les Fonds ; 15NT ; LF-15NT-2019-DH-MB-C ; 718 ; 2019-07-23 11:05:26.376578 ; 14.6 
227 ; Les Fonds ; 15NT ; LF-15NT-2019-DH-MB-C ; 718 ; 2019-07-23 11:05:57.310451 ; 14.6 
228 ; Les Fonds ; 15NT ; LF-15NT-2019-DH-MB-C ; 718 ; 2019-07-23 11:06:28.237620 ; 14.6 
229 ; Les Fonds ; 15NT ; LF-15NT-2019-DH-MB-C ; 718 ; 2019-07-23 11:06:59.176033 ; 14.6 
230 ; Les Fonds ; 15NT ; LF-15NT-2019-DH-MB-C ; 718 ; 2019-07-23 11:07:30.112893 ; 14.6 
231 ; Les Fonds ; 15NT ; LF-15NT-2019-DH-MB-C ; 718 ; 2019-07-23 11:08:01.037545 ; 14.6 
232 ; Les Fonds ; 15NT ; LF-15NT-2019-DH-MB-C ; 718 ; 2019-07-23 11:08:32.006138 ; 14.6 
