i ; campaign ; serie ; sample ; slake ; time ; mass 
1 ; Longs Tours ; 7 ; LT-7-2019-D-A ; 547 ; 2019-07-09 14:48:30.676880 ; 137.81 
2 ; Longs Tours ; 7 ; LT-7-2019-D-A ; 547 ; 2019-07-09 14:48:31.614678 ; 137.81 
3 ; Longs Tours ; 7 ; LT-7-2019-D-A ; 547 ; 2019-07-09 14:48:32.458647 ; 137.81 
4 ; Longs Tours ; 7 ; LT-7-2019-D-A ; 547 ; 2019-07-09 14:48:33.319430 ; 137.82 
5 ; Longs Tours ; 7 ; LT-7-2019-D-A ; 547 ; 2019-07-09 14:48:34.173314 ; 137.81 
6 ; Longs Tours ; 7 ; LT-7-2019-D-A ; 547 ; 2019-07-09 14:48:35.026691 ; 137.82 
7 ; Longs Tours ; 7 ; LT-7-2019-D-A ; 547 ; 2019-07-09 14:48:35.876670 ; 137.81 
8 ; Longs Tours ; 7 ; LT-7-2019-D-A ; 547 ; 2019-07-09 14:48:36.747810 ; 137.82 
9 ; Longs Tours ; 7 ; LT-7-2019-D-A ; 547 ; 2019-07-09 14:48:37.588183 ; 99.51 
10 ; Longs Tours ; 7 ; LT-7-2019-D-A ; 547 ; 2019-07-09 14:48:38.334079 ; 56.49 
11 ; Longs Tours ; 7 ; LT-7-2019-D-A ; 547 ; 2019-07-09 14:48:39.187211 ; 60.97 
12 ; Longs Tours ; 7 ; LT-7-2019-D-A ; 547 ; 2019-07-09 14:48:40.146257 ; 60.62 
13 ; Longs Tours ; 7 ; LT-7-2019-D-A ; 547 ; 2019-07-09 14:48:41.107359 ; 61.23 
14 ; Longs Tours ; 7 ; LT-7-2019-D-A ; 547 ; 2019-07-09 14:48:42.075013 ; 61.79 
15 ; Longs Tours ; 7 ; LT-7-2019-D-A ; 547 ; 2019-07-09 14:48:43.023101 ; 61.63 
16 ; Longs Tours ; 7 ; LT-7-2019-D-A ; 547 ; 2019-07-09 14:48:43.984995 ; 61.11 
17 ; Longs Tours ; 7 ; LT-7-2019-D-A ; 547 ; 2019-07-09 14:48:44.948285 ; 60.83 
18 ; Longs Tours ; 7 ; LT-7-2019-D-A ; 547 ; 2019-07-09 14:48:45.910279 ; 59.83 
19 ; Longs Tours ; 7 ; LT-7-2019-D-A ; 547 ; 2019-07-09 14:48:46.864643 ; 58.55 
20 ; Longs Tours ; 7 ; LT-7-2019-D-A ; 547 ; 2019-07-09 14:48:47.835851 ; 57.69 
21 ; Longs Tours ; 7 ; LT-7-2019-D-A ; 547 ; 2019-07-09 14:48:48.805618 ; 57.12 
22 ; Longs Tours ; 7 ; LT-7-2019-D-A ; 547 ; 2019-07-09 14:48:49.750103 ; 56.38 
23 ; Longs Tours ; 7 ; LT-7-2019-D-A ; 547 ; 2019-07-09 14:48:50.710379 ; 55.12 
24 ; Longs Tours ; 7 ; LT-7-2019-D-A ; 547 ; 2019-07-09 14:48:51.666329 ; 52.95 
25 ; Longs Tours ; 7 ; LT-7-2019-D-A ; 547 ; 2019-07-09 14:48:52.630702 ; 50.82 
26 ; Longs Tours ; 7 ; LT-7-2019-D-A ; 547 ; 2019-07-09 14:48:53.598326 ; 49.9 
27 ; Longs Tours ; 7 ; LT-7-2019-D-A ; 547 ; 2019-07-09 14:48:54.547142 ; 49.05 
28 ; Longs Tours ; 7 ; LT-7-2019-D-A ; 547 ; 2019-07-09 14:48:55.507512 ; 48.27 
29 ; Longs Tours ; 7 ; LT-7-2019-D-A ; 547 ; 2019-07-09 14:48:56.467784 ; 47.23 
30 ; Longs Tours ; 7 ; LT-7-2019-D-A ; 547 ; 2019-07-09 14:48:57.427264 ; 45.73 
31 ; Longs Tours ; 7 ; LT-7-2019-D-A ; 547 ; 2019-07-09 14:48:58.387851 ; 44.32 
32 ; Longs Tours ; 7 ; LT-7-2019-D-A ; 547 ; 2019-07-09 14:48:59.353864 ; 43.03 
33 ; Longs Tours ; 7 ; LT-7-2019-D-A ; 547 ; 2019-07-09 14:49:00.308041 ; 41.77 
34 ; Longs Tours ; 7 ; LT-7-2019-D-A ; 547 ; 2019-07-09 14:49:01.267324 ; 40.24 
35 ; Longs Tours ; 7 ; LT-7-2019-D-A ; 547 ; 2019-07-09 14:49:02.231782 ; 39.27 
36 ; Longs Tours ; 7 ; LT-7-2019-D-A ; 547 ; 2019-07-09 14:49:03.185638 ; 38.24 
37 ; Longs Tours ; 7 ; LT-7-2019-D-A ; 547 ; 2019-07-09 14:49:04.149162 ; 36.47 
38 ; Longs Tours ; 7 ; LT-7-2019-D-A ; 547 ; 2019-07-09 14:49:05.114246 ; 35.28 
39 ; Longs Tours ; 7 ; LT-7-2019-D-A ; 547 ; 2019-07-09 14:49:06.070492 ; 34.38 
40 ; Longs Tours ; 7 ; LT-7-2019-D-A ; 547 ; 2019-07-09 14:49:07.029237 ; 33.7 
41 ; Longs Tours ; 7 ; LT-7-2019-D-A ; 547 ; 2019-07-09 14:49:07.992092 ; 32.93 
42 ; Longs Tours ; 7 ; LT-7-2019-D-A ; 547 ; 2019-07-09 14:49:08.950318 ; 32.17 
43 ; Longs Tours ; 7 ; LT-7-2019-D-A ; 547 ; 2019-07-09 14:49:09.909507 ; 31.68 
44 ; Longs Tours ; 7 ; LT-7-2019-D-A ; 547 ; 2019-07-09 14:49:10.875354 ; 31.14 
45 ; Longs Tours ; 7 ; LT-7-2019-D-A ; 547 ; 2019-07-09 14:49:11.831935 ; 30.27 
46 ; Longs Tours ; 7 ; LT-7-2019-D-A ; 547 ; 2019-07-09 14:49:12.803729 ; 29.06 
47 ; Longs Tours ; 7 ; LT-7-2019-D-A ; 547 ; 2019-07-09 14:49:13.750782 ; 27.83 
48 ; Longs Tours ; 7 ; LT-7-2019-D-A ; 547 ; 2019-07-09 14:49:14.709844 ; 27.17 
49 ; Longs Tours ; 7 ; LT-7-2019-D-A ; 547 ; 2019-07-09 14:49:15.670579 ; 26.87 
50 ; Longs Tours ; 7 ; LT-7-2019-D-A ; 547 ; 2019-07-09 14:49:16.634808 ; 26.6 
51 ; Longs Tours ; 7 ; LT-7-2019-D-A ; 547 ; 2019-07-09 14:49:17.589931 ; 26.37 
52 ; Longs Tours ; 7 ; LT-7-2019-D-A ; 547 ; 2019-07-09 14:49:18.549174 ; 25.92 
53 ; Longs Tours ; 7 ; LT-7-2019-D-A ; 547 ; 2019-07-09 14:49:19.508122 ; 25.58 
54 ; Longs Tours ; 7 ; LT-7-2019-D-A ; 547 ; 2019-07-09 14:49:20.469207 ; 25.13 
55 ; Longs Tours ; 7 ; LT-7-2019-D-A ; 547 ; 2019-07-09 14:49:21.428922 ; 24.46 
56 ; Longs Tours ; 7 ; LT-7-2019-D-A ; 547 ; 2019-07-09 14:49:22.400693 ; 23.87 
57 ; Longs Tours ; 7 ; LT-7-2019-D-A ; 547 ; 2019-07-09 14:49:23.349941 ; 23.41 
58 ; Longs Tours ; 7 ; LT-7-2019-D-A ; 547 ; 2019-07-09 14:49:24.312155 ; 23.21 
59 ; Longs Tours ; 7 ; LT-7-2019-D-A ; 547 ; 2019-07-09 14:49:25.270400 ; 22.95 
60 ; Longs Tours ; 7 ; LT-7-2019-D-A ; 547 ; 2019-07-09 14:49:26.230725 ; 22.67 
61 ; Longs Tours ; 7 ; LT-7-2019-D-A ; 547 ; 2019-07-09 14:49:27.189162 ; 22.43 
62 ; Longs Tours ; 7 ; LT-7-2019-D-A ; 547 ; 2019-07-09 14:49:28.155265 ; 22.16 
63 ; Longs Tours ; 7 ; LT-7-2019-D-A ; 547 ; 2019-07-09 14:49:29.105783 ; 21.89 
64 ; Longs Tours ; 7 ; LT-7-2019-D-A ; 547 ; 2019-07-09 14:49:30.070028 ; 21.77 
65 ; Longs Tours ; 7 ; LT-7-2019-D-A ; 547 ; 2019-07-09 14:49:31.023841 ; 21.59 
66 ; Longs Tours ; 7 ; LT-7-2019-D-A ; 547 ; 2019-07-09 14:49:31.984597 ; 21.34 
67 ; Longs Tours ; 7 ; LT-7-2019-D-A ; 547 ; 2019-07-09 14:49:32.946440 ; 21.06 
68 ; Longs Tours ; 7 ; LT-7-2019-D-A ; 547 ; 2019-07-09 14:49:33.912827 ; 20.45 
69 ; Longs Tours ; 7 ; LT-7-2019-D-A ; 547 ; 2019-07-09 14:49:34.864409 ; 19.43 
70 ; Longs Tours ; 7 ; LT-7-2019-D-A ; 547 ; 2019-07-09 14:49:35.824001 ; 18 
71 ; Longs Tours ; 7 ; LT-7-2019-D-A ; 547 ; 2019-07-09 14:49:36.801652 ; 17.63 
72 ; Longs Tours ; 7 ; LT-7-2019-D-A ; 547 ; 2019-07-09 14:49:37.744721 ; 17.45 
73 ; Longs Tours ; 7 ; LT-7-2019-D-A ; 547 ; 2019-07-09 14:49:38.706002 ; 17.19 
74 ; Longs Tours ; 7 ; LT-7-2019-D-A ; 547 ; 2019-07-09 14:49:39.668641 ; 16.93 
75 ; Longs Tours ; 7 ; LT-7-2019-D-A ; 547 ; 2019-07-09 14:49:40.626468 ; 16.66 
76 ; Longs Tours ; 7 ; LT-7-2019-D-A ; 547 ; 2019-07-09 14:49:41.581925 ; 16.43 
77 ; Longs Tours ; 7 ; LT-7-2019-D-A ; 547 ; 2019-07-09 14:49:42.541840 ; 16.26 
78 ; Longs Tours ; 7 ; LT-7-2019-D-A ; 547 ; 2019-07-09 14:49:43.503893 ; 16.15 
79 ; Longs Tours ; 7 ; LT-7-2019-D-A ; 547 ; 2019-07-09 14:49:44.470502 ; 16.07 
80 ; Longs Tours ; 7 ; LT-7-2019-D-A ; 547 ; 2019-07-09 14:49:45.422424 ; 15.92 
81 ; Longs Tours ; 7 ; LT-7-2019-D-A ; 547 ; 2019-07-09 14:49:46.224483 ; 15.73 
82 ; Longs Tours ; 7 ; LT-7-2019-D-A ; 547 ; 2019-07-09 14:49:47.025766 ; 15.65 
83 ; Longs Tours ; 7 ; LT-7-2019-D-A ; 547 ; 2019-07-09 14:49:47.821384 ; 15.56 
84 ; Longs Tours ; 7 ; LT-7-2019-D-A ; 547 ; 2019-07-09 14:49:48.628727 ; 15.49 
85 ; Longs Tours ; 7 ; LT-7-2019-D-A ; 547 ; 2019-07-09 14:49:49.483913 ; 15.43 
86 ; Longs Tours ; 7 ; LT-7-2019-D-A ; 547 ; 2019-07-09 14:49:50.281262 ; 15.3 
87 ; Longs Tours ; 7 ; LT-7-2019-D-A ; 547 ; 2019-07-09 14:49:51.135573 ; 15.16 
88 ; Longs Tours ; 7 ; LT-7-2019-D-A ; 547 ; 2019-07-09 14:49:51.986675 ; 15.03 
89 ; Longs Tours ; 7 ; LT-7-2019-D-A ; 547 ; 2019-07-09 14:49:52.833382 ; 14.98 
90 ; Longs Tours ; 7 ; LT-7-2019-D-A ; 547 ; 2019-07-09 14:49:53.690035 ; 14.81 
91 ; Longs Tours ; 7 ; LT-7-2019-D-A ; 547 ; 2019-07-09 14:49:54.549159 ; 14.68 
92 ; Longs Tours ; 7 ; LT-7-2019-D-A ; 547 ; 2019-07-09 14:49:55.397581 ; 14.53 
93 ; Longs Tours ; 7 ; LT-7-2019-D-A ; 547 ; 2019-07-09 14:49:56.248841 ; 14.22 
94 ; Longs Tours ; 7 ; LT-7-2019-D-A ; 547 ; 2019-07-09 14:49:57.104070 ; 14.04 
95 ; Longs Tours ; 7 ; LT-7-2019-D-A ; 547 ; 2019-07-09 14:49:57.956048 ; 13.97 
96 ; Longs Tours ; 7 ; LT-7-2019-D-A ; 547 ; 2019-07-09 14:49:58.806263 ; 13.95 
97 ; Longs Tours ; 7 ; LT-7-2019-D-A ; 547 ; 2019-07-09 14:49:59.668810 ; 13.9 
98 ; Longs Tours ; 7 ; LT-7-2019-D-A ; 547 ; 2019-07-09 14:50:00.518637 ; 13.75 
99 ; Longs Tours ; 7 ; LT-7-2019-D-A ; 547 ; 2019-07-09 14:50:01.478650 ; 13.55 
100 ; Longs Tours ; 7 ; LT-7-2019-D-A ; 547 ; 2019-07-09 14:50:02.330280 ; 13.31 
101 ; Longs Tours ; 7 ; LT-7-2019-D-A ; 547 ; 2019-07-09 14:50:03.079842 ; 13.1 
102 ; Longs Tours ; 7 ; LT-7-2019-D-A ; 547 ; 2019-07-09 14:50:03.819536 ; 12.69 
103 ; Longs Tours ; 7 ; LT-7-2019-D-A ; 547 ; 2019-07-09 14:50:04.577830 ; 12.32 
104 ; Longs Tours ; 7 ; LT-7-2019-D-A ; 547 ; 2019-07-09 14:50:05.319463 ; 11.95 
105 ; Longs Tours ; 7 ; LT-7-2019-D-A ; 547 ; 2019-07-09 14:50:06.065150 ; 11.31 
106 ; Longs Tours ; 7 ; LT-7-2019-D-A ; 547 ; 2019-07-09 14:50:06.817054 ; 10.24 
107 ; Longs Tours ; 7 ; LT-7-2019-D-A ; 547 ; 2019-07-09 14:50:07.561912 ; 9.5 
108 ; Longs Tours ; 7 ; LT-7-2019-D-A ; 547 ; 2019-07-09 14:50:08.307354 ; 9.01 
109 ; Longs Tours ; 7 ; LT-7-2019-D-A ; 547 ; 2019-07-09 14:50:09.057849 ; 8.79 
110 ; Longs Tours ; 7 ; LT-7-2019-D-A ; 547 ; 2019-07-09 14:50:09.811187 ; 8.72 
111 ; Longs Tours ; 7 ; LT-7-2019-D-A ; 547 ; 2019-07-09 14:50:10.548155 ; 8.69 
112 ; Longs Tours ; 7 ; LT-7-2019-D-A ; 547 ; 2019-07-09 14:50:11.396519 ; 8.66 
113 ; Longs Tours ; 7 ; LT-7-2019-D-A ; 547 ; 2019-07-09 14:50:12.356897 ; 8.66 
114 ; Longs Tours ; 7 ; LT-7-2019-D-A ; 547 ; 2019-07-09 14:50:13.263738 ; 8.64 
115 ; Longs Tours ; 7 ; LT-7-2019-D-A ; 547 ; 2019-07-09 14:50:14.176333 ; 8.63 
116 ; Longs Tours ; 7 ; LT-7-2019-D-A ; 547 ; 2019-07-09 14:50:14.922668 ; 8.57 
117 ; Longs Tours ; 7 ; LT-7-2019-D-A ; 547 ; 2019-07-09 14:50:15.817991 ; 8.51 
118 ; Longs Tours ; 7 ; LT-7-2019-D-A ; 547 ; 2019-07-09 14:50:16.622147 ; 8.5 
119 ; Longs Tours ; 7 ; LT-7-2019-D-A ; 547 ; 2019-07-09 14:50:17.476951 ; 8.49 
120 ; Longs Tours ; 7 ; LT-7-2019-D-A ; 547 ; 2019-07-09 14:50:18.387131 ; 8.44 
121 ; Longs Tours ; 7 ; LT-7-2019-D-A ; 547 ; 2019-07-09 14:50:19.298414 ; 8.29 
122 ; Longs Tours ; 7 ; LT-7-2019-D-A ; 547 ; 2019-07-09 14:50:20.196701 ; 8.24 
123 ; Longs Tours ; 7 ; LT-7-2019-D-A ; 547 ; 2019-07-09 14:50:21.106106 ; 8.23 
124 ; Longs Tours ; 7 ; LT-7-2019-D-A ; 547 ; 2019-07-09 14:50:21.959313 ; 8.21 
125 ; Longs Tours ; 7 ; LT-7-2019-D-A ; 547 ; 2019-07-09 14:50:22.805640 ; 8.21 
126 ; Longs Tours ; 7 ; LT-7-2019-D-A ; 547 ; 2019-07-09 14:50:23.667035 ; 8.2 
127 ; Longs Tours ; 7 ; LT-7-2019-D-A ; 547 ; 2019-07-09 14:50:24.517743 ; 8.18 
128 ; Longs Tours ; 7 ; LT-7-2019-D-A ; 547 ; 2019-07-09 14:50:25.423094 ; 8.06 
129 ; Longs Tours ; 7 ; LT-7-2019-D-A ; 547 ; 2019-07-09 14:50:26.330176 ; 8.02 
130 ; Longs Tours ; 7 ; LT-7-2019-D-A ; 547 ; 2019-07-09 14:50:27.130507 ; 8 
131 ; Longs Tours ; 7 ; LT-7-2019-D-A ; 547 ; 2019-07-09 14:50:27.982169 ; 8 
132 ; Longs Tours ; 7 ; LT-7-2019-D-A ; 547 ; 2019-07-09 14:50:28.790903 ; 7.97 
133 ; Longs Tours ; 7 ; LT-7-2019-D-A ; 547 ; 2019-07-09 14:50:29.636821 ; 7.93 
134 ; Longs Tours ; 7 ; LT-7-2019-D-A ; 547 ; 2019-07-09 14:50:30.546283 ; 7.9 
135 ; Longs Tours ; 7 ; LT-7-2019-D-A ; 547 ; 2019-07-09 14:50:31.397030 ; 7.88 
136 ; Longs Tours ; 7 ; LT-7-2019-D-A ; 547 ; 2019-07-09 14:50:32.357994 ; 7.88 
137 ; Longs Tours ; 7 ; LT-7-2019-D-A ; 547 ; 2019-07-09 14:50:33.210106 ; 7.87 
138 ; Longs Tours ; 7 ; LT-7-2019-D-A ; 547 ; 2019-07-09 14:50:34.074209 ; 7.86 
139 ; Longs Tours ; 7 ; LT-7-2019-D-A ; 547 ; 2019-07-09 14:50:35.022109 ; 7.86 
140 ; Longs Tours ; 7 ; LT-7-2019-D-A ; 547 ; 2019-07-09 14:50:35.872250 ; 7.85 
141 ; Longs Tours ; 7 ; LT-7-2019-D-A ; 547 ; 2019-07-09 14:50:36.678243 ; 7.85 
142 ; Longs Tours ; 7 ; LT-7-2019-D-A ; 547 ; 2019-07-09 14:50:37.526745 ; 7.8 
143 ; Longs Tours ; 7 ; LT-7-2019-D-A ; 547 ; 2019-07-09 14:50:38.384108 ; 7.79 
144 ; Longs Tours ; 7 ; LT-7-2019-D-A ; 547 ; 2019-07-09 14:50:39.241902 ; 7.78 
145 ; Longs Tours ; 7 ; LT-7-2019-D-A ; 547 ; 2019-07-09 14:50:40.092335 ; 7.78 
146 ; Longs Tours ; 7 ; LT-7-2019-D-A ; 547 ; 2019-07-09 14:50:40.940632 ; 7.72 
147 ; Longs Tours ; 7 ; LT-7-2019-D-A ; 547 ; 2019-07-09 14:50:41.685831 ; 7.58 
148 ; Longs Tours ; 7 ; LT-7-2019-D-A ; 547 ; 2019-07-09 14:50:42.437203 ; 7.54 
149 ; Longs Tours ; 7 ; LT-7-2019-D-A ; 547 ; 2019-07-09 14:50:43.289550 ; 7.52 
150 ; Longs Tours ; 7 ; LT-7-2019-D-A ; 547 ; 2019-07-09 14:50:44.252117 ; 7.51 
151 ; Longs Tours ; 7 ; LT-7-2019-D-A ; 547 ; 2019-07-09 14:50:45.056398 ; 7.5 
152 ; Longs Tours ; 7 ; LT-7-2019-D-A ; 547 ; 2019-07-09 14:50:45.899575 ; 7.51 
153 ; Longs Tours ; 7 ; LT-7-2019-D-A ; 547 ; 2019-07-09 14:50:46.704573 ; 7.48 
154 ; Longs Tours ; 7 ; LT-7-2019-D-A ; 547 ; 2019-07-09 14:50:47.559268 ; 7.47 
155 ; Longs Tours ; 7 ; LT-7-2019-D-A ; 547 ; 2019-07-09 14:50:48.410030 ; 7.49 
156 ; Longs Tours ; 7 ; LT-7-2019-D-A ; 547 ; 2019-07-09 14:50:49.326252 ; 7.4 
157 ; Longs Tours ; 7 ; LT-7-2019-D-A ; 547 ; 2019-07-09 14:50:50.065675 ; 7.36 
158 ; Longs Tours ; 7 ; LT-7-2019-D-A ; 547 ; 2019-07-09 14:50:50.911728 ; 7.34 
159 ; Longs Tours ; 7 ; LT-7-2019-D-A ; 547 ; 2019-07-09 14:50:51.785787 ; 7.33 
160 ; Longs Tours ; 7 ; LT-7-2019-D-A ; 547 ; 2019-07-09 14:50:52.749820 ; 7.34 
161 ; Longs Tours ; 7 ; LT-7-2019-D-A ; 547 ; 2019-07-09 14:50:53.479691 ; 7.22 
162 ; Longs Tours ; 7 ; LT-7-2019-D-A ; 547 ; 2019-07-09 14:50:54.341269 ; 7.08 
163 ; Longs Tours ; 7 ; LT-7-2019-D-A ; 547 ; 2019-07-09 14:50:55.189764 ; 7.04 
164 ; Longs Tours ; 7 ; LT-7-2019-D-A ; 547 ; 2019-07-09 14:50:56.089343 ; 7.01 
165 ; Longs Tours ; 7 ; LT-7-2019-D-A ; 547 ; 2019-07-09 14:50:56.943690 ; 6.99 
166 ; Longs Tours ; 7 ; LT-7-2019-D-A ; 547 ; 2019-07-09 14:50:57.738723 ; 7.01 
167 ; Longs Tours ; 7 ; LT-7-2019-D-A ; 547 ; 2019-07-09 14:50:58.490171 ; 6.92 
168 ; Longs Tours ; 7 ; LT-7-2019-D-A ; 547 ; 2019-07-09 14:50:59.298748 ; 6.92 
169 ; Longs Tours ; 7 ; LT-7-2019-D-A ; 547 ; 2019-07-09 14:51:00.142918 ; 6.92 
170 ; Longs Tours ; 7 ; LT-7-2019-D-A ; 547 ; 2019-07-09 14:51:00.992673 ; 6.92 
171 ; Longs Tours ; 7 ; LT-7-2019-D-A ; 547 ; 2019-07-09 14:51:01.842896 ; 6.92 
172 ; Longs Tours ; 7 ; LT-7-2019-D-A ; 547 ; 2019-07-09 14:51:02.702106 ; 6.92 
173 ; Longs Tours ; 7 ; LT-7-2019-D-A ; 547 ; 2019-07-09 14:51:03.552879 ; 6.92 
174 ; Longs Tours ; 7 ; LT-7-2019-D-A ; 547 ; 2019-07-09 14:51:04.408930 ; 6.91 
175 ; Longs Tours ; 7 ; LT-7-2019-D-A ; 547 ; 2019-07-09 14:51:05.273233 ; 6.91 
176 ; Longs Tours ; 7 ; LT-7-2019-D-A ; 547 ; 2019-07-09 14:51:06.169335 ; 6.9 
177 ; Longs Tours ; 7 ; LT-7-2019-D-A ; 547 ; 2019-07-09 14:51:07.026409 ; 6.9 
178 ; Longs Tours ; 7 ; LT-7-2019-D-A ; 547 ; 2019-07-09 14:51:07.870605 ; 6.89 
179 ; Longs Tours ; 7 ; LT-7-2019-D-A ; 547 ; 2019-07-09 14:51:08.730248 ; 6.89 
180 ; Longs Tours ; 7 ; LT-7-2019-D-A ; 547 ; 2019-07-09 14:51:09.579474 ; 6.87 
181 ; Longs Tours ; 7 ; LT-7-2019-D-A ; 547 ; 2019-07-09 14:51:10.394409 ; 6.87 
182 ; Longs Tours ; 7 ; LT-7-2019-D-A ; 547 ; 2019-07-09 14:51:11.232210 ; 6.87 
183 ; Longs Tours ; 7 ; LT-7-2019-D-A ; 547 ; 2019-07-09 14:51:12.087334 ; 6.86 
184 ; Longs Tours ; 7 ; LT-7-2019-D-A ; 547 ; 2019-07-09 14:51:12.941951 ; 6.86 
185 ; Longs Tours ; 7 ; LT-7-2019-D-A ; 547 ; 2019-07-09 14:51:13.792333 ; 6.85 
186 ; Longs Tours ; 7 ; LT-7-2019-D-A ; 547 ; 2019-07-09 14:51:14.652913 ; 6.84 
187 ; Longs Tours ; 7 ; LT-7-2019-D-A ; 547 ; 2019-07-09 14:51:15.514183 ; 6.83 
188 ; Longs Tours ; 7 ; LT-7-2019-D-A ; 547 ; 2019-07-09 14:51:16.357286 ; 6.82 
189 ; Longs Tours ; 7 ; LT-7-2019-D-A ; 547 ; 2019-07-09 14:51:17.156036 ; 6.82 
190 ; Longs Tours ; 7 ; LT-7-2019-D-A ; 547 ; 2019-07-09 14:51:18.007523 ; 6.76 
191 ; Longs Tours ; 7 ; LT-7-2019-D-A ; 547 ; 2019-07-09 14:51:18.858006 ; 6.75 
192 ; Longs Tours ; 7 ; LT-7-2019-D-A ; 547 ; 2019-07-09 14:51:19.716920 ; 6.75 
193 ; Longs Tours ; 7 ; LT-7-2019-D-A ; 547 ; 2019-07-09 14:51:20.574392 ; 6.75 
194 ; Longs Tours ; 7 ; LT-7-2019-D-A ; 547 ; 2019-07-09 14:51:21.423180 ; 6.75 
195 ; Longs Tours ; 7 ; LT-7-2019-D-A ; 547 ; 2019-07-09 14:51:22.275215 ; 6.74 
196 ; Longs Tours ; 7 ; LT-7-2019-D-A ; 547 ; 2019-07-09 14:51:23.133380 ; 6.74 
197 ; Longs Tours ; 7 ; LT-7-2019-D-A ; 547 ; 2019-07-09 14:51:23.979317 ; 6.73 
198 ; Longs Tours ; 7 ; LT-7-2019-D-A ; 547 ; 2019-07-09 14:51:24.827275 ; 6.72 
199 ; Longs Tours ; 7 ; LT-7-2019-D-A ; 547 ; 2019-07-09 14:51:25.701411 ; 6.7 
200 ; Longs Tours ; 7 ; LT-7-2019-D-A ; 547 ; 2019-07-09 14:51:26.438384 ; 6.68 
201 ; Longs Tours ; 7 ; LT-7-2019-D-A ; 547 ; 2019-07-09 14:51:27.297910 ; 6.68 
202 ; Longs Tours ; 7 ; LT-7-2019-D-A ; 547 ; 2019-07-09 14:51:28.090058 ; 6.67 
203 ; Longs Tours ; 7 ; LT-7-2019-D-A ; 547 ; 2019-07-09 14:51:28.942924 ; 6.66 
204 ; Longs Tours ; 7 ; LT-7-2019-D-A ; 547 ; 2019-07-09 14:51:29.793297 ; 6.66 
205 ; Longs Tours ; 7 ; LT-7-2019-D-A ; 547 ; 2019-07-09 14:51:30.652441 ; 6.65 
206 ; Longs Tours ; 7 ; LT-7-2019-D-A ; 547 ; 2019-07-09 14:51:31.504682 ; 6.64 
207 ; Longs Tours ; 7 ; LT-7-2019-D-A ; 547 ; 2019-07-09 14:51:42.367114 ; 6.34 
208 ; Longs Tours ; 7 ; LT-7-2019-D-A ; 547 ; 2019-07-09 14:51:53.305317 ; 5.97 
209 ; Longs Tours ; 7 ; LT-7-2019-D-A ; 547 ; 2019-07-09 14:52:04.129462 ; 5.91 
210 ; Longs Tours ; 7 ; LT-7-2019-D-A ; 547 ; 2019-07-09 14:52:15.008700 ; 5.88 
211 ; Longs Tours ; 7 ; LT-7-2019-D-A ; 547 ; 2019-07-09 14:52:25.844266 ; 5.75 
212 ; Longs Tours ; 7 ; LT-7-2019-D-A ; 547 ; 2019-07-09 14:52:36.782820 ; 5.56 
213 ; Longs Tours ; 7 ; LT-7-2019-D-A ; 547 ; 2019-07-09 14:52:47.702787 ; 5.52 
214 ; Longs Tours ; 7 ; LT-7-2019-D-A ; 547 ; 2019-07-09 14:52:58.579777 ; 5.51 
215 ; Longs Tours ; 7 ; LT-7-2019-D-A ; 547 ; 2019-07-09 14:53:09.460912 ; 5.44 
216 ; Longs Tours ; 7 ; LT-7-2019-D-A ; 547 ; 2019-07-09 14:53:20.456425 ; 5.36 
217 ; Longs Tours ; 7 ; LT-7-2019-D-A ; 547 ; 2019-07-09 14:53:31.326057 ; 5.24 
218 ; Longs Tours ; 7 ; LT-7-2019-D-A ; 547 ; 2019-07-09 14:53:42.258769 ; 4.98 
219 ; Longs Tours ; 7 ; LT-7-2019-D-A ; 547 ; 2019-07-09 14:53:53.141406 ; 4.95 
220 ; Longs Tours ; 7 ; LT-7-2019-D-A ; 547 ; 2019-07-09 14:54:04.074939 ; 4.95 
221 ; Longs Tours ; 7 ; LT-7-2019-D-A ; 547 ; 2019-07-09 14:54:14.949230 ; 4.95 
222 ; Longs Tours ; 7 ; LT-7-2019-D-A ; 547 ; 2019-07-09 14:54:25.834657 ; 4.94 
223 ; Longs Tours ; 7 ; LT-7-2019-D-A ; 547 ; 2019-07-09 14:54:36.714711 ; 4.93 
224 ; Longs Tours ; 7 ; LT-7-2019-D-A ; 547 ; 2019-07-09 14:54:47.593804 ; 4.93 
225 ; Longs Tours ; 7 ; LT-7-2019-D-A ; 547 ; 2019-07-09 14:54:58.578232 ; 4.91 
226 ; Longs Tours ; 7 ; LT-7-2019-D-A ; 547 ; 2019-07-09 14:55:09.460685 ; 4.7 
227 ; Longs Tours ; 7 ; LT-7-2019-D-A ; 547 ; 2019-07-09 14:55:20.287325 ; 4.65 
228 ; Longs Tours ; 7 ; LT-7-2019-D-A ; 547 ; 2019-07-09 14:55:31.177100 ; 4.55 
229 ; Longs Tours ; 7 ; LT-7-2019-D-A ; 547 ; 2019-07-09 14:55:42.051143 ; 4.21 
230 ; Longs Tours ; 7 ; LT-7-2019-D-A ; 547 ; 2019-07-09 14:55:53.038492 ; 4.2 
231 ; Longs Tours ; 7 ; LT-7-2019-D-A ; 547 ; 2019-07-09 14:56:03.916030 ; 4.12 
232 ; Longs Tours ; 7 ; LT-7-2019-D-A ; 547 ; 2019-07-09 14:56:14.740174 ; 4.11 
233 ; Longs Tours ; 7 ; LT-7-2019-D-A ; 547 ; 2019-07-09 14:56:25.642284 ; 4.11 
234 ; Longs Tours ; 7 ; LT-7-2019-D-A ; 547 ; 2019-07-09 14:56:36.496045 ; 4.11 
235 ; Longs Tours ; 7 ; LT-7-2019-D-A ; 547 ; 2019-07-09 14:56:47.376435 ; 4.1 
236 ; Longs Tours ; 7 ; LT-7-2019-D-A ; 547 ; 2019-07-09 14:56:58.262422 ; 4.06 
237 ; Longs Tours ; 7 ; LT-7-2019-D-A ; 547 ; 2019-07-09 14:57:09.244662 ; 4.06 
238 ; Longs Tours ; 7 ; LT-7-2019-D-A ; 547 ; 2019-07-09 14:57:20.126386 ; 4.04 
239 ; Longs Tours ; 7 ; LT-7-2019-D-A ; 547 ; 2019-07-09 14:57:31.125151 ; 4.04 
240 ; Longs Tours ; 7 ; LT-7-2019-D-A ; 547 ; 2019-07-09 14:57:41.992400 ; 4.04 
241 ; Longs Tours ; 7 ; LT-7-2019-D-A ; 547 ; 2019-07-09 14:57:52.870286 ; 4.04 
242 ; Longs Tours ; 7 ; LT-7-2019-D-A ; 547 ; 2019-07-09 14:58:03.762771 ; 4.04 
243 ; Longs Tours ; 7 ; LT-7-2019-D-A ; 547 ; 2019-07-09 14:58:14.634163 ; 4.02 
244 ; Longs Tours ; 7 ; LT-7-2019-D-A ; 547 ; 2019-07-09 14:58:25.517629 ; 4.02 
245 ; Longs Tours ; 7 ; LT-7-2019-D-A ; 547 ; 2019-07-09 14:58:36.395567 ; 4.02 
246 ; Longs Tours ; 7 ; LT-7-2019-D-A ; 547 ; 2019-07-09 14:59:07.270955 ; 4 
247 ; Longs Tours ; 7 ; LT-7-2019-D-A ; 547 ; 2019-07-09 14:59:38.210176 ; 3.98 
248 ; Longs Tours ; 7 ; LT-7-2019-D-A ; 547 ; 2019-07-09 15:00:09.147435 ; 3.97 
249 ; Longs Tours ; 7 ; LT-7-2019-D-A ; 547 ; 2019-07-09 15:00:39.966721 ; 3.98 
250 ; Longs Tours ; 7 ; LT-7-2019-D-A ; 547 ; 2019-07-09 15:01:10.908408 ; 3.97 
251 ; Longs Tours ; 7 ; LT-7-2019-D-A ; 547 ; 2019-07-09 15:01:41.834424 ; 3.73 
252 ; Longs Tours ; 7 ; LT-7-2019-D-A ; 547 ; 2019-07-09 15:02:12.839572 ; 3.73 
253 ; Longs Tours ; 7 ; LT-7-2019-D-A ; 547 ; 2019-07-09 15:02:43.749738 ; 3.69 
254 ; Longs Tours ; 7 ; LT-7-2019-D-A ; 547 ; 2019-07-09 15:03:14.687385 ; 3.69 
255 ; Longs Tours ; 7 ; LT-7-2019-D-A ; 547 ; 2019-07-09 15:03:45.669140 ; 3.68 
