i ; campaign ; serie ; sample ; slake ; time ; mass 
1 ; Longs Tours ; 33 ; LT-33-2019-D-A ; 546 ; 2019-07-09 14:36:35.492764 ; 133.79 
2 ; Longs Tours ; 33 ; LT-33-2019-D-A ; 546 ; 2019-07-09 14:36:36.439762 ; 133.79 
3 ; Longs Tours ; 33 ; LT-33-2019-D-A ; 546 ; 2019-07-09 14:36:37.476198 ; 133.79 
4 ; Longs Tours ; 33 ; LT-33-2019-D-A ; 546 ; 2019-07-09 14:36:38.515482 ; 133.79 
5 ; Longs Tours ; 33 ; LT-33-2019-D-A ; 546 ; 2019-07-09 14:36:39.590647 ; 133.79 
6 ; Longs Tours ; 33 ; LT-33-2019-D-A ; 546 ; 2019-07-09 14:36:40.622959 ; 133.79 
7 ; Longs Tours ; 33 ; LT-33-2019-D-A ; 546 ; 2019-07-09 14:36:41.663051 ; 132.42 
8 ; Longs Tours ; 33 ; LT-33-2019-D-A ; 546 ; 2019-07-09 14:36:42.735994 ; 68.04 
9 ; Longs Tours ; 33 ; LT-33-2019-D-A ; 546 ; 2019-07-09 14:36:43.774268 ; 54.95 
10 ; Longs Tours ; 33 ; LT-33-2019-D-A ; 546 ; 2019-07-09 14:36:44.814839 ; 57.02 
11 ; Longs Tours ; 33 ; LT-33-2019-D-A ; 546 ; 2019-07-09 14:36:45.855491 ; 57.99 
12 ; Longs Tours ; 33 ; LT-33-2019-D-A ; 546 ; 2019-07-09 14:36:46.923625 ; 59.02 
13 ; Longs Tours ; 33 ; LT-33-2019-D-A ; 546 ; 2019-07-09 14:36:47.962498 ; 59.47 
14 ; Longs Tours ; 33 ; LT-33-2019-D-A ; 546 ; 2019-07-09 14:36:49.000918 ; 59.52 
15 ; Longs Tours ; 33 ; LT-33-2019-D-A ; 546 ; 2019-07-09 14:36:50.069857 ; 59.66 
16 ; Longs Tours ; 33 ; LT-33-2019-D-A ; 546 ; 2019-07-09 14:36:51.108360 ; NA 
17 ; Longs Tours ; 33 ; LT-33-2019-D-A ; 546 ; 2019-07-09 14:36:52.155363 ; 59.65 
18 ; Longs Tours ; 33 ; LT-33-2019-D-A ; 546 ; 2019-07-09 14:36:53.223147 ; 59.09 
19 ; Longs Tours ; 33 ; LT-33-2019-D-A ; 546 ; 2019-07-09 14:36:54.257561 ; 58.75 
20 ; Longs Tours ; 33 ; LT-33-2019-D-A ; 546 ; 2019-07-09 14:36:55.298252 ; 58.19 
21 ; Longs Tours ; 33 ; LT-33-2019-D-A ; 546 ; 2019-07-09 14:36:56.365561 ; 57.89 
22 ; Longs Tours ; 33 ; LT-33-2019-D-A ; 546 ; 2019-07-09 14:36:57.402977 ; 57.41 
23 ; Longs Tours ; 33 ; LT-33-2019-D-A ; 546 ; 2019-07-09 14:36:58.444861 ; 57.19 
24 ; Longs Tours ; 33 ; LT-33-2019-D-A ; 546 ; 2019-07-09 14:36:59.511167 ; 57.1 
25 ; Longs Tours ; 33 ; LT-33-2019-D-A ; 546 ; 2019-07-09 14:37:00.550880 ; 56.83 
26 ; Longs Tours ; 33 ; LT-33-2019-D-A ; 546 ; 2019-07-09 14:37:01.589508 ; 56.73 
27 ; Longs Tours ; 33 ; LT-33-2019-D-A ; 546 ; 2019-07-09 14:37:02.653503 ; 56.02 
28 ; Longs Tours ; 33 ; LT-33-2019-D-A ; 546 ; 2019-07-09 14:37:03.698495 ; 55.35 
29 ; Longs Tours ; 33 ; LT-33-2019-D-A ; 546 ; 2019-07-09 14:37:04.733524 ; 54.67 
30 ; Longs Tours ; 33 ; LT-33-2019-D-A ; 546 ; 2019-07-09 14:37:05.805575 ; 54.12 
31 ; Longs Tours ; 33 ; LT-33-2019-D-A ; 546 ; 2019-07-09 14:37:06.835456 ; 53.59 
32 ; Longs Tours ; 33 ; LT-33-2019-D-A ; 546 ; 2019-07-09 14:37:07.885294 ; 53.03 
33 ; Longs Tours ; 33 ; LT-33-2019-D-A ; 546 ; 2019-07-09 14:37:08.954803 ; 52.23 
34 ; Longs Tours ; 33 ; LT-33-2019-D-A ; 546 ; 2019-07-09 14:37:09.986249 ; 51.52 
35 ; Longs Tours ; 33 ; LT-33-2019-D-A ; 546 ; 2019-07-09 14:37:11.027023 ; 50.05 
36 ; Longs Tours ; 33 ; LT-33-2019-D-A ; 546 ; 2019-07-09 14:37:12.099201 ; 48.86 
37 ; Longs Tours ; 33 ; LT-33-2019-D-A ; 546 ; 2019-07-09 14:37:13.130730 ; 48.34 
38 ; Longs Tours ; 33 ; LT-33-2019-D-A ; 546 ; 2019-07-09 14:37:14.173413 ; 47.7 
39 ; Longs Tours ; 33 ; LT-33-2019-D-A ; 546 ; 2019-07-09 14:37:15.240779 ; 47.11 
40 ; Longs Tours ; 33 ; LT-33-2019-D-A ; 546 ; 2019-07-09 14:37:16.282237 ; 46.6 
41 ; Longs Tours ; 33 ; LT-33-2019-D-A ; 546 ; 2019-07-09 14:37:17.318440 ; 46.29 
42 ; Longs Tours ; 33 ; LT-33-2019-D-A ; 546 ; 2019-07-09 14:37:18.371749 ; 45.77 
43 ; Longs Tours ; 33 ; LT-33-2019-D-A ; 546 ; 2019-07-09 14:37:19.422322 ; 45.3 
44 ; Longs Tours ; 33 ; LT-33-2019-D-A ; 546 ; 2019-07-09 14:37:20.463876 ; 44.96 
45 ; Longs Tours ; 33 ; LT-33-2019-D-A ; 546 ; 2019-07-09 14:37:21.505747 ; 44.4 
46 ; Longs Tours ; 33 ; LT-33-2019-D-A ; 546 ; 2019-07-09 14:37:22.573373 ; 43.93 
47 ; Longs Tours ; 33 ; LT-33-2019-D-A ; 546 ; 2019-07-09 14:37:23.611603 ; 43.17 
48 ; Longs Tours ; 33 ; LT-33-2019-D-A ; 546 ; 2019-07-09 14:37:24.655452 ; 42.29 
49 ; Longs Tours ; 33 ; LT-33-2019-D-A ; 546 ; 2019-07-09 14:37:25.717319 ; 41.59 
50 ; Longs Tours ; 33 ; LT-33-2019-D-A ; 546 ; 2019-07-09 14:37:26.757316 ; 40.97 
51 ; Longs Tours ; 33 ; LT-33-2019-D-A ; 546 ; 2019-07-09 14:37:27.816229 ; 40.62 
52 ; Longs Tours ; 33 ; LT-33-2019-D-A ; 546 ; 2019-07-09 14:37:28.862977 ; 39.75 
53 ; Longs Tours ; 33 ; LT-33-2019-D-A ; 546 ; 2019-07-09 14:37:29.903723 ; 39.21 
54 ; Longs Tours ; 33 ; LT-33-2019-D-A ; 546 ; 2019-07-09 14:37:30.946357 ; 38.66 
55 ; Longs Tours ; 33 ; LT-33-2019-D-A ; 546 ; 2019-07-09 14:37:32.010582 ; 38.41 
56 ; Longs Tours ; 33 ; LT-33-2019-D-A ; 546 ; 2019-07-09 14:37:33.051651 ; 38.14 
57 ; Longs Tours ; 33 ; LT-33-2019-D-A ; 546 ; 2019-07-09 14:37:34.093103 ; 37.62 
58 ; Longs Tours ; 33 ; LT-33-2019-D-A ; 546 ; 2019-07-09 14:37:35.157293 ; 36.94 
59 ; Longs Tours ; 33 ; LT-33-2019-D-A ; 546 ; 2019-07-09 14:37:36.200334 ; 36.31 
60 ; Longs Tours ; 33 ; LT-33-2019-D-A ; 546 ; 2019-07-09 14:37:37.240738 ; 35.82 
61 ; Longs Tours ; 33 ; LT-33-2019-D-A ; 546 ; 2019-07-09 14:37:38.311736 ; 35.18 
62 ; Longs Tours ; 33 ; LT-33-2019-D-A ; 546 ; 2019-07-09 14:37:39.343934 ; 34.71 
63 ; Longs Tours ; 33 ; LT-33-2019-D-A ; 546 ; 2019-07-09 14:37:40.383166 ; 34.09 
64 ; Longs Tours ; 33 ; LT-33-2019-D-A ; 546 ; 2019-07-09 14:37:41.450360 ; 33.83 
65 ; Longs Tours ; 33 ; LT-33-2019-D-A ; 546 ; 2019-07-09 14:37:42.490837 ; 33.26 
66 ; Longs Tours ; 33 ; LT-33-2019-D-A ; 546 ; 2019-07-09 14:37:43.533597 ; 33 
67 ; Longs Tours ; 33 ; LT-33-2019-D-A ; 546 ; 2019-07-09 14:37:44.575449 ; 32.72 
68 ; Longs Tours ; 33 ; LT-33-2019-D-A ; 546 ; 2019-07-09 14:37:45.637627 ; 32.43 
69 ; Longs Tours ; 33 ; LT-33-2019-D-A ; 546 ; 2019-07-09 14:37:46.677752 ; 32.1 
70 ; Longs Tours ; 33 ; LT-33-2019-D-A ; 546 ; 2019-07-09 14:37:47.741965 ; 31.74 
71 ; Longs Tours ; 33 ; LT-33-2019-D-A ; 546 ; 2019-07-09 14:37:48.802006 ; 30.82 
72 ; Longs Tours ; 33 ; LT-33-2019-D-A ; 546 ; 2019-07-09 14:37:49.823241 ; 29.81 
73 ; Longs Tours ; 33 ; LT-33-2019-D-A ; 546 ; 2019-07-09 14:37:50.868400 ; 29.12 
74 ; Longs Tours ; 33 ; LT-33-2019-D-A ; 546 ; 2019-07-09 14:37:51.931683 ; 28.45 
75 ; Longs Tours ; 33 ; LT-33-2019-D-A ; 546 ; 2019-07-09 14:37:52.970936 ; 26.93 
76 ; Longs Tours ; 33 ; LT-33-2019-D-A ; 546 ; 2019-07-09 14:37:54.014482 ; 24.92 
77 ; Longs Tours ; 33 ; LT-33-2019-D-A ; 546 ; 2019-07-09 14:37:55.077646 ; 23.09 
78 ; Longs Tours ; 33 ; LT-33-2019-D-A ; 546 ; 2019-07-09 14:37:56.119778 ; 22.44 
79 ; Longs Tours ; 33 ; LT-33-2019-D-A ; 546 ; 2019-07-09 14:37:57.161665 ; NA 
80 ; Longs Tours ; 33 ; LT-33-2019-D-A ; 546 ; 2019-07-09 14:37:58.224767 ; 21.6 
81 ; Longs Tours ; 33 ; LT-33-2019-D-A ; 546 ; 2019-07-09 14:37:59.264043 ; 21.12 
82 ; Longs Tours ; 33 ; LT-33-2019-D-A ; 546 ; 2019-07-09 14:38:00.305382 ; 20.84 
83 ; Longs Tours ; 33 ; LT-33-2019-D-A ; 546 ; 2019-07-09 14:38:01.370870 ; 20.77 
84 ; Longs Tours ; 33 ; LT-33-2019-D-A ; 546 ; 2019-07-09 14:38:02.413883 ; 20.67 
85 ; Longs Tours ; 33 ; LT-33-2019-D-A ; 546 ; 2019-07-09 14:38:03.459669 ; 20.58 
86 ; Longs Tours ; 33 ; LT-33-2019-D-A ; 546 ; 2019-07-09 14:38:04.519921 ; 20.47 
87 ; Longs Tours ; 33 ; LT-33-2019-D-A ; 546 ; 2019-07-09 14:38:05.560564 ; 20.36 
88 ; Longs Tours ; 33 ; LT-33-2019-D-A ; 546 ; 2019-07-09 14:38:06.596542 ; 20.27 
89 ; Longs Tours ; 33 ; LT-33-2019-D-A ; 546 ; 2019-07-09 14:38:07.662344 ; 20.22 
90 ; Longs Tours ; 33 ; LT-33-2019-D-A ; 546 ; 2019-07-09 14:38:08.703542 ; 20.14 
91 ; Longs Tours ; 33 ; LT-33-2019-D-A ; 546 ; 2019-07-09 14:38:09.754208 ; 20.07 
92 ; Longs Tours ; 33 ; LT-33-2019-D-A ; 546 ; 2019-07-09 14:38:10.811565 ; 20.01 
93 ; Longs Tours ; 33 ; LT-33-2019-D-A ; 546 ; 2019-07-09 14:38:11.850386 ; 19.97 
94 ; Longs Tours ; 33 ; LT-33-2019-D-A ; 546 ; 2019-07-09 14:38:12.892576 ; 19.91 
95 ; Longs Tours ; 33 ; LT-33-2019-D-A ; 546 ; 2019-07-09 14:38:13.957273 ; 19.82 
96 ; Longs Tours ; 33 ; LT-33-2019-D-A ; 546 ; 2019-07-09 14:38:14.997250 ; 19.72 
97 ; Longs Tours ; 33 ; LT-33-2019-D-A ; 546 ; 2019-07-09 14:38:16.045015 ; 19.64 
98 ; Longs Tours ; 33 ; LT-33-2019-D-A ; 546 ; 2019-07-09 14:38:17.105152 ; 19.56 
99 ; Longs Tours ; 33 ; LT-33-2019-D-A ; 546 ; 2019-07-09 14:38:18.143464 ; 19.5 
100 ; Longs Tours ; 33 ; LT-33-2019-D-A ; 546 ; 2019-07-09 14:38:19.186356 ; 19.43 
101 ; Longs Tours ; 33 ; LT-33-2019-D-A ; 546 ; 2019-07-09 14:38:20.223962 ; 19.36 
102 ; Longs Tours ; 33 ; LT-33-2019-D-A ; 546 ; 2019-07-09 14:38:21.294183 ; 19.32 
103 ; Longs Tours ; 33 ; LT-33-2019-D-A ; 546 ; 2019-07-09 14:38:22.333185 ; 19.31 
104 ; Longs Tours ; 33 ; LT-33-2019-D-A ; 546 ; 2019-07-09 14:38:23.374575 ; 19.02 
105 ; Longs Tours ; 33 ; LT-33-2019-D-A ; 546 ; 2019-07-09 14:38:24.436933 ; 18.95 
106 ; Longs Tours ; 33 ; LT-33-2019-D-A ; 546 ; 2019-07-09 14:38:25.478644 ; 18.83 
107 ; Longs Tours ; 33 ; LT-33-2019-D-A ; 546 ; 2019-07-09 14:38:26.515855 ; 18.77 
108 ; Longs Tours ; 33 ; LT-33-2019-D-A ; 546 ; 2019-07-09 14:38:27.584936 ; 18.7 
109 ; Longs Tours ; 33 ; LT-33-2019-D-A ; 546 ; 2019-07-09 14:38:28.627238 ; 18.63 
110 ; Longs Tours ; 33 ; LT-33-2019-D-A ; 546 ; 2019-07-09 14:38:29.669281 ; 18.58 
111 ; Longs Tours ; 33 ; LT-33-2019-D-A ; 546 ; 2019-07-09 14:38:30.733537 ; 18.52 
112 ; Longs Tours ; 33 ; LT-33-2019-D-A ; 546 ; 2019-07-09 14:38:31.773080 ; 18.4 
113 ; Longs Tours ; 33 ; LT-33-2019-D-A ; 546 ; 2019-07-09 14:38:32.815790 ; 18.27 
114 ; Longs Tours ; 33 ; LT-33-2019-D-A ; 546 ; 2019-07-09 14:38:33.877984 ; 18.19 
115 ; Longs Tours ; 33 ; LT-33-2019-D-A ; 546 ; 2019-07-09 14:38:34.921500 ; 18.15 
116 ; Longs Tours ; 33 ; LT-33-2019-D-A ; 546 ; 2019-07-09 14:38:35.964028 ; 18.11 
117 ; Longs Tours ; 33 ; LT-33-2019-D-A ; 546 ; 2019-07-09 14:38:37.027135 ; 18.06 
118 ; Longs Tours ; 33 ; LT-33-2019-D-A ; 546 ; 2019-07-09 14:38:38.063310 ; 18.01 
119 ; Longs Tours ; 33 ; LT-33-2019-D-A ; 546 ; 2019-07-09 14:38:39.102927 ; NA 
120 ; Longs Tours ; 33 ; LT-33-2019-D-A ; 546 ; 2019-07-09 14:38:40.174018 ; 17.95 
121 ; Longs Tours ; 33 ; LT-33-2019-D-A ; 546 ; 2019-07-09 14:38:41.211122 ; 17.93 
122 ; Longs Tours ; 33 ; LT-33-2019-D-A ; 546 ; 2019-07-09 14:38:42.254371 ; 17.88 
123 ; Longs Tours ; 33 ; LT-33-2019-D-A ; 546 ; 2019-07-09 14:38:43.317629 ; 17.82 
124 ; Longs Tours ; 33 ; LT-33-2019-D-A ; 546 ; 2019-07-09 14:38:44.358215 ; 17.76 
125 ; Longs Tours ; 33 ; LT-33-2019-D-A ; 546 ; 2019-07-09 14:38:45.402621 ; 17.66 
126 ; Longs Tours ; 33 ; LT-33-2019-D-A ; 546 ; 2019-07-09 14:38:46.462396 ; 17.57 
127 ; Longs Tours ; 33 ; LT-33-2019-D-A ; 546 ; 2019-07-09 14:38:47.506536 ; 17.52 
128 ; Longs Tours ; 33 ; LT-33-2019-D-A ; 546 ; 2019-07-09 14:38:48.548007 ; 17.48 
129 ; Longs Tours ; 33 ; LT-33-2019-D-A ; 546 ; 2019-07-09 14:38:49.588583 ; 17.46 
130 ; Longs Tours ; 33 ; LT-33-2019-D-A ; 546 ; 2019-07-09 14:38:50.657678 ; 17.44 
131 ; Longs Tours ; 33 ; LT-33-2019-D-A ; 546 ; 2019-07-09 14:38:51.694301 ; 17.41 
132 ; Longs Tours ; 33 ; LT-33-2019-D-A ; 546 ; 2019-07-09 14:38:52.732236 ; 17.36 
133 ; Longs Tours ; 33 ; LT-33-2019-D-A ; 546 ; 2019-07-09 14:38:53.796430 ; 17.31 
134 ; Longs Tours ; 33 ; LT-33-2019-D-A ; 546 ; 2019-07-09 14:38:54.840837 ; 17.27 
135 ; Longs Tours ; 33 ; LT-33-2019-D-A ; 546 ; 2019-07-09 14:38:55.876144 ; 17.25 
136 ; Longs Tours ; 33 ; LT-33-2019-D-A ; 546 ; 2019-07-09 14:38:56.944332 ; 17.21 
137 ; Longs Tours ; 33 ; LT-33-2019-D-A ; 546 ; 2019-07-09 14:38:57.991494 ; 17.19 
138 ; Longs Tours ; 33 ; LT-33-2019-D-A ; 546 ; 2019-07-09 14:38:59.022783 ; 17.14 
139 ; Longs Tours ; 33 ; LT-33-2019-D-A ; 546 ; 2019-07-09 14:39:00.098770 ; NA 
140 ; Longs Tours ; 33 ; LT-33-2019-D-A ; 546 ; 2019-07-09 14:39:01.135064 ; 17.05 
141 ; Longs Tours ; 33 ; LT-33-2019-D-A ; 546 ; 2019-07-09 14:39:02.169713 ; 17.03 
142 ; Longs Tours ; 33 ; LT-33-2019-D-A ; 546 ; 2019-07-09 14:39:03.238007 ; 17.03 
143 ; Longs Tours ; 33 ; LT-33-2019-D-A ; 546 ; 2019-07-09 14:39:04.273369 ; 17.03 
144 ; Longs Tours ; 33 ; LT-33-2019-D-A ; 546 ; 2019-07-09 14:39:05.317348 ; 17.02 
145 ; Longs Tours ; 33 ; LT-33-2019-D-A ; 546 ; 2019-07-09 14:39:06.387569 ; 17.02 
146 ; Longs Tours ; 33 ; LT-33-2019-D-A ; 546 ; 2019-07-09 14:39:07.423757 ; 17.02 
147 ; Longs Tours ; 33 ; LT-33-2019-D-A ; 546 ; 2019-07-09 14:39:08.465117 ; 17.02 
148 ; Longs Tours ; 33 ; LT-33-2019-D-A ; 546 ; 2019-07-09 14:39:09.527725 ; 17.02 
149 ; Longs Tours ; 33 ; LT-33-2019-D-A ; 546 ; 2019-07-09 14:39:10.568619 ; 17.02 
150 ; Longs Tours ; 33 ; LT-33-2019-D-A ; 546 ; 2019-07-09 14:39:11.606297 ; 16.99 
151 ; Longs Tours ; 33 ; LT-33-2019-D-A ; 546 ; 2019-07-09 14:39:12.681167 ; 16.95 
152 ; Longs Tours ; 33 ; LT-33-2019-D-A ; 546 ; 2019-07-09 14:39:13.721682 ; 16.93 
153 ; Longs Tours ; 33 ; LT-33-2019-D-A ; 546 ; 2019-07-09 14:39:14.757729 ; 16.91 
154 ; Longs Tours ; 33 ; LT-33-2019-D-A ; 546 ; 2019-07-09 14:39:15.821090 ; 16.89 
155 ; Longs Tours ; 33 ; LT-33-2019-D-A ; 546 ; 2019-07-09 14:39:16.864047 ; 16.85 
156 ; Longs Tours ; 33 ; LT-33-2019-D-A ; 546 ; 2019-07-09 14:39:17.902649 ; 16.82 
157 ; Longs Tours ; 33 ; LT-33-2019-D-A ; 546 ; 2019-07-09 14:39:18.950960 ; 16.78 
158 ; Longs Tours ; 33 ; LT-33-2019-D-A ; 546 ; 2019-07-09 14:39:20.018824 ; 16.75 
159 ; Longs Tours ; 33 ; LT-33-2019-D-A ; 546 ; 2019-07-09 14:39:21.052004 ; 16.75 
160 ; Longs Tours ; 33 ; LT-33-2019-D-A ; 546 ; 2019-07-09 14:39:22.086555 ; 16.75 
161 ; Longs Tours ; 33 ; LT-33-2019-D-A ; 546 ; 2019-07-09 14:39:23.156152 ; 16.7 
162 ; Longs Tours ; 33 ; LT-33-2019-D-A ; 546 ; 2019-07-09 14:39:24.200058 ; 16.66 
163 ; Longs Tours ; 33 ; LT-33-2019-D-A ; 546 ; 2019-07-09 14:39:25.236332 ; 16.61 
164 ; Longs Tours ; 33 ; LT-33-2019-D-A ; 546 ; 2019-07-09 14:39:26.313843 ; 16.56 
165 ; Longs Tours ; 33 ; LT-33-2019-D-A ; 546 ; 2019-07-09 14:39:27.343578 ; 16.54 
166 ; Longs Tours ; 33 ; LT-33-2019-D-A ; 546 ; 2019-07-09 14:39:28.383808 ; 16.52 
167 ; Longs Tours ; 33 ; LT-33-2019-D-A ; 546 ; 2019-07-09 14:39:29.450551 ; 16.5 
168 ; Longs Tours ; 33 ; LT-33-2019-D-A ; 546 ; 2019-07-09 14:39:30.494700 ; 16.5 
169 ; Longs Tours ; 33 ; LT-33-2019-D-A ; 546 ; 2019-07-09 14:39:31.525947 ; 16.47 
170 ; Longs Tours ; 33 ; LT-33-2019-D-A ; 546 ; 2019-07-09 14:39:32.611069 ; 16.46 
171 ; Longs Tours ; 33 ; LT-33-2019-D-A ; 546 ; 2019-07-09 14:39:33.640571 ; 16.43 
172 ; Longs Tours ; 33 ; LT-33-2019-D-A ; 546 ; 2019-07-09 14:39:34.678827 ; 16.39 
173 ; Longs Tours ; 33 ; LT-33-2019-D-A ; 546 ; 2019-07-09 14:39:35.751970 ; 16.35 
174 ; Longs Tours ; 33 ; LT-33-2019-D-A ; 546 ; 2019-07-09 14:39:46.793098 ; 16.24 
175 ; Longs Tours ; 33 ; LT-33-2019-D-A ; 546 ; 2019-07-09 14:39:57.808066 ; 16.19 
176 ; Longs Tours ; 33 ; LT-33-2019-D-A ; 546 ; 2019-07-09 14:40:08.824589 ; 16.13 
177 ; Longs Tours ; 33 ; LT-33-2019-D-A ; 546 ; 2019-07-09 14:40:19.831604 ; 16.13 
178 ; Longs Tours ; 33 ; LT-33-2019-D-A ; 546 ; 2019-07-09 14:40:30.809788 ; 15.91 
179 ; Longs Tours ; 33 ; LT-33-2019-D-A ; 546 ; 2019-07-09 14:40:41.836898 ; 15.43 
180 ; Longs Tours ; 33 ; LT-33-2019-D-A ; 546 ; 2019-07-09 14:40:52.842084 ; 14.51 
181 ; Longs Tours ; 33 ; LT-33-2019-D-A ; 546 ; 2019-07-09 14:41:03.862963 ; 14.33 
182 ; Longs Tours ; 33 ; LT-33-2019-D-A ; 546 ; 2019-07-09 14:41:14.878167 ; 14.29 
183 ; Longs Tours ; 33 ; LT-33-2019-D-A ; 546 ; 2019-07-09 14:41:25.892159 ; 14.19 
184 ; Longs Tours ; 33 ; LT-33-2019-D-A ; 546 ; 2019-07-09 14:41:36.901498 ; 14.13 
185 ; Longs Tours ; 33 ; LT-33-2019-D-A ; 546 ; 2019-07-09 14:41:47.914435 ; 14.13 
186 ; Longs Tours ; 33 ; LT-33-2019-D-A ; 546 ; 2019-07-09 14:41:58.898715 ; 14.13 
187 ; Longs Tours ; 33 ; LT-33-2019-D-A ; 546 ; 2019-07-09 14:42:09.910880 ; 14.07 
188 ; Longs Tours ; 33 ; LT-33-2019-D-A ; 546 ; 2019-07-09 14:42:20.931706 ; 14.07 
189 ; Longs Tours ; 33 ; LT-33-2019-D-A ; 546 ; 2019-07-09 14:42:31.941003 ; 14.07 
190 ; Longs Tours ; 33 ; LT-33-2019-D-A ; 546 ; 2019-07-09 14:42:42.950833 ; 14.07 
191 ; Longs Tours ; 33 ; LT-33-2019-D-A ; 546 ; 2019-07-09 14:42:53.963837 ; 14.03 
192 ; Longs Tours ; 33 ; LT-33-2019-D-A ; 546 ; 2019-07-09 14:43:04.980391 ; 14.03 
193 ; Longs Tours ; 33 ; LT-33-2019-D-A ; 546 ; 2019-07-09 14:43:15.993419 ; 14.03 
194 ; Longs Tours ; 33 ; LT-33-2019-D-A ; 546 ; 2019-07-09 14:43:27.003881 ; 13.87 
195 ; Longs Tours ; 33 ; LT-33-2019-D-A ; 546 ; 2019-07-09 14:43:37.999717 ; 13.68 
196 ; Longs Tours ; 33 ; LT-33-2019-D-A ; 546 ; 2019-07-09 14:43:49.010403 ; 13.68 
197 ; Longs Tours ; 33 ; LT-33-2019-D-A ; 546 ; 2019-07-09 14:44:00.019357 ; 13.68 
198 ; Longs Tours ; 33 ; LT-33-2019-D-A ; 546 ; 2019-07-09 14:44:11.031691 ; 13.68 
199 ; Longs Tours ; 33 ; LT-33-2019-D-A ; 546 ; 2019-07-09 14:44:22.043176 ; 13.68 
200 ; Longs Tours ; 33 ; LT-33-2019-D-A ; 546 ; 2019-07-09 14:44:33.057783 ; 13.68 
201 ; Longs Tours ; 33 ; LT-33-2019-D-A ; 546 ; 2019-07-09 14:44:44.083221 ; 13.68 
202 ; Longs Tours ; 33 ; LT-33-2019-D-A ; 546 ; 2019-07-09 14:44:55.085479 ; 13.58 
203 ; Longs Tours ; 33 ; LT-33-2019-D-A ; 546 ; 2019-07-09 14:45:06.075694 ; 13.58 
204 ; Longs Tours ; 33 ; LT-33-2019-D-A ; 546 ; 2019-07-09 14:45:17.084813 ; 13.58 
205 ; Longs Tours ; 33 ; LT-33-2019-D-A ; 546 ; 2019-07-09 14:45:28.098359 ; 13.58 
206 ; Longs Tours ; 33 ; LT-33-2019-D-A ; 546 ; 2019-07-09 14:45:39.109645 ; 13.58 
207 ; Longs Tours ; 33 ; LT-33-2019-D-A ; 546 ; 2019-07-09 14:45:50.130863 ; 13.23 
208 ; Longs Tours ; 33 ; LT-33-2019-D-A ; 546 ; 2019-07-09 14:46:01.139603 ; 13.21 
209 ; Longs Tours ; 33 ; LT-33-2019-D-A ; 546 ; 2019-07-09 14:46:12.155922 ; 13.21 
210 ; Longs Tours ; 33 ; LT-33-2019-D-A ; 546 ; 2019-07-09 14:46:23.167736 ; 13.21 
211 ; Longs Tours ; 33 ; LT-33-2019-D-A ; 546 ; 2019-07-09 14:46:34.150457 ; 13.21 
212 ; Longs Tours ; 33 ; LT-33-2019-D-A ; 546 ; 2019-07-09 14:46:45.164277 ; 13.21 
213 ; Longs Tours ; 33 ; LT-33-2019-D-A ; 546 ; 2019-07-09 14:47:16.185303 ; 12.97 
214 ; Longs Tours ; 33 ; LT-33-2019-D-A ; 546 ; 2019-07-09 14:47:47.117173 ; 12.96 
215 ; Longs Tours ; 33 ; LT-33-2019-D-A ; 546 ; 2019-07-09 14:48:18.047728 ; 12.96 
216 ; Longs Tours ; 33 ; LT-33-2019-D-A ; 546 ; 2019-07-09 14:48:48.978384 ; 12.96 
217 ; Longs Tours ; 33 ; LT-33-2019-D-A ; 546 ; 2019-07-09 14:49:19.915877 ; 12.8 
218 ; Longs Tours ; 33 ; LT-33-2019-D-A ; 546 ; 2019-07-09 14:49:50.852932 ; 12.8 
219 ; Longs Tours ; 33 ; LT-33-2019-D-A ; 546 ; 2019-07-09 14:50:21.794944 ; 12.21 
220 ; Longs Tours ; 33 ; LT-33-2019-D-A ; 546 ; 2019-07-09 14:50:52.735232 ; 12.2 
221 ; Longs Tours ; 33 ; LT-33-2019-D-A ; 546 ; 2019-07-09 14:51:23.648599 ; 11.92 
222 ; Longs Tours ; 33 ; LT-33-2019-D-A ; 546 ; 2019-07-09 14:51:54.582864 ; 11.83 
223 ; Longs Tours ; 33 ; LT-33-2019-D-A ; 546 ; 2019-07-09 14:52:25.552837 ; 11.62 
