i ; campaign ; serie ; sample ; slake ; time ; mass 
1 ; Les Fonds ; 3NT ; LF-3NT-2019-H-MB-B ; 669 ; 2019-07-18 14:19:54.191575 ; 119.85 
2 ; Les Fonds ; 3NT ; LF-3NT-2019-H-MB-B ; 669 ; 2019-07-18 14:19:55.098333 ; 119.84 
3 ; Les Fonds ; 3NT ; LF-3NT-2019-H-MB-B ; 669 ; 2019-07-18 14:19:56.173506 ; 119.84 
4 ; Les Fonds ; 3NT ; LF-3NT-2019-H-MB-B ; 669 ; 2019-07-18 14:19:57.205939 ; 119.84 
5 ; Les Fonds ; 3NT ; LF-3NT-2019-H-MB-B ; 669 ; 2019-07-18 14:19:58.253431 ; 119.84 
6 ; Les Fonds ; 3NT ; LF-3NT-2019-H-MB-B ; 669 ; 2019-07-18 14:19:59.321035 ; 119.84 
7 ; Les Fonds ; 3NT ; LF-3NT-2019-H-MB-B ; 669 ; 2019-07-18 14:20:00.352226 ; 119.84 
8 ; Les Fonds ; 3NT ; LF-3NT-2019-H-MB-B ; 669 ; 2019-07-18 14:20:01.393054 ; 119.84 
9 ; Les Fonds ; 3NT ; LF-3NT-2019-H-MB-B ; 669 ; 2019-07-18 14:20:02.458673 ; 114.21 
10 ; Les Fonds ; 3NT ; LF-3NT-2019-H-MB-B ; 669 ; 2019-07-18 14:20:03.506217 ; 56.18 
11 ; Les Fonds ; 3NT ; LF-3NT-2019-H-MB-B ; 669 ; 2019-07-18 14:20:04.547656 ; 53.38 
12 ; Les Fonds ; 3NT ; LF-3NT-2019-H-MB-B ; 669 ; 2019-07-18 14:20:05.592219 ; 55.4 
13 ; Les Fonds ; 3NT ; LF-3NT-2019-H-MB-B ; 669 ; 2019-07-18 14:20:06.648224 ; 55.31 
14 ; Les Fonds ; 3NT ; LF-3NT-2019-H-MB-B ; 669 ; 2019-07-18 14:20:07.690154 ; 55.64 
15 ; Les Fonds ; 3NT ; LF-3NT-2019-H-MB-B ; 669 ; 2019-07-18 14:20:08.739530 ; 55.93 
16 ; Les Fonds ; 3NT ; LF-3NT-2019-H-MB-B ; 669 ; 2019-07-18 14:20:09.797126 ; 55.95 
17 ; Les Fonds ; 3NT ; LF-3NT-2019-H-MB-B ; 669 ; 2019-07-18 14:20:10.853038 ; 55.89 
18 ; Les Fonds ; 3NT ; LF-3NT-2019-H-MB-B ; 669 ; 2019-07-18 14:20:11.884370 ; 55.79 
19 ; Les Fonds ; 3NT ; LF-3NT-2019-H-MB-B ; 669 ; 2019-07-18 14:20:12.947247 ; 55.7 
20 ; Les Fonds ; 3NT ; LF-3NT-2019-H-MB-B ; 669 ; 2019-07-18 14:20:13.989284 ; 55.65 
21 ; Les Fonds ; 3NT ; LF-3NT-2019-H-MB-B ; 669 ; 2019-07-18 14:20:15.023203 ; 55.59 
22 ; Les Fonds ; 3NT ; LF-3NT-2019-H-MB-B ; 669 ; 2019-07-18 14:20:16.101491 ; 55.49 
23 ; Les Fonds ; 3NT ; LF-3NT-2019-H-MB-B ; 669 ; 2019-07-18 14:20:17.134364 ; 55.43 
24 ; Les Fonds ; 3NT ; LF-3NT-2019-H-MB-B ; 669 ; 2019-07-18 14:20:18.172940 ; 55.4 
25 ; Les Fonds ; 3NT ; LF-3NT-2019-H-MB-B ; 669 ; 2019-07-18 14:20:19.242098 ; 55.32 
26 ; Les Fonds ; 3NT ; LF-3NT-2019-H-MB-B ; 669 ; 2019-07-18 14:20:20.277170 ; 55.21 
27 ; Les Fonds ; 3NT ; LF-3NT-2019-H-MB-B ; 669 ; 2019-07-18 14:20:21.315264 ; 55.09 
28 ; Les Fonds ; 3NT ; LF-3NT-2019-H-MB-B ; 669 ; 2019-07-18 14:20:22.390351 ; 54.77 
29 ; Les Fonds ; 3NT ; LF-3NT-2019-H-MB-B ; 669 ; 2019-07-18 14:20:23.422681 ; 54.5 
30 ; Les Fonds ; 3NT ; LF-3NT-2019-H-MB-B ; 669 ; 2019-07-18 14:20:24.466634 ; 54.41 
31 ; Les Fonds ; 3NT ; LF-3NT-2019-H-MB-B ; 669 ; 2019-07-18 14:20:25.534873 ; 54.26 
32 ; Les Fonds ; 3NT ; LF-3NT-2019-H-MB-B ; 669 ; 2019-07-18 14:20:26.575131 ; 54.12 
33 ; Les Fonds ; 3NT ; LF-3NT-2019-H-MB-B ; 669 ; 2019-07-18 14:20:27.619495 ; 54 
34 ; Les Fonds ; 3NT ; LF-3NT-2019-H-MB-B ; 669 ; 2019-07-18 14:20:28.675765 ; 53.87 
35 ; Les Fonds ; 3NT ; LF-3NT-2019-H-MB-B ; 669 ; 2019-07-18 14:20:29.713138 ; 53.72 
36 ; Les Fonds ; 3NT ; LF-3NT-2019-H-MB-B ; 669 ; 2019-07-18 14:20:30.754232 ; 53.37 
37 ; Les Fonds ; 3NT ; LF-3NT-2019-H-MB-B ; 669 ; 2019-07-18 14:20:31.792423 ; 53.3 
38 ; Les Fonds ; 3NT ; LF-3NT-2019-H-MB-B ; 669 ; 2019-07-18 14:20:32.859879 ; 53.05 
39 ; Les Fonds ; 3NT ; LF-3NT-2019-H-MB-B ; 669 ; 2019-07-18 14:20:33.910455 ; 52.98 
40 ; Les Fonds ; 3NT ; LF-3NT-2019-H-MB-B ; 669 ; 2019-07-18 14:20:34.967661 ; 52.65 
41 ; Les Fonds ; 3NT ; LF-3NT-2019-H-MB-B ; 669 ; 2019-07-18 14:20:36.012455 ; 52.39 
42 ; Les Fonds ; 3NT ; LF-3NT-2019-H-MB-B ; 669 ; 2019-07-18 14:20:37.050094 ; 52.28 
43 ; Les Fonds ; 3NT ; LF-3NT-2019-H-MB-B ; 669 ; 2019-07-18 14:20:38.089235 ; 52.11 
44 ; Les Fonds ; 3NT ; LF-3NT-2019-H-MB-B ; 669 ; 2019-07-18 14:20:39.169293 ; 51.99 
45 ; Les Fonds ; 3NT ; LF-3NT-2019-H-MB-B ; 669 ; 2019-07-18 14:20:40.192754 ; 51.68 
46 ; Les Fonds ; 3NT ; LF-3NT-2019-H-MB-B ; 669 ; 2019-07-18 14:20:41.234448 ; NA 
47 ; Les Fonds ; 3NT ; LF-3NT-2019-H-MB-B ; 669 ; 2019-07-18 14:20:42.298493 ; 50.82 
48 ; Les Fonds ; 3NT ; LF-3NT-2019-H-MB-B ; 669 ; 2019-07-18 14:20:43.343420 ; 50.75 
49 ; Les Fonds ; 3NT ; LF-3NT-2019-H-MB-B ; 669 ; 2019-07-18 14:20:44.379342 ; 50.62 
50 ; Les Fonds ; 3NT ; LF-3NT-2019-H-MB-B ; 669 ; 2019-07-18 14:20:45.455751 ; 50.12 
51 ; Les Fonds ; 3NT ; LF-3NT-2019-H-MB-B ; 669 ; 2019-07-18 14:20:46.486383 ; 49.75 
52 ; Les Fonds ; 3NT ; LF-3NT-2019-H-MB-B ; 669 ; 2019-07-18 14:20:47.526189 ; 49.62 
53 ; Les Fonds ; 3NT ; LF-3NT-2019-H-MB-B ; 669 ; 2019-07-18 14:20:48.592970 ; 49.48 
54 ; Les Fonds ; 3NT ; LF-3NT-2019-H-MB-B ; 669 ; 2019-07-18 14:20:49.634264 ; 49.34 
55 ; Les Fonds ; 3NT ; LF-3NT-2019-H-MB-B ; 669 ; 2019-07-18 14:20:50.682769 ; 48.9 
56 ; Les Fonds ; 3NT ; LF-3NT-2019-H-MB-B ; 669 ; 2019-07-18 14:20:51.743765 ; 48.66 
57 ; Les Fonds ; 3NT ; LF-3NT-2019-H-MB-B ; 669 ; 2019-07-18 14:20:52.782651 ; 48.57 
58 ; Les Fonds ; 3NT ; LF-3NT-2019-H-MB-B ; 669 ; 2019-07-18 14:20:53.813475 ; 48.41 
59 ; Les Fonds ; 3NT ; LF-3NT-2019-H-MB-B ; 669 ; 2019-07-18 14:20:54.887634 ; 48.29 
60 ; Les Fonds ; 3NT ; LF-3NT-2019-H-MB-B ; 669 ; 2019-07-18 14:20:55.930524 ; 48.22 
61 ; Les Fonds ; 3NT ; LF-3NT-2019-H-MB-B ; 669 ; 2019-07-18 14:20:56.976319 ; 47.97 
62 ; Les Fonds ; 3NT ; LF-3NT-2019-H-MB-B ; 669 ; 2019-07-18 14:20:58.037542 ; 47.68 
63 ; Les Fonds ; 3NT ; LF-3NT-2019-H-MB-B ; 669 ; 2019-07-18 14:20:59.076474 ; NA 
64 ; Les Fonds ; 3NT ; LF-3NT-2019-H-MB-B ; 669 ; 2019-07-18 14:21:00.383317 ; 47.45 
65 ; Les Fonds ; 3NT ; LF-3NT-2019-H-MB-B ; 669 ; 2019-07-18 14:21:01.425734 ; 47.36 
66 ; Les Fonds ; 3NT ; LF-3NT-2019-H-MB-B ; 669 ; 2019-07-18 14:21:02.499215 ; 47.06 
67 ; Les Fonds ; 3NT ; LF-3NT-2019-H-MB-B ; 669 ; 2019-07-18 14:21:03.526054 ; 46.99 
68 ; Les Fonds ; 3NT ; LF-3NT-2019-H-MB-B ; 669 ; 2019-07-18 14:21:04.570569 ; 46.84 
69 ; Les Fonds ; 3NT ; LF-3NT-2019-H-MB-B ; 669 ; 2019-07-18 14:21:05.635154 ; 46.51 
70 ; Les Fonds ; 3NT ; LF-3NT-2019-H-MB-B ; 669 ; 2019-07-18 14:21:06.676591 ; 46.2 
71 ; Les Fonds ; 3NT ; LF-3NT-2019-H-MB-B ; 669 ; 2019-07-18 14:21:07.724654 ; 45.98 
72 ; Les Fonds ; 3NT ; LF-3NT-2019-H-MB-B ; 669 ; 2019-07-18 14:21:08.797371 ; 45.94 
73 ; Les Fonds ; 3NT ; LF-3NT-2019-H-MB-B ; 669 ; 2019-07-18 14:21:09.822966 ; 45.88 
74 ; Les Fonds ; 3NT ; LF-3NT-2019-H-MB-B ; 669 ; 2019-07-18 14:21:10.860020 ; 45.79 
75 ; Les Fonds ; 3NT ; LF-3NT-2019-H-MB-B ; 669 ; 2019-07-18 14:21:11.926391 ; 45.49 
76 ; Les Fonds ; 3NT ; LF-3NT-2019-H-MB-B ; 669 ; 2019-07-18 14:21:12.967981 ; 45.43 
77 ; Les Fonds ; 3NT ; LF-3NT-2019-H-MB-B ; 669 ; 2019-07-18 14:21:14.015400 ; 45.34 
78 ; Les Fonds ; 3NT ; LF-3NT-2019-H-MB-B ; 669 ; 2019-07-18 14:21:15.075556 ; 45.27 
79 ; Les Fonds ; 3NT ; LF-3NT-2019-H-MB-B ; 669 ; 2019-07-18 14:21:16.116635 ; 45.23 
80 ; Les Fonds ; 3NT ; LF-3NT-2019-H-MB-B ; 669 ; 2019-07-18 14:21:17.155978 ; 45.19 
81 ; Les Fonds ; 3NT ; LF-3NT-2019-H-MB-B ; 669 ; 2019-07-18 14:21:18.219879 ; 45.15 
82 ; Les Fonds ; 3NT ; LF-3NT-2019-H-MB-B ; 669 ; 2019-07-18 14:21:19.272494 ; 45.08 
83 ; Les Fonds ; 3NT ; LF-3NT-2019-H-MB-B ; 669 ; 2019-07-18 14:21:20.300458 ; 45.04 
84 ; Les Fonds ; 3NT ; LF-3NT-2019-H-MB-B ; 669 ; 2019-07-18 14:21:21.341496 ; 45.01 
85 ; Les Fonds ; 3NT ; LF-3NT-2019-H-MB-B ; 669 ; 2019-07-18 14:21:22.405953 ; 44.96 
86 ; Les Fonds ; 3NT ; LF-3NT-2019-H-MB-B ; 669 ; 2019-07-18 14:21:23.446416 ; 44.92 
87 ; Les Fonds ; 3NT ; LF-3NT-2019-H-MB-B ; 669 ; 2019-07-18 14:21:24.485784 ; 44.87 
88 ; Les Fonds ; 3NT ; LF-3NT-2019-H-MB-B ; 669 ; 2019-07-18 14:21:25.565142 ; 44.81 
89 ; Les Fonds ; 3NT ; LF-3NT-2019-H-MB-B ; 669 ; 2019-07-18 14:21:26.592907 ; 44.76 
90 ; Les Fonds ; 3NT ; LF-3NT-2019-H-MB-B ; 669 ; 2019-07-18 14:21:27.633618 ; 44.72 
91 ; Les Fonds ; 3NT ; LF-3NT-2019-H-MB-B ; 669 ; 2019-07-18 14:21:28.700319 ; 44.65 
92 ; Les Fonds ; 3NT ; LF-3NT-2019-H-MB-B ; 669 ; 2019-07-18 14:21:29.762314 ; 44.36 
93 ; Les Fonds ; 3NT ; LF-3NT-2019-H-MB-B ; 669 ; 2019-07-18 14:21:30.792457 ; 44.34 
94 ; Les Fonds ; 3NT ; LF-3NT-2019-H-MB-B ; 669 ; 2019-07-18 14:21:31.848582 ; 44.27 
95 ; Les Fonds ; 3NT ; LF-3NT-2019-H-MB-B ; 669 ; 2019-07-18 14:21:32.887913 ; 44.21 
96 ; Les Fonds ; 3NT ; LF-3NT-2019-H-MB-B ; 669 ; 2019-07-18 14:21:33.925693 ; 44.13 
97 ; Les Fonds ; 3NT ; LF-3NT-2019-H-MB-B ; 669 ; 2019-07-18 14:21:34.994396 ; 44 
98 ; Les Fonds ; 3NT ; LF-3NT-2019-H-MB-B ; 669 ; 2019-07-18 14:21:36.043697 ; 43.77 
99 ; Les Fonds ; 3NT ; LF-3NT-2019-H-MB-B ; 669 ; 2019-07-18 14:21:37.072607 ; 43.7 
100 ; Les Fonds ; 3NT ; LF-3NT-2019-H-MB-B ; 669 ; 2019-07-18 14:21:38.139441 ; 43.63 
101 ; Les Fonds ; 3NT ; LF-3NT-2019-H-MB-B ; 669 ; 2019-07-18 14:21:39.180174 ; 43.54 
102 ; Les Fonds ; 3NT ; LF-3NT-2019-H-MB-B ; 669 ; 2019-07-18 14:21:40.219382 ; 43.45 
103 ; Les Fonds ; 3NT ; LF-3NT-2019-H-MB-B ; 669 ; 2019-07-18 14:21:41.285339 ; 43.38 
104 ; Les Fonds ; 3NT ; LF-3NT-2019-H-MB-B ; 669 ; 2019-07-18 14:21:42.334930 ; 43.33 
105 ; Les Fonds ; 3NT ; LF-3NT-2019-H-MB-B ; 669 ; 2019-07-18 14:21:43.365665 ; 43.27 
106 ; Les Fonds ; 3NT ; LF-3NT-2019-H-MB-B ; 669 ; 2019-07-18 14:21:44.432876 ; 43.16 
107 ; Les Fonds ; 3NT ; LF-3NT-2019-H-MB-B ; 669 ; 2019-07-18 14:21:45.476082 ; 43 
108 ; Les Fonds ; 3NT ; LF-3NT-2019-H-MB-B ; 669 ; 2019-07-18 14:21:46.512982 ; 42.89 
109 ; Les Fonds ; 3NT ; LF-3NT-2019-H-MB-B ; 669 ; 2019-07-18 14:21:47.592691 ; 42.84 
110 ; Les Fonds ; 3NT ; LF-3NT-2019-H-MB-B ; 669 ; 2019-07-18 14:21:48.619865 ; 42.8 
111 ; Les Fonds ; 3NT ; LF-3NT-2019-H-MB-B ; 669 ; 2019-07-18 14:21:49.662546 ; 42.78 
112 ; Les Fonds ; 3NT ; LF-3NT-2019-H-MB-B ; 669 ; 2019-07-18 14:21:50.701012 ; 42.76 
113 ; Les Fonds ; 3NT ; LF-3NT-2019-H-MB-B ; 669 ; 2019-07-18 14:21:51.770520 ; 42.72 
114 ; Les Fonds ; 3NT ; LF-3NT-2019-H-MB-B ; 669 ; 2019-07-18 14:21:52.819062 ; 42.63 
115 ; Les Fonds ; 3NT ; LF-3NT-2019-H-MB-B ; 669 ; 2019-07-18 14:21:53.851076 ; 42.58 
116 ; Les Fonds ; 3NT ; LF-3NT-2019-H-MB-B ; 669 ; 2019-07-18 14:21:54.916885 ; 42.52 
117 ; Les Fonds ; 3NT ; LF-3NT-2019-H-MB-B ; 669 ; 2019-07-18 14:21:55.952576 ; 42.47 
118 ; Les Fonds ; 3NT ; LF-3NT-2019-H-MB-B ; 669 ; 2019-07-18 14:21:56.992601 ; 42.42 
119 ; Les Fonds ; 3NT ; LF-3NT-2019-H-MB-B ; 669 ; 2019-07-18 14:21:58.062309 ; 42.38 
120 ; Les Fonds ; 3NT ; LF-3NT-2019-H-MB-B ; 669 ; 2019-07-18 14:21:59.107841 ; NA 
121 ; Les Fonds ; 3NT ; LF-3NT-2019-H-MB-B ; 669 ; 2019-07-18 14:22:00.145464 ; 42.31 
122 ; Les Fonds ; 3NT ; LF-3NT-2019-H-MB-B ; 669 ; 2019-07-18 14:22:01.206051 ; 42.27 
123 ; Les Fonds ; 3NT ; LF-3NT-2019-H-MB-B ; 669 ; 2019-07-18 14:22:02.246283 ; 42.19 
124 ; Les Fonds ; 3NT ; LF-3NT-2019-H-MB-B ; 669 ; 2019-07-18 14:22:03.292290 ; 42.14 
125 ; Les Fonds ; 3NT ; LF-3NT-2019-H-MB-B ; 669 ; 2019-07-18 14:22:04.363811 ; 42.09 
126 ; Les Fonds ; 3NT ; LF-3NT-2019-H-MB-B ; 669 ; 2019-07-18 14:22:05.391648 ; 42.07 
127 ; Les Fonds ; 3NT ; LF-3NT-2019-H-MB-B ; 669 ; 2019-07-18 14:22:06.436963 ; 42.05 
128 ; Les Fonds ; 3NT ; LF-3NT-2019-H-MB-B ; 669 ; 2019-07-18 14:22:07.500309 ; 42.05 
129 ; Les Fonds ; 3NT ; LF-3NT-2019-H-MB-B ; 669 ; 2019-07-18 14:22:08.536344 ; 42.04 
130 ; Les Fonds ; 3NT ; LF-3NT-2019-H-MB-B ; 669 ; 2019-07-18 14:22:09.586636 ; 42.04 
131 ; Les Fonds ; 3NT ; LF-3NT-2019-H-MB-B ; 669 ; 2019-07-18 14:22:10.641917 ; 42.04 
132 ; Les Fonds ; 3NT ; LF-3NT-2019-H-MB-B ; 669 ; 2019-07-18 14:22:11.683216 ; 42.04 
133 ; Les Fonds ; 3NT ; LF-3NT-2019-H-MB-B ; 669 ; 2019-07-18 14:22:12.723330 ; 42.04 
134 ; Les Fonds ; 3NT ; LF-3NT-2019-H-MB-B ; 669 ; 2019-07-18 14:22:13.789963 ; 42.04 
135 ; Les Fonds ; 3NT ; LF-3NT-2019-H-MB-B ; 669 ; 2019-07-18 14:22:14.831734 ; 42.04 
136 ; Les Fonds ; 3NT ; LF-3NT-2019-H-MB-B ; 669 ; 2019-07-18 14:22:15.877102 ; 42.04 
137 ; Les Fonds ; 3NT ; LF-3NT-2019-H-MB-B ; 669 ; 2019-07-18 14:22:16.938800 ; 42.04 
138 ; Les Fonds ; 3NT ; LF-3NT-2019-H-MB-B ; 669 ; 2019-07-18 14:22:17.974863 ; 42.01 
139 ; Les Fonds ; 3NT ; LF-3NT-2019-H-MB-B ; 669 ; 2019-07-18 14:22:19.021774 ; 41.97 
140 ; Les Fonds ; 3NT ; LF-3NT-2019-H-MB-B ; 669 ; 2019-07-18 14:22:20.058887 ; 41.95 
141 ; Les Fonds ; 3NT ; LF-3NT-2019-H-MB-B ; 669 ; 2019-07-18 14:22:21.129415 ; 41.93 
142 ; Les Fonds ; 3NT ; LF-3NT-2019-H-MB-B ; 669 ; 2019-07-18 14:22:22.174717 ; 41.92 
143 ; Les Fonds ; 3NT ; LF-3NT-2019-H-MB-B ; 669 ; 2019-07-18 14:22:23.209506 ; 41.9 
144 ; Les Fonds ; 3NT ; LF-3NT-2019-H-MB-B ; 669 ; 2019-07-18 14:22:24.277467 ; 41.88 
145 ; Les Fonds ; 3NT ; LF-3NT-2019-H-MB-B ; 669 ; 2019-07-18 14:22:25.311052 ; 41.86 
146 ; Les Fonds ; 3NT ; LF-3NT-2019-H-MB-B ; 669 ; 2019-07-18 14:22:26.356255 ; 41.84 
147 ; Les Fonds ; 3NT ; LF-3NT-2019-H-MB-B ; 669 ; 2019-07-18 14:22:27.431229 ; 41.82 
148 ; Les Fonds ; 3NT ; LF-3NT-2019-H-MB-B ; 669 ; 2019-07-18 14:22:28.463423 ; 41.82 
149 ; Les Fonds ; 3NT ; LF-3NT-2019-H-MB-B ; 669 ; 2019-07-18 14:22:29.500894 ; 41.82 
150 ; Les Fonds ; 3NT ; LF-3NT-2019-H-MB-B ; 669 ; 2019-07-18 14:22:30.564445 ; 41.82 
151 ; Les Fonds ; 3NT ; LF-3NT-2019-H-MB-B ; 669 ; 2019-07-18 14:22:31.606439 ; 41.82 
152 ; Les Fonds ; 3NT ; LF-3NT-2019-H-MB-B ; 669 ; 2019-07-18 14:22:32.651365 ; 41.82 
153 ; Les Fonds ; 3NT ; LF-3NT-2019-H-MB-B ; 669 ; 2019-07-18 14:22:33.710140 ; 41.82 
154 ; Les Fonds ; 3NT ; LF-3NT-2019-H-MB-B ; 669 ; 2019-07-18 14:22:34.747803 ; 41.82 
155 ; Les Fonds ; 3NT ; LF-3NT-2019-H-MB-B ; 669 ; 2019-07-18 14:22:35.805790 ; 41.82 
156 ; Les Fonds ; 3NT ; LF-3NT-2019-H-MB-B ; 669 ; 2019-07-18 14:22:36.859667 ; 41.82 
157 ; Les Fonds ; 3NT ; LF-3NT-2019-H-MB-B ; 669 ; 2019-07-18 14:22:37.898849 ; 41.82 
158 ; Les Fonds ; 3NT ; LF-3NT-2019-H-MB-B ; 669 ; 2019-07-18 14:22:38.948731 ; 41.82 
159 ; Les Fonds ; 3NT ; LF-3NT-2019-H-MB-B ; 669 ; 2019-07-18 14:22:40.009505 ; 41.79 
160 ; Les Fonds ; 3NT ; LF-3NT-2019-H-MB-B ; 669 ; 2019-07-18 14:22:41.050820 ; 41.77 
161 ; Les Fonds ; 3NT ; LF-3NT-2019-H-MB-B ; 669 ; 2019-07-18 14:22:42.084307 ; 41.73 
162 ; Les Fonds ; 3NT ; LF-3NT-2019-H-MB-B ; 669 ; 2019-07-18 14:22:43.155144 ; 41.71 
163 ; Les Fonds ; 3NT ; LF-3NT-2019-H-MB-B ; 669 ; 2019-07-18 14:22:44.191979 ; NA 
164 ; Les Fonds ; 3NT ; LF-3NT-2019-H-MB-B ; 669 ; 2019-07-18 14:22:45.249845 ; 41.69 
165 ; Les Fonds ; 3NT ; LF-3NT-2019-H-MB-B ; 669 ; 2019-07-18 14:22:46.302639 ; 41.64 
166 ; Les Fonds ; 3NT ; LF-3NT-2019-H-MB-B ; 669 ; 2019-07-18 14:22:47.340904 ; 41.62 
167 ; Les Fonds ; 3NT ; LF-3NT-2019-H-MB-B ; 669 ; 2019-07-18 14:22:48.378716 ; 41.62 
168 ; Les Fonds ; 3NT ; LF-3NT-2019-H-MB-B ; 669 ; 2019-07-18 14:22:49.416142 ; 41.62 
169 ; Les Fonds ; 3NT ; LF-3NT-2019-H-MB-B ; 669 ; 2019-07-18 14:22:50.491036 ; 41.61 
170 ; Les Fonds ; 3NT ; LF-3NT-2019-H-MB-B ; 669 ; 2019-07-18 14:22:51.530714 ; 41.56 
171 ; Les Fonds ; 3NT ; LF-3NT-2019-H-MB-B ; 669 ; 2019-07-18 14:22:52.565933 ; 41.52 
172 ; Les Fonds ; 3NT ; LF-3NT-2019-H-MB-B ; 669 ; 2019-07-18 14:22:53.635326 ; 41.5 
173 ; Les Fonds ; 3NT ; LF-3NT-2019-H-MB-B ; 669 ; 2019-07-18 14:22:54.673150 ; 41.48 
174 ; Les Fonds ; 3NT ; LF-3NT-2019-H-MB-B ; 669 ; 2019-07-18 14:23:05.723736 ; 41.41 
175 ; Les Fonds ; 3NT ; LF-3NT-2019-H-MB-B ; 669 ; 2019-07-18 14:23:16.746834 ; 41.1 
176 ; Les Fonds ; 3NT ; LF-3NT-2019-H-MB-B ; 669 ; 2019-07-18 14:23:27.750540 ; 41.1 
177 ; Les Fonds ; 3NT ; LF-3NT-2019-H-MB-B ; 669 ; 2019-07-18 14:23:38.773944 ; 40.98 
178 ; Les Fonds ; 3NT ; LF-3NT-2019-H-MB-B ; 669 ; 2019-07-18 14:23:49.775319 ; 40.98 
179 ; Les Fonds ; 3NT ; LF-3NT-2019-H-MB-B ; 669 ; 2019-07-18 14:24:00.793053 ; 40.98 
180 ; Les Fonds ; 3NT ; LF-3NT-2019-H-MB-B ; 669 ; 2019-07-18 14:24:11.803771 ; 40.84 
181 ; Les Fonds ; 3NT ; LF-3NT-2019-H-MB-B ; 669 ; 2019-07-18 14:24:22.815322 ; 40.64 
182 ; Les Fonds ; 3NT ; LF-3NT-2019-H-MB-B ; 669 ; 2019-07-18 14:24:33.813312 ; 40.63 
183 ; Les Fonds ; 3NT ; LF-3NT-2019-H-MB-B ; 669 ; 2019-07-18 14:24:44.815715 ; 40.6 
184 ; Les Fonds ; 3NT ; LF-3NT-2019-H-MB-B ; 669 ; 2019-07-18 14:24:55.831152 ; 40.55 
185 ; Les Fonds ; 3NT ; LF-3NT-2019-H-MB-B ; 669 ; 2019-07-18 14:25:06.847200 ; 40.49 
186 ; Les Fonds ; 3NT ; LF-3NT-2019-H-MB-B ; 669 ; 2019-07-18 14:25:17.860278 ; 40.04 
187 ; Les Fonds ; 3NT ; LF-3NT-2019-H-MB-B ; 669 ; 2019-07-18 14:25:28.870040 ; 39.96 
188 ; Les Fonds ; 3NT ; LF-3NT-2019-H-MB-B ; 669 ; 2019-07-18 14:25:39.890361 ; 39.96 
189 ; Les Fonds ; 3NT ; LF-3NT-2019-H-MB-B ; 669 ; 2019-07-18 14:25:50.895970 ; 39.96 
190 ; Les Fonds ; 3NT ; LF-3NT-2019-H-MB-B ; 669 ; 2019-07-18 14:26:01.880862 ; 39.96 
191 ; Les Fonds ; 3NT ; LF-3NT-2019-H-MB-B ; 669 ; 2019-07-18 14:26:12.902600 ; 39.96 
192 ; Les Fonds ; 3NT ; LF-3NT-2019-H-MB-B ; 669 ; 2019-07-18 14:26:23.911268 ; 39.63 
193 ; Les Fonds ; 3NT ; LF-3NT-2019-H-MB-B ; 669 ; 2019-07-18 14:26:34.926284 ; 39.61 
194 ; Les Fonds ; 3NT ; LF-3NT-2019-H-MB-B ; 669 ; 2019-07-18 14:26:45.937243 ; 39.61 
195 ; Les Fonds ; 3NT ; LF-3NT-2019-H-MB-B ; 669 ; 2019-07-18 14:26:56.948707 ; 39.61 
196 ; Les Fonds ; 3NT ; LF-3NT-2019-H-MB-B ; 669 ; 2019-07-18 14:27:07.968398 ; 39.53 
197 ; Les Fonds ; 3NT ; LF-3NT-2019-H-MB-B ; 669 ; 2019-07-18 14:27:18.986277 ; 39.44 
198 ; Les Fonds ; 3NT ; LF-3NT-2019-H-MB-B ; 669 ; 2019-07-18 14:27:29.988889 ; 39.22 
199 ; Les Fonds ; 3NT ; LF-3NT-2019-H-MB-B ; 669 ; 2019-07-18 14:27:40.975568 ; 39.21 
200 ; Les Fonds ; 3NT ; LF-3NT-2019-H-MB-B ; 669 ; 2019-07-18 14:27:51.992838 ; 39.21 
201 ; Les Fonds ; 3NT ; LF-3NT-2019-H-MB-B ; 669 ; 2019-07-18 14:28:03.007250 ; 39.21 
202 ; Les Fonds ; 3NT ; LF-3NT-2019-H-MB-B ; 669 ; 2019-07-18 14:28:14.014587 ; 38.96 
203 ; Les Fonds ; 3NT ; LF-3NT-2019-H-MB-B ; 669 ; 2019-07-18 14:28:25.037179 ; 38.96 
204 ; Les Fonds ; 3NT ; LF-3NT-2019-H-MB-B ; 669 ; 2019-07-18 14:28:36.036290 ; 38.96 
205 ; Les Fonds ; 3NT ; LF-3NT-2019-H-MB-B ; 669 ; 2019-07-18 14:28:47.052144 ; 38.96 
206 ; Les Fonds ; 3NT ; LF-3NT-2019-H-MB-B ; 669 ; 2019-07-18 14:28:58.065517 ; 38.96 
207 ; Les Fonds ; 3NT ; LF-3NT-2019-H-MB-B ; 669 ; 2019-07-18 14:29:09.063816 ; 38.84 
208 ; Les Fonds ; 3NT ; LF-3NT-2019-H-MB-B ; 669 ; 2019-07-18 14:29:20.074109 ; 38.83 
209 ; Les Fonds ; 3NT ; LF-3NT-2019-H-MB-B ; 669 ; 2019-07-18 14:29:31.083293 ; 38.83 
210 ; Les Fonds ; 3NT ; LF-3NT-2019-H-MB-B ; 669 ; 2019-07-18 14:29:42.095105 ; 38.83 
211 ; Les Fonds ; 3NT ; LF-3NT-2019-H-MB-B ; 669 ; 2019-07-18 14:29:53.107028 ; 38.83 
212 ; Les Fonds ; 3NT ; LF-3NT-2019-H-MB-B ; 669 ; 2019-07-18 14:30:04.128533 ; 38.83 
213 ; Les Fonds ; 3NT ; LF-3NT-2019-H-MB-B ; 669 ; 2019-07-18 14:30:35.133805 ; 38.83 
214 ; Les Fonds ; 3NT ; LF-3NT-2019-H-MB-B ; 669 ; 2019-07-18 14:31:06.069452 ; 38.69 
215 ; Les Fonds ; 3NT ; LF-3NT-2019-H-MB-B ; 669 ; 2019-07-18 14:31:37.002019 ; 38.69 
216 ; Les Fonds ; 3NT ; LF-3NT-2019-H-MB-B ; 669 ; 2019-07-18 14:32:07.935325 ; 38.69 
217 ; Les Fonds ; 3NT ; LF-3NT-2019-H-MB-B ; 669 ; 2019-07-18 14:32:38.865878 ; 38.59 
218 ; Les Fonds ; 3NT ; LF-3NT-2019-H-MB-B ; 669 ; 2019-07-18 14:33:09.811253 ; 38.55 
219 ; Les Fonds ; 3NT ; LF-3NT-2019-H-MB-B ; 669 ; 2019-07-18 14:33:40.743013 ; 38.28 
220 ; Les Fonds ; 3NT ; LF-3NT-2019-H-MB-B ; 669 ; 2019-07-18 14:34:11.671744 ; 38.47 
221 ; Les Fonds ; 3NT ; LF-3NT-2019-H-MB-B ; 669 ; 2019-07-18 14:34:42.603985 ; 38.47 
222 ; Les Fonds ; 3NT ; LF-3NT-2019-H-MB-B ; 669 ; 2019-07-18 14:35:13.534024 ; 38.39 
223 ; Les Fonds ; 3NT ; LF-3NT-2019-H-MB-B ; 669 ; 2019-07-18 14:35:44.486527 ; 38.15 
224 ; Les Fonds ; 3NT ; LF-3NT-2019-H-MB-B ; 669 ; 2019-07-18 14:36:15.403877 ; 38.15 
225 ; Les Fonds ; 3NT ; LF-3NT-2019-H-MB-B ; 669 ; 2019-07-18 14:36:46.372380 ; 38.15 
