i ; campaign ; serie ; sample ; slake ; time ; mass 
1 ; Longs Tours ; 10 ; LT-10-2019-D-F ; 501 ; 2019-07-03 15:29:46.046153 ; 132.76 
2 ; Longs Tours ; 10 ; LT-10-2019-D-F ; 501 ; 2019-07-03 15:29:46.940396 ; 132.68 
3 ; Longs Tours ; 10 ; LT-10-2019-D-F ; 501 ; 2019-07-03 15:29:47.882914 ; 132.42 
4 ; Longs Tours ; 10 ; LT-10-2019-D-F ; 501 ; 2019-07-03 15:29:48.706627 ; 132.41 
5 ; Longs Tours ; 10 ; LT-10-2019-D-F ; 501 ; 2019-07-03 15:29:49.559562 ; 132.42 
6 ; Longs Tours ; 10 ; LT-10-2019-D-F ; 501 ; 2019-07-03 15:29:50.414315 ; 132.41 
7 ; Longs Tours ; 10 ; LT-10-2019-D-F ; 501 ; 2019-07-03 15:29:51.269869 ; 132.41 
8 ; Longs Tours ; 10 ; LT-10-2019-D-F ; 501 ; 2019-07-03 15:29:52.222108 ; 107.85 
9 ; Longs Tours ; 10 ; LT-10-2019-D-F ; 501 ; 2019-07-03 15:29:53.028545 ; 55.95 
10 ; Longs Tours ; 10 ; LT-10-2019-D-F ; 501 ; 2019-07-03 15:29:53.823790 ; 57.89 
11 ; Longs Tours ; 10 ; LT-10-2019-D-F ; 501 ; 2019-07-03 15:29:54.625336 ; 60.5 
12 ; Longs Tours ; 10 ; LT-10-2019-D-F ; 501 ; 2019-07-03 15:29:55.484974 ; 60.68 
13 ; Longs Tours ; 10 ; LT-10-2019-D-F ; 501 ; 2019-07-03 15:29:56.274027 ; 60.07 
14 ; Longs Tours ; 10 ; LT-10-2019-D-F ; 501 ; 2019-07-03 15:29:57.083740 ; 59.71 
15 ; Longs Tours ; 10 ; LT-10-2019-D-F ; 501 ; 2019-07-03 15:29:57.877355 ; 59.56 
16 ; Longs Tours ; 10 ; LT-10-2019-D-F ; 501 ; 2019-07-03 15:29:58.680485 ; 59.18 
17 ; Longs Tours ; 10 ; LT-10-2019-D-F ; 501 ; 2019-07-03 15:29:59.535388 ; 58.59 
18 ; Longs Tours ; 10 ; LT-10-2019-D-F ; 501 ; 2019-07-03 15:30:00.335999 ; 58.17 
19 ; Longs Tours ; 10 ; LT-10-2019-D-F ; 501 ; 2019-07-03 15:30:01.127944 ; 57.74 
20 ; Longs Tours ; 10 ; LT-10-2019-D-F ; 501 ; 2019-07-03 15:30:01.940802 ; 57.17 
21 ; Longs Tours ; 10 ; LT-10-2019-D-F ; 501 ; 2019-07-03 15:30:02.742211 ; 56.4 
22 ; Longs Tours ; 10 ; LT-10-2019-D-F ; 501 ; 2019-07-03 15:30:03.585576 ; 55.66 
23 ; Longs Tours ; 10 ; LT-10-2019-D-F ; 501 ; 2019-07-03 15:30:04.385641 ; 55.07 
24 ; Longs Tours ; 10 ; LT-10-2019-D-F ; 501 ; 2019-07-03 15:30:05.182999 ; 54.43 
25 ; Longs Tours ; 10 ; LT-10-2019-D-F ; 501 ; 2019-07-03 15:30:05.987329 ; 53.68 
26 ; Longs Tours ; 10 ; LT-10-2019-D-F ; 501 ; 2019-07-03 15:30:06.785010 ; 53.19 
27 ; Longs Tours ; 10 ; LT-10-2019-D-F ; 501 ; 2019-07-03 15:30:07.639636 ; 52.84 
28 ; Longs Tours ; 10 ; LT-10-2019-D-F ; 501 ; 2019-07-03 15:30:08.441070 ; 52.35 
29 ; Longs Tours ; 10 ; LT-10-2019-D-F ; 501 ; 2019-07-03 15:30:09.238496 ; 51.76 
30 ; Longs Tours ; 10 ; LT-10-2019-D-F ; 501 ; 2019-07-03 15:30:10.042354 ; 51.36 
31 ; Longs Tours ; 10 ; LT-10-2019-D-F ; 501 ; 2019-07-03 15:30:10.833411 ; 50.66 
32 ; Longs Tours ; 10 ; LT-10-2019-D-F ; 501 ; 2019-07-03 15:30:11.695340 ; 50.24 
33 ; Longs Tours ; 10 ; LT-10-2019-D-F ; 501 ; 2019-07-03 15:30:12.495642 ; 49.85 
34 ; Longs Tours ; 10 ; LT-10-2019-D-F ; 501 ; 2019-07-03 15:30:13.301897 ; 49.47 
35 ; Longs Tours ; 10 ; LT-10-2019-D-F ; 501 ; 2019-07-03 15:30:14.088201 ; 49.03 
36 ; Longs Tours ; 10 ; LT-10-2019-D-F ; 501 ; 2019-07-03 15:30:14.895047 ; 48.51 
37 ; Longs Tours ; 10 ; LT-10-2019-D-F ; 501 ; 2019-07-03 15:30:15.746400 ; 48.06 
38 ; Longs Tours ; 10 ; LT-10-2019-D-F ; 501 ; 2019-07-03 15:30:16.546047 ; 47.51 
39 ; Longs Tours ; 10 ; LT-10-2019-D-F ; 501 ; 2019-07-03 15:30:17.345371 ; 46.84 
40 ; Longs Tours ; 10 ; LT-10-2019-D-F ; 501 ; 2019-07-03 15:30:18.141563 ; 46.26 
41 ; Longs Tours ; 10 ; LT-10-2019-D-F ; 501 ; 2019-07-03 15:30:18.950783 ; 45.54 
42 ; Longs Tours ; 10 ; LT-10-2019-D-F ; 501 ; 2019-07-03 15:30:19.818267 ; 44.7 
43 ; Longs Tours ; 10 ; LT-10-2019-D-F ; 501 ; 2019-07-03 15:30:20.813979 ; 43.99 
44 ; Longs Tours ; 10 ; LT-10-2019-D-F ; 501 ; 2019-07-03 15:30:21.609734 ; 43.5 
45 ; Longs Tours ; 10 ; LT-10-2019-D-F ; 501 ; 2019-07-03 15:30:22.408277 ; 42.84 
46 ; Longs Tours ; 10 ; LT-10-2019-D-F ; 501 ; 2019-07-03 15:30:23.208732 ; 42.18 
47 ; Longs Tours ; 10 ; LT-10-2019-D-F ; 501 ; 2019-07-03 15:30:24.012963 ; 41.55 
48 ; Longs Tours ; 10 ; LT-10-2019-D-F ; 501 ; 2019-07-03 15:30:24.862198 ; 41.13 
49 ; Longs Tours ; 10 ; LT-10-2019-D-F ; 501 ; 2019-07-03 15:30:25.666362 ; 40.55 
50 ; Longs Tours ; 10 ; LT-10-2019-D-F ; 501 ; 2019-07-03 15:30:26.465306 ; 39.73 
51 ; Longs Tours ; 10 ; LT-10-2019-D-F ; 501 ; 2019-07-03 15:30:27.257890 ; 38.1 
52 ; Longs Tours ; 10 ; LT-10-2019-D-F ; 501 ; 2019-07-03 15:30:28.062049 ; 36.14 
53 ; Longs Tours ; 10 ; LT-10-2019-D-F ; 501 ; 2019-07-03 15:30:28.918101 ; 34.03 
54 ; Longs Tours ; 10 ; LT-10-2019-D-F ; 501 ; 2019-07-03 15:30:29.719855 ; 32.92 
55 ; Longs Tours ; 10 ; LT-10-2019-D-F ; 501 ; 2019-07-03 15:30:30.516100 ; 31.98 
56 ; Longs Tours ; 10 ; LT-10-2019-D-F ; 501 ; 2019-07-03 15:30:31.315502 ; 30.73 
57 ; Longs Tours ; 10 ; LT-10-2019-D-F ; 501 ; 2019-07-03 15:30:32.111819 ; 29.83 
58 ; Longs Tours ; 10 ; LT-10-2019-D-F ; 501 ; 2019-07-03 15:30:32.969495 ; 29.37 
59 ; Longs Tours ; 10 ; LT-10-2019-D-F ; 501 ; 2019-07-03 15:30:33.769462 ; 29.16 
60 ; Longs Tours ; 10 ; LT-10-2019-D-F ; 501 ; 2019-07-03 15:30:34.569685 ; 28.86 
61 ; Longs Tours ; 10 ; LT-10-2019-D-F ; 501 ; 2019-07-03 15:30:35.372388 ; 28.42 
62 ; Longs Tours ; 10 ; LT-10-2019-D-F ; 501 ; 2019-07-03 15:30:36.166596 ; 27.84 
63 ; Longs Tours ; 10 ; LT-10-2019-D-F ; 501 ; 2019-07-03 15:30:37.026141 ; 27.58 
64 ; Longs Tours ; 10 ; LT-10-2019-D-F ; 501 ; 2019-07-03 15:30:37.825271 ; 27.41 
65 ; Longs Tours ; 10 ; LT-10-2019-D-F ; 501 ; 2019-07-03 15:30:38.623790 ; 27.16 
66 ; Longs Tours ; 10 ; LT-10-2019-D-F ; 501 ; 2019-07-03 15:30:39.422268 ; 26.9 
67 ; Longs Tours ; 10 ; LT-10-2019-D-F ; 501 ; 2019-07-03 15:30:40.223801 ; 26.71 
68 ; Longs Tours ; 10 ; LT-10-2019-D-F ; 501 ; 2019-07-03 15:30:41.075668 ; 26.58 
69 ; Longs Tours ; 10 ; LT-10-2019-D-F ; 501 ; 2019-07-03 15:30:41.879221 ; 26.4 
70 ; Longs Tours ; 10 ; LT-10-2019-D-F ; 501 ; 2019-07-03 15:30:42.676923 ; 26.15 
71 ; Longs Tours ; 10 ; LT-10-2019-D-F ; 501 ; 2019-07-03 15:30:43.470298 ; 25.88 
72 ; Longs Tours ; 10 ; LT-10-2019-D-F ; 501 ; 2019-07-03 15:30:44.269799 ; 25.66 
73 ; Longs Tours ; 10 ; LT-10-2019-D-F ; 501 ; 2019-07-03 15:30:45.133052 ; 25.48 
74 ; Longs Tours ; 10 ; LT-10-2019-D-F ; 501 ; 2019-07-03 15:30:45.932665 ; 25.35 
75 ; Longs Tours ; 10 ; LT-10-2019-D-F ; 501 ; 2019-07-03 15:30:46.729484 ; 25.13 
76 ; Longs Tours ; 10 ; LT-10-2019-D-F ; 501 ; 2019-07-03 15:30:47.528116 ; 24.72 
77 ; Longs Tours ; 10 ; LT-10-2019-D-F ; 501 ; 2019-07-03 15:30:48.328451 ; 23.93 
78 ; Longs Tours ; 10 ; LT-10-2019-D-F ; 501 ; 2019-07-03 15:30:49.178698 ; 23.23 
79 ; Longs Tours ; 10 ; LT-10-2019-D-F ; 501 ; 2019-07-03 15:30:49.977538 ; 22.97 
80 ; Longs Tours ; 10 ; LT-10-2019-D-F ; 501 ; 2019-07-03 15:30:50.790250 ; 22.65 
81 ; Longs Tours ; 10 ; LT-10-2019-D-F ; 501 ; 2019-07-03 15:30:51.583414 ; 22.33 
82 ; Longs Tours ; 10 ; LT-10-2019-D-F ; 501 ; 2019-07-03 15:30:52.383372 ; 21.91 
83 ; Longs Tours ; 10 ; LT-10-2019-D-F ; 501 ; 2019-07-03 15:30:53.235074 ; 21.57 
84 ; Longs Tours ; 10 ; LT-10-2019-D-F ; 501 ; 2019-07-03 15:30:54.036424 ; 21.36 
85 ; Longs Tours ; 10 ; LT-10-2019-D-F ; 501 ; 2019-07-03 15:30:54.834535 ; 21.08 
86 ; Longs Tours ; 10 ; LT-10-2019-D-F ; 501 ; 2019-07-03 15:30:55.635790 ; 20.82 
87 ; Longs Tours ; 10 ; LT-10-2019-D-F ; 501 ; 2019-07-03 15:30:56.440422 ; 20.5 
88 ; Longs Tours ; 10 ; LT-10-2019-D-F ; 501 ; 2019-07-03 15:30:57.285504 ; 20.21 
89 ; Longs Tours ; 10 ; LT-10-2019-D-F ; 501 ; 2019-07-03 15:30:58.090376 ; 19.93 
90 ; Longs Tours ; 10 ; LT-10-2019-D-F ; 501 ; 2019-07-03 15:30:58.894161 ; 19.72 
91 ; Longs Tours ; 10 ; LT-10-2019-D-F ; 501 ; 2019-07-03 15:30:59.691828 ; 19.53 
92 ; Longs Tours ; 10 ; LT-10-2019-D-F ; 501 ; 2019-07-03 15:31:00.492218 ; 19.26 
93 ; Longs Tours ; 10 ; LT-10-2019-D-F ; 501 ; 2019-07-03 15:31:01.345255 ; 18.97 
94 ; Longs Tours ; 10 ; LT-10-2019-D-F ; 501 ; 2019-07-03 15:31:02.142134 ; 18.72 
95 ; Longs Tours ; 10 ; LT-10-2019-D-F ; 501 ; 2019-07-03 15:31:02.947634 ; 18.53 
96 ; Longs Tours ; 10 ; LT-10-2019-D-F ; 501 ; 2019-07-03 15:31:03.742725 ; 18.34 
97 ; Longs Tours ; 10 ; LT-10-2019-D-F ; 501 ; 2019-07-03 15:31:04.544997 ; 18.19 
98 ; Longs Tours ; 10 ; LT-10-2019-D-F ; 501 ; 2019-07-03 15:31:05.397081 ; 18.06 
99 ; Longs Tours ; 10 ; LT-10-2019-D-F ; 501 ; 2019-07-03 15:31:06.192674 ; 17.87 
100 ; Longs Tours ; 10 ; LT-10-2019-D-F ; 501 ; 2019-07-03 15:31:06.999725 ; 17.65 
101 ; Longs Tours ; 10 ; LT-10-2019-D-F ; 501 ; 2019-07-03 15:31:07.811728 ; 17.46 
102 ; Longs Tours ; 10 ; LT-10-2019-D-F ; 501 ; 2019-07-03 15:31:08.598066 ; 17.23 
103 ; Longs Tours ; 10 ; LT-10-2019-D-F ; 501 ; 2019-07-03 15:31:09.451751 ; 16.99 
104 ; Longs Tours ; 10 ; LT-10-2019-D-F ; 501 ; 2019-07-03 15:31:10.245055 ; 16.68 
105 ; Longs Tours ; 10 ; LT-10-2019-D-F ; 501 ; 2019-07-03 15:31:11.051097 ; 16.28 
106 ; Longs Tours ; 10 ; LT-10-2019-D-F ; 501 ; 2019-07-03 15:31:11.854019 ; 15.84 
107 ; Longs Tours ; 10 ; LT-10-2019-D-F ; 501 ; 2019-07-03 15:31:12.652098 ; 15.29 
108 ; Longs Tours ; 10 ; LT-10-2019-D-F ; 501 ; 2019-07-03 15:31:13.506316 ; 14.81 
109 ; Longs Tours ; 10 ; LT-10-2019-D-F ; 501 ; 2019-07-03 15:31:14.305975 ; 14.25 
110 ; Longs Tours ; 10 ; LT-10-2019-D-F ; 501 ; 2019-07-03 15:31:15.099321 ; 13.8 
111 ; Longs Tours ; 10 ; LT-10-2019-D-F ; 501 ; 2019-07-03 15:31:15.902829 ; 13.35 
112 ; Longs Tours ; 10 ; LT-10-2019-D-F ; 501 ; 2019-07-03 15:31:16.704079 ; 13.03 
113 ; Longs Tours ; 10 ; LT-10-2019-D-F ; 501 ; 2019-07-03 15:31:17.558724 ; 12.8 
114 ; Longs Tours ; 10 ; LT-10-2019-D-F ; 501 ; 2019-07-03 15:31:18.356391 ; 12.61 
115 ; Longs Tours ; 10 ; LT-10-2019-D-F ; 501 ; 2019-07-03 15:31:19.151452 ; 12.32 
116 ; Longs Tours ; 10 ; LT-10-2019-D-F ; 501 ; 2019-07-03 15:31:19.956194 ; 12.04 
117 ; Longs Tours ; 10 ; LT-10-2019-D-F ; 501 ; 2019-07-03 15:31:20.756034 ; 11.74 
118 ; Longs Tours ; 10 ; LT-10-2019-D-F ; 501 ; 2019-07-03 15:31:21.610009 ; 11.45 
119 ; Longs Tours ; 10 ; LT-10-2019-D-F ; 501 ; 2019-07-03 15:31:22.413127 ; 11.34 
120 ; Longs Tours ; 10 ; LT-10-2019-D-F ; 501 ; 2019-07-03 15:31:23.207703 ; 11.26 
121 ; Longs Tours ; 10 ; LT-10-2019-D-F ; 501 ; 2019-07-03 15:31:24.013378 ; 11.17 
122 ; Longs Tours ; 10 ; LT-10-2019-D-F ; 501 ; 2019-07-03 15:31:24.811784 ; 11.13 
123 ; Longs Tours ; 10 ; LT-10-2019-D-F ; 501 ; 2019-07-03 15:31:25.555347 ; 11.12 
124 ; Longs Tours ; 10 ; LT-10-2019-D-F ; 501 ; 2019-07-03 15:31:26.302477 ; 10.98 
125 ; Longs Tours ; 10 ; LT-10-2019-D-F ; 501 ; 2019-07-03 15:31:27.156658 ; 10.92 
126 ; Longs Tours ; 10 ; LT-10-2019-D-F ; 501 ; 2019-07-03 15:31:28.012176 ; 10.89 
127 ; Longs Tours ; 10 ; LT-10-2019-D-F ; 501 ; 2019-07-03 15:31:28.859926 ; 10.88 
128 ; Longs Tours ; 10 ; LT-10-2019-D-F ; 501 ; 2019-07-03 15:31:29.716808 ; 10.89 
129 ; Longs Tours ; 10 ; LT-10-2019-D-F ; 501 ; 2019-07-03 15:31:30.572708 ; 10.84 
130 ; Longs Tours ; 10 ; LT-10-2019-D-F ; 501 ; 2019-07-03 15:31:31.426071 ; 10.75 
131 ; Longs Tours ; 10 ; LT-10-2019-D-F ; 501 ; 2019-07-03 15:31:32.218561 ; 10.73 
132 ; Longs Tours ; 10 ; LT-10-2019-D-F ; 501 ; 2019-07-03 15:31:33.080550 ; 10.71 
133 ; Longs Tours ; 10 ; LT-10-2019-D-F ; 501 ; 2019-07-03 15:31:34.040025 ; 10.69 
134 ; Longs Tours ; 10 ; LT-10-2019-D-F ; 501 ; 2019-07-03 15:31:34.998632 ; 10.7 
135 ; Longs Tours ; 10 ; LT-10-2019-D-F ; 501 ; 2019-07-03 15:31:35.847814 ; 10.57 
136 ; Longs Tours ; 10 ; LT-10-2019-D-F ; 501 ; 2019-07-03 15:31:36.754827 ; 10.55 
137 ; Longs Tours ; 10 ; LT-10-2019-D-F ; 501 ; 2019-07-03 15:31:37.609367 ; 10.55 
138 ; Longs Tours ; 10 ; LT-10-2019-D-F ; 501 ; 2019-07-03 15:31:38.462978 ; 10.54 
139 ; Longs Tours ; 10 ; LT-10-2019-D-F ; 501 ; 2019-07-03 15:31:39.363811 ; 10.52 
140 ; Longs Tours ; 10 ; LT-10-2019-D-F ; 501 ; 2019-07-03 15:31:40.221817 ; 10.51 
141 ; Longs Tours ; 10 ; LT-10-2019-D-F ; 501 ; 2019-07-03 15:31:41.182347 ; 10.5 
142 ; Longs Tours ; 10 ; LT-10-2019-D-F ; 501 ; 2019-07-03 15:31:41.929831 ; 10.43 
143 ; Longs Tours ; 10 ; LT-10-2019-D-F ; 501 ; 2019-07-03 15:31:42.785589 ; 10.42 
144 ; Longs Tours ; 10 ; LT-10-2019-D-F ; 501 ; 2019-07-03 15:31:43.654792 ; 10.4 
145 ; Longs Tours ; 10 ; LT-10-2019-D-F ; 501 ; 2019-07-03 15:31:44.596202 ; 10.37 
146 ; Longs Tours ; 10 ; LT-10-2019-D-F ; 501 ; 2019-07-03 15:31:45.449182 ; 10.29 
147 ; Longs Tours ; 10 ; LT-10-2019-D-F ; 501 ; 2019-07-03 15:31:46.297682 ; 10.29 
148 ; Longs Tours ; 10 ; LT-10-2019-D-F ; 501 ; 2019-07-03 15:31:47.044028 ; 10.24 
149 ; Longs Tours ; 10 ; LT-10-2019-D-F ; 501 ; 2019-07-03 15:31:47.902821 ; 10.11 
150 ; Longs Tours ; 10 ; LT-10-2019-D-F ; 501 ; 2019-07-03 15:31:48.649552 ; 9.91 
151 ; Longs Tours ; 10 ; LT-10-2019-D-F ; 501 ; 2019-07-03 15:31:49.457909 ; 9.84 
152 ; Longs Tours ; 10 ; LT-10-2019-D-F ; 501 ; 2019-07-03 15:31:50.247600 ; 9.8 
153 ; Longs Tours ; 10 ; LT-10-2019-D-F ; 501 ; 2019-07-03 15:31:51.050296 ; 9.68 
154 ; Longs Tours ; 10 ; LT-10-2019-D-F ; 501 ; 2019-07-03 15:31:51.901858 ; 9.64 
155 ; Longs Tours ; 10 ; LT-10-2019-D-F ; 501 ; 2019-07-03 15:31:52.772645 ; 9.59 
156 ; Longs Tours ; 10 ; LT-10-2019-D-F ; 501 ; 2019-07-03 15:31:53.769714 ; 9.53 
157 ; Longs Tours ; 10 ; LT-10-2019-D-F ; 501 ; 2019-07-03 15:31:54.629849 ; 9.51 
158 ; Longs Tours ; 10 ; LT-10-2019-D-F ; 501 ; 2019-07-03 15:31:55.529989 ; 9.51 
159 ; Longs Tours ; 10 ; LT-10-2019-D-F ; 501 ; 2019-07-03 15:31:56.327538 ; 9.5 
160 ; Longs Tours ; 10 ; LT-10-2019-D-F ; 501 ; 2019-07-03 15:31:57.071166 ; 9.45 
161 ; Longs Tours ; 10 ; LT-10-2019-D-F ; 501 ; 2019-07-03 15:31:57.928107 ; 9.43 
162 ; Longs Tours ; 10 ; LT-10-2019-D-F ; 501 ; 2019-07-03 15:31:58.827622 ; 9.42 
163 ; Longs Tours ; 10 ; LT-10-2019-D-F ; 501 ; 2019-07-03 15:31:59.689423 ; 9.41 
164 ; Longs Tours ; 10 ; LT-10-2019-D-F ; 501 ; 2019-07-03 15:32:00.549674 ; 9.41 
165 ; Longs Tours ; 10 ; LT-10-2019-D-F ; 501 ; 2019-07-03 15:32:01.285713 ; 9.39 
166 ; Longs Tours ; 10 ; LT-10-2019-D-F ; 501 ; 2019-07-03 15:32:02.139136 ; 9.38 
167 ; Longs Tours ; 10 ; LT-10-2019-D-F ; 501 ; 2019-07-03 15:32:02.995889 ; 9.42 
168 ; Longs Tours ; 10 ; LT-10-2019-D-F ; 501 ; 2019-07-03 15:32:03.851901 ; 9.34 
169 ; Longs Tours ; 10 ; LT-10-2019-D-F ; 501 ; 2019-07-03 15:32:04.594649 ; 9.34 
170 ; Longs Tours ; 10 ; LT-10-2019-D-F ; 501 ; 2019-07-03 15:32:05.446174 ; 9.33 
171 ; Longs Tours ; 10 ; LT-10-2019-D-F ; 501 ; 2019-07-03 15:32:06.303109 ; 9.33 
172 ; Longs Tours ; 10 ; LT-10-2019-D-F ; 501 ; 2019-07-03 15:32:07.097045 ; 9.32 
173 ; Longs Tours ; 10 ; LT-10-2019-D-F ; 501 ; 2019-07-03 15:32:07.954025 ; 9.32 
174 ; Longs Tours ; 10 ; LT-10-2019-D-F ; 501 ; 2019-07-03 15:32:08.805316 ; 9.31 
175 ; Longs Tours ; 10 ; LT-10-2019-D-F ; 501 ; 2019-07-03 15:32:09.663238 ; 9.31 
176 ; Longs Tours ; 10 ; LT-10-2019-D-F ; 501 ; 2019-07-03 15:32:10.514480 ; 9.3 
177 ; Longs Tours ; 10 ; LT-10-2019-D-F ; 501 ; 2019-07-03 15:32:11.376603 ; 9.29 
178 ; Longs Tours ; 10 ; LT-10-2019-D-F ; 501 ; 2019-07-03 15:32:12.270574 ; 9.3 
179 ; Longs Tours ; 10 ; LT-10-2019-D-F ; 501 ; 2019-07-03 15:32:13.130404 ; 9.27 
180 ; Longs Tours ; 10 ; LT-10-2019-D-F ; 501 ; 2019-07-03 15:32:13.981351 ; 9.24 
181 ; Longs Tours ; 10 ; LT-10-2019-D-F ; 501 ; 2019-07-03 15:32:14.839679 ; 9.07 
182 ; Longs Tours ; 10 ; LT-10-2019-D-F ; 501 ; 2019-07-03 15:32:15.637469 ; 8.95 
183 ; Longs Tours ; 10 ; LT-10-2019-D-F ; 501 ; 2019-07-03 15:32:16.488781 ; 8.94 
184 ; Longs Tours ; 10 ; LT-10-2019-D-F ; 501 ; 2019-07-03 15:32:17.343585 ; 8.92 
185 ; Longs Tours ; 10 ; LT-10-2019-D-F ; 501 ; 2019-07-03 15:32:18.141495 ; 8.92 
186 ; Longs Tours ; 10 ; LT-10-2019-D-F ; 501 ; 2019-07-03 15:32:18.993621 ; 8.9 
187 ; Longs Tours ; 10 ; LT-10-2019-D-F ; 501 ; 2019-07-03 15:32:19.847959 ; 8.82 
188 ; Longs Tours ; 10 ; LT-10-2019-D-F ; 501 ; 2019-07-03 15:32:20.702121 ; 8.7 
189 ; Longs Tours ; 10 ; LT-10-2019-D-F ; 501 ; 2019-07-03 15:32:21.661724 ; 8.69 
190 ; Longs Tours ; 10 ; LT-10-2019-D-F ; 501 ; 2019-07-03 15:32:22.520452 ; 8.68 
191 ; Longs Tours ; 10 ; LT-10-2019-D-F ; 501 ; 2019-07-03 15:32:23.369544 ; 8.65 
192 ; Longs Tours ; 10 ; LT-10-2019-D-F ; 501 ; 2019-07-03 15:32:24.274466 ; 8.64 
193 ; Longs Tours ; 10 ; LT-10-2019-D-F ; 501 ; 2019-07-03 15:32:25.129117 ; 8.62 
194 ; Longs Tours ; 10 ; LT-10-2019-D-F ; 501 ; 2019-07-03 15:32:25.982527 ; 8.57 
195 ; Longs Tours ; 10 ; LT-10-2019-D-F ; 501 ; 2019-07-03 15:32:26.944547 ; 8.56 
196 ; Longs Tours ; 10 ; LT-10-2019-D-F ; 501 ; 2019-07-03 15:32:27.801585 ; 8.56 
197 ; Longs Tours ; 10 ; LT-10-2019-D-F ; 501 ; 2019-07-03 15:32:28.650307 ; 8.55 
198 ; Longs Tours ; 10 ; LT-10-2019-D-F ; 501 ; 2019-07-03 15:32:29.502681 ; 8.55 
199 ; Longs Tours ; 10 ; LT-10-2019-D-F ; 501 ; 2019-07-03 15:32:30.355266 ; 8.53 
200 ; Longs Tours ; 10 ; LT-10-2019-D-F ; 501 ; 2019-07-03 15:32:31.204590 ; 8.52 
201 ; Longs Tours ; 10 ; LT-10-2019-D-F ; 501 ; 2019-07-03 15:32:31.959216 ; 8.5 
202 ; Longs Tours ; 10 ; LT-10-2019-D-F ; 501 ; 2019-07-03 15:32:32.809550 ; 8.49 
203 ; Longs Tours ; 10 ; LT-10-2019-D-F ; 501 ; 2019-07-03 15:32:33.719786 ; 8.47 
204 ; Longs Tours ; 10 ; LT-10-2019-D-F ; 501 ; 2019-07-03 15:32:34.569379 ; 8.47 
205 ; Longs Tours ; 10 ; LT-10-2019-D-F ; 501 ; 2019-07-03 15:32:35.418837 ; 8.44 
206 ; Longs Tours ; 10 ; LT-10-2019-D-F ; 501 ; 2019-07-03 15:32:36.274281 ; 8.45 
207 ; Longs Tours ; 10 ; LT-10-2019-D-F ; 501 ; 2019-07-03 15:32:37.129202 ; 8.42 
208 ; Longs Tours ; 10 ; LT-10-2019-D-F ; 501 ; 2019-07-03 15:32:37.981797 ; 8.45 
209 ; Longs Tours ; 10 ; LT-10-2019-D-F ; 501 ; 2019-07-03 15:32:38.729033 ; 8.39 
210 ; Longs Tours ; 10 ; LT-10-2019-D-F ; 501 ; 2019-07-03 15:32:39.640925 ; 8.38 
211 ; Longs Tours ; 10 ; LT-10-2019-D-F ; 501 ; 2019-07-03 15:32:40.489688 ; 8.37 
212 ; Longs Tours ; 10 ; LT-10-2019-D-F ; 501 ; 2019-07-03 15:32:41.390950 ; 8.35 
213 ; Longs Tours ; 10 ; LT-10-2019-D-F ; 501 ; 2019-07-03 15:32:42.252960 ; 8.24 
214 ; Longs Tours ; 10 ; LT-10-2019-D-F ; 501 ; 2019-07-03 15:32:43.207968 ; 8.24 
215 ; Longs Tours ; 10 ; LT-10-2019-D-F ; 501 ; 2019-07-03 15:32:44.058348 ; 8.24 
216 ; Longs Tours ; 10 ; LT-10-2019-D-F ; 501 ; 2019-07-03 15:32:44.920669 ; 8.23 
217 ; Longs Tours ; 10 ; LT-10-2019-D-F ; 501 ; 2019-07-03 15:32:45.769089 ; 8.23 
218 ; Longs Tours ; 10 ; LT-10-2019-D-F ; 501 ; 2019-07-03 15:32:46.621813 ; 8.22 
219 ; Longs Tours ; 10 ; LT-10-2019-D-F ; 501 ; 2019-07-03 15:32:57.485142 ; 8.04 
220 ; Longs Tours ; 10 ; LT-10-2019-D-F ; 501 ; 2019-07-03 15:33:08.312113 ; 7.85 
221 ; Longs Tours ; 10 ; LT-10-2019-D-F ; 501 ; 2019-07-03 15:33:19.297858 ; 7.72 
222 ; Longs Tours ; 10 ; LT-10-2019-D-F ; 501 ; 2019-07-03 15:33:30.289774 ; 7.6 
223 ; Longs Tours ; 10 ; LT-10-2019-D-F ; 501 ; 2019-07-03 15:33:41.325568 ; 7.53 
224 ; Longs Tours ; 10 ; LT-10-2019-D-F ; 501 ; 2019-07-03 15:33:52.151117 ; 7.23 
225 ; Longs Tours ; 10 ; LT-10-2019-D-F ; 501 ; 2019-07-03 15:34:03.191698 ; 7.03 
226 ; Longs Tours ; 10 ; LT-10-2019-D-F ; 501 ; 2019-07-03 15:34:14.178011 ; 6.96 
227 ; Longs Tours ; 10 ; LT-10-2019-D-F ; 501 ; 2019-07-03 15:34:24.898107 ; 6.88 
228 ; Longs Tours ; 10 ; LT-10-2019-D-F ; 501 ; 2019-07-03 15:34:35.729816 ; 6.86 
229 ; Longs Tours ; 10 ; LT-10-2019-D-F ; 501 ; 2019-07-03 15:34:46.606401 ; 6.79 
230 ; Longs Tours ; 10 ; LT-10-2019-D-F ; 501 ; 2019-07-03 15:34:57.542064 ; 6.76 
231 ; Longs Tours ; 10 ; LT-10-2019-D-F ; 501 ; 2019-07-03 15:35:08.519155 ; 6.74 
232 ; Longs Tours ; 10 ; LT-10-2019-D-F ; 501 ; 2019-07-03 15:35:19.409557 ; 6.72 
233 ; Longs Tours ; 10 ; LT-10-2019-D-F ; 501 ; 2019-07-03 15:35:30.289274 ; 6.71 
234 ; Longs Tours ; 10 ; LT-10-2019-D-F ; 501 ; 2019-07-03 15:35:41.174459 ; 6.68 
235 ; Longs Tours ; 10 ; LT-10-2019-D-F ; 501 ; 2019-07-03 15:35:52.044919 ; 6.64 
236 ; Longs Tours ; 10 ; LT-10-2019-D-F ; 501 ; 2019-07-03 15:36:03.036175 ; 6.63 
237 ; Longs Tours ; 10 ; LT-10-2019-D-F ; 501 ; 2019-07-03 15:36:13.927096 ; 6.6 
238 ; Longs Tours ; 10 ; LT-10-2019-D-F ; 501 ; 2019-07-03 15:36:24.899029 ; 6.56 
239 ; Longs Tours ; 10 ; LT-10-2019-D-F ; 501 ; 2019-07-03 15:36:35.885192 ; 6.5 
240 ; Longs Tours ; 10 ; LT-10-2019-D-F ; 501 ; 2019-07-03 15:36:46.723476 ; 6.47 
241 ; Longs Tours ; 10 ; LT-10-2019-D-F ; 501 ; 2019-07-03 15:36:57.645817 ; 6.42 
242 ; Longs Tours ; 10 ; LT-10-2019-D-F ; 501 ; 2019-07-03 15:37:08.529868 ; 6.4 
243 ; Longs Tours ; 10 ; LT-10-2019-D-F ; 501 ; 2019-07-03 15:37:19.348727 ; 6.31 
244 ; Longs Tours ; 10 ; LT-10-2019-D-F ; 501 ; 2019-07-03 15:37:30.178661 ; 6.28 
245 ; Longs Tours ; 10 ; LT-10-2019-D-F ; 501 ; 2019-07-03 15:37:41.116418 ; 6.27 
246 ; Longs Tours ; 10 ; LT-10-2019-D-F ; 501 ; 2019-07-03 15:37:52.105233 ; 6.25 
247 ; Longs Tours ; 10 ; LT-10-2019-D-F ; 501 ; 2019-07-03 15:38:02.975848 ; 6.23 
248 ; Longs Tours ; 10 ; LT-10-2019-D-F ; 501 ; 2019-07-03 15:38:13.859519 ; 6.21 
249 ; Longs Tours ; 10 ; LT-10-2019-D-F ; 501 ; 2019-07-03 15:38:24.739582 ; 6.17 
250 ; Longs Tours ; 10 ; LT-10-2019-D-F ; 501 ; 2019-07-03 15:38:35.579227 ; 6.08 
251 ; Longs Tours ; 10 ; LT-10-2019-D-F ; 501 ; 2019-07-03 15:38:46.500927 ; 5.92 
252 ; Longs Tours ; 10 ; LT-10-2019-D-F ; 501 ; 2019-07-03 15:38:57.439781 ; 5.86 
253 ; Longs Tours ; 10 ; LT-10-2019-D-F ; 501 ; 2019-07-03 15:39:08.420788 ; 5.83 
254 ; Longs Tours ; 10 ; LT-10-2019-D-F ; 501 ; 2019-07-03 15:39:19.244782 ; 5.66 
255 ; Longs Tours ; 10 ; LT-10-2019-D-F ; 501 ; 2019-07-03 15:39:30.231688 ; 5.64 
256 ; Longs Tours ; 10 ; LT-10-2019-D-F ; 501 ; 2019-07-03 15:39:41.118024 ; 5.6 
257 ; Longs Tours ; 10 ; LT-10-2019-D-F ; 501 ; 2019-07-03 15:39:51.941131 ; 5.56 
258 ; Longs Tours ; 10 ; LT-10-2019-D-F ; 501 ; 2019-07-03 15:40:22.784216 ; 5.51 
259 ; Longs Tours ; 10 ; LT-10-2019-D-F ; 501 ; 2019-07-03 15:40:53.646324 ; 5.03 
260 ; Longs Tours ; 10 ; LT-10-2019-D-F ; 501 ; 2019-07-03 15:41:24.526472 ; 4.58 
261 ; Longs Tours ; 10 ; LT-10-2019-D-F ; 501 ; 2019-07-03 15:41:55.409615 ; 4.49 
262 ; Longs Tours ; 10 ; LT-10-2019-D-F ; 501 ; 2019-07-03 15:42:26.288605 ; 4.42 
263 ; Longs Tours ; 10 ; LT-10-2019-D-F ; 501 ; 2019-07-03 15:42:57.222732 ; 4.38 
264 ; Longs Tours ; 10 ; LT-10-2019-D-F ; 501 ; 2019-07-03 15:43:28.055040 ; 4.21 
265 ; Longs Tours ; 10 ; LT-10-2019-D-F ; 501 ; 2019-07-03 15:43:58.872225 ; 4.06 
266 ; Longs Tours ; 10 ; LT-10-2019-D-F ; 501 ; 2019-07-03 15:44:29.754455 ; 3.89 
267 ; Longs Tours ; 10 ; LT-10-2019-D-F ; 501 ; 2019-07-03 15:45:00.525593 ; 3.75 
268 ; Longs Tours ; 10 ; LT-10-2019-D-F ; 501 ; 2019-07-03 15:45:31.515235 ; 3.62 
269 ; Longs Tours ; 10 ; LT-10-2019-D-F ; 501 ; 2019-07-03 15:46:02.550452 ; 3.56 
