i ; campaign ; serie ; sample ; slake ; time ; mass 
1 ; Longs Tours ; 7 ; LT-7-2019-D-C ; 538 ; 2019-07-04 15:50:27.422569 ; 136.19 
2 ; Longs Tours ; 7 ; LT-7-2019-D-C ; 538 ; 2019-07-04 15:50:28.203319 ; 136.19 
3 ; Longs Tours ; 7 ; LT-7-2019-D-C ; 538 ; 2019-07-04 15:50:29.061098 ; 136.19 
4 ; Longs Tours ; 7 ; LT-7-2019-D-C ; 538 ; 2019-07-04 15:50:29.913317 ; 136.19 
5 ; Longs Tours ; 7 ; LT-7-2019-D-C ; 538 ; 2019-07-04 15:50:30.762629 ; 136.19 
6 ; Longs Tours ; 7 ; LT-7-2019-D-C ; 538 ; 2019-07-04 15:50:31.630831 ; 135.88 
7 ; Longs Tours ; 7 ; LT-7-2019-D-C ; 538 ; 2019-07-04 15:50:32.475304 ; 76.57 
8 ; Longs Tours ; 7 ; LT-7-2019-D-C ; 538 ; 2019-07-04 15:50:33.222190 ; 57.34 
9 ; Longs Tours ; 7 ; LT-7-2019-D-C ; 538 ; 2019-07-04 15:50:33.969531 ; 59.02 
10 ; Longs Tours ; 7 ; LT-7-2019-D-C ; 538 ; 2019-07-04 15:50:34.823509 ; 60.01 
11 ; Longs Tours ; 7 ; LT-7-2019-D-C ; 538 ; 2019-07-04 15:50:35.794605 ; 61.38 
12 ; Longs Tours ; 7 ; LT-7-2019-D-C ; 538 ; 2019-07-04 15:50:36.743771 ; 61.79 
13 ; Longs Tours ; 7 ; LT-7-2019-D-C ; 538 ; 2019-07-04 15:50:37.720192 ; 61.46 
14 ; Longs Tours ; 7 ; LT-7-2019-D-C ; 538 ; 2019-07-04 15:50:38.662119 ; 61.44 
15 ; Longs Tours ; 7 ; LT-7-2019-D-C ; 538 ; 2019-07-04 15:50:39.620305 ; 61.11 
16 ; Longs Tours ; 7 ; LT-7-2019-D-C ; 538 ; 2019-07-04 15:50:40.480583 ; 60.5 
17 ; Longs Tours ; 7 ; LT-7-2019-D-C ; 538 ; 2019-07-04 15:50:41.331201 ; 60.02 
18 ; Longs Tours ; 7 ; LT-7-2019-D-C ; 538 ; 2019-07-04 15:50:42.186190 ; 59.06 
19 ; Longs Tours ; 7 ; LT-7-2019-D-C ; 538 ; 2019-07-04 15:50:43.059825 ; 58.35 
20 ; Longs Tours ; 7 ; LT-7-2019-D-C ; 538 ; 2019-07-04 15:50:43.889902 ; 57.74 
21 ; Longs Tours ; 7 ; LT-7-2019-D-C ; 538 ; 2019-07-04 15:50:44.749387 ; 57.43 
22 ; Longs Tours ; 7 ; LT-7-2019-D-C ; 538 ; 2019-07-04 15:50:45.589542 ; 56.67 
23 ; Longs Tours ; 7 ; LT-7-2019-D-C ; 538 ; 2019-07-04 15:50:46.447365 ; 56.07 
24 ; Longs Tours ; 7 ; LT-7-2019-D-C ; 538 ; 2019-07-04 15:50:47.301704 ; 55.84 
25 ; Longs Tours ; 7 ; LT-7-2019-D-C ; 538 ; 2019-07-04 15:50:48.156801 ; 55.55 
26 ; Longs Tours ; 7 ; LT-7-2019-D-C ; 538 ; 2019-07-04 15:50:49.029269 ; 55.31 
27 ; Longs Tours ; 7 ; LT-7-2019-D-C ; 538 ; 2019-07-04 15:50:49.862827 ; 54.96 
28 ; Longs Tours ; 7 ; LT-7-2019-D-C ; 538 ; 2019-07-04 15:50:50.710689 ; 54.53 
29 ; Longs Tours ; 7 ; LT-7-2019-D-C ; 538 ; 2019-07-04 15:50:51.570550 ; 54.13 
30 ; Longs Tours ; 7 ; LT-7-2019-D-C ; 538 ; 2019-07-04 15:50:52.424713 ; 53.87 
31 ; Longs Tours ; 7 ; LT-7-2019-D-C ; 538 ; 2019-07-04 15:50:53.276483 ; 53.62 
32 ; Longs Tours ; 7 ; LT-7-2019-D-C ; 538 ; 2019-07-04 15:50:54.126727 ; 53.46 
33 ; Longs Tours ; 7 ; LT-7-2019-D-C ; 538 ; 2019-07-04 15:50:55.002689 ; 53.07 
34 ; Longs Tours ; 7 ; LT-7-2019-D-C ; 538 ; 2019-07-04 15:50:55.834857 ; 52.49 
35 ; Longs Tours ; 7 ; LT-7-2019-D-C ; 538 ; 2019-07-04 15:50:56.680606 ; 52.11 
36 ; Longs Tours ; 7 ; LT-7-2019-D-C ; 538 ; 2019-07-04 15:50:57.538288 ; 51.79 
37 ; Longs Tours ; 7 ; LT-7-2019-D-C ; 538 ; 2019-07-04 15:50:58.398650 ; 51.47 
38 ; Longs Tours ; 7 ; LT-7-2019-D-C ; 538 ; 2019-07-04 15:50:59.245112 ; 51.24 
39 ; Longs Tours ; 7 ; LT-7-2019-D-C ; 538 ; 2019-07-04 15:51:00.103153 ; 50.87 
40 ; Longs Tours ; 7 ; LT-7-2019-D-C ; 538 ; 2019-07-04 15:51:00.967197 ; 50.63 
41 ; Longs Tours ; 7 ; LT-7-2019-D-C ; 538 ; 2019-07-04 15:51:01.807525 ; 50.34 
42 ; Longs Tours ; 7 ; LT-7-2019-D-C ; 538 ; 2019-07-04 15:51:02.655611 ; 49.99 
43 ; Longs Tours ; 7 ; LT-7-2019-D-C ; 538 ; 2019-07-04 15:51:03.512985 ; 49.7 
44 ; Longs Tours ; 7 ; LT-7-2019-D-C ; 538 ; 2019-07-04 15:51:04.365337 ; 49.4 
45 ; Longs Tours ; 7 ; LT-7-2019-D-C ; 538 ; 2019-07-04 15:51:05.220937 ; 48.91 
46 ; Longs Tours ; 7 ; LT-7-2019-D-C ; 538 ; 2019-07-04 15:51:06.090075 ; 48.48 
47 ; Longs Tours ; 7 ; LT-7-2019-D-C ; 538 ; 2019-07-04 15:51:06.925776 ; 48.11 
48 ; Longs Tours ; 7 ; LT-7-2019-D-C ; 538 ; 2019-07-04 15:51:07.776783 ; 47.75 
49 ; Longs Tours ; 7 ; LT-7-2019-D-C ; 538 ; 2019-07-04 15:51:08.625189 ; 47.29 
50 ; Longs Tours ; 7 ; LT-7-2019-D-C ; 538 ; 2019-07-04 15:51:09.486512 ; 46.85 
51 ; Longs Tours ; 7 ; LT-7-2019-D-C ; 538 ; 2019-07-04 15:51:10.338497 ; 46.38 
52 ; Longs Tours ; 7 ; LT-7-2019-D-C ; 538 ; 2019-07-04 15:51:11.195650 ; 46 
53 ; Longs Tours ; 7 ; LT-7-2019-D-C ; 538 ; 2019-07-04 15:51:12.064967 ; 45.59 
54 ; Longs Tours ; 7 ; LT-7-2019-D-C ; 538 ; 2019-07-04 15:51:12.899225 ; 45.02 
55 ; Longs Tours ; 7 ; LT-7-2019-D-C ; 538 ; 2019-07-04 15:51:13.756893 ; 44.64 
56 ; Longs Tours ; 7 ; LT-7-2019-D-C ; 538 ; 2019-07-04 15:51:14.601630 ; 44.53 
57 ; Longs Tours ; 7 ; LT-7-2019-D-C ; 538 ; 2019-07-04 15:51:15.458610 ; 44.5 
58 ; Longs Tours ; 7 ; LT-7-2019-D-C ; 538 ; 2019-07-04 15:51:16.311987 ; 44.42 
59 ; Longs Tours ; 7 ; LT-7-2019-D-C ; 538 ; 2019-07-04 15:51:17.271942 ; 44.37 
60 ; Longs Tours ; 7 ; LT-7-2019-D-C ; 538 ; 2019-07-04 15:51:18.248411 ; 44.37 
61 ; Longs Tours ; 7 ; LT-7-2019-D-C ; 538 ; 2019-07-04 15:51:19.028485 ; 44.32 
62 ; Longs Tours ; 7 ; LT-7-2019-D-C ; 538 ; 2019-07-04 15:51:19.941081 ; 44.15 
63 ; Longs Tours ; 7 ; LT-7-2019-D-C ; 538 ; 2019-07-04 15:51:20.686342 ; 44.05 
64 ; Longs Tours ; 7 ; LT-7-2019-D-C ; 538 ; 2019-07-04 15:51:21.430562 ; 44.05 
65 ; Longs Tours ; 7 ; LT-7-2019-D-C ; 538 ; 2019-07-04 15:51:22.281094 ; 43.99 
66 ; Longs Tours ; 7 ; LT-7-2019-D-C ; 538 ; 2019-07-04 15:51:23.208060 ; 43.91 
67 ; Longs Tours ; 7 ; LT-7-2019-D-C ; 538 ; 2019-07-04 15:51:24.098592 ; 43.87 
68 ; Longs Tours ; 7 ; LT-7-2019-D-C ; 538 ; 2019-07-04 15:51:24.950066 ; 43.84 
69 ; Longs Tours ; 7 ; LT-7-2019-D-C ; 538 ; 2019-07-04 15:51:25.804495 ; 43.81 
70 ; Longs Tours ; 7 ; LT-7-2019-D-C ; 538 ; 2019-07-04 15:51:26.708278 ; 43.8 
71 ; Longs Tours ; 7 ; LT-7-2019-D-C ; 538 ; 2019-07-04 15:51:27.515248 ; 43.76 
72 ; Longs Tours ; 7 ; LT-7-2019-D-C ; 538 ; 2019-07-04 15:51:28.418170 ; 43.66 
73 ; Longs Tours ; 7 ; LT-7-2019-D-C ; 538 ; 2019-07-04 15:51:29.399457 ; 43.65 
74 ; Longs Tours ; 7 ; LT-7-2019-D-C ; 538 ; 2019-07-04 15:51:30.230630 ; 43.62 
75 ; Longs Tours ; 7 ; LT-7-2019-D-C ; 538 ; 2019-07-04 15:51:31.033412 ; 43.6 
76 ; Longs Tours ; 7 ; LT-7-2019-D-C ; 538 ; 2019-07-04 15:51:31.887458 ; 43.6 
77 ; Longs Tours ; 7 ; LT-7-2019-D-C ; 538 ; 2019-07-04 15:51:32.736021 ; 43.61 
78 ; Longs Tours ; 7 ; LT-7-2019-D-C ; 538 ; 2019-07-04 15:51:33.589575 ; 43.38 
79 ; Longs Tours ; 7 ; LT-7-2019-D-C ; 538 ; 2019-07-04 15:51:34.445404 ; 43.37 
80 ; Longs Tours ; 7 ; LT-7-2019-D-C ; 538 ; 2019-07-04 15:51:35.211192 ; 43.33 
81 ; Longs Tours ; 7 ; LT-7-2019-D-C ; 538 ; 2019-07-04 15:51:36.044693 ; 43.31 
82 ; Longs Tours ; 7 ; LT-7-2019-D-C ; 538 ; 2019-07-04 15:51:36.847492 ; 43.29 
83 ; Longs Tours ; 7 ; LT-7-2019-D-C ; 538 ; 2019-07-04 15:51:37.590266 ; 43.27 
84 ; Longs Tours ; 7 ; LT-7-2019-D-C ; 538 ; 2019-07-04 15:51:38.450539 ; 43.16 
85 ; Longs Tours ; 7 ; LT-7-2019-D-C ; 538 ; 2019-07-04 15:51:39.300310 ; 43.14 
86 ; Longs Tours ; 7 ; LT-7-2019-D-C ; 538 ; 2019-07-04 15:51:40.172732 ; 43.13 
87 ; Longs Tours ; 7 ; LT-7-2019-D-C ; 538 ; 2019-07-04 15:51:41.008752 ; 43.1 
88 ; Longs Tours ; 7 ; LT-7-2019-D-C ; 538 ; 2019-07-04 15:51:41.813867 ; 43.03 
89 ; Longs Tours ; 7 ; LT-7-2019-D-C ; 538 ; 2019-07-04 15:51:42.652109 ; 43.01 
90 ; Longs Tours ; 7 ; LT-7-2019-D-C ; 538 ; 2019-07-04 15:51:43.565511 ; 42.99 
91 ; Longs Tours ; 7 ; LT-7-2019-D-C ; 538 ; 2019-07-04 15:51:44.368985 ; 43 
92 ; Longs Tours ; 7 ; LT-7-2019-D-C ; 538 ; 2019-07-04 15:51:45.165366 ; 42.89 
93 ; Longs Tours ; 7 ; LT-7-2019-D-C ; 538 ; 2019-07-04 15:51:45.992830 ; 42.87 
94 ; Longs Tours ; 7 ; LT-7-2019-D-C ; 538 ; 2019-07-04 15:51:46.821079 ; 42.87 
95 ; Longs Tours ; 7 ; LT-7-2019-D-C ; 538 ; 2019-07-04 15:51:47.555304 ; 42.79 
96 ; Longs Tours ; 7 ; LT-7-2019-D-C ; 538 ; 2019-07-04 15:51:48.418372 ; 42.77 
97 ; Longs Tours ; 7 ; LT-7-2019-D-C ; 538 ; 2019-07-04 15:51:49.270611 ; 42.72 
98 ; Longs Tours ; 7 ; LT-7-2019-D-C ; 538 ; 2019-07-04 15:51:50.178050 ; 42.72 
99 ; Longs Tours ; 7 ; LT-7-2019-D-C ; 538 ; 2019-07-04 15:51:50.977157 ; 42.62 
100 ; Longs Tours ; 7 ; LT-7-2019-D-C ; 538 ; 2019-07-04 15:51:51.796916 ; 42.55 
101 ; Longs Tours ; 7 ; LT-7-2019-D-C ; 538 ; 2019-07-04 15:51:52.576107 ; 42.45 
102 ; Longs Tours ; 7 ; LT-7-2019-D-C ; 538 ; 2019-07-04 15:51:53.487479 ; 42.31 
103 ; Longs Tours ; 7 ; LT-7-2019-D-C ; 538 ; 2019-07-04 15:51:54.283319 ; 42.31 
104 ; Longs Tours ; 7 ; LT-7-2019-D-C ; 538 ; 2019-07-04 15:51:55.081061 ; 42.3 
105 ; Longs Tours ; 7 ; LT-7-2019-D-C ; 538 ; 2019-07-04 15:51:55.939112 ; 42.3 
106 ; Longs Tours ; 7 ; LT-7-2019-D-C ; 538 ; 2019-07-04 15:51:56.735386 ; 42.28 
107 ; Longs Tours ; 7 ; LT-7-2019-D-C ; 538 ; 2019-07-04 15:51:57.609441 ; 42.29 
108 ; Longs Tours ; 7 ; LT-7-2019-D-C ; 538 ; 2019-07-04 15:51:58.443943 ; 42.27 
109 ; Longs Tours ; 7 ; LT-7-2019-D-C ; 538 ; 2019-07-04 15:51:59.298422 ; 42.25 
110 ; Longs Tours ; 7 ; LT-7-2019-D-C ; 538 ; 2019-07-04 15:52:00.150828 ; 42.22 
111 ; Longs Tours ; 7 ; LT-7-2019-D-C ; 538 ; 2019-07-04 15:52:01.009272 ; 42.16 
112 ; Longs Tours ; 7 ; LT-7-2019-D-C ; 538 ; 2019-07-04 15:52:01.914771 ; 42.14 
113 ; Longs Tours ; 7 ; LT-7-2019-D-C ; 538 ; 2019-07-04 15:52:02.780830 ; 42.13 
114 ; Longs Tours ; 7 ; LT-7-2019-D-C ; 538 ; 2019-07-04 15:52:03.686880 ; 42.12 
115 ; Longs Tours ; 7 ; LT-7-2019-D-C ; 538 ; 2019-07-04 15:52:04.524150 ; 42.13 
116 ; Longs Tours ; 7 ; LT-7-2019-D-C ; 538 ; 2019-07-04 15:52:05.324129 ; 42.11 
117 ; Longs Tours ; 7 ; LT-7-2019-D-C ; 538 ; 2019-07-04 15:52:06.180051 ; 42.1 
118 ; Longs Tours ; 7 ; LT-7-2019-D-C ; 538 ; 2019-07-04 15:52:06.977950 ; 42.07 
119 ; Longs Tours ; 7 ; LT-7-2019-D-C ; 538 ; 2019-07-04 15:52:07.831804 ; 42.02 
120 ; Longs Tours ; 7 ; LT-7-2019-D-C ; 538 ; 2019-07-04 15:52:08.818366 ; 42.02 
121 ; Longs Tours ; 7 ; LT-7-2019-D-C ; 538 ; 2019-07-04 15:52:09.644798 ; 42.01 
122 ; Longs Tours ; 7 ; LT-7-2019-D-C ; 538 ; 2019-07-04 15:52:10.496523 ; 41.99 
123 ; Longs Tours ; 7 ; LT-7-2019-D-C ; 538 ; 2019-07-04 15:52:11.457046 ; 41.98 
124 ; Longs Tours ; 7 ; LT-7-2019-D-C ; 538 ; 2019-07-04 15:52:12.311917 ; 41.97 
125 ; Longs Tours ; 7 ; LT-7-2019-D-C ; 538 ; 2019-07-04 15:52:13.166565 ; 41.96 
126 ; Longs Tours ; 7 ; LT-7-2019-D-C ; 538 ; 2019-07-04 15:52:14.018686 ; 41.96 
127 ; Longs Tours ; 7 ; LT-7-2019-D-C ; 538 ; 2019-07-04 15:52:14.892358 ; 41.96 
128 ; Longs Tours ; 7 ; LT-7-2019-D-C ; 538 ; 2019-07-04 15:52:15.669597 ; 41.94 
129 ; Longs Tours ; 7 ; LT-7-2019-D-C ; 538 ; 2019-07-04 15:52:16.520465 ; 41.95 
130 ; Longs Tours ; 7 ; LT-7-2019-D-C ; 538 ; 2019-07-04 15:52:17.325809 ; 41.91 
131 ; Longs Tours ; 7 ; LT-7-2019-D-C ; 538 ; 2019-07-04 15:52:18.177662 ; 41.91 
132 ; Longs Tours ; 7 ; LT-7-2019-D-C ; 538 ; 2019-07-04 15:52:18.973726 ; 41.89 
133 ; Longs Tours ; 7 ; LT-7-2019-D-C ; 538 ; 2019-07-04 15:52:19.837004 ; 41.88 
134 ; Longs Tours ; 7 ; LT-7-2019-D-C ; 538 ; 2019-07-04 15:52:20.702290 ; 41.9 
135 ; Longs Tours ; 7 ; LT-7-2019-D-C ; 538 ; 2019-07-04 15:52:21.431786 ; 41.88 
136 ; Longs Tours ; 7 ; LT-7-2019-D-C ; 538 ; 2019-07-04 15:52:22.285971 ; 41.86 
137 ; Longs Tours ; 7 ; LT-7-2019-D-C ; 538 ; 2019-07-04 15:52:23.137136 ; 41.86 
138 ; Longs Tours ; 7 ; LT-7-2019-D-C ; 538 ; 2019-07-04 15:52:23.987035 ; 41.87 
139 ; Longs Tours ; 7 ; LT-7-2019-D-C ; 538 ; 2019-07-04 15:52:24.794389 ; 41.86 
140 ; Longs Tours ; 7 ; LT-7-2019-D-C ; 538 ; 2019-07-04 15:52:25.746991 ; 41.85 
141 ; Longs Tours ; 7 ; LT-7-2019-D-C ; 538 ; 2019-07-04 15:52:26.627989 ; 41.84 
142 ; Longs Tours ; 7 ; LT-7-2019-D-C ; 538 ; 2019-07-04 15:52:27.460510 ; 41.86 
143 ; Longs Tours ; 7 ; LT-7-2019-D-C ; 538 ; 2019-07-04 15:52:28.257330 ; 41.84 
144 ; Longs Tours ; 7 ; LT-7-2019-D-C ; 538 ; 2019-07-04 15:52:29.059779 ; 41.81 
145 ; Longs Tours ; 7 ; LT-7-2019-D-C ; 538 ; 2019-07-04 15:52:29.913110 ; 41.82 
146 ; Longs Tours ; 7 ; LT-7-2019-D-C ; 538 ; 2019-07-04 15:52:30.765725 ; 41.82 
147 ; Longs Tours ; 7 ; LT-7-2019-D-C ; 538 ; 2019-07-04 15:52:31.717458 ; 41.8 
148 ; Longs Tours ; 7 ; LT-7-2019-D-C ; 538 ; 2019-07-04 15:52:32.596316 ; 41.79 
149 ; Longs Tours ; 7 ; LT-7-2019-D-C ; 538 ; 2019-07-04 15:52:33.430225 ; 41.81 
150 ; Longs Tours ; 7 ; LT-7-2019-D-C ; 538 ; 2019-07-04 15:52:34.230164 ; 41.81 
151 ; Longs Tours ; 7 ; LT-7-2019-D-C ; 538 ; 2019-07-04 15:52:35.186390 ; 41.78 
152 ; Longs Tours ; 7 ; LT-7-2019-D-C ; 538 ; 2019-07-04 15:52:36.046473 ; 41.8 
153 ; Longs Tours ; 7 ; LT-7-2019-D-C ; 538 ; 2019-07-04 15:52:36.953714 ; 41.79 
154 ; Longs Tours ; 7 ; LT-7-2019-D-C ; 538 ; 2019-07-04 15:52:37.823886 ; 41.76 
155 ; Longs Tours ; 7 ; LT-7-2019-D-C ; 538 ; 2019-07-04 15:52:38.707650 ; 41.77 
156 ; Longs Tours ; 7 ; LT-7-2019-D-C ; 538 ; 2019-07-04 15:52:39.509650 ; 41.74 
157 ; Longs Tours ; 7 ; LT-7-2019-D-C ; 538 ; 2019-07-04 15:52:40.363368 ; 41.73 
158 ; Longs Tours ; 7 ; LT-7-2019-D-C ; 538 ; 2019-07-04 15:52:41.217445 ; 41.74 
159 ; Longs Tours ; 7 ; LT-7-2019-D-C ; 538 ; 2019-07-04 15:52:42.074891 ; 41.74 
160 ; Longs Tours ; 7 ; LT-7-2019-D-C ; 538 ; 2019-07-04 15:52:42.870357 ; 41.72 
161 ; Longs Tours ; 7 ; LT-7-2019-D-C ; 538 ; 2019-07-04 15:52:43.743448 ; 41.71 
162 ; Longs Tours ; 7 ; LT-7-2019-D-C ; 538 ; 2019-07-04 15:52:44.579384 ; 41.72 
163 ; Longs Tours ; 7 ; LT-7-2019-D-C ; 538 ; 2019-07-04 15:52:45.430752 ; 41.71 
164 ; Longs Tours ; 7 ; LT-7-2019-D-C ; 538 ; 2019-07-04 15:52:46.393049 ; 41.69 
165 ; Longs Tours ; 7 ; LT-7-2019-D-C ; 538 ; 2019-07-04 15:52:47.251893 ; 41.72 
166 ; Longs Tours ; 7 ; LT-7-2019-D-C ; 538 ; 2019-07-04 15:52:48.151865 ; 41.71 
167 ; Longs Tours ; 7 ; LT-7-2019-D-C ; 538 ; 2019-07-04 15:52:49.060692 ; 41.68 
168 ; Longs Tours ; 7 ; LT-7-2019-D-C ; 538 ; 2019-07-04 15:52:49.929193 ; 41.69 
169 ; Longs Tours ; 7 ; LT-7-2019-D-C ; 538 ; 2019-07-04 15:52:50.657561 ; 41.67 
170 ; Longs Tours ; 7 ; LT-7-2019-D-C ; 538 ; 2019-07-04 15:52:51.509998 ; 41.67 
171 ; Longs Tours ; 7 ; LT-7-2019-D-C ; 538 ; 2019-07-04 15:52:52.360539 ; 41.65 
172 ; Longs Tours ; 7 ; LT-7-2019-D-C ; 538 ; 2019-07-04 15:52:53.168521 ; 41.65 
173 ; Longs Tours ; 7 ; LT-7-2019-D-C ; 538 ; 2019-07-04 15:52:53.962401 ; 41.6 
174 ; Longs Tours ; 7 ; LT-7-2019-D-C ; 538 ; 2019-07-04 15:52:54.839509 ; 41.61 
175 ; Longs Tours ; 7 ; LT-7-2019-D-C ; 538 ; 2019-07-04 15:52:55.778107 ; 41.54 
176 ; Longs Tours ; 7 ; LT-7-2019-D-C ; 538 ; 2019-07-04 15:52:56.686579 ; 41.51 
177 ; Longs Tours ; 7 ; LT-7-2019-D-C ; 538 ; 2019-07-04 15:52:57.594819 ; 41.5 
178 ; Longs Tours ; 7 ; LT-7-2019-D-C ; 538 ; 2019-07-04 15:52:58.444782 ; 41.5 
179 ; Longs Tours ; 7 ; LT-7-2019-D-C ; 538 ; 2019-07-04 15:52:59.294534 ; 41.49 
180 ; Longs Tours ; 7 ; LT-7-2019-D-C ; 538 ; 2019-07-04 15:53:00.157254 ; 41.48 
181 ; Longs Tours ; 7 ; LT-7-2019-D-C ; 538 ; 2019-07-04 15:53:01.024713 ; 41.48 
182 ; Longs Tours ; 7 ; LT-7-2019-D-C ; 538 ; 2019-07-04 15:53:01.857608 ; 41.47 
183 ; Longs Tours ; 7 ; LT-7-2019-D-C ; 538 ; 2019-07-04 15:53:02.708739 ; 41.46 
184 ; Longs Tours ; 7 ; LT-7-2019-D-C ; 538 ; 2019-07-04 15:53:03.572264 ; 41.45 
185 ; Longs Tours ; 7 ; LT-7-2019-D-C ; 538 ; 2019-07-04 15:53:04.429233 ; 41.45 
186 ; Longs Tours ; 7 ; LT-7-2019-D-C ; 538 ; 2019-07-04 15:53:05.269974 ; 41.45 
187 ; Longs Tours ; 7 ; LT-7-2019-D-C ; 538 ; 2019-07-04 15:53:06.126017 ; 41.43 
188 ; Longs Tours ; 7 ; LT-7-2019-D-C ; 538 ; 2019-07-04 15:53:06.999441 ; 41.43 
189 ; Longs Tours ; 7 ; LT-7-2019-D-C ; 538 ; 2019-07-04 15:53:07.823611 ; 41.42 
190 ; Longs Tours ; 7 ; LT-7-2019-D-C ; 538 ; 2019-07-04 15:53:08.680333 ; 41.42 
191 ; Longs Tours ; 7 ; LT-7-2019-D-C ; 538 ; 2019-07-04 15:53:09.533689 ; 41.41 
192 ; Longs Tours ; 7 ; LT-7-2019-D-C ; 538 ; 2019-07-04 15:53:10.392402 ; 41.4 
193 ; Longs Tours ; 7 ; LT-7-2019-D-C ; 538 ; 2019-07-04 15:53:11.253512 ; 41.4 
194 ; Longs Tours ; 7 ; LT-7-2019-D-C ; 538 ; 2019-07-04 15:53:12.096468 ; 41.39 
195 ; Longs Tours ; 7 ; LT-7-2019-D-C ; 538 ; 2019-07-04 15:53:12.971722 ; 41.39 
196 ; Longs Tours ; 7 ; LT-7-2019-D-C ; 538 ; 2019-07-04 15:53:13.799831 ; 41.38 
197 ; Longs Tours ; 7 ; LT-7-2019-D-C ; 538 ; 2019-07-04 15:53:14.653219 ; 41.38 
198 ; Longs Tours ; 7 ; LT-7-2019-D-C ; 538 ; 2019-07-04 15:53:15.507996 ; 41.37 
199 ; Longs Tours ; 7 ; LT-7-2019-D-C ; 538 ; 2019-07-04 15:53:16.366891 ; 41.37 
200 ; Longs Tours ; 7 ; LT-7-2019-D-C ; 538 ; 2019-07-04 15:53:17.218013 ; 41.36 
201 ; Longs Tours ; 7 ; LT-7-2019-D-C ; 538 ; 2019-07-04 15:53:18.146240 ; 41.35 
202 ; Longs Tours ; 7 ; LT-7-2019-D-C ; 538 ; 2019-07-04 15:53:18.979262 ; 41.35 
203 ; Longs Tours ; 7 ; LT-7-2019-D-C ; 538 ; 2019-07-04 15:53:19.829026 ; 41.35 
204 ; Longs Tours ; 7 ; LT-7-2019-D-C ; 538 ; 2019-07-04 15:53:20.683548 ; 41.34 
205 ; Longs Tours ; 7 ; LT-7-2019-D-C ; 538 ; 2019-07-04 15:53:21.541124 ; 41.34 
206 ; Longs Tours ; 7 ; LT-7-2019-D-C ; 538 ; 2019-07-04 15:53:22.386441 ; 41.32 
207 ; Longs Tours ; 7 ; LT-7-2019-D-C ; 538 ; 2019-07-04 15:53:23.354012 ; 41.32 
208 ; Longs Tours ; 7 ; LT-7-2019-D-C ; 538 ; 2019-07-04 15:53:24.223352 ; 41.32 
209 ; Longs Tours ; 7 ; LT-7-2019-D-C ; 538 ; 2019-07-04 15:53:25.057037 ; 41.32 
210 ; Longs Tours ; 7 ; LT-7-2019-D-C ; 538 ; 2019-07-04 15:53:25.910487 ; 41.31 
211 ; Longs Tours ; 7 ; LT-7-2019-D-C ; 538 ; 2019-07-04 15:53:26.781495 ; 41.29 
212 ; Longs Tours ; 7 ; LT-7-2019-D-C ; 538 ; 2019-07-04 15:53:27.616177 ; 41.29 
213 ; Longs Tours ; 7 ; LT-7-2019-D-C ; 538 ; 2019-07-04 15:53:28.467333 ; 41.28 
214 ; Longs Tours ; 7 ; LT-7-2019-D-C ; 538 ; 2019-07-04 15:53:39.387106 ; 41.2 
215 ; Longs Tours ; 7 ; LT-7-2019-D-C ; 538 ; 2019-07-04 15:53:50.291172 ; 41.13 
216 ; Longs Tours ; 7 ; LT-7-2019-D-C ; 538 ; 2019-07-04 15:54:01.092405 ; 41.04 
217 ; Longs Tours ; 7 ; LT-7-2019-D-C ; 538 ; 2019-07-04 15:54:12.025863 ; 40.92 
218 ; Longs Tours ; 7 ; LT-7-2019-D-C ; 538 ; 2019-07-04 15:54:22.959604 ; 40.86 
219 ; Longs Tours ; 7 ; LT-7-2019-D-C ; 538 ; 2019-07-04 15:54:33.790477 ; 40.83 
220 ; Longs Tours ; 7 ; LT-7-2019-D-C ; 538 ; 2019-07-04 15:54:44.674710 ; 40.82 
221 ; Longs Tours ; 7 ; LT-7-2019-D-C ; 538 ; 2019-07-04 15:54:55.565975 ; 40.79 
222 ; Longs Tours ; 7 ; LT-7-2019-D-C ; 538 ; 2019-07-04 15:55:06.481381 ; 40.75 
223 ; Longs Tours ; 7 ; LT-7-2019-D-C ; 538 ; 2019-07-04 15:55:17.413331 ; 40.65 
224 ; Longs Tours ; 7 ; LT-7-2019-D-C ; 538 ; 2019-07-04 15:55:28.292824 ; 40.59 
225 ; Longs Tours ; 7 ; LT-7-2019-D-C ; 538 ; 2019-07-04 15:55:39.283321 ; 40.51 
226 ; Longs Tours ; 7 ; LT-7-2019-D-C ; 538 ; 2019-07-04 15:55:50.164177 ; 40.45 
227 ; Longs Tours ; 7 ; LT-7-2019-D-C ; 538 ; 2019-07-04 15:56:01.090288 ; 40.4 
228 ; Longs Tours ; 7 ; LT-7-2019-D-C ; 538 ; 2019-07-04 15:56:11.948248 ; 40.36 
229 ; Longs Tours ; 7 ; LT-7-2019-D-C ; 538 ; 2019-07-04 15:56:22.884313 ; 40.32 
230 ; Longs Tours ; 7 ; LT-7-2019-D-C ; 538 ; 2019-07-04 15:56:33.765925 ; 40.28 
231 ; Longs Tours ; 7 ; LT-7-2019-D-C ; 538 ; 2019-07-04 15:56:44.698320 ; 40.19 
232 ; Longs Tours ; 7 ; LT-7-2019-D-C ; 538 ; 2019-07-04 15:56:55.575369 ; 40.17 
233 ; Longs Tours ; 7 ; LT-7-2019-D-C ; 538 ; 2019-07-04 15:57:06.591377 ; 40.14 
234 ; Longs Tours ; 7 ; LT-7-2019-D-C ; 538 ; 2019-07-04 15:57:17.551416 ; 40.09 
235 ; Longs Tours ; 7 ; LT-7-2019-D-C ; 538 ; 2019-07-04 15:57:28.428022 ; 40.04 
236 ; Longs Tours ; 7 ; LT-7-2019-D-C ; 538 ; 2019-07-04 15:57:39.363450 ; 40.07 
237 ; Longs Tours ; 7 ; LT-7-2019-D-C ; 538 ; 2019-07-04 15:57:50.299290 ; 40.01 
238 ; Longs Tours ; 7 ; LT-7-2019-D-C ; 538 ; 2019-07-04 15:58:01.283609 ; 39.95 
239 ; Longs Tours ; 7 ; LT-7-2019-D-C ; 538 ; 2019-07-04 15:58:12.113778 ; 39.86 
240 ; Longs Tours ; 7 ; LT-7-2019-D-C ; 538 ; 2019-07-04 15:58:23.009076 ; 39.83 
241 ; Longs Tours ; 7 ; LT-7-2019-D-C ; 538 ; 2019-07-04 15:58:33.868240 ; 39.77 
242 ; Longs Tours ; 7 ; LT-7-2019-D-C ; 538 ; 2019-07-04 15:58:44.803185 ; 39.76 
243 ; Longs Tours ; 7 ; LT-7-2019-D-C ; 538 ; 2019-07-04 15:58:55.685933 ; 39.74 
244 ; Longs Tours ; 7 ; LT-7-2019-D-C ; 538 ; 2019-07-04 15:59:06.565371 ; 39.44 
245 ; Longs Tours ; 7 ; LT-7-2019-D-C ; 538 ; 2019-07-04 15:59:17.551534 ; 39.36 
246 ; Longs Tours ; 7 ; LT-7-2019-D-C ; 538 ; 2019-07-04 15:59:28.508188 ; 37.55 
247 ; Longs Tours ; 7 ; LT-7-2019-D-C ; 538 ; 2019-07-04 15:59:39.413754 ; 37.14 
248 ; Longs Tours ; 7 ; LT-7-2019-D-C ; 538 ; 2019-07-04 15:59:50.242488 ; 36.93 
249 ; Longs Tours ; 7 ; LT-7-2019-D-C ; 538 ; 2019-07-04 16:00:01.240960 ; 36.21 
250 ; Longs Tours ; 7 ; LT-7-2019-D-C ; 538 ; 2019-07-04 16:00:12.003181 ; 36.18 
251 ; Longs Tours ; 7 ; LT-7-2019-D-C ; 538 ; 2019-07-04 16:00:22.880232 ; 36.11 
252 ; Longs Tours ; 7 ; LT-7-2019-D-C ; 538 ; 2019-07-04 16:00:33.738851 ; 36.01 
253 ; Longs Tours ; 7 ; LT-7-2019-D-C ; 538 ; 2019-07-04 16:01:04.643941 ; 34.61 
254 ; Longs Tours ; 7 ; LT-7-2019-D-C ; 538 ; 2019-07-04 16:01:35.416409 ; 34.48 
255 ; Longs Tours ; 7 ; LT-7-2019-D-C ; 538 ; 2019-07-04 16:02:06.298857 ; 34.37 
256 ; Longs Tours ; 7 ; LT-7-2019-D-C ; 538 ; 2019-07-04 16:02:37.283799 ; 34.33 
257 ; Longs Tours ; 7 ; LT-7-2019-D-C ; 538 ; 2019-07-04 16:03:08.164017 ; 34.28 
258 ; Longs Tours ; 7 ; LT-7-2019-D-C ; 538 ; 2019-07-04 16:03:39.169475 ; 34.24 
259 ; Longs Tours ; 7 ; LT-7-2019-D-C ; 538 ; 2019-07-04 16:04:10.083771 ; 34.23 
260 ; Longs Tours ; 7 ; LT-7-2019-D-C ; 538 ; 2019-07-04 16:04:41.016914 ; 34.17 
261 ; Longs Tours ; 7 ; LT-7-2019-D-C ; 538 ; 2019-07-04 16:05:11.955459 ; 34.15 
262 ; Longs Tours ; 7 ; LT-7-2019-D-C ; 538 ; 2019-07-04 16:05:42.815417 ; 34.12 
