i ; campaign ; serie ; sample ; slake ; time ; mass 
1 ; Ernage A ; 47 ; PK-47-P1K0-2019-D-D ; 426 ; 2019-07-01 14:27:54.964406 ; 133.42 
2 ; Ernage A ; 47 ; PK-47-P1K0-2019-D-D ; 426 ; 2019-07-01 14:27:55.883508 ; 133.42 
3 ; Ernage A ; 47 ; PK-47-P1K0-2019-D-D ; 426 ; 2019-07-01 14:27:56.985730 ; 133.42 
4 ; Ernage A ; 47 ; PK-47-P1K0-2019-D-D ; 426 ; 2019-07-01 14:27:57.920307 ; 133.42 
5 ; Ernage A ; 47 ; PK-47-P1K0-2019-D-D ; 426 ; 2019-07-01 14:27:58.770496 ; 133.41 
6 ; Ernage A ; 47 ; PK-47-P1K0-2019-D-D ; 426 ; 2019-07-01 14:27:59.629325 ; 133.4 
7 ; Ernage A ; 47 ; PK-47-P1K0-2019-D-D ; 426 ; 2019-07-01 14:28:00.433381 ; 133.4 
8 ; Ernage A ; 47 ; PK-47-P1K0-2019-D-D ; 426 ; 2019-07-01 14:28:01.277614 ; 95.18 
9 ; Ernage A ; 47 ; PK-47-P1K0-2019-D-D ; 426 ; 2019-07-01 14:28:02.077095 ; 44.74 
10 ; Ernage A ; 47 ; PK-47-P1K0-2019-D-D ; 426 ; 2019-07-01 14:28:03.040319 ; 48.25 
11 ; Ernage A ; 47 ; PK-47-P1K0-2019-D-D ; 426 ; 2019-07-01 14:28:04.002038 ; 53.4 
12 ; Ernage A ; 47 ; PK-47-P1K0-2019-D-D ; 426 ; 2019-07-01 14:28:04.962465 ; 54.11 
13 ; Ernage A ; 47 ; PK-47-P1K0-2019-D-D ; 426 ; 2019-07-01 14:28:05.923447 ; 55.06 
14 ; Ernage A ; 47 ; PK-47-P1K0-2019-D-D ; 426 ; 2019-07-01 14:28:06.885248 ; 54.65 
15 ; Ernage A ; 47 ; PK-47-P1K0-2019-D-D ; 426 ; 2019-07-01 14:28:07.842255 ; 55.2 
16 ; Ernage A ; 47 ; PK-47-P1K0-2019-D-D ; 426 ; 2019-07-01 14:28:08.802244 ; 55.88 
17 ; Ernage A ; 47 ; PK-47-P1K0-2019-D-D ; 426 ; 2019-07-01 14:28:09.776986 ; 55.84 
18 ; Ernage A ; 47 ; PK-47-P1K0-2019-D-D ; 426 ; 2019-07-01 14:28:10.720532 ; 56.19 
19 ; Ernage A ; 47 ; PK-47-P1K0-2019-D-D ; 426 ; 2019-07-01 14:28:11.680024 ; 56.26 
20 ; Ernage A ; 47 ; PK-47-P1K0-2019-D-D ; 426 ; 2019-07-01 14:28:12.650847 ; 56.28 
21 ; Ernage A ; 47 ; PK-47-P1K0-2019-D-D ; 426 ; 2019-07-01 14:28:13.442255 ; 56.3 
22 ; Ernage A ; 47 ; PK-47-P1K0-2019-D-D ; 426 ; 2019-07-01 14:28:14.243869 ; 56.43 
23 ; Ernage A ; 47 ; PK-47-P1K0-2019-D-D ; 426 ; 2019-07-01 14:28:15.039642 ; 56.63 
24 ; Ernage A ; 47 ; PK-47-P1K0-2019-D-D ; 426 ; 2019-07-01 14:28:15.900345 ; 56.72 
25 ; Ernage A ; 47 ; PK-47-P1K0-2019-D-D ; 426 ; 2019-07-01 14:28:16.646705 ; 56.76 
26 ; Ernage A ; 47 ; PK-47-P1K0-2019-D-D ; 426 ; 2019-07-01 14:28:17.443481 ; 56.76 
27 ; Ernage A ; 47 ; PK-47-P1K0-2019-D-D ; 426 ; 2019-07-01 14:28:18.301636 ; 56.85 
28 ; Ernage A ; 47 ; PK-47-P1K0-2019-D-D ; 426 ; 2019-07-01 14:28:19.249073 ; 57.01 
29 ; Ernage A ; 47 ; PK-47-P1K0-2019-D-D ; 426 ; 2019-07-01 14:28:20.110950 ; 56.99 
30 ; Ernage A ; 47 ; PK-47-P1K0-2019-D-D ; 426 ; 2019-07-01 14:28:20.966783 ; 57.01 
31 ; Ernage A ; 47 ; PK-47-P1K0-2019-D-D ; 426 ; 2019-07-01 14:28:21.777793 ; 57.01 
32 ; Ernage A ; 47 ; PK-47-P1K0-2019-D-D ; 426 ; 2019-07-01 14:28:22.611742 ; 57.17 
33 ; Ernage A ; 47 ; PK-47-P1K0-2019-D-D ; 426 ; 2019-07-01 14:28:23.470448 ; 57.34 
34 ; Ernage A ; 47 ; PK-47-P1K0-2019-D-D ; 426 ; 2019-07-01 14:28:24.271961 ; 57.38 
35 ; Ernage A ; 47 ; PK-47-P1K0-2019-D-D ; 426 ; 2019-07-01 14:28:25.119512 ; 57.65 
36 ; Ernage A ; 47 ; PK-47-P1K0-2019-D-D ; 426 ; 2019-07-01 14:28:25.922229 ; 57.56 
37 ; Ernage A ; 47 ; PK-47-P1K0-2019-D-D ; 426 ; 2019-07-01 14:28:26.669286 ; 57.36 
38 ; Ernage A ; 47 ; PK-47-P1K0-2019-D-D ; 426 ; 2019-07-01 14:28:27.470546 ; 57.41 
39 ; Ernage A ; 47 ; PK-47-P1K0-2019-D-D ; 426 ; 2019-07-01 14:28:28.269118 ; 57.7 
40 ; Ernage A ; 47 ; PK-47-P1K0-2019-D-D ; 426 ; 2019-07-01 14:28:29.016076 ; 57.86 
41 ; Ernage A ; 47 ; PK-47-P1K0-2019-D-D ; 426 ; 2019-07-01 14:28:29.815193 ; 57.98 
42 ; Ernage A ; 47 ; PK-47-P1K0-2019-D-D ; 426 ; 2019-07-01 14:28:30.616032 ; 58.09 
43 ; Ernage A ; 47 ; PK-47-P1K0-2019-D-D ; 426 ; 2019-07-01 14:28:31.360804 ; 58.12 
44 ; Ernage A ; 47 ; PK-47-P1K0-2019-D-D ; 426 ; 2019-07-01 14:28:32.164164 ; 58.16 
45 ; Ernage A ; 47 ; PK-47-P1K0-2019-D-D ; 426 ; 2019-07-01 14:28:33.013784 ; 58.19 
46 ; Ernage A ; 47 ; PK-47-P1K0-2019-D-D ; 426 ; 2019-07-01 14:28:33.827844 ; 58.2 
47 ; Ernage A ; 47 ; PK-47-P1K0-2019-D-D ; 426 ; 2019-07-01 14:28:34.676636 ; 58.18 
48 ; Ernage A ; 47 ; PK-47-P1K0-2019-D-D ; 426 ; 2019-07-01 14:28:35.525633 ; 58.2 
49 ; Ernage A ; 47 ; PK-47-P1K0-2019-D-D ; 426 ; 2019-07-01 14:28:36.376040 ; 58.21 
50 ; Ernage A ; 47 ; PK-47-P1K0-2019-D-D ; 426 ; 2019-07-01 14:28:37.230085 ; 58.23 
51 ; Ernage A ; 47 ; PK-47-P1K0-2019-D-D ; 426 ; 2019-07-01 14:28:38.077821 ; 58.24 
52 ; Ernage A ; 47 ; PK-47-P1K0-2019-D-D ; 426 ; 2019-07-01 14:28:39.044008 ; 58.25 
53 ; Ernage A ; 47 ; PK-47-P1K0-2019-D-D ; 426 ; 2019-07-01 14:28:39.898704 ; 58.24 
54 ; Ernage A ; 47 ; PK-47-P1K0-2019-D-D ; 426 ; 2019-07-01 14:28:40.752251 ; 58.08 
55 ; Ernage A ; 47 ; PK-47-P1K0-2019-D-D ; 426 ; 2019-07-01 14:28:41.601372 ; 57.87 
56 ; Ernage A ; 47 ; PK-47-P1K0-2019-D-D ; 426 ; 2019-07-01 14:28:42.456384 ; 57.68 
57 ; Ernage A ; 47 ; PK-47-P1K0-2019-D-D ; 426 ; 2019-07-01 14:28:43.307614 ; 57.65 
58 ; Ernage A ; 47 ; PK-47-P1K0-2019-D-D ; 426 ; 2019-07-01 14:28:44.162908 ; 57.49 
59 ; Ernage A ; 47 ; PK-47-P1K0-2019-D-D ; 426 ; 2019-07-01 14:28:45.123921 ; 57.3 
60 ; Ernage A ; 47 ; PK-47-P1K0-2019-D-D ; 426 ; 2019-07-01 14:28:45.930768 ; 57.29 
61 ; Ernage A ; 47 ; PK-47-P1K0-2019-D-D ; 426 ; 2019-07-01 14:28:46.776946 ; 57.28 
62 ; Ernage A ; 47 ; PK-47-P1K0-2019-D-D ; 426 ; 2019-07-01 14:28:47.628999 ; 57.21 
63 ; Ernage A ; 47 ; PK-47-P1K0-2019-D-D ; 426 ; 2019-07-01 14:28:48.484128 ; 57.01 
64 ; Ernage A ; 47 ; PK-47-P1K0-2019-D-D ; 426 ; 2019-07-01 14:28:49.337996 ; 56.87 
65 ; Ernage A ; 47 ; PK-47-P1K0-2019-D-D ; 426 ; 2019-07-01 14:28:50.186464 ; 56.79 
66 ; Ernage A ; 47 ; PK-47-P1K0-2019-D-D ; 426 ; 2019-07-01 14:28:51.043018 ; 56.61 
67 ; Ernage A ; 47 ; PK-47-P1K0-2019-D-D ; 426 ; 2019-07-01 14:28:51.903298 ; 56.46 
68 ; Ernage A ; 47 ; PK-47-P1K0-2019-D-D ; 426 ; 2019-07-01 14:28:52.745948 ; 56.38 
69 ; Ernage A ; 47 ; PK-47-P1K0-2019-D-D ; 426 ; 2019-07-01 14:28:53.604921 ; 56.4 
70 ; Ernage A ; 47 ; PK-47-P1K0-2019-D-D ; 426 ; 2019-07-01 14:28:54.456604 ; 56.41 
71 ; Ernage A ; 47 ; PK-47-P1K0-2019-D-D ; 426 ; 2019-07-01 14:28:55.308590 ; 56.42 
72 ; Ernage A ; 47 ; PK-47-P1K0-2019-D-D ; 426 ; 2019-07-01 14:28:56.161799 ; 56.42 
73 ; Ernage A ; 47 ; PK-47-P1K0-2019-D-D ; 426 ; 2019-07-01 14:28:57.010774 ; 56.4 
74 ; Ernage A ; 47 ; PK-47-P1K0-2019-D-D ; 426 ; 2019-07-01 14:28:57.873500 ; 56.34 
75 ; Ernage A ; 47 ; PK-47-P1K0-2019-D-D ; 426 ; 2019-07-01 14:28:58.671082 ; 56.25 
76 ; Ernage A ; 47 ; PK-47-P1K0-2019-D-D ; 426 ; 2019-07-01 14:28:59.523332 ; 56.2 
77 ; Ernage A ; 47 ; PK-47-P1K0-2019-D-D ; 426 ; 2019-07-01 14:29:00.431271 ; 56.22 
78 ; Ernage A ; 47 ; PK-47-P1K0-2019-D-D ; 426 ; 2019-07-01 14:29:01.286654 ; 56.22 
79 ; Ernage A ; 47 ; PK-47-P1K0-2019-D-D ; 426 ; 2019-07-01 14:29:02.127529 ; 56.22 
80 ; Ernage A ; 47 ; PK-47-P1K0-2019-D-D ; 426 ; 2019-07-01 14:29:02.994997 ; 56.21 
81 ; Ernage A ; 47 ; PK-47-P1K0-2019-D-D ; 426 ; 2019-07-01 14:29:03.838029 ; 56.13 
82 ; Ernage A ; 47 ; PK-47-P1K0-2019-D-D ; 426 ; 2019-07-01 14:29:04.589727 ; 56.13 
83 ; Ernage A ; 47 ; PK-47-P1K0-2019-D-D ; 426 ; 2019-07-01 14:29:05.438481 ; 55.99 
84 ; Ernage A ; 47 ; PK-47-P1K0-2019-D-D ; 426 ; 2019-07-01 14:29:06.244611 ; 55.86 
85 ; Ernage A ; 47 ; PK-47-P1K0-2019-D-D ; 426 ; 2019-07-01 14:29:07.037403 ; 55.74 
86 ; Ernage A ; 47 ; PK-47-P1K0-2019-D-D ; 426 ; 2019-07-01 14:29:07.842795 ; 55.6 
87 ; Ernage A ; 47 ; PK-47-P1K0-2019-D-D ; 426 ; 2019-07-01 14:29:08.650840 ; 55.57 
88 ; Ernage A ; 47 ; PK-47-P1K0-2019-D-D ; 426 ; 2019-07-01 14:29:09.496952 ; 55.57 
89 ; Ernage A ; 47 ; PK-47-P1K0-2019-D-D ; 426 ; 2019-07-01 14:29:10.347366 ; 55.56 
90 ; Ernage A ; 47 ; PK-47-P1K0-2019-D-D ; 426 ; 2019-07-01 14:29:11.206374 ; 55.56 
91 ; Ernage A ; 47 ; PK-47-P1K0-2019-D-D ; 426 ; 2019-07-01 14:29:12.045838 ; 55.53 
92 ; Ernage A ; 47 ; PK-47-P1K0-2019-D-D ; 426 ; 2019-07-01 14:29:12.915404 ; 55.5 
93 ; Ernage A ; 47 ; PK-47-P1K0-2019-D-D ; 426 ; 2019-07-01 14:29:13.709933 ; 55.52 
94 ; Ernage A ; 47 ; PK-47-P1K0-2019-D-D ; 426 ; 2019-07-01 14:29:14.568006 ; 55.52 
95 ; Ernage A ; 47 ; PK-47-P1K0-2019-D-D ; 426 ; 2019-07-01 14:29:15.413388 ; 55.51 
96 ; Ernage A ; 47 ; PK-47-P1K0-2019-D-D ; 426 ; 2019-07-01 14:29:16.270169 ; 55.51 
97 ; Ernage A ; 47 ; PK-47-P1K0-2019-D-D ; 426 ; 2019-07-01 14:29:17.113066 ; 55.51 
98 ; Ernage A ; 47 ; PK-47-P1K0-2019-D-D ; 426 ; 2019-07-01 14:29:17.971086 ; 55.5 
99 ; Ernage A ; 47 ; PK-47-P1K0-2019-D-D ; 426 ; 2019-07-01 14:29:18.827686 ; 55.45 
100 ; Ernage A ; 47 ; PK-47-P1K0-2019-D-D ; 426 ; 2019-07-01 14:29:19.738574 ; 55.43 
101 ; Ernage A ; 47 ; PK-47-P1K0-2019-D-D ; 426 ; 2019-07-01 14:29:20.699415 ; 55.45 
102 ; Ernage A ; 47 ; PK-47-P1K0-2019-D-D ; 426 ; 2019-07-01 14:29:21.604716 ; 55.4 
103 ; Ernage A ; 47 ; PK-47-P1K0-2019-D-D ; 426 ; 2019-07-01 14:29:22.507798 ; 55.4 
104 ; Ernage A ; 47 ; PK-47-P1K0-2019-D-D ; 426 ; 2019-07-01 14:29:23.359914 ; 55.4 
105 ; Ernage A ; 47 ; PK-47-P1K0-2019-D-D ; 426 ; 2019-07-01 14:29:24.212004 ; 55.39 
106 ; Ernage A ; 47 ; PK-47-P1K0-2019-D-D ; 426 ; 2019-07-01 14:29:25.063941 ; 55.4 
107 ; Ernage A ; 47 ; PK-47-P1K0-2019-D-D ; 426 ; 2019-07-01 14:29:25.928154 ; 55.39 
108 ; Ernage A ; 47 ; PK-47-P1K0-2019-D-D ; 426 ; 2019-07-01 14:29:26.776276 ; 55.38 
109 ; Ernage A ; 47 ; PK-47-P1K0-2019-D-D ; 426 ; 2019-07-01 14:29:27.632265 ; 55.25 
110 ; Ernage A ; 47 ; PK-47-P1K0-2019-D-D ; 426 ; 2019-07-01 14:29:28.592002 ; 55.14 
111 ; Ernage A ; 47 ; PK-47-P1K0-2019-D-D ; 426 ; 2019-07-01 14:29:29.440971 ; 55.06 
112 ; Ernage A ; 47 ; PK-47-P1K0-2019-D-D ; 426 ; 2019-07-01 14:29:30.296659 ; 55.05 
113 ; Ernage A ; 47 ; PK-47-P1K0-2019-D-D ; 426 ; 2019-07-01 14:29:31.093772 ; 55.04 
114 ; Ernage A ; 47 ; PK-47-P1K0-2019-D-D ; 426 ; 2019-07-01 14:29:31.953255 ; 55.01 
115 ; Ernage A ; 47 ; PK-47-P1K0-2019-D-D ; 426 ; 2019-07-01 14:29:32.804343 ; 55.03 
116 ; Ernage A ; 47 ; PK-47-P1K0-2019-D-D ; 426 ; 2019-07-01 14:29:33.710303 ; 55.01 
117 ; Ernage A ; 47 ; PK-47-P1K0-2019-D-D ; 426 ; 2019-07-01 14:29:34.562549 ; 54.97 
118 ; Ernage A ; 47 ; PK-47-P1K0-2019-D-D ; 426 ; 2019-07-01 14:29:35.417663 ; 54.96 
119 ; Ernage A ; 47 ; PK-47-P1K0-2019-D-D ; 426 ; 2019-07-01 14:29:36.380132 ; 54.92 
120 ; Ernage A ; 47 ; PK-47-P1K0-2019-D-D ; 426 ; 2019-07-01 14:29:37.286160 ; 54.72 
121 ; Ernage A ; 47 ; PK-47-P1K0-2019-D-D ; 426 ; 2019-07-01 14:29:38.077025 ; 54.6 
122 ; Ernage A ; 47 ; PK-47-P1K0-2019-D-D ; 426 ; 2019-07-01 14:29:38.882523 ; 54.49 
123 ; Ernage A ; 47 ; PK-47-P1K0-2019-D-D ; 426 ; 2019-07-01 14:29:39.681768 ; 54.45 
124 ; Ernage A ; 47 ; PK-47-P1K0-2019-D-D ; 426 ; 2019-07-01 14:29:40.484690 ; 54.45 
125 ; Ernage A ; 47 ; PK-47-P1K0-2019-D-D ; 426 ; 2019-07-01 14:29:41.336868 ; 54.45 
126 ; Ernage A ; 47 ; PK-47-P1K0-2019-D-D ; 426 ; 2019-07-01 14:29:42.181264 ; 54.44 
127 ; Ernage A ; 47 ; PK-47-P1K0-2019-D-D ; 426 ; 2019-07-01 14:29:43.049910 ; 54.43 
128 ; Ernage A ; 47 ; PK-47-P1K0-2019-D-D ; 426 ; 2019-07-01 14:29:43.896411 ; 54.42 
129 ; Ernage A ; 47 ; PK-47-P1K0-2019-D-D ; 426 ; 2019-07-01 14:29:44.753424 ; 54.43 
130 ; Ernage A ; 47 ; PK-47-P1K0-2019-D-D ; 426 ; 2019-07-01 14:29:45.605132 ; 54.27 
131 ; Ernage A ; 47 ; PK-47-P1K0-2019-D-D ; 426 ; 2019-07-01 14:29:46.508827 ; 53.94 
132 ; Ernage A ; 47 ; PK-47-P1K0-2019-D-D ; 426 ; 2019-07-01 14:29:47.417571 ; 53.82 
133 ; Ernage A ; 47 ; PK-47-P1K0-2019-D-D ; 426 ; 2019-07-01 14:29:48.379914 ; 53.78 
134 ; Ernage A ; 47 ; PK-47-P1K0-2019-D-D ; 426 ; 2019-07-01 14:29:49.173971 ; 53.69 
135 ; Ernage A ; 47 ; PK-47-P1K0-2019-D-D ; 426 ; 2019-07-01 14:29:49.972445 ; 53.59 
136 ; Ernage A ; 47 ; PK-47-P1K0-2019-D-D ; 426 ; 2019-07-01 14:29:50.777581 ; 53.58 
137 ; Ernage A ; 47 ; PK-47-P1K0-2019-D-D ; 426 ; 2019-07-01 14:29:51.525247 ; 53.49 
138 ; Ernage A ; 47 ; PK-47-P1K0-2019-D-D ; 426 ; 2019-07-01 14:29:52.324961 ; 53.47 
139 ; Ernage A ; 47 ; PK-47-P1K0-2019-D-D ; 426 ; 2019-07-01 14:29:53.172450 ; 53.33 
140 ; Ernage A ; 47 ; PK-47-P1K0-2019-D-D ; 426 ; 2019-07-01 14:29:54.142236 ; 53.26 
141 ; Ernage A ; 47 ; PK-47-P1K0-2019-D-D ; 426 ; 2019-07-01 14:29:54.987419 ; 53.26 
142 ; Ernage A ; 47 ; PK-47-P1K0-2019-D-D ; 426 ; 2019-07-01 14:29:55.730100 ; 53.23 
143 ; Ernage A ; 47 ; PK-47-P1K0-2019-D-D ; 426 ; 2019-07-01 14:29:56.589495 ; 53.22 
144 ; Ernage A ; 47 ; PK-47-P1K0-2019-D-D ; 426 ; 2019-07-01 14:29:57.443746 ; 53.19 
145 ; Ernage A ; 47 ; PK-47-P1K0-2019-D-D ; 426 ; 2019-07-01 14:29:58.245985 ; 53.04 
146 ; Ernage A ; 47 ; PK-47-P1K0-2019-D-D ; 426 ; 2019-07-01 14:29:58.990710 ; 52.91 
147 ; Ernage A ; 47 ; PK-47-P1K0-2019-D-D ; 426 ; 2019-07-01 14:29:59.844931 ; 52.84 
148 ; Ernage A ; 47 ; PK-47-P1K0-2019-D-D ; 426 ; 2019-07-01 14:30:00.823322 ; 52.82 
149 ; Ernage A ; 47 ; PK-47-P1K0-2019-D-D ; 426 ; 2019-07-01 14:30:01.763307 ; 52.81 
150 ; Ernage A ; 47 ; PK-47-P1K0-2019-D-D ; 426 ; 2019-07-01 14:30:02.616602 ; 52.81 
151 ; Ernage A ; 47 ; PK-47-P1K0-2019-D-D ; 426 ; 2019-07-01 14:30:03.520674 ; 52.78 
152 ; Ernage A ; 47 ; PK-47-P1K0-2019-D-D ; 426 ; 2019-07-01 14:30:04.269238 ; 52.59 
153 ; Ernage A ; 47 ; PK-47-P1K0-2019-D-D ; 426 ; 2019-07-01 14:30:05.124229 ; 52.48 
154 ; Ernage A ; 47 ; PK-47-P1K0-2019-D-D ; 426 ; 2019-07-01 14:30:05.983827 ; 52.48 
155 ; Ernage A ; 47 ; PK-47-P1K0-2019-D-D ; 426 ; 2019-07-01 14:30:06.824250 ; 52.45 
156 ; Ernage A ; 47 ; PK-47-P1K0-2019-D-D ; 426 ; 2019-07-01 14:30:07.684381 ; 52.43 
157 ; Ernage A ; 47 ; PK-47-P1K0-2019-D-D ; 426 ; 2019-07-01 14:30:08.590907 ; 52.43 
158 ; Ernage A ; 47 ; PK-47-P1K0-2019-D-D ; 426 ; 2019-07-01 14:30:09.334707 ; 52.29 
159 ; Ernage A ; 47 ; PK-47-P1K0-2019-D-D ; 426 ; 2019-07-01 14:30:10.082438 ; 52.21 
160 ; Ernage A ; 47 ; PK-47-P1K0-2019-D-D ; 426 ; 2019-07-01 14:30:10.937297 ; 52.16 
161 ; Ernage A ; 47 ; PK-47-P1K0-2019-D-D ; 426 ; 2019-07-01 14:30:11.898845 ; 52.12 
162 ; Ernage A ; 47 ; PK-47-P1K0-2019-D-D ; 426 ; 2019-07-01 14:30:12.698172 ; 52.12 
163 ; Ernage A ; 47 ; PK-47-P1K0-2019-D-D ; 426 ; 2019-07-01 14:30:13.545324 ; 52.11 
164 ; Ernage A ; 47 ; PK-47-P1K0-2019-D-D ; 426 ; 2019-07-01 14:30:14.402420 ; 51.99 
165 ; Ernage A ; 47 ; PK-47-P1K0-2019-D-D ; 426 ; 2019-07-01 14:30:15.255794 ; 51.71 
166 ; Ernage A ; 47 ; PK-47-P1K0-2019-D-D ; 426 ; 2019-07-01 14:30:16.229798 ; 51.55 
167 ; Ernage A ; 47 ; PK-47-P1K0-2019-D-D ; 426 ; 2019-07-01 14:30:17.069449 ; 51.37 
168 ; Ernage A ; 47 ; PK-47-P1K0-2019-D-D ; 426 ; 2019-07-01 14:30:17.816878 ; 51.24 
169 ; Ernage A ; 47 ; PK-47-P1K0-2019-D-D ; 426 ; 2019-07-01 14:30:18.723172 ; 51.18 
170 ; Ernage A ; 47 ; PK-47-P1K0-2019-D-D ; 426 ; 2019-07-01 14:30:19.471282 ; 51.09 
171 ; Ernage A ; 47 ; PK-47-P1K0-2019-D-D ; 426 ; 2019-07-01 14:30:20.321656 ; 51.05 
172 ; Ernage A ; 47 ; PK-47-P1K0-2019-D-D ; 426 ; 2019-07-01 14:30:21.122308 ; 51.05 
173 ; Ernage A ; 47 ; PK-47-P1K0-2019-D-D ; 426 ; 2019-07-01 14:30:21.967240 ; 51.04 
174 ; Ernage A ; 47 ; PK-47-P1K0-2019-D-D ; 426 ; 2019-07-01 14:30:22.779722 ; 51.01 
175 ; Ernage A ; 47 ; PK-47-P1K0-2019-D-D ; 426 ; 2019-07-01 14:30:23.579289 ; 50.93 
176 ; Ernage A ; 47 ; PK-47-P1K0-2019-D-D ; 426 ; 2019-07-01 14:30:24.320778 ; 50.84 
177 ; Ernage A ; 47 ; PK-47-P1K0-2019-D-D ; 426 ; 2019-07-01 14:30:25.172808 ; 50.81 
178 ; Ernage A ; 47 ; PK-47-P1K0-2019-D-D ; 426 ; 2019-07-01 14:30:26.083628 ; 50.79 
179 ; Ernage A ; 47 ; PK-47-P1K0-2019-D-D ; 426 ; 2019-07-01 14:30:26.992003 ; 50.71 
180 ; Ernage A ; 47 ; PK-47-P1K0-2019-D-D ; 426 ; 2019-07-01 14:30:27.898978 ; 50.7 
181 ; Ernage A ; 47 ; PK-47-P1K0-2019-D-D ; 426 ; 2019-07-01 14:30:28.749024 ; 50.68 
182 ; Ernage A ; 47 ; PK-47-P1K0-2019-D-D ; 426 ; 2019-07-01 14:30:29.655598 ; 50.65 
183 ; Ernage A ; 47 ; PK-47-P1K0-2019-D-D ; 426 ; 2019-07-01 14:30:30.562613 ; 50.58 
184 ; Ernage A ; 47 ; PK-47-P1K0-2019-D-D ; 426 ; 2019-07-01 14:30:31.363860 ; 50.51 
185 ; Ernage A ; 47 ; PK-47-P1K0-2019-D-D ; 426 ; 2019-07-01 14:30:32.274466 ; 50.45 
186 ; Ernage A ; 47 ; PK-47-P1K0-2019-D-D ; 426 ; 2019-07-01 14:30:33.067649 ; 50.31 
187 ; Ernage A ; 47 ; PK-47-P1K0-2019-D-D ; 426 ; 2019-07-01 14:30:33.976927 ; 50.2 
188 ; Ernage A ; 47 ; PK-47-P1K0-2019-D-D ; 426 ; 2019-07-01 14:30:34.884569 ; 50.12 
189 ; Ernage A ; 47 ; PK-47-P1K0-2019-D-D ; 426 ; 2019-07-01 14:30:35.789720 ; 50.07 
190 ; Ernage A ; 47 ; PK-47-P1K0-2019-D-D ; 426 ; 2019-07-01 14:30:36.643209 ; 50.03 
191 ; Ernage A ; 47 ; PK-47-P1K0-2019-D-D ; 426 ; 2019-07-01 14:30:37.392548 ; 49.98 
192 ; Ernage A ; 47 ; PK-47-P1K0-2019-D-D ; 426 ; 2019-07-01 14:30:38.248696 ; 49.94 
193 ; Ernage A ; 47 ; PK-47-P1K0-2019-D-D ; 426 ; 2019-07-01 14:30:39.038390 ; 49.94 
194 ; Ernage A ; 47 ; PK-47-P1K0-2019-D-D ; 426 ; 2019-07-01 14:30:39.895224 ; 49.94 
195 ; Ernage A ; 47 ; PK-47-P1K0-2019-D-D ; 426 ; 2019-07-01 14:30:40.747436 ; 49.93 
196 ; Ernage A ; 47 ; PK-47-P1K0-2019-D-D ; 426 ; 2019-07-01 14:30:41.499396 ; 49.88 
197 ; Ernage A ; 47 ; PK-47-P1K0-2019-D-D ; 426 ; 2019-07-01 14:30:42.351972 ; 49.77 
198 ; Ernage A ; 47 ; PK-47-P1K0-2019-D-D ; 426 ; 2019-07-01 14:30:43.254787 ; 49.62 
199 ; Ernage A ; 47 ; PK-47-P1K0-2019-D-D ; 426 ; 2019-07-01 14:30:44.109723 ; 49.47 
200 ; Ernage A ; 47 ; PK-47-P1K0-2019-D-D ; 426 ; 2019-07-01 14:30:44.963978 ; 49.36 
201 ; Ernage A ; 47 ; PK-47-P1K0-2019-D-D ; 426 ; 2019-07-01 14:30:45.823276 ; 49.25 
202 ; Ernage A ; 47 ; PK-47-P1K0-2019-D-D ; 426 ; 2019-07-01 14:30:46.672930 ; 49.14 
203 ; Ernage A ; 47 ; PK-47-P1K0-2019-D-D ; 426 ; 2019-07-01 14:30:47.525081 ; 49.06 
204 ; Ernage A ; 47 ; PK-47-P1K0-2019-D-D ; 426 ; 2019-07-01 14:30:48.379945 ; 49 
205 ; Ernage A ; 47 ; PK-47-P1K0-2019-D-D ; 426 ; 2019-07-01 14:30:49.234657 ; 48.98 
206 ; Ernage A ; 47 ; PK-47-P1K0-2019-D-D ; 426 ; 2019-07-01 14:30:50.025026 ; 48.96 
207 ; Ernage A ; 47 ; PK-47-P1K0-2019-D-D ; 426 ; 2019-07-01 14:30:50.881224 ; 48.98 
208 ; Ernage A ; 47 ; PK-47-P1K0-2019-D-D ; 426 ; 2019-07-01 14:30:51.630204 ; 48.93 
209 ; Ernage A ; 47 ; PK-47-P1K0-2019-D-D ; 426 ; 2019-07-01 14:30:52.488544 ; 48.93 
210 ; Ernage A ; 47 ; PK-47-P1K0-2019-D-D ; 426 ; 2019-07-01 14:30:53.385912 ; 48.9 
211 ; Ernage A ; 47 ; PK-47-P1K0-2019-D-D ; 426 ; 2019-07-01 14:30:54.243223 ; 48.76 
212 ; Ernage A ; 47 ; PK-47-P1K0-2019-D-D ; 426 ; 2019-07-01 14:30:55.203236 ; 48.71 
213 ; Ernage A ; 47 ; PK-47-P1K0-2019-D-D ; 426 ; 2019-07-01 14:30:56.166482 ; 48.7 
214 ; Ernage A ; 47 ; PK-47-P1K0-2019-D-D ; 426 ; 2019-07-01 14:31:07.026230 ; 47.84 
215 ; Ernage A ; 47 ; PK-47-P1K0-2019-D-D ; 426 ; 2019-07-01 14:31:17.742951 ; 47.05 
216 ; Ernage A ; 47 ; PK-47-P1K0-2019-D-D ; 426 ; 2019-07-01 14:31:28.629424 ; 46.06 
217 ; Ernage A ; 47 ; PK-47-P1K0-2019-D-D ; 426 ; 2019-07-01 14:31:39.447322 ; 45.66 
218 ; Ernage A ; 47 ; PK-47-P1K0-2019-D-D ; 426 ; 2019-07-01 14:31:50.338796 ; 44.28 
219 ; Ernage A ; 47 ; PK-47-P1K0-2019-D-D ; 426 ; 2019-07-01 14:32:01.153811 ; 43.52 
220 ; Ernage A ; 47 ; PK-47-P1K0-2019-D-D ; 426 ; 2019-07-01 14:32:12.033514 ; 42.69 
221 ; Ernage A ; 47 ; PK-47-P1K0-2019-D-D ; 426 ; 2019-07-01 14:32:22.967182 ; 42.13 
222 ; Ernage A ; 47 ; PK-47-P1K0-2019-D-D ; 426 ; 2019-07-01 14:32:33.809574 ; 41.8 
223 ; Ernage A ; 47 ; PK-47-P1K0-2019-D-D ; 426 ; 2019-07-01 14:32:44.674597 ; 40.82 
224 ; Ernage A ; 47 ; PK-47-P1K0-2019-D-D ; 426 ; 2019-07-01 14:32:55.556774 ; 40.17 
225 ; Ernage A ; 47 ; PK-47-P1K0-2019-D-D ; 426 ; 2019-07-01 14:33:06.549191 ; 39.71 
226 ; Ernage A ; 47 ; PK-47-P1K0-2019-D-D ; 426 ; 2019-07-01 14:33:17.317689 ; 39.34 
227 ; Ernage A ; 47 ; PK-47-P1K0-2019-D-D ; 426 ; 2019-07-01 14:33:28.249373 ; 39.25 
228 ; Ernage A ; 47 ; PK-47-P1K0-2019-D-D ; 426 ; 2019-07-01 14:33:39.126787 ; 39 
229 ; Ernage A ; 47 ; PK-47-P1K0-2019-D-D ; 426 ; 2019-07-01 14:33:50.112432 ; 38.86 
230 ; Ernage A ; 47 ; PK-47-P1K0-2019-D-D ; 426 ; 2019-07-01 14:34:00.945232 ; 38.65 
231 ; Ernage A ; 47 ; PK-47-P1K0-2019-D-D ; 426 ; 2019-07-01 14:34:11.820922 ; 38.55 
232 ; Ernage A ; 47 ; PK-47-P1K0-2019-D-D ; 426 ; 2019-07-01 14:34:22.647524 ; 38.52 
233 ; Ernage A ; 47 ; PK-47-P1K0-2019-D-D ; 426 ; 2019-07-01 14:34:33.535028 ; 37.96 
234 ; Ernage A ; 47 ; PK-47-P1K0-2019-D-D ; 426 ; 2019-07-01 14:34:44.356296 ; 37.73 
235 ; Ernage A ; 47 ; PK-47-P1K0-2019-D-D ; 426 ; 2019-07-01 14:34:55.179977 ; 37.65 
236 ; Ernage A ; 47 ; PK-47-P1K0-2019-D-D ; 426 ; 2019-07-01 14:35:06.068094 ; 37.59 
237 ; Ernage A ; 47 ; PK-47-P1K0-2019-D-D ; 426 ; 2019-07-01 14:35:16.780681 ; 37.51 
238 ; Ernage A ; 47 ; PK-47-P1K0-2019-D-D ; 426 ; 2019-07-01 14:35:27.661877 ; 37.26 
239 ; Ernage A ; 47 ; PK-47-P1K0-2019-D-D ; 426 ; 2019-07-01 14:35:38.488911 ; 37.23 
240 ; Ernage A ; 47 ; PK-47-P1K0-2019-D-D ; 426 ; 2019-07-01 14:35:49.368967 ; 37.12 
241 ; Ernage A ; 47 ; PK-47-P1K0-2019-D-D ; 426 ; 2019-07-01 14:36:00.358636 ; 37.06 
242 ; Ernage A ; 47 ; PK-47-P1K0-2019-D-D ; 426 ; 2019-07-01 14:36:11.187609 ; 36.66 
243 ; Ernage A ; 47 ; PK-47-P1K0-2019-D-D ; 426 ; 2019-07-01 14:36:22.168494 ; 36.59 
244 ; Ernage A ; 47 ; PK-47-P1K0-2019-D-D ; 426 ; 2019-07-01 14:36:33.052012 ; 36.52 
245 ; Ernage A ; 47 ; PK-47-P1K0-2019-D-D ; 426 ; 2019-07-01 14:36:43.771439 ; 36.28 
246 ; Ernage A ; 47 ; PK-47-P1K0-2019-D-D ; 426 ; 2019-07-01 14:36:54.597130 ; 36.23 
247 ; Ernage A ; 47 ; PK-47-P1K0-2019-D-D ; 426 ; 2019-07-01 14:37:05.479126 ; 36.17 
248 ; Ernage A ; 47 ; PK-47-P1K0-2019-D-D ; 426 ; 2019-07-01 14:37:16.359768 ; 36.16 
249 ; Ernage A ; 47 ; PK-47-P1K0-2019-D-D ; 426 ; 2019-07-01 14:37:27.233694 ; 36.14 
250 ; Ernage A ; 47 ; PK-47-P1K0-2019-D-D ; 426 ; 2019-07-01 14:37:38.222757 ; 36.1 
251 ; Ernage A ; 47 ; PK-47-P1K0-2019-D-D ; 426 ; 2019-07-01 14:37:49.104841 ; 36.04 
252 ; Ernage A ; 47 ; PK-47-P1K0-2019-D-D ; 426 ; 2019-07-01 14:38:00.039994 ; 35.97 
253 ; Ernage A ; 47 ; PK-47-P1K0-2019-D-D ; 426 ; 2019-07-01 14:38:30.966843 ; 35.86 
254 ; Ernage A ; 47 ; PK-47-P1K0-2019-D-D ; 426 ; 2019-07-01 14:39:01.848307 ; 32.33 
255 ; Ernage A ; 47 ; PK-47-P1K0-2019-D-D ; 426 ; 2019-07-01 14:39:32.834889 ; 31.28 
256 ; Ernage A ; 47 ; PK-47-P1K0-2019-D-D ; 426 ; 2019-07-01 14:40:03.785064 ; 31.21 
257 ; Ernage A ; 47 ; PK-47-P1K0-2019-D-D ; 426 ; 2019-07-01 14:40:34.648561 ; 31.16 
258 ; Ernage A ; 47 ; PK-47-P1K0-2019-D-D ; 426 ; 2019-07-01 14:41:05.582926 ; 31.14 
259 ; Ernage A ; 47 ; PK-47-P1K0-2019-D-D ; 426 ; 2019-07-01 14:41:36.517058 ; 31.1 
260 ; Ernage A ; 47 ; PK-47-P1K0-2019-D-D ; 426 ; 2019-07-01 14:42:07.455461 ; 31.07 
261 ; Ernage A ; 47 ; PK-47-P1K0-2019-D-D ; 426 ; 2019-07-01 14:42:38.275886 ; 31.02 
262 ; Ernage A ; 47 ; PK-47-P1K0-2019-D-D ; 426 ; 2019-07-01 14:43:09.260864 ; 30.93 
263 ; Ernage A ; 47 ; PK-47-P1K0-2019-D-D ; 426 ; 2019-07-01 14:43:40.250121 ; 30.9 
264 ; Ernage A ; 47 ; PK-47-P1K0-2019-D-D ; 426 ; 2019-07-01 14:44:11.180944 ; 30.86 
265 ; Ernage A ; 47 ; PK-47-P1K0-2019-D-D ; 426 ; 2019-07-01 14:44:42.067901 ; 30.86 
266 ; Ernage A ; 47 ; PK-47-P1K0-2019-D-D ; 426 ; 2019-07-01 14:45:12.994048 ; 30.84 
267 ; Ernage A ; 47 ; PK-47-P1K0-2019-D-D ; 426 ; 2019-07-01 14:45:43.825659 ; 30.83 
268 ; Ernage A ; 47 ; PK-47-P1K0-2019-D-D ; 426 ; 2019-07-01 14:46:14.758088 ; 30.82 
269 ; Ernage A ; 47 ; PK-47-P1K0-2019-D-D ; 426 ; 2019-07-01 14:46:45.694296 ; 30.83 
270 ; Ernage A ; 47 ; PK-47-P1K0-2019-D-D ; 426 ; 2019-07-01 14:47:16.623373 ; 30.82 
271 ; Ernage A ; 47 ; PK-47-P1K0-2019-D-D ; 426 ; 2019-07-01 14:47:47.562737 ; 30.81 
272 ; Ernage A ; 47 ; PK-47-P1K0-2019-D-D ; 426 ; 2019-07-01 14:48:18.546999 ; 30.81 
273 ; Ernage A ; 47 ; PK-47-P1K0-2019-D-D ; 426 ; 2019-07-01 14:48:49.508457 ; 30.73 
