i ; campaign ; serie ; sample ; slake ; time ; mass 
1 ; Longs Tours ; 30 ; LT-30-2019-D-A ; 468 ; 2019-07-02 16:20:41.987831 ; 143.61 
2 ; Longs Tours ; 30 ; LT-30-2019-D-A ; 468 ; 2019-07-02 16:20:42.839422 ; 143.55 
3 ; Longs Tours ; 30 ; LT-30-2019-D-A ; 468 ; 2019-07-02 16:20:43.594303 ; 143.4 
4 ; Longs Tours ; 30 ; LT-30-2019-D-A ; 468 ; 2019-07-02 16:20:44.359073 ; 143.41 
5 ; Longs Tours ; 30 ; LT-30-2019-D-A ; 468 ; 2019-07-02 16:20:45.190127 ; 143.4 
6 ; Longs Tours ; 30 ; LT-30-2019-D-A ; 468 ; 2019-07-02 16:20:46.046087 ; 143.4 
7 ; Longs Tours ; 30 ; LT-30-2019-D-A ; 468 ; 2019-07-02 16:20:46.897181 ; 143.4 
8 ; Longs Tours ; 30 ; LT-30-2019-D-A ; 468 ; 2019-07-02 16:20:47.748392 ; 125.13 
9 ; Longs Tours ; 30 ; LT-30-2019-D-A ; 468 ; 2019-07-02 16:20:48.606754 ; 58.99 
10 ; Longs Tours ; 30 ; LT-30-2019-D-A ; 468 ; 2019-07-02 16:20:49.570351 ; 55.79 
11 ; Longs Tours ; 30 ; LT-30-2019-D-A ; 468 ; 2019-07-02 16:20:50.527188 ; 56.29 
12 ; Longs Tours ; 30 ; LT-30-2019-D-A ; 468 ; 2019-07-02 16:20:51.521443 ; 59.46 
13 ; Longs Tours ; 30 ; LT-30-2019-D-A ; 468 ; 2019-07-02 16:20:52.451074 ; 61.48 
14 ; Longs Tours ; 30 ; LT-30-2019-D-A ; 468 ; 2019-07-02 16:20:53.410803 ; 61.59 
15 ; Longs Tours ; 30 ; LT-30-2019-D-A ; 468 ; 2019-07-02 16:20:54.363897 ; 61.16 
16 ; Longs Tours ; 30 ; LT-30-2019-D-A ; 468 ; 2019-07-02 16:20:55.328486 ; 60.99 
17 ; Longs Tours ; 30 ; LT-30-2019-D-A ; 468 ; 2019-07-02 16:20:56.289579 ; 61.26 
18 ; Longs Tours ; 30 ; LT-30-2019-D-A ; 468 ; 2019-07-02 16:20:57.246286 ; 61.25 
19 ; Longs Tours ; 30 ; LT-30-2019-D-A ; 468 ; 2019-07-02 16:20:58.101129 ; 61.24 
20 ; Longs Tours ; 30 ; LT-30-2019-D-A ; 468 ; 2019-07-02 16:20:58.865251 ; 60.88 
21 ; Longs Tours ; 30 ; LT-30-2019-D-A ; 468 ; 2019-07-02 16:20:59.757637 ; 60.65 
22 ; Longs Tours ; 30 ; LT-30-2019-D-A ; 468 ; 2019-07-02 16:21:00.665652 ; 60.59 
23 ; Longs Tours ; 30 ; LT-30-2019-D-A ; 468 ; 2019-07-02 16:21:01.512271 ; 60.5 
24 ; Longs Tours ; 30 ; LT-30-2019-D-A ; 468 ; 2019-07-02 16:21:02.365383 ; 60.46 
25 ; Longs Tours ; 30 ; LT-30-2019-D-A ; 468 ; 2019-07-02 16:21:03.105524 ; 60.33 
26 ; Longs Tours ; 30 ; LT-30-2019-D-A ; 468 ; 2019-07-02 16:21:03.915698 ; 60.1 
27 ; Longs Tours ; 30 ; LT-30-2019-D-A ; 468 ; 2019-07-02 16:21:04.659044 ; 60 
28 ; Longs Tours ; 30 ; LT-30-2019-D-A ; 468 ; 2019-07-02 16:21:05.579738 ; 59.77 
29 ; Longs Tours ; 30 ; LT-30-2019-D-A ; 468 ; 2019-07-02 16:21:06.469632 ; 59.45 
30 ; Longs Tours ; 30 ; LT-30-2019-D-A ; 468 ; 2019-07-02 16:21:07.379084 ; 59.27 
31 ; Longs Tours ; 30 ; LT-30-2019-D-A ; 468 ; 2019-07-02 16:21:08.332261 ; 59.09 
32 ; Longs Tours ; 30 ; LT-30-2019-D-A ; 468 ; 2019-07-02 16:21:09.252661 ; 58.97 
33 ; Longs Tours ; 30 ; LT-30-2019-D-A ; 468 ; 2019-07-02 16:21:10.157947 ; 58.94 
34 ; Longs Tours ; 30 ; LT-30-2019-D-A ; 468 ; 2019-07-02 16:21:11.064253 ; 58.86 
35 ; Longs Tours ; 30 ; LT-30-2019-D-A ; 468 ; 2019-07-02 16:21:11.866718 ; 58.67 
36 ; Longs Tours ; 30 ; LT-30-2019-D-A ; 468 ; 2019-07-02 16:21:12.852969 ; 58.52 
37 ; Longs Tours ; 30 ; LT-30-2019-D-A ; 468 ; 2019-07-02 16:21:13.679335 ; 58.29 
38 ; Longs Tours ; 30 ; LT-30-2019-D-A ; 468 ; 2019-07-02 16:21:14.423776 ; 58 
39 ; Longs Tours ; 30 ; LT-30-2019-D-A ; 468 ; 2019-07-02 16:21:15.164994 ; 57.69 
40 ; Longs Tours ; 30 ; LT-30-2019-D-A ; 468 ; 2019-07-02 16:21:15.917420 ; 57.34 
41 ; Longs Tours ; 30 ; LT-30-2019-D-A ; 468 ; 2019-07-02 16:21:16.660608 ; 56.96 
42 ; Longs Tours ; 30 ; LT-30-2019-D-A ; 468 ; 2019-07-02 16:21:17.408751 ; 56.71 
43 ; Longs Tours ; 30 ; LT-30-2019-D-A ; 468 ; 2019-07-02 16:21:18.152594 ; 56.41 
44 ; Longs Tours ; 30 ; LT-30-2019-D-A ; 468 ; 2019-07-02 16:21:18.919295 ; 56.2 
45 ; Longs Tours ; 30 ; LT-30-2019-D-A ; 468 ; 2019-07-02 16:21:19.650934 ; 56.04 
46 ; Longs Tours ; 30 ; LT-30-2019-D-A ; 468 ; 2019-07-02 16:21:20.397446 ; 55.93 
47 ; Longs Tours ; 30 ; LT-30-2019-D-A ; 468 ; 2019-07-02 16:21:21.138508 ; 55.73 
48 ; Longs Tours ; 30 ; LT-30-2019-D-A ; 468 ; 2019-07-02 16:21:21.890803 ; 55.37 
49 ; Longs Tours ; 30 ; LT-30-2019-D-A ; 468 ; 2019-07-02 16:21:22.636835 ; 54.93 
50 ; Longs Tours ; 30 ; LT-30-2019-D-A ; 468 ; 2019-07-02 16:21:23.383681 ; 54.68 
51 ; Longs Tours ; 30 ; LT-30-2019-D-A ; 468 ; 2019-07-02 16:21:24.123156 ; 54.54 
52 ; Longs Tours ; 30 ; LT-30-2019-D-A ; 468 ; 2019-07-02 16:21:24.897448 ; 54.33 
53 ; Longs Tours ; 30 ; LT-30-2019-D-A ; 468 ; 2019-07-02 16:21:25.621824 ; 54.11 
54 ; Longs Tours ; 30 ; LT-30-2019-D-A ; 468 ; 2019-07-02 16:21:26.372750 ; 53.91 
55 ; Longs Tours ; 30 ; LT-30-2019-D-A ; 468 ; 2019-07-02 16:21:27.110892 ; 53.76 
56 ; Longs Tours ; 30 ; LT-30-2019-D-A ; 468 ; 2019-07-02 16:21:27.857281 ; 53.6 
57 ; Longs Tours ; 30 ; LT-30-2019-D-A ; 468 ; 2019-07-02 16:21:28.609749 ; 53.38 
58 ; Longs Tours ; 30 ; LT-30-2019-D-A ; 468 ; 2019-07-02 16:21:29.352463 ; 53.06 
59 ; Longs Tours ; 30 ; LT-30-2019-D-A ; 468 ; 2019-07-02 16:21:30.099244 ; 52.64 
60 ; Longs Tours ; 30 ; LT-30-2019-D-A ; 468 ; 2019-07-02 16:21:30.859555 ; 52.01 
61 ; Longs Tours ; 30 ; LT-30-2019-D-A ; 468 ; 2019-07-02 16:21:31.590771 ; 51.57 
62 ; Longs Tours ; 30 ; LT-30-2019-D-A ; 468 ; 2019-07-02 16:21:32.337441 ; 51.32 
63 ; Longs Tours ; 30 ; LT-30-2019-D-A ; 468 ; 2019-07-02 16:21:33.078558 ; 51.11 
64 ; Longs Tours ; 30 ; LT-30-2019-D-A ; 468 ; 2019-07-02 16:21:33.827391 ; 51.01 
65 ; Longs Tours ; 30 ; LT-30-2019-D-A ; 468 ; 2019-07-02 16:21:34.580448 ; 50.74 
66 ; Longs Tours ; 30 ; LT-30-2019-D-A ; 468 ; 2019-07-02 16:21:35.323926 ; 50.35 
67 ; Longs Tours ; 30 ; LT-30-2019-D-A ; 468 ; 2019-07-02 16:21:36.068908 ; 50.11 
68 ; Longs Tours ; 30 ; LT-30-2019-D-A ; 468 ; 2019-07-02 16:21:36.841306 ; 49.93 
69 ; Longs Tours ; 30 ; LT-30-2019-D-A ; 468 ; 2019-07-02 16:21:37.563653 ; 49.76 
70 ; Longs Tours ; 30 ; LT-30-2019-D-A ; 468 ; 2019-07-02 16:21:38.309653 ; 49.6 
71 ; Longs Tours ; 30 ; LT-30-2019-D-A ; 468 ; 2019-07-02 16:21:39.054200 ; 49.42 
72 ; Longs Tours ; 30 ; LT-30-2019-D-A ; 468 ; 2019-07-02 16:21:39.817485 ; 49.19 
73 ; Longs Tours ; 30 ; LT-30-2019-D-A ; 468 ; 2019-07-02 16:21:40.556794 ; 48.97 
74 ; Longs Tours ; 30 ; LT-30-2019-D-A ; 468 ; 2019-07-02 16:21:41.299799 ; 48.8 
75 ; Longs Tours ; 30 ; LT-30-2019-D-A ; 468 ; 2019-07-02 16:21:42.036938 ; 48.59 
76 ; Longs Tours ; 30 ; LT-30-2019-D-A ; 468 ; 2019-07-02 16:21:42.824513 ; 48.46 
77 ; Longs Tours ; 30 ; LT-30-2019-D-A ; 468 ; 2019-07-02 16:21:43.541098 ; 48.39 
78 ; Longs Tours ; 30 ; LT-30-2019-D-A ; 468 ; 2019-07-02 16:21:44.283744 ; 48.31 
79 ; Longs Tours ; 30 ; LT-30-2019-D-A ; 468 ; 2019-07-02 16:21:45.025626 ; 48.2 
80 ; Longs Tours ; 30 ; LT-30-2019-D-A ; 468 ; 2019-07-02 16:21:45.794827 ; 47.94 
81 ; Longs Tours ; 30 ; LT-30-2019-D-A ; 468 ; 2019-07-02 16:21:46.527431 ; 47.7 
82 ; Longs Tours ; 30 ; LT-30-2019-D-A ; 468 ; 2019-07-02 16:21:47.271642 ; 47.53 
83 ; Longs Tours ; 30 ; LT-30-2019-D-A ; 468 ; 2019-07-02 16:21:48.013993 ; 47.29 
84 ; Longs Tours ; 30 ; LT-30-2019-D-A ; 468 ; 2019-07-02 16:21:48.795075 ; 46.97 
85 ; Longs Tours ; 30 ; LT-30-2019-D-A ; 468 ; 2019-07-02 16:21:49.514603 ; 46.65 
86 ; Longs Tours ; 30 ; LT-30-2019-D-A ; 468 ; 2019-07-02 16:21:50.259373 ; 46.5 
87 ; Longs Tours ; 30 ; LT-30-2019-D-A ; 468 ; 2019-07-02 16:21:50.999092 ; 46.33 
88 ; Longs Tours ; 30 ; LT-30-2019-D-A ; 468 ; 2019-07-02 16:21:51.764461 ; 46.1 
89 ; Longs Tours ; 30 ; LT-30-2019-D-A ; 468 ; 2019-07-02 16:21:52.500121 ; 45.77 
90 ; Longs Tours ; 30 ; LT-30-2019-D-A ; 468 ; 2019-07-02 16:21:53.247256 ; 45.33 
91 ; Longs Tours ; 30 ; LT-30-2019-D-A ; 468 ; 2019-07-02 16:21:53.991139 ; 44.94 
92 ; Longs Tours ; 30 ; LT-30-2019-D-A ; 468 ; 2019-07-02 16:21:54.762248 ; 44.63 
93 ; Longs Tours ; 30 ; LT-30-2019-D-A ; 468 ; 2019-07-02 16:21:55.483361 ; 44.38 
94 ; Longs Tours ; 30 ; LT-30-2019-D-A ; 468 ; 2019-07-02 16:21:56.230545 ; 44.24 
95 ; Longs Tours ; 30 ; LT-30-2019-D-A ; 468 ; 2019-07-02 16:21:56.976173 ; 44.09 
96 ; Longs Tours ; 30 ; LT-30-2019-D-A ; 468 ; 2019-07-02 16:21:57.723647 ; 43.89 
97 ; Longs Tours ; 30 ; LT-30-2019-D-A ; 468 ; 2019-07-02 16:21:58.470438 ; 43.77 
98 ; Longs Tours ; 30 ; LT-30-2019-D-A ; 468 ; 2019-07-02 16:21:59.217285 ; 43.57 
99 ; Longs Tours ; 30 ; LT-30-2019-D-A ; 468 ; 2019-07-02 16:21:59.959736 ; 43.41 
100 ; Longs Tours ; 30 ; LT-30-2019-D-A ; 468 ; 2019-07-02 16:22:00.727132 ; 43.26 
101 ; Longs Tours ; 30 ; LT-30-2019-D-A ; 468 ; 2019-07-02 16:22:01.460612 ; 43.1 
102 ; Longs Tours ; 30 ; LT-30-2019-D-A ; 468 ; 2019-07-02 16:22:02.204009 ; 42.93 
103 ; Longs Tours ; 30 ; LT-30-2019-D-A ; 468 ; 2019-07-02 16:22:02.949840 ; 42.76 
104 ; Longs Tours ; 30 ; LT-30-2019-D-A ; 468 ; 2019-07-02 16:22:03.699399 ; 42.67 
105 ; Longs Tours ; 30 ; LT-30-2019-D-A ; 468 ; 2019-07-02 16:22:04.445274 ; 42.54 
106 ; Longs Tours ; 30 ; LT-30-2019-D-A ; 468 ; 2019-07-02 16:22:05.190533 ; 42.38 
107 ; Longs Tours ; 30 ; LT-30-2019-D-A ; 468 ; 2019-07-02 16:22:05.935268 ; 42.24 
108 ; Longs Tours ; 30 ; LT-30-2019-D-A ; 468 ; 2019-07-02 16:22:06.700735 ; 42.15 
109 ; Longs Tours ; 30 ; LT-30-2019-D-A ; 468 ; 2019-07-02 16:22:07.436090 ; 42.05 
110 ; Longs Tours ; 30 ; LT-30-2019-D-A ; 468 ; 2019-07-02 16:22:08.176140 ; 41.94 
111 ; Longs Tours ; 30 ; LT-30-2019-D-A ; 468 ; 2019-07-02 16:22:08.924430 ; 41.78 
112 ; Longs Tours ; 30 ; LT-30-2019-D-A ; 468 ; 2019-07-02 16:22:09.673507 ; 41.67 
113 ; Longs Tours ; 30 ; LT-30-2019-D-A ; 468 ; 2019-07-02 16:22:10.417989 ; 41.53 
114 ; Longs Tours ; 30 ; LT-30-2019-D-A ; 468 ; 2019-07-02 16:22:11.175319 ; 41.36 
115 ; Longs Tours ; 30 ; LT-30-2019-D-A ; 468 ; 2019-07-02 16:22:11.915491 ; 41.16 
116 ; Longs Tours ; 30 ; LT-30-2019-D-A ; 468 ; 2019-07-02 16:22:12.678797 ; 41.02 
117 ; Longs Tours ; 30 ; LT-30-2019-D-A ; 468 ; 2019-07-02 16:22:13.406749 ; 40.94 
118 ; Longs Tours ; 30 ; LT-30-2019-D-A ; 468 ; 2019-07-02 16:22:14.149521 ; 40.76 
119 ; Longs Tours ; 30 ; LT-30-2019-D-A ; 468 ; 2019-07-02 16:22:14.904727 ; 40.58 
120 ; Longs Tours ; 30 ; LT-30-2019-D-A ; 468 ; 2019-07-02 16:22:15.649211 ; 40.47 
121 ; Longs Tours ; 30 ; LT-30-2019-D-A ; 468 ; 2019-07-02 16:22:16.396994 ; 40.43 
122 ; Longs Tours ; 30 ; LT-30-2019-D-A ; 468 ; 2019-07-02 16:22:17.242815 ; 40.37 
123 ; Longs Tours ; 30 ; LT-30-2019-D-A ; 468 ; 2019-07-02 16:22:18.104643 ; 40.21 
124 ; Longs Tours ; 30 ; LT-30-2019-D-A ; 468 ; 2019-07-02 16:22:19.024890 ; 40.09 
125 ; Longs Tours ; 30 ; LT-30-2019-D-A ; 468 ; 2019-07-02 16:22:19.915803 ; 39.99 
126 ; Longs Tours ; 30 ; LT-30-2019-D-A ; 468 ; 2019-07-02 16:22:20.824316 ; 39.9 
127 ; Longs Tours ; 30 ; LT-30-2019-D-A ; 468 ; 2019-07-02 16:22:21.728899 ; 39.8 
128 ; Longs Tours ; 30 ; LT-30-2019-D-A ; 468 ; 2019-07-02 16:22:22.635354 ; 39.69 
129 ; Longs Tours ; 30 ; LT-30-2019-D-A ; 468 ; 2019-07-02 16:22:23.382447 ; 39.59 
130 ; Longs Tours ; 30 ; LT-30-2019-D-A ; 468 ; 2019-07-02 16:22:24.176703 ; 39.56 
131 ; Longs Tours ; 30 ; LT-30-2019-D-A ; 468 ; 2019-07-02 16:22:24.982494 ; 39.47 
132 ; Longs Tours ; 30 ; LT-30-2019-D-A ; 468 ; 2019-07-02 16:22:25.744096 ; 39.27 
133 ; Longs Tours ; 30 ; LT-30-2019-D-A ; 468 ; 2019-07-02 16:22:26.530870 ; 38.9 
134 ; Longs Tours ; 30 ; LT-30-2019-D-A ; 468 ; 2019-07-02 16:22:27.329263 ; 38.62 
135 ; Longs Tours ; 30 ; LT-30-2019-D-A ; 468 ; 2019-07-02 16:22:28.069452 ; 38.5 
136 ; Longs Tours ; 30 ; LT-30-2019-D-A ; 468 ; 2019-07-02 16:22:28.875477 ; 38.34 
137 ; Longs Tours ; 30 ; LT-30-2019-D-A ; 468 ; 2019-07-02 16:22:29.676161 ; 38.25 
138 ; Longs Tours ; 30 ; LT-30-2019-D-A ; 468 ; 2019-07-02 16:22:30.421990 ; 38.14 
139 ; Longs Tours ; 30 ; LT-30-2019-D-A ; 468 ; 2019-07-02 16:22:31.229914 ; 38.08 
140 ; Longs Tours ; 30 ; LT-30-2019-D-A ; 468 ; 2019-07-02 16:22:32.022775 ; 38.04 
141 ; Longs Tours ; 30 ; LT-30-2019-D-A ; 468 ; 2019-07-02 16:22:32.874275 ; 37.98 
142 ; Longs Tours ; 30 ; LT-30-2019-D-A ; 468 ; 2019-07-02 16:22:33.675867 ; 37.8 
143 ; Longs Tours ; 30 ; LT-30-2019-D-A ; 468 ; 2019-07-02 16:22:34.638150 ; 37.72 
144 ; Longs Tours ; 30 ; LT-30-2019-D-A ; 468 ; 2019-07-02 16:22:35.490017 ; 37.62 
145 ; Longs Tours ; 30 ; LT-30-2019-D-A ; 468 ; 2019-07-02 16:22:36.235588 ; 37.49 
146 ; Longs Tours ; 30 ; LT-30-2019-D-A ; 468 ; 2019-07-02 16:22:36.974789 ; 37.37 
147 ; Longs Tours ; 30 ; LT-30-2019-D-A ; 468 ; 2019-07-02 16:22:37.746357 ; 37.23 
148 ; Longs Tours ; 30 ; LT-30-2019-D-A ; 468 ; 2019-07-02 16:22:38.478809 ; 37.04 
149 ; Longs Tours ; 30 ; LT-30-2019-D-A ; 468 ; 2019-07-02 16:22:39.223153 ; 36.9 
150 ; Longs Tours ; 30 ; LT-30-2019-D-A ; 468 ; 2019-07-02 16:22:39.964512 ; 36.82 
151 ; Longs Tours ; 30 ; LT-30-2019-D-A ; 468 ; 2019-07-02 16:22:40.714719 ; 36.76 
152 ; Longs Tours ; 30 ; LT-30-2019-D-A ; 468 ; 2019-07-02 16:22:41.566615 ; 36.69 
153 ; Longs Tours ; 30 ; LT-30-2019-D-A ; 468 ; 2019-07-02 16:22:42.421093 ; 36.52 
154 ; Longs Tours ; 30 ; LT-30-2019-D-A ; 468 ; 2019-07-02 16:22:43.270986 ; 36.38 
155 ; Longs Tours ; 30 ; LT-30-2019-D-A ; 468 ; 2019-07-02 16:22:44.146291 ; 36.28 
156 ; Longs Tours ; 30 ; LT-30-2019-D-A ; 468 ; 2019-07-02 16:22:44.980798 ; 36.12 
157 ; Longs Tours ; 30 ; LT-30-2019-D-A ; 468 ; 2019-07-02 16:22:45.832542 ; 35.97 
158 ; Longs Tours ; 30 ; LT-30-2019-D-A ; 468 ; 2019-07-02 16:22:46.689167 ; 35.86 
159 ; Longs Tours ; 30 ; LT-30-2019-D-A ; 468 ; 2019-07-02 16:22:47.541506 ; 35.66 
160 ; Longs Tours ; 30 ; LT-30-2019-D-A ; 468 ; 2019-07-02 16:22:48.392916 ; 35.54 
161 ; Longs Tours ; 30 ; LT-30-2019-D-A ; 468 ; 2019-07-02 16:22:49.242043 ; 35.52 
162 ; Longs Tours ; 30 ; LT-30-2019-D-A ; 468 ; 2019-07-02 16:22:49.995180 ; 35.41 
163 ; Longs Tours ; 30 ; LT-30-2019-D-A ; 468 ; 2019-07-02 16:22:50.863408 ; 35.28 
164 ; Longs Tours ; 30 ; LT-30-2019-D-A ; 468 ; 2019-07-02 16:22:51.704341 ; 35.05 
165 ; Longs Tours ; 30 ; LT-30-2019-D-A ; 468 ; 2019-07-02 16:22:52.556466 ; 34.91 
166 ; Longs Tours ; 30 ; LT-30-2019-D-A ; 468 ; 2019-07-02 16:22:53.408602 ; 34.82 
167 ; Longs Tours ; 30 ; LT-30-2019-D-A ; 468 ; 2019-07-02 16:22:54.204371 ; 34.69 
168 ; Longs Tours ; 30 ; LT-30-2019-D-A ; 468 ; 2019-07-02 16:22:55.009644 ; 34.53 
169 ; Longs Tours ; 30 ; LT-30-2019-D-A ; 468 ; 2019-07-02 16:22:55.755676 ; 34.26 
170 ; Longs Tours ; 30 ; LT-30-2019-D-A ; 468 ; 2019-07-02 16:22:56.575067 ; 33.97 
171 ; Longs Tours ; 30 ; LT-30-2019-D-A ; 468 ; 2019-07-02 16:22:57.356096 ; 33.8 
172 ; Longs Tours ; 30 ; LT-30-2019-D-A ; 468 ; 2019-07-02 16:22:58.092319 ; 33.6 
173 ; Longs Tours ; 30 ; LT-30-2019-D-A ; 468 ; 2019-07-02 16:22:58.899541 ; 33.53 
174 ; Longs Tours ; 30 ; LT-30-2019-D-A ; 468 ; 2019-07-02 16:22:59.698214 ; 33.37 
175 ; Longs Tours ; 30 ; LT-30-2019-D-A ; 468 ; 2019-07-02 16:23:00.657472 ; 33.15 
176 ; Longs Tours ; 30 ; LT-30-2019-D-A ; 468 ; 2019-07-02 16:23:01.510997 ; 32.94 
177 ; Longs Tours ; 30 ; LT-30-2019-D-A ; 468 ; 2019-07-02 16:23:02.259870 ; 32.68 
178 ; Longs Tours ; 30 ; LT-30-2019-D-A ; 468 ; 2019-07-02 16:23:03.024890 ; 32.49 
179 ; Longs Tours ; 30 ; LT-30-2019-D-A ; 468 ; 2019-07-02 16:23:03.754763 ; 32.43 
180 ; Longs Tours ; 30 ; LT-30-2019-D-A ; 468 ; 2019-07-02 16:23:04.603626 ; 32.19 
181 ; Longs Tours ; 30 ; LT-30-2019-D-A ; 468 ; 2019-07-02 16:23:05.459071 ; 31.96 
182 ; Longs Tours ; 30 ; LT-30-2019-D-A ; 468 ; 2019-07-02 16:23:06.310474 ; 31.82 
183 ; Longs Tours ; 30 ; LT-30-2019-D-A ; 468 ; 2019-07-02 16:23:07.161509 ; 31.7 
184 ; Longs Tours ; 30 ; LT-30-2019-D-A ; 468 ; 2019-07-02 16:23:08.017666 ; 31.53 
185 ; Longs Tours ; 30 ; LT-30-2019-D-A ; 468 ; 2019-07-02 16:23:08.869241 ; 31.29 
186 ; Longs Tours ; 30 ; LT-30-2019-D-A ; 468 ; 2019-07-02 16:23:09.752277 ; 30.74 
187 ; Longs Tours ; 30 ; LT-30-2019-D-A ; 468 ; 2019-07-02 16:23:10.577396 ; 29.2 
188 ; Longs Tours ; 30 ; LT-30-2019-D-A ; 468 ; 2019-07-02 16:23:11.434345 ; 28.43 
189 ; Longs Tours ; 30 ; LT-30-2019-D-A ; 468 ; 2019-07-02 16:23:12.283994 ; 27.98 
190 ; Longs Tours ; 30 ; LT-30-2019-D-A ; 468 ; 2019-07-02 16:23:13.138784 ; 27.36 
191 ; Longs Tours ; 30 ; LT-30-2019-D-A ; 468 ; 2019-07-02 16:23:13.990731 ; 26.99 
192 ; Longs Tours ; 30 ; LT-30-2019-D-A ; 468 ; 2019-07-02 16:23:14.844769 ; 26.8 
193 ; Longs Tours ; 30 ; LT-30-2019-D-A ; 468 ; 2019-07-02 16:23:15.715941 ; 26.68 
194 ; Longs Tours ; 30 ; LT-30-2019-D-A ; 468 ; 2019-07-02 16:23:16.556427 ; 26.54 
195 ; Longs Tours ; 30 ; LT-30-2019-D-A ; 468 ; 2019-07-02 16:23:17.403997 ; 26.51 
196 ; Longs Tours ; 30 ; LT-30-2019-D-A ; 468 ; 2019-07-02 16:23:18.253989 ; 26.3 
197 ; Longs Tours ; 30 ; LT-30-2019-D-A ; 468 ; 2019-07-02 16:23:19.111120 ; 26.15 
198 ; Longs Tours ; 30 ; LT-30-2019-D-A ; 468 ; 2019-07-02 16:23:20.070495 ; 26.12 
199 ; Longs Tours ; 30 ; LT-30-2019-D-A ; 468 ; 2019-07-02 16:23:20.928565 ; 26.03 
200 ; Longs Tours ; 30 ; LT-30-2019-D-A ; 468 ; 2019-07-02 16:23:21.725452 ; 25.72 
201 ; Longs Tours ; 30 ; LT-30-2019-D-A ; 468 ; 2019-07-02 16:23:22.592956 ; 25.3 
202 ; Longs Tours ; 30 ; LT-30-2019-D-A ; 468 ; 2019-07-02 16:23:23.323909 ; 24.82 
203 ; Longs Tours ; 30 ; LT-30-2019-D-A ; 468 ; 2019-07-02 16:23:24.069150 ; 24.07 
204 ; Longs Tours ; 30 ; LT-30-2019-D-A ; 468 ; 2019-07-02 16:23:24.824476 ; 23.58 
205 ; Longs Tours ; 30 ; LT-30-2019-D-A ; 468 ; 2019-07-02 16:23:25.563282 ; 23.33 
206 ; Longs Tours ; 30 ; LT-30-2019-D-A ; 468 ; 2019-07-02 16:23:26.312164 ; 23.06 
207 ; Longs Tours ; 30 ; LT-30-2019-D-A ; 468 ; 2019-07-02 16:23:27.053847 ; 22.96 
208 ; Longs Tours ; 30 ; LT-30-2019-D-A ; 468 ; 2019-07-02 16:23:27.819319 ; 22.86 
209 ; Longs Tours ; 30 ; LT-30-2019-D-A ; 468 ; 2019-07-02 16:23:28.570325 ; 22.81 
210 ; Longs Tours ; 30 ; LT-30-2019-D-A ; 468 ; 2019-07-02 16:23:29.404773 ; 22.68 
211 ; Longs Tours ; 30 ; LT-30-2019-D-A ; 468 ; 2019-07-02 16:23:30.361954 ; 22.58 
212 ; Longs Tours ; 30 ; LT-30-2019-D-A ; 468 ; 2019-07-02 16:23:31.325611 ; 22.38 
213 ; Longs Tours ; 30 ; LT-30-2019-D-A ; 468 ; 2019-07-02 16:23:32.287403 ; 22.12 
214 ; Longs Tours ; 30 ; LT-30-2019-D-A ; 468 ; 2019-07-02 16:23:33.246444 ; 21.94 
215 ; Longs Tours ; 30 ; LT-30-2019-D-A ; 468 ; 2019-07-02 16:23:34.204782 ; 21.89 
216 ; Longs Tours ; 30 ; LT-30-2019-D-A ; 468 ; 2019-07-02 16:23:35.163932 ; 21.86 
217 ; Longs Tours ; 30 ; LT-30-2019-D-A ; 468 ; 2019-07-02 16:23:36.035193 ; 21.75 
218 ; Longs Tours ; 30 ; LT-30-2019-D-A ; 468 ; 2019-07-02 16:23:36.930138 ; 21.61 
219 ; Longs Tours ; 30 ; LT-30-2019-D-A ; 468 ; 2019-07-02 16:23:37.728822 ; 21.59 
220 ; Longs Tours ; 30 ; LT-30-2019-D-A ; 468 ; 2019-07-02 16:23:38.473798 ; 21.44 
221 ; Longs Tours ; 30 ; LT-30-2019-D-A ; 468 ; 2019-07-02 16:23:39.380792 ; 21.23 
222 ; Longs Tours ; 30 ; LT-30-2019-D-A ; 468 ; 2019-07-02 16:23:40.285578 ; 21.07 
223 ; Longs Tours ; 30 ; LT-30-2019-D-A ; 468 ; 2019-07-02 16:23:41.190016 ; 20.88 
224 ; Longs Tours ; 30 ; LT-30-2019-D-A ; 468 ; 2019-07-02 16:23:42.169676 ; 20.58 
225 ; Longs Tours ; 30 ; LT-30-2019-D-A ; 468 ; 2019-07-02 16:23:43.059957 ; 20.34 
226 ; Longs Tours ; 30 ; LT-30-2019-D-A ; 468 ; 2019-07-02 16:23:53.972913 ; 19.12 
227 ; Longs Tours ; 30 ; LT-30-2019-D-A ; 468 ; 2019-07-02 16:24:04.805569 ; 17.22 
228 ; Longs Tours ; 30 ; LT-30-2019-D-A ; 468 ; 2019-07-02 16:24:15.626520 ; 13.36 
229 ; Longs Tours ; 30 ; LT-30-2019-D-A ; 468 ; 2019-07-02 16:24:26.452816 ; 11.43 
230 ; Longs Tours ; 30 ; LT-30-2019-D-A ; 468 ; 2019-07-02 16:24:37.388895 ; 10.27 
231 ; Longs Tours ; 30 ; LT-30-2019-D-A ; 468 ; 2019-07-02 16:24:48.374840 ; 9.81 
232 ; Longs Tours ; 30 ; LT-30-2019-D-A ; 468 ; 2019-07-02 16:24:59.270040 ; 9.42 
233 ; Longs Tours ; 30 ; LT-30-2019-D-A ; 468 ; 2019-07-02 16:25:10.189660 ; 8.68 
234 ; Longs Tours ; 30 ; LT-30-2019-D-A ; 468 ; 2019-07-02 16:25:21.067576 ; 7.45 
235 ; Longs Tours ; 30 ; LT-30-2019-D-A ; 468 ; 2019-07-02 16:25:31.952765 ; 6.94 
236 ; Longs Tours ; 30 ; LT-30-2019-D-A ; 468 ; 2019-07-02 16:25:42.721032 ; 6.63 
237 ; Longs Tours ; 30 ; LT-30-2019-D-A ; 468 ; 2019-07-02 16:25:53.548288 ; 6.3 
238 ; Longs Tours ; 30 ; LT-30-2019-D-A ; 468 ; 2019-07-02 16:26:04.372458 ; 5.77 
239 ; Longs Tours ; 30 ; LT-30-2019-D-A ; 468 ; 2019-07-02 16:26:15.275077 ; 5.42 
240 ; Longs Tours ; 30 ; LT-30-2019-D-A ; 468 ; 2019-07-02 16:26:26.135412 ; 5.27 
241 ; Longs Tours ; 30 ; LT-30-2019-D-A ; 468 ; 2019-07-02 16:26:36.907728 ; 5.17 
242 ; Longs Tours ; 30 ; LT-30-2019-D-A ; 468 ; 2019-07-02 16:26:47.737766 ; 5.14 
243 ; Longs Tours ; 30 ; LT-30-2019-D-A ; 468 ; 2019-07-02 16:26:58.668177 ; 5.11 
244 ; Longs Tours ; 30 ; LT-30-2019-D-A ; 468 ; 2019-07-02 16:27:09.655280 ; 4.94 
245 ; Longs Tours ; 30 ; LT-30-2019-D-A ; 468 ; 2019-07-02 16:27:20.587560 ; 4.85 
246 ; Longs Tours ; 30 ; LT-30-2019-D-A ; 468 ; 2019-07-02 16:27:31.595348 ; 4.84 
247 ; Longs Tours ; 30 ; LT-30-2019-D-A ; 468 ; 2019-07-02 16:27:42.456622 ; 4.8 
248 ; Longs Tours ; 30 ; LT-30-2019-D-A ; 468 ; 2019-07-02 16:27:53.388739 ; 4.78 
249 ; Longs Tours ; 30 ; LT-30-2019-D-A ; 468 ; 2019-07-02 16:28:04.375560 ; 4.78 
250 ; Longs Tours ; 30 ; LT-30-2019-D-A ; 468 ; 2019-07-02 16:28:15.255692 ; 4.75 
251 ; Longs Tours ; 30 ; LT-30-2019-D-A ; 468 ; 2019-07-02 16:28:26.216508 ; 4.74 
252 ; Longs Tours ; 30 ; LT-30-2019-D-A ; 468 ; 2019-07-02 16:28:37.097259 ; 4.72 
253 ; Longs Tours ; 30 ; LT-30-2019-D-A ; 468 ; 2019-07-02 16:28:48.079881 ; 4.69 
254 ; Longs Tours ; 30 ; LT-30-2019-D-A ; 468 ; 2019-07-02 16:28:59.086792 ; 4.68 
255 ; Longs Tours ; 30 ; LT-30-2019-D-A ; 468 ; 2019-07-02 16:29:09.945909 ; 4.66 
256 ; Longs Tours ; 30 ; LT-30-2019-D-A ; 468 ; 2019-07-02 16:29:20.830539 ; 4.65 
257 ; Longs Tours ; 30 ; LT-30-2019-D-A ; 468 ; 2019-07-02 16:29:31.711718 ; 4.64 
258 ; Longs Tours ; 30 ; LT-30-2019-D-A ; 468 ; 2019-07-02 16:29:42.590445 ; 4.63 
259 ; Longs Tours ; 30 ; LT-30-2019-D-A ; 468 ; 2019-07-02 16:29:53.468951 ; 4.62 
260 ; Longs Tours ; 30 ; LT-30-2019-D-A ; 468 ; 2019-07-02 16:30:04.402431 ; 4.62 
261 ; Longs Tours ; 30 ; LT-30-2019-D-A ; 468 ; 2019-07-02 16:30:15.295765 ; 4.61 
262 ; Longs Tours ; 30 ; LT-30-2019-D-A ; 468 ; 2019-07-02 16:30:26.163999 ; 4.61 
263 ; Longs Tours ; 30 ; LT-30-2019-D-A ; 468 ; 2019-07-02 16:30:37.037731 ; 4.61 
264 ; Longs Tours ; 30 ; LT-30-2019-D-A ; 468 ; 2019-07-02 16:30:47.920940 ; 4.6 
265 ; Longs Tours ; 30 ; LT-30-2019-D-A ; 468 ; 2019-07-02 16:31:18.852552 ; 4.57 
266 ; Longs Tours ; 30 ; LT-30-2019-D-A ; 468 ; 2019-07-02 16:31:49.846963 ; 4.53 
267 ; Longs Tours ; 30 ; LT-30-2019-D-A ; 468 ; 2019-07-02 16:32:20.826200 ; 4.5 
268 ; Longs Tours ; 30 ; LT-30-2019-D-A ; 468 ; 2019-07-02 16:32:51.795792 ; 4.47 
269 ; Longs Tours ; 30 ; LT-30-2019-D-A ; 468 ; 2019-07-02 16:33:22.696711 ; 4.46 
270 ; Longs Tours ; 30 ; LT-30-2019-D-A ; 468 ; 2019-07-02 16:33:53.633647 ; 4.45 
271 ; Longs Tours ; 30 ; LT-30-2019-D-A ; 468 ; 2019-07-02 16:34:24.565359 ; 4.44 
272 ; Longs Tours ; 30 ; LT-30-2019-D-A ; 468 ; 2019-07-02 16:34:55.498560 ; 4.39 
273 ; Longs Tours ; 30 ; LT-30-2019-D-A ; 468 ; 2019-07-02 16:35:26.376039 ; 4.39 
274 ; Longs Tours ; 30 ; LT-30-2019-D-A ; 468 ; 2019-07-02 16:35:57.360857 ; 4.31 
275 ; Longs Tours ; 30 ; LT-30-2019-D-A ; 468 ; 2019-07-02 16:36:28.208836 ; 4.22 
276 ; Longs Tours ; 30 ; LT-30-2019-D-A ; 468 ; 2019-07-02 16:36:59.071552 ; 4.2 
277 ; Longs Tours ; 30 ; LT-30-2019-D-A ; 468 ; 2019-07-02 16:37:30.038423 ; 4.18 
