i ; campaign ; serie ; sample ; slake ; time ; mass 
1 ; Longs Tours ; 22 ; LT-22-2019-D-F ; 482 ; 2019-07-03 11:18:47.339026 ; 137.65 
2 ; Longs Tours ; 22 ; LT-22-2019-D-F ; 482 ; 2019-07-03 11:18:48.172463 ; 137.64 
3 ; Longs Tours ; 22 ; LT-22-2019-D-F ; 482 ; 2019-07-03 11:18:49.028541 ; 137.67 
4 ; Longs Tours ; 22 ; LT-22-2019-D-F ; 482 ; 2019-07-03 11:18:49.802525 ; 137.64 
5 ; Longs Tours ; 22 ; LT-22-2019-D-F ; 482 ; 2019-07-03 11:18:50.627372 ; 137.64 
6 ; Longs Tours ; 22 ; LT-22-2019-D-F ; 482 ; 2019-07-03 11:18:51.472836 ; 137.63 
7 ; Longs Tours ; 22 ; LT-22-2019-D-F ; 482 ; 2019-07-03 11:18:52.338566 ; 129.59 
8 ; Longs Tours ; 22 ; LT-22-2019-D-F ; 482 ; 2019-07-03 11:18:53.240297 ; 63.97 
9 ; Longs Tours ; 22 ; LT-22-2019-D-F ; 482 ; 2019-07-03 11:18:54.004022 ; 55.74 
10 ; Longs Tours ; 22 ; LT-22-2019-D-F ; 482 ; 2019-07-03 11:18:54.842171 ; 58.88 
11 ; Longs Tours ; 22 ; LT-22-2019-D-F ; 482 ; 2019-07-03 11:18:55.819808 ; 63.92 
12 ; Longs Tours ; 22 ; LT-22-2019-D-F ; 482 ; 2019-07-03 11:18:56.762838 ; 64.62 
13 ; Longs Tours ; 22 ; LT-22-2019-D-F ; 482 ; 2019-07-03 11:18:57.717912 ; 64.66 
14 ; Longs Tours ; 22 ; LT-22-2019-D-F ; 482 ; 2019-07-03 11:18:58.692456 ; 64.82 
15 ; Longs Tours ; 22 ; LT-22-2019-D-F ; 482 ; 2019-07-03 11:18:59.646173 ; 64.93 
16 ; Longs Tours ; 22 ; LT-22-2019-D-F ; 482 ; 2019-07-03 11:19:00.606341 ; 64.69 
17 ; Longs Tours ; 22 ; LT-22-2019-D-F ; 482 ; 2019-07-03 11:19:01.513934 ; 64.56 
18 ; Longs Tours ; 22 ; LT-22-2019-D-F ; 482 ; 2019-07-03 11:19:02.257588 ; 64.57 
19 ; Longs Tours ; 22 ; LT-22-2019-D-F ; 482 ; 2019-07-03 11:19:03.010764 ; 64.54 
20 ; Longs Tours ; 22 ; LT-22-2019-D-F ; 482 ; 2019-07-03 11:19:03.858120 ; 64.43 
21 ; Longs Tours ; 22 ; LT-22-2019-D-F ; 482 ; 2019-07-03 11:19:04.655780 ; 64.27 
22 ; Longs Tours ; 22 ; LT-22-2019-D-F ; 482 ; 2019-07-03 11:19:05.611823 ; 64.16 
23 ; Longs Tours ; 22 ; LT-22-2019-D-F ; 482 ; 2019-07-03 11:19:06.469132 ; 63.9 
24 ; Longs Tours ; 22 ; LT-22-2019-D-F ; 482 ; 2019-07-03 11:19:07.215631 ; 63.83 
25 ; Longs Tours ; 22 ; LT-22-2019-D-F ; 482 ; 2019-07-03 11:19:07.966412 ; 63.64 
26 ; Longs Tours ; 22 ; LT-22-2019-D-F ; 482 ; 2019-07-03 11:19:08.710864 ; 63.47 
27 ; Longs Tours ; 22 ; LT-22-2019-D-F ; 482 ; 2019-07-03 11:19:09.453536 ; 63.26 
28 ; Longs Tours ; 22 ; LT-22-2019-D-F ; 482 ; 2019-07-03 11:19:10.205156 ; 63.15 
29 ; Longs Tours ; 22 ; LT-22-2019-D-F ; 482 ; 2019-07-03 11:19:10.959445 ; 63.05 
30 ; Longs Tours ; 22 ; LT-22-2019-D-F ; 482 ; 2019-07-03 11:19:11.758280 ; 62.82 
31 ; Longs Tours ; 22 ; LT-22-2019-D-F ; 482 ; 2019-07-03 11:19:12.544932 ; 62.66 
32 ; Longs Tours ; 22 ; LT-22-2019-D-F ; 482 ; 2019-07-03 11:19:13.351500 ; 62.5 
33 ; Longs Tours ; 22 ; LT-22-2019-D-F ; 482 ; 2019-07-03 11:19:14.153750 ; 62.28 
34 ; Longs Tours ; 22 ; LT-22-2019-D-F ; 482 ; 2019-07-03 11:19:14.953465 ; 61.97 
35 ; Longs Tours ; 22 ; LT-22-2019-D-F ; 482 ; 2019-07-03 11:19:15.761885 ; 61.68 
36 ; Longs Tours ; 22 ; LT-22-2019-D-F ; 482 ; 2019-07-03 11:19:16.549026 ; 61.46 
37 ; Longs Tours ; 22 ; LT-22-2019-D-F ; 482 ; 2019-07-03 11:19:17.350217 ; 61.26 
38 ; Longs Tours ; 22 ; LT-22-2019-D-F ; 482 ; 2019-07-03 11:19:18.154232 ; 60.91 
39 ; Longs Tours ; 22 ; LT-22-2019-D-F ; 482 ; 2019-07-03 11:19:18.951070 ; 60.59 
40 ; Longs Tours ; 22 ; LT-22-2019-D-F ; 482 ; 2019-07-03 11:19:19.776965 ; 60.22 
41 ; Longs Tours ; 22 ; LT-22-2019-D-F ; 482 ; 2019-07-03 11:19:20.548064 ; 59.87 
42 ; Longs Tours ; 22 ; LT-22-2019-D-F ; 482 ; 2019-07-03 11:19:21.355108 ; 59.62 
43 ; Longs Tours ; 22 ; LT-22-2019-D-F ; 482 ; 2019-07-03 11:19:22.155852 ; 59.37 
44 ; Longs Tours ; 22 ; LT-22-2019-D-F ; 482 ; 2019-07-03 11:19:22.945551 ; 59.23 
45 ; Longs Tours ; 22 ; LT-22-2019-D-F ; 482 ; 2019-07-03 11:19:23.745209 ; 59.08 
46 ; Longs Tours ; 22 ; LT-22-2019-D-F ; 482 ; 2019-07-03 11:19:24.550081 ; 58.85 
47 ; Longs Tours ; 22 ; LT-22-2019-D-F ; 482 ; 2019-07-03 11:19:25.348617 ; 58.62 
48 ; Longs Tours ; 22 ; LT-22-2019-D-F ; 482 ; 2019-07-03 11:19:26.153525 ; 58.45 
49 ; Longs Tours ; 22 ; LT-22-2019-D-F ; 482 ; 2019-07-03 11:19:26.945216 ; 58.3 
50 ; Longs Tours ; 22 ; LT-22-2019-D-F ; 482 ; 2019-07-03 11:19:27.749333 ; 57.89 
51 ; Longs Tours ; 22 ; LT-22-2019-D-F ; 482 ; 2019-07-03 11:19:28.552858 ; 57.39 
52 ; Longs Tours ; 22 ; LT-22-2019-D-F ; 482 ; 2019-07-03 11:19:29.347767 ; 57.1 
53 ; Longs Tours ; 22 ; LT-22-2019-D-F ; 482 ; 2019-07-03 11:19:30.145651 ; 56.92 
54 ; Longs Tours ; 22 ; LT-22-2019-D-F ; 482 ; 2019-07-03 11:19:30.945822 ; 56.72 
55 ; Longs Tours ; 22 ; LT-22-2019-D-F ; 482 ; 2019-07-03 11:19:31.749410 ; 56.6 
56 ; Longs Tours ; 22 ; LT-22-2019-D-F ; 482 ; 2019-07-03 11:19:32.550695 ; 56.48 
57 ; Longs Tours ; 22 ; LT-22-2019-D-F ; 482 ; 2019-07-03 11:19:33.351677 ; 56.22 
58 ; Longs Tours ; 22 ; LT-22-2019-D-F ; 482 ; 2019-07-03 11:19:34.149058 ; 56.01 
59 ; Longs Tours ; 22 ; LT-22-2019-D-F ; 482 ; 2019-07-03 11:19:34.951425 ; 55.82 
60 ; Longs Tours ; 22 ; LT-22-2019-D-F ; 482 ; 2019-07-03 11:19:35.744485 ; 55.59 
61 ; Longs Tours ; 22 ; LT-22-2019-D-F ; 482 ; 2019-07-03 11:19:36.557097 ; 55.36 
62 ; Longs Tours ; 22 ; LT-22-2019-D-F ; 482 ; 2019-07-03 11:19:37.354220 ; 55.07 
63 ; Longs Tours ; 22 ; LT-22-2019-D-F ; 482 ; 2019-07-03 11:19:38.153465 ; 54.65 
64 ; Longs Tours ; 22 ; LT-22-2019-D-F ; 482 ; 2019-07-03 11:19:38.951441 ; 54.14 
65 ; Longs Tours ; 22 ; LT-22-2019-D-F ; 482 ; 2019-07-03 11:19:39.753678 ; 53.88 
66 ; Longs Tours ; 22 ; LT-22-2019-D-F ; 482 ; 2019-07-03 11:19:40.549606 ; 53.6 
67 ; Longs Tours ; 22 ; LT-22-2019-D-F ; 482 ; 2019-07-03 11:19:41.364744 ; 53.23 
68 ; Longs Tours ; 22 ; LT-22-2019-D-F ; 482 ; 2019-07-03 11:19:42.152773 ; 53.02 
69 ; Longs Tours ; 22 ; LT-22-2019-D-F ; 482 ; 2019-07-03 11:19:42.952824 ; 52.89 
70 ; Longs Tours ; 22 ; LT-22-2019-D-F ; 482 ; 2019-07-03 11:19:43.762753 ; 52.57 
71 ; Longs Tours ; 22 ; LT-22-2019-D-F ; 482 ; 2019-07-03 11:19:44.544528 ; 51.97 
72 ; Longs Tours ; 22 ; LT-22-2019-D-F ; 482 ; 2019-07-03 11:19:45.363273 ; 51.4 
73 ; Longs Tours ; 22 ; LT-22-2019-D-F ; 482 ; 2019-07-03 11:19:46.150484 ; 51 
74 ; Longs Tours ; 22 ; LT-22-2019-D-F ; 482 ; 2019-07-03 11:19:46.952542 ; 50.7 
75 ; Longs Tours ; 22 ; LT-22-2019-D-F ; 482 ; 2019-07-03 11:19:47.753425 ; 50.31 
76 ; Longs Tours ; 22 ; LT-22-2019-D-F ; 482 ; 2019-07-03 11:19:48.545346 ; 50.02 
77 ; Longs Tours ; 22 ; LT-22-2019-D-F ; 482 ; 2019-07-03 11:19:49.363947 ; 49.78 
78 ; Longs Tours ; 22 ; LT-22-2019-D-F ; 482 ; 2019-07-03 11:19:50.151351 ; 49.61 
79 ; Longs Tours ; 22 ; LT-22-2019-D-F ; 482 ; 2019-07-03 11:19:50.952008 ; 49.52 
80 ; Longs Tours ; 22 ; LT-22-2019-D-F ; 482 ; 2019-07-03 11:19:51.750213 ; 49.41 
81 ; Longs Tours ; 22 ; LT-22-2019-D-F ; 482 ; 2019-07-03 11:19:52.548300 ; 49.35 
82 ; Longs Tours ; 22 ; LT-22-2019-D-F ; 482 ; 2019-07-03 11:19:53.416986 ; 49.22 
83 ; Longs Tours ; 22 ; LT-22-2019-D-F ; 482 ; 2019-07-03 11:19:54.311763 ; 49.05 
84 ; Longs Tours ; 22 ; LT-22-2019-D-F ; 482 ; 2019-07-03 11:19:55.218674 ; 48.78 
85 ; Longs Tours ; 22 ; LT-22-2019-D-F ; 482 ; 2019-07-03 11:19:56.124660 ; 48.27 
86 ; Longs Tours ; 22 ; LT-22-2019-D-F ; 482 ; 2019-07-03 11:19:57.033063 ; 48.1 
87 ; Longs Tours ; 22 ; LT-22-2019-D-F ; 482 ; 2019-07-03 11:19:57.950002 ; 47.92 
88 ; Longs Tours ; 22 ; LT-22-2019-D-F ; 482 ; 2019-07-03 11:19:58.841524 ; 47.45 
89 ; Longs Tours ; 22 ; LT-22-2019-D-F ; 482 ; 2019-07-03 11:19:59.752149 ; 46.78 
90 ; Longs Tours ; 22 ; LT-22-2019-D-F ; 482 ; 2019-07-03 11:20:00.650153 ; 46.28 
91 ; Longs Tours ; 22 ; LT-22-2019-D-F ; 482 ; 2019-07-03 11:20:01.563837 ; 45.97 
92 ; Longs Tours ; 22 ; LT-22-2019-D-F ; 482 ; 2019-07-03 11:20:02.483593 ; 45.82 
93 ; Longs Tours ; 22 ; LT-22-2019-D-F ; 482 ; 2019-07-03 11:20:03.380444 ; 45.72 
94 ; Longs Tours ; 22 ; LT-22-2019-D-F ; 482 ; 2019-07-03 11:20:04.286325 ; 45.57 
95 ; Longs Tours ; 22 ; LT-22-2019-D-F ; 482 ; 2019-07-03 11:20:05.191658 ; 45.45 
96 ; Longs Tours ; 22 ; LT-22-2019-D-F ; 482 ; 2019-07-03 11:20:06.097470 ; 45.35 
97 ; Longs Tours ; 22 ; LT-22-2019-D-F ; 482 ; 2019-07-03 11:20:07.017813 ; 45.2 
98 ; Longs Tours ; 22 ; LT-22-2019-D-F ; 482 ; 2019-07-03 11:20:07.914923 ; 44.71 
99 ; Longs Tours ; 22 ; LT-22-2019-D-F ; 482 ; 2019-07-03 11:20:08.819230 ; 44.46 
100 ; Longs Tours ; 22 ; LT-22-2019-D-F ; 482 ; 2019-07-03 11:20:09.726274 ; 44.38 
101 ; Longs Tours ; 22 ; LT-22-2019-D-F ; 482 ; 2019-07-03 11:20:10.628411 ; 44.36 
102 ; Longs Tours ; 22 ; LT-22-2019-D-F ; 482 ; 2019-07-03 11:20:11.441078 ; 44.31 
103 ; Longs Tours ; 22 ; LT-22-2019-D-F ; 482 ; 2019-07-03 11:20:12.285553 ; 44.18 
104 ; Longs Tours ; 22 ; LT-22-2019-D-F ; 482 ; 2019-07-03 11:20:13.138129 ; 44 
105 ; Longs Tours ; 22 ; LT-22-2019-D-F ; 482 ; 2019-07-03 11:20:13.991837 ; 43.82 
106 ; Longs Tours ; 22 ; LT-22-2019-D-F ; 482 ; 2019-07-03 11:20:14.845404 ; 43.65 
107 ; Longs Tours ; 22 ; LT-22-2019-D-F ; 482 ; 2019-07-03 11:20:15.707469 ; 43.55 
108 ; Longs Tours ; 22 ; LT-22-2019-D-F ; 482 ; 2019-07-03 11:20:16.546266 ; 43.45 
109 ; Longs Tours ; 22 ; LT-22-2019-D-F ; 482 ; 2019-07-03 11:20:17.407675 ; 43.39 
110 ; Longs Tours ; 22 ; LT-22-2019-D-F ; 482 ; 2019-07-03 11:20:18.152462 ; 43.28 
111 ; Longs Tours ; 22 ; LT-22-2019-D-F ; 482 ; 2019-07-03 11:20:18.901120 ; 43.12 
112 ; Longs Tours ; 22 ; LT-22-2019-D-F ; 482 ; 2019-07-03 11:20:19.775071 ; 43.03 
113 ; Longs Tours ; 22 ; LT-22-2019-D-F ; 482 ; 2019-07-03 11:20:20.709147 ; 42.74 
114 ; Longs Tours ; 22 ; LT-22-2019-D-F ; 482 ; 2019-07-03 11:20:21.564963 ; 42.33 
115 ; Longs Tours ; 22 ; LT-22-2019-D-F ; 482 ; 2019-07-03 11:20:22.415960 ; 41.9 
116 ; Longs Tours ; 22 ; LT-22-2019-D-F ; 482 ; 2019-07-03 11:20:23.270075 ; 41.64 
117 ; Longs Tours ; 22 ; LT-22-2019-D-F ; 482 ; 2019-07-03 11:20:24.144673 ; 41.57 
118 ; Longs Tours ; 22 ; LT-22-2019-D-F ; 482 ; 2019-07-03 11:20:24.980321 ; 41.53 
119 ; Longs Tours ; 22 ; LT-22-2019-D-F ; 482 ; 2019-07-03 11:20:25.885481 ; 41.5 
120 ; Longs Tours ; 22 ; LT-22-2019-D-F ; 482 ; 2019-07-03 11:20:26.685115 ; 41.43 
121 ; Longs Tours ; 22 ; LT-22-2019-D-F ; 482 ; 2019-07-03 11:20:27.425507 ; 41.36 
122 ; Longs Tours ; 22 ; LT-22-2019-D-F ; 482 ; 2019-07-03 11:20:28.294330 ; 41.33 
123 ; Longs Tours ; 22 ; LT-22-2019-D-F ; 482 ; 2019-07-03 11:20:29.192766 ; 41.26 
124 ; Longs Tours ; 22 ; LT-22-2019-D-F ; 482 ; 2019-07-03 11:20:29.991934 ; 41.16 
125 ; Longs Tours ; 22 ; LT-22-2019-D-F ; 482 ; 2019-07-03 11:20:30.844177 ; 41.03 
126 ; Longs Tours ; 22 ; LT-22-2019-D-F ; 482 ; 2019-07-03 11:20:31.700224 ; 40.94 
127 ; Longs Tours ; 22 ; LT-22-2019-D-F ; 482 ; 2019-07-03 11:20:32.558809 ; 40.9 
128 ; Longs Tours ; 22 ; LT-22-2019-D-F ; 482 ; 2019-07-03 11:20:33.405932 ; 40.89 
129 ; Longs Tours ; 22 ; LT-22-2019-D-F ; 482 ; 2019-07-03 11:20:34.258946 ; 40.77 
130 ; Longs Tours ; 22 ; LT-22-2019-D-F ; 482 ; 2019-07-03 11:20:35.058429 ; 40.62 
131 ; Longs Tours ; 22 ; LT-22-2019-D-F ; 482 ; 2019-07-03 11:20:35.911264 ; 40.35 
132 ; Longs Tours ; 22 ; LT-22-2019-D-F ; 482 ; 2019-07-03 11:20:36.880614 ; 40.16 
133 ; Longs Tours ; 22 ; LT-22-2019-D-F ; 482 ; 2019-07-03 11:20:37.793316 ; 40.13 
134 ; Longs Tours ; 22 ; LT-22-2019-D-F ; 482 ; 2019-07-03 11:20:38.631039 ; 40.14 
135 ; Longs Tours ; 22 ; LT-22-2019-D-F ; 482 ; 2019-07-03 11:20:39.375216 ; 39.99 
136 ; Longs Tours ; 22 ; LT-22-2019-D-F ; 482 ; 2019-07-03 11:20:40.177352 ; 39.84 
137 ; Longs Tours ; 22 ; LT-22-2019-D-F ; 482 ; 2019-07-03 11:20:40.983872 ; 39.6 
138 ; Longs Tours ; 22 ; LT-22-2019-D-F ; 482 ; 2019-07-03 11:20:41.780247 ; 39.5 
139 ; Longs Tours ; 22 ; LT-22-2019-D-F ; 482 ; 2019-07-03 11:20:42.579175 ; 39.37 
140 ; Longs Tours ; 22 ; LT-22-2019-D-F ; 482 ; 2019-07-03 11:20:43.377117 ; 39.17 
141 ; Longs Tours ; 22 ; LT-22-2019-D-F ; 482 ; 2019-07-03 11:20:44.178891 ; 39 
142 ; Longs Tours ; 22 ; LT-22-2019-D-F ; 482 ; 2019-07-03 11:20:44.979538 ; 38.97 
143 ; Longs Tours ; 22 ; LT-22-2019-D-F ; 482 ; 2019-07-03 11:20:45.846411 ; 38.95 
144 ; Longs Tours ; 22 ; LT-22-2019-D-F ; 482 ; 2019-07-03 11:20:46.740240 ; 38.94 
145 ; Longs Tours ; 22 ; LT-22-2019-D-F ; 482 ; 2019-07-03 11:20:47.536045 ; 38.95 
146 ; Longs Tours ; 22 ; LT-22-2019-D-F ; 482 ; 2019-07-03 11:20:48.286003 ; 38.84 
147 ; Longs Tours ; 22 ; LT-22-2019-D-F ; 482 ; 2019-07-03 11:20:49.134984 ; 38.82 
148 ; Longs Tours ; 22 ; LT-22-2019-D-F ; 482 ; 2019-07-03 11:20:49.951077 ; 38.79 
149 ; Longs Tours ; 22 ; LT-22-2019-D-F ; 482 ; 2019-07-03 11:20:50.792222 ; 38.77 
150 ; Longs Tours ; 22 ; LT-22-2019-D-F ; 482 ; 2019-07-03 11:20:51.700389 ; 38.76 
151 ; Longs Tours ; 22 ; LT-22-2019-D-F ; 482 ; 2019-07-03 11:20:52.598061 ; 38.69 
152 ; Longs Tours ; 22 ; LT-22-2019-D-F ; 482 ; 2019-07-03 11:20:53.567747 ; 38.72 
153 ; Longs Tours ; 22 ; LT-22-2019-D-F ; 482 ; 2019-07-03 11:20:54.428121 ; 38.72 
154 ; Longs Tours ; 22 ; LT-22-2019-D-F ; 482 ; 2019-07-03 11:20:55.162995 ; 38.74 
155 ; Longs Tours ; 22 ; LT-22-2019-D-F ; 482 ; 2019-07-03 11:20:56.017117 ; 38.7 
156 ; Longs Tours ; 22 ; LT-22-2019-D-F ; 482 ; 2019-07-03 11:20:56.871062 ; 38.32 
157 ; Longs Tours ; 22 ; LT-22-2019-D-F ; 482 ; 2019-07-03 11:20:57.779422 ; 37.52 
158 ; Longs Tours ; 22 ; LT-22-2019-D-F ; 482 ; 2019-07-03 11:20:58.583156 ; 37.32 
159 ; Longs Tours ; 22 ; LT-22-2019-D-F ; 482 ; 2019-07-03 11:20:59.325539 ; 37.26 
160 ; Longs Tours ; 22 ; LT-22-2019-D-F ; 482 ; 2019-07-03 11:21:00.123988 ; 37.23 
161 ; Longs Tours ; 22 ; LT-22-2019-D-F ; 482 ; 2019-07-03 11:21:00.979555 ; 37.2 
162 ; Longs Tours ; 22 ; LT-22-2019-D-F ; 482 ; 2019-07-03 11:21:01.830452 ; 37.16 
163 ; Longs Tours ; 22 ; LT-22-2019-D-F ; 482 ; 2019-07-03 11:21:02.696778 ; 37.15 
164 ; Longs Tours ; 22 ; LT-22-2019-D-F ; 482 ; 2019-07-03 11:21:03.585824 ; 37.04 
165 ; Longs Tours ; 22 ; LT-22-2019-D-F ; 482 ; 2019-07-03 11:21:04.337817 ; 36.91 
166 ; Longs Tours ; 22 ; LT-22-2019-D-F ; 482 ; 2019-07-03 11:21:05.084642 ; 36.9 
167 ; Longs Tours ; 22 ; LT-22-2019-D-F ; 482 ; 2019-07-03 11:21:05.939023 ; 36.88 
168 ; Longs Tours ; 22 ; LT-22-2019-D-F ; 482 ; 2019-07-03 11:21:06.801545 ; 36.87 
169 ; Longs Tours ; 22 ; LT-22-2019-D-F ; 482 ; 2019-07-03 11:21:07.763575 ; 36.87 
170 ; Longs Tours ; 22 ; LT-22-2019-D-F ; 482 ; 2019-07-03 11:21:08.541311 ; 36.83 
171 ; Longs Tours ; 22 ; LT-22-2019-D-F ; 482 ; 2019-07-03 11:21:09.405863 ; 36.81 
172 ; Longs Tours ; 22 ; LT-22-2019-D-F ; 482 ; 2019-07-03 11:21:10.366218 ; 36.76 
173 ; Longs Tours ; 22 ; LT-22-2019-D-F ; 482 ; 2019-07-03 11:21:11.285493 ; 36.74 
174 ; Longs Tours ; 22 ; LT-22-2019-D-F ; 482 ; 2019-07-03 11:21:12.127210 ; 36.72 
175 ; Longs Tours ; 22 ; LT-22-2019-D-F ; 482 ; 2019-07-03 11:21:12.927053 ; 36.64 
176 ; Longs Tours ; 22 ; LT-22-2019-D-F ; 482 ; 2019-07-03 11:21:13.724989 ; 36.62 
177 ; Longs Tours ; 22 ; LT-22-2019-D-F ; 482 ; 2019-07-03 11:21:14.466753 ; 36.56 
178 ; Longs Tours ; 22 ; LT-22-2019-D-F ; 482 ; 2019-07-03 11:21:15.229679 ; 36.52 
179 ; Longs Tours ; 22 ; LT-22-2019-D-F ; 482 ; 2019-07-03 11:21:16.020283 ; 36.52 
180 ; Longs Tours ; 22 ; LT-22-2019-D-F ; 482 ; 2019-07-03 11:21:16.867635 ; 36.49 
181 ; Longs Tours ; 22 ; LT-22-2019-D-F ; 482 ; 2019-07-03 11:21:17.725161 ; 36.5 
182 ; Longs Tours ; 22 ; LT-22-2019-D-F ; 482 ; 2019-07-03 11:21:18.522361 ; 36.47 
183 ; Longs Tours ; 22 ; LT-22-2019-D-F ; 482 ; 2019-07-03 11:21:19.388327 ; 36.46 
184 ; Longs Tours ; 22 ; LT-22-2019-D-F ; 482 ; 2019-07-03 11:21:20.287812 ; 36.35 
185 ; Longs Tours ; 22 ; LT-22-2019-D-F ; 482 ; 2019-07-03 11:21:21.243963 ; 36.31 
186 ; Longs Tours ; 22 ; LT-22-2019-D-F ; 482 ; 2019-07-03 11:21:22.203860 ; 36.31 
187 ; Longs Tours ; 22 ; LT-22-2019-D-F ; 482 ; 2019-07-03 11:21:23.055849 ; 36.3 
188 ; Longs Tours ; 22 ; LT-22-2019-D-F ; 482 ; 2019-07-03 11:21:23.919481 ; 36.3 
189 ; Longs Tours ; 22 ; LT-22-2019-D-F ; 482 ; 2019-07-03 11:21:24.655913 ; 36.19 
190 ; Longs Tours ; 22 ; LT-22-2019-D-F ; 482 ; 2019-07-03 11:21:25.398324 ; 36.18 
191 ; Longs Tours ; 22 ; LT-22-2019-D-F ; 482 ; 2019-07-03 11:21:26.257514 ; 36.17 
192 ; Longs Tours ; 22 ; LT-22-2019-D-F ; 482 ; 2019-07-03 11:21:27.110751 ; 36.16 
193 ; Longs Tours ; 22 ; LT-22-2019-D-F ; 482 ; 2019-07-03 11:21:27.919496 ; 36.15 
194 ; Longs Tours ; 22 ; LT-22-2019-D-F ; 482 ; 2019-07-03 11:21:28.713102 ; 36.09 
195 ; Longs Tours ; 22 ; LT-22-2019-D-F ; 482 ; 2019-07-03 11:21:29.450228 ; 36.08 
196 ; Longs Tours ; 22 ; LT-22-2019-D-F ; 482 ; 2019-07-03 11:21:30.308469 ; 36.07 
197 ; Longs Tours ; 22 ; LT-22-2019-D-F ; 482 ; 2019-07-03 11:21:31.161298 ; 36.07 
198 ; Longs Tours ; 22 ; LT-22-2019-D-F ; 482 ; 2019-07-03 11:21:32.017303 ; 36.07 
199 ; Longs Tours ; 22 ; LT-22-2019-D-F ; 482 ; 2019-07-03 11:21:32.864920 ; 36.04 
200 ; Longs Tours ; 22 ; LT-22-2019-D-F ; 482 ; 2019-07-03 11:21:33.722434 ; 36.03 
201 ; Longs Tours ; 22 ; LT-22-2019-D-F ; 482 ; 2019-07-03 11:21:34.567850 ; 36.01 
202 ; Longs Tours ; 22 ; LT-22-2019-D-F ; 482 ; 2019-07-03 11:21:35.429146 ; 35.97 
203 ; Longs Tours ; 22 ; LT-22-2019-D-F ; 482 ; 2019-07-03 11:21:36.344779 ; 35.96 
204 ; Longs Tours ; 22 ; LT-22-2019-D-F ; 482 ; 2019-07-03 11:21:37.188404 ; 35.97 
205 ; Longs Tours ; 22 ; LT-22-2019-D-F ; 482 ; 2019-07-03 11:21:37.985671 ; 35.96 
206 ; Longs Tours ; 22 ; LT-22-2019-D-F ; 482 ; 2019-07-03 11:21:38.839085 ; 35.95 
207 ; Longs Tours ; 22 ; LT-22-2019-D-F ; 482 ; 2019-07-03 11:21:39.693219 ; 35.94 
208 ; Longs Tours ; 22 ; LT-22-2019-D-F ; 482 ; 2019-07-03 11:21:40.549764 ; 35.94 
209 ; Longs Tours ; 22 ; LT-22-2019-D-F ; 482 ; 2019-07-03 11:21:41.396700 ; 35.92 
210 ; Longs Tours ; 22 ; LT-22-2019-D-F ; 482 ; 2019-07-03 11:21:42.252017 ; 35.91 
211 ; Longs Tours ; 22 ; LT-22-2019-D-F ; 482 ; 2019-07-03 11:21:43.104432 ; 35.9 
212 ; Longs Tours ; 22 ; LT-22-2019-D-F ; 482 ; 2019-07-03 11:21:44.065346 ; 35.89 
213 ; Longs Tours ; 22 ; LT-22-2019-D-F ; 482 ; 2019-07-03 11:21:44.931013 ; 35.89 
214 ; Longs Tours ; 22 ; LT-22-2019-D-F ; 482 ; 2019-07-03 11:21:45.769877 ; 35.88 
215 ; Longs Tours ; 22 ; LT-22-2019-D-F ; 482 ; 2019-07-03 11:21:46.623928 ; 35.89 
216 ; Longs Tours ; 22 ; LT-22-2019-D-F ; 482 ; 2019-07-03 11:21:47.531878 ; 35.87 
217 ; Longs Tours ; 22 ; LT-22-2019-D-F ; 482 ; 2019-07-03 11:21:48.385837 ; 35.86 
218 ; Longs Tours ; 22 ; LT-22-2019-D-F ; 482 ; 2019-07-03 11:21:59.260313 ; 35.68 
219 ; Longs Tours ; 22 ; LT-22-2019-D-F ; 482 ; 2019-07-03 11:22:10.238106 ; 35.55 
220 ; Longs Tours ; 22 ; LT-22-2019-D-F ; 482 ; 2019-07-03 11:22:21.170073 ; 35.45 
221 ; Longs Tours ; 22 ; LT-22-2019-D-F ; 482 ; 2019-07-03 11:22:31.993770 ; 35.4 
222 ; Longs Tours ; 22 ; LT-22-2019-D-F ; 482 ; 2019-07-03 11:22:42.927936 ; 35.33 
223 ; Longs Tours ; 22 ; LT-22-2019-D-F ; 482 ; 2019-07-03 11:22:53.771333 ; 35.27 
224 ; Longs Tours ; 22 ; LT-22-2019-D-F ; 482 ; 2019-07-03 11:23:04.694047 ; 35.22 
225 ; Longs Tours ; 22 ; LT-22-2019-D-F ; 482 ; 2019-07-03 11:23:15.621445 ; 35.2 
226 ; Longs Tours ; 22 ; LT-22-2019-D-F ; 482 ; 2019-07-03 11:23:26.500620 ; 35.1 
227 ; Longs Tours ; 22 ; LT-22-2019-D-F ; 482 ; 2019-07-03 11:23:37.490597 ; 35.07 
228 ; Longs Tours ; 22 ; LT-22-2019-D-F ; 482 ; 2019-07-03 11:23:48.432141 ; 35.04 
229 ; Longs Tours ; 22 ; LT-22-2019-D-F ; 482 ; 2019-07-03 11:23:59.413681 ; 35.01 
230 ; Longs Tours ; 22 ; LT-22-2019-D-F ; 482 ; 2019-07-03 11:24:10.292535 ; 34.97 
231 ; Longs Tours ; 22 ; LT-22-2019-D-F ; 482 ; 2019-07-03 11:24:21.221284 ; 34.94 
232 ; Longs Tours ; 22 ; LT-22-2019-D-F ; 482 ; 2019-07-03 11:24:32.113668 ; 34.92 
233 ; Longs Tours ; 22 ; LT-22-2019-D-F ; 482 ; 2019-07-03 11:24:42.987781 ; 34.72 
234 ; Longs Tours ; 22 ; LT-22-2019-D-F ; 482 ; 2019-07-03 11:24:53.917485 ; 34.67 
235 ; Longs Tours ; 22 ; LT-22-2019-D-F ; 482 ; 2019-07-03 11:25:04.810748 ; 34.63 
236 ; Longs Tours ; 22 ; LT-22-2019-D-F ; 482 ; 2019-07-03 11:25:15.680026 ; 34.6 
237 ; Longs Tours ; 22 ; LT-22-2019-D-F ; 482 ; 2019-07-03 11:25:26.574141 ; 34.6 
238 ; Longs Tours ; 22 ; LT-22-2019-D-F ; 482 ; 2019-07-03 11:25:37.438125 ; 34.56 
239 ; Longs Tours ; 22 ; LT-22-2019-D-F ; 482 ; 2019-07-03 11:25:48.370225 ; 34.54 
240 ; Longs Tours ; 22 ; LT-22-2019-D-F ; 482 ; 2019-07-03 11:25:59.252146 ; 34.48 
241 ; Longs Tours ; 22 ; LT-22-2019-D-F ; 482 ; 2019-07-03 11:26:10.287713 ; 34.4 
242 ; Longs Tours ; 22 ; LT-22-2019-D-F ; 482 ; 2019-07-03 11:26:21.289720 ; 34.37 
243 ; Longs Tours ; 22 ; LT-22-2019-D-F ; 482 ; 2019-07-03 11:26:32.104068 ; 34.32 
244 ; Longs Tours ; 22 ; LT-22-2019-D-F ; 482 ; 2019-07-03 11:26:43.091450 ; 34.23 
245 ; Longs Tours ; 22 ; LT-22-2019-D-F ; 482 ; 2019-07-03 11:26:53.916478 ; 34.2 
246 ; Longs Tours ; 22 ; LT-22-2019-D-F ; 482 ; 2019-07-03 11:27:04.812730 ; 34.16 
247 ; Longs Tours ; 22 ; LT-22-2019-D-F ; 482 ; 2019-07-03 11:27:15.635973 ; 34.12 
248 ; Longs Tours ; 22 ; LT-22-2019-D-F ; 482 ; 2019-07-03 11:27:26.447401 ; 34.08 
249 ; Longs Tours ; 22 ; LT-22-2019-D-F ; 482 ; 2019-07-03 11:27:37.389317 ; 34.02 
250 ; Longs Tours ; 22 ; LT-22-2019-D-F ; 482 ; 2019-07-03 11:27:48.209378 ; 33.99 
251 ; Longs Tours ; 22 ; LT-22-2019-D-F ; 482 ; 2019-07-03 11:27:59.123671 ; 33.97 
252 ; Longs Tours ; 22 ; LT-22-2019-D-F ; 482 ; 2019-07-03 11:28:09.999132 ; 33.88 
253 ; Longs Tours ; 22 ; LT-22-2019-D-F ; 482 ; 2019-07-03 11:28:20.880667 ; 33.82 
254 ; Longs Tours ; 22 ; LT-22-2019-D-F ; 482 ; 2019-07-03 11:28:31.774650 ; 33.82 
255 ; Longs Tours ; 22 ; LT-22-2019-D-F ; 482 ; 2019-07-03 11:28:42.629050 ; 33.8 
256 ; Longs Tours ; 22 ; LT-22-2019-D-F ; 482 ; 2019-07-03 11:28:53.583683 ; 33.72 
257 ; Longs Tours ; 22 ; LT-22-2019-D-F ; 482 ; 2019-07-03 11:29:24.559823 ; 33.56 
258 ; Longs Tours ; 22 ; LT-22-2019-D-F ; 482 ; 2019-07-03 11:29:55.435344 ; 33.44 
259 ; Longs Tours ; 22 ; LT-22-2019-D-F ; 482 ; 2019-07-03 11:30:26.369964 ; 33.35 
260 ; Longs Tours ; 22 ; LT-22-2019-D-F ; 482 ; 2019-07-03 11:30:57.248367 ; 33.32 
261 ; Longs Tours ; 22 ; LT-22-2019-D-F ; 482 ; 2019-07-03 11:31:28.091173 ; 33.3 
262 ; Longs Tours ; 22 ; LT-22-2019-D-F ; 482 ; 2019-07-03 11:31:59.010055 ; 33.27 
263 ; Longs Tours ; 22 ; LT-22-2019-D-F ; 482 ; 2019-07-03 11:32:29.942526 ; 33.32 
264 ; Longs Tours ; 22 ; LT-22-2019-D-F ; 482 ; 2019-07-03 11:33:00.772837 ; 33.28 
265 ; Longs Tours ; 22 ; LT-22-2019-D-F ; 482 ; 2019-07-03 11:33:31.783249 ; 33.24 
266 ; Longs Tours ; 22 ; LT-22-2019-D-F ; 482 ; 2019-07-03 11:34:02.783871 ; 33.2 
