i ; campaign ; serie ; sample ; slake ; time ; mass 
1 ; Les Fonds ; 25NT ; LF-25NT-2019-DH-C ; 594 ; 2019-07-12 09:41:56.105572 ; 129.68 
2 ; Les Fonds ; 25NT ; LF-25NT-2019-DH-C ; 594 ; 2019-07-12 09:41:57.088338 ; 129.65 
3 ; Les Fonds ; 25NT ; LF-25NT-2019-DH-C ; 594 ; 2019-07-12 09:41:57.962847 ; 129.49 
4 ; Les Fonds ; 25NT ; LF-25NT-2019-DH-C ; 594 ; 2019-07-12 09:41:58.956380 ; 129.5 
5 ; Les Fonds ; 25NT ; LF-25NT-2019-DH-C ; 594 ; 2019-07-12 09:41:59.812563 ; 129.5 
6 ; Les Fonds ; 25NT ; LF-25NT-2019-DH-C ; 594 ; 2019-07-12 09:42:00.658122 ; 129.5 
7 ; Les Fonds ; 25NT ; LF-25NT-2019-DH-C ; 594 ; 2019-07-12 09:42:01.511425 ; 77.42 
8 ; Les Fonds ; 25NT ; LF-25NT-2019-DH-C ; 594 ; 2019-07-12 09:42:02.368431 ; 47.04 
9 ; Les Fonds ; 25NT ; LF-25NT-2019-DH-C ; 594 ; 2019-07-12 09:42:03.352732 ; 48.36 
10 ; Les Fonds ; 25NT ; LF-25NT-2019-DH-C ; 594 ; 2019-07-12 09:42:04.291393 ; 50.31 
11 ; Les Fonds ; 25NT ; LF-25NT-2019-DH-C ; 594 ; 2019-07-12 09:42:05.253215 ; 51.43 
12 ; Les Fonds ; 25NT ; LF-25NT-2019-DH-C ; 594 ; 2019-07-12 09:42:06.213826 ; 52.16 
13 ; Les Fonds ; 25NT ; LF-25NT-2019-DH-C ; 594 ; 2019-07-12 09:42:07.173799 ; 52.96 
14 ; Les Fonds ; 25NT ; LF-25NT-2019-DH-C ; 594 ; 2019-07-12 09:42:08.134272 ; 53.48 
15 ; Les Fonds ; 25NT ; LF-25NT-2019-DH-C ; 594 ; 2019-07-12 09:42:09.114183 ; 53.93 
16 ; Les Fonds ; 25NT ; LF-25NT-2019-DH-C ; 594 ; 2019-07-12 09:42:10.052849 ; 54.28 
17 ; Les Fonds ; 25NT ; LF-25NT-2019-DH-C ; 594 ; 2019-07-12 09:42:11.016486 ; 54.72 
18 ; Les Fonds ; 25NT ; LF-25NT-2019-DH-C ; 594 ; 2019-07-12 09:42:11.972029 ; 54.99 
19 ; Les Fonds ; 25NT ; LF-25NT-2019-DH-C ; 594 ; 2019-07-12 09:42:12.931611 ; 55.32 
20 ; Les Fonds ; 25NT ; LF-25NT-2019-DH-C ; 594 ; 2019-07-12 09:42:13.911250 ; 55.63 
21 ; Les Fonds ; 25NT ; LF-25NT-2019-DH-C ; 594 ; 2019-07-12 09:42:14.848878 ; 55.96 
22 ; Les Fonds ; 25NT ; LF-25NT-2019-DH-C ; 594 ; 2019-07-12 09:42:15.805549 ; 56.17 
23 ; Les Fonds ; 25NT ; LF-25NT-2019-DH-C ; 594 ; 2019-07-12 09:42:16.774882 ; 56.22 
24 ; Les Fonds ; 25NT ; LF-25NT-2019-DH-C ; 594 ; 2019-07-12 09:42:17.738527 ; 56.18 
25 ; Les Fonds ; 25NT ; LF-25NT-2019-DH-C ; 594 ; 2019-07-12 09:42:18.586698 ; 56.05 
26 ; Les Fonds ; 25NT ; LF-25NT-2019-DH-C ; 594 ; 2019-07-12 09:42:19.457020 ; 55.98 
27 ; Les Fonds ; 25NT ; LF-25NT-2019-DH-C ; 594 ; 2019-07-12 09:42:20.446965 ; 55.96 
28 ; Les Fonds ; 25NT ; LF-25NT-2019-DH-C ; 594 ; 2019-07-12 09:42:21.307236 ; 55.96 
29 ; Les Fonds ; 25NT ; LF-25NT-2019-DH-C ; 594 ; 2019-07-12 09:42:22.205818 ; 55.92 
30 ; Les Fonds ; 25NT ; LF-25NT-2019-DH-C ; 594 ; 2019-07-12 09:42:23.065851 ; 55.59 
31 ; Les Fonds ; 25NT ; LF-25NT-2019-DH-C ; 594 ; 2019-07-12 09:42:24.042294 ; 54.78 
32 ; Les Fonds ; 25NT ; LF-25NT-2019-DH-C ; 594 ; 2019-07-12 09:42:24.879457 ; 54.18 
33 ; Les Fonds ; 25NT ; LF-25NT-2019-DH-C ; 594 ; 2019-07-12 09:42:25.730577 ; 54.14 
34 ; Les Fonds ; 25NT ; LF-25NT-2019-DH-C ; 594 ; 2019-07-12 09:42:26.585556 ; 54.11 
35 ; Les Fonds ; 25NT ; LF-25NT-2019-DH-C ; 594 ; 2019-07-12 09:42:27.389733 ; 54.11 
36 ; Les Fonds ; 25NT ; LF-25NT-2019-DH-C ; 594 ; 2019-07-12 09:42:28.123475 ; 53.89 
37 ; Les Fonds ; 25NT ; LF-25NT-2019-DH-C ; 594 ; 2019-07-12 09:42:28.953812 ; 53.61 
38 ; Les Fonds ; 25NT ; LF-25NT-2019-DH-C ; 594 ; 2019-07-12 09:42:29.943520 ; 53.6 
39 ; Les Fonds ; 25NT ; LF-25NT-2019-DH-C ; 594 ; 2019-07-12 09:42:30.690898 ; 53.59 
40 ; Les Fonds ; 25NT ; LF-25NT-2019-DH-C ; 594 ; 2019-07-12 09:42:31.547838 ; 53.58 
41 ; Les Fonds ; 25NT ; LF-25NT-2019-DH-C ; 594 ; 2019-07-12 09:42:32.393460 ; 53.58 
42 ; Les Fonds ; 25NT ; LF-25NT-2019-DH-C ; 594 ; 2019-07-12 09:42:33.243007 ; 53.53 
43 ; Les Fonds ; 25NT ; LF-25NT-2019-DH-C ; 594 ; 2019-07-12 09:42:34.173043 ; 53.37 
44 ; Les Fonds ; 25NT ; LF-25NT-2019-DH-C ; 594 ; 2019-07-12 09:42:34.955689 ; 53.16 
45 ; Les Fonds ; 25NT ; LF-25NT-2019-DH-C ; 594 ; 2019-07-12 09:42:35.753551 ; 52.93 
46 ; Les Fonds ; 25NT ; LF-25NT-2019-DH-C ; 594 ; 2019-07-12 09:42:36.607936 ; 52.85 
47 ; Les Fonds ; 25NT ; LF-25NT-2019-DH-C ; 594 ; 2019-07-12 09:42:37.410917 ; 52.6 
48 ; Les Fonds ; 25NT ; LF-25NT-2019-DH-C ; 594 ; 2019-07-12 09:42:38.230935 ; 52.34 
49 ; Les Fonds ; 25NT ; LF-25NT-2019-DH-C ; 594 ; 2019-07-12 09:42:39.009299 ; 52.17 
50 ; Les Fonds ; 25NT ; LF-25NT-2019-DH-C ; 594 ; 2019-07-12 09:42:39.802150 ; 52.11 
51 ; Les Fonds ; 25NT ; LF-25NT-2019-DH-C ; 594 ; 2019-07-12 09:42:40.661468 ; 52.04 
52 ; Les Fonds ; 25NT ; LF-25NT-2019-DH-C ; 594 ; 2019-07-12 09:42:41.567572 ; 52.03 
53 ; Les Fonds ; 25NT ; LF-25NT-2019-DH-C ; 594 ; 2019-07-12 09:42:42.367236 ; NA 
54 ; Les Fonds ; 25NT ; LF-25NT-2019-DH-C ; 594 ; 2019-07-12 09:42:43.133018 ; 51.51 
55 ; Les Fonds ; 25NT ; LF-25NT-2019-DH-C ; 594 ; 2019-07-12 09:42:43.865053 ; 51.25 
56 ; Les Fonds ; 25NT ; LF-25NT-2019-DH-C ; 594 ; 2019-07-12 09:42:44.605225 ; 51.12 
57 ; Les Fonds ; 25NT ; LF-25NT-2019-DH-C ; 594 ; 2019-07-12 09:42:45.356225 ; 51.06 
58 ; Les Fonds ; 25NT ; LF-25NT-2019-DH-C ; 594 ; 2019-07-12 09:42:46.096778 ; 51.03 
59 ; Les Fonds ; 25NT ; LF-25NT-2019-DH-C ; 594 ; 2019-07-12 09:42:46.956348 ; 51.02 
60 ; Les Fonds ; 25NT ; LF-25NT-2019-DH-C ; 594 ; 2019-07-12 09:42:47.825511 ; 50.97 
61 ; Les Fonds ; 25NT ; LF-25NT-2019-DH-C ; 594 ; 2019-07-12 09:42:48.606021 ; 50.7 
62 ; Les Fonds ; 25NT ; LF-25NT-2019-DH-C ; 594 ; 2019-07-12 09:42:49.406363 ; 50.61 
63 ; Les Fonds ; 25NT ; LF-25NT-2019-DH-C ; 594 ; 2019-07-12 09:42:50.257632 ; 50.44 
64 ; Les Fonds ; 25NT ; LF-25NT-2019-DH-C ; 594 ; 2019-07-12 09:42:51.060811 ; 50.15 
65 ; Les Fonds ; 25NT ; LF-25NT-2019-DH-C ; 594 ; 2019-07-12 09:42:51.883919 ; 49.75 
66 ; Les Fonds ; 25NT ; LF-25NT-2019-DH-C ; 594 ; 2019-07-12 09:42:52.662478 ; 49.2 
67 ; Les Fonds ; 25NT ; LF-25NT-2019-DH-C ; 594 ; 2019-07-12 09:42:53.465469 ; 48.26 
68 ; Les Fonds ; 25NT ; LF-25NT-2019-DH-C ; 594 ; 2019-07-12 09:42:54.308969 ; 47.41 
69 ; Les Fonds ; 25NT ; LF-25NT-2019-DH-C ; 594 ; 2019-07-12 09:42:55.118814 ; 46.74 
70 ; Les Fonds ; 25NT ; LF-25NT-2019-DH-C ; 594 ; 2019-07-12 09:42:55.913239 ; 46.16 
71 ; Les Fonds ; 25NT ; LF-25NT-2019-DH-C ; 594 ; 2019-07-12 09:42:56.731985 ; 45.97 
72 ; Les Fonds ; 25NT ; LF-25NT-2019-DH-C ; 594 ; 2019-07-12 09:42:57.516529 ; 45.63 
73 ; Les Fonds ; 25NT ; LF-25NT-2019-DH-C ; 594 ; 2019-07-12 09:42:58.363561 ; 45.27 
74 ; Les Fonds ; 25NT ; LF-25NT-2019-DH-C ; 594 ; 2019-07-12 09:42:59.166575 ; 44.74 
75 ; Les Fonds ; 25NT ; LF-25NT-2019-DH-C ; 594 ; 2019-07-12 09:42:59.966597 ; 44.16 
76 ; Les Fonds ; 25NT ; LF-25NT-2019-DH-C ; 594 ; 2019-07-12 09:43:00.785253 ; 43.76 
77 ; Les Fonds ; 25NT ; LF-25NT-2019-DH-C ; 594 ; 2019-07-12 09:43:01.590493 ; 43.27 
78 ; Les Fonds ; 25NT ; LF-25NT-2019-DH-C ; 594 ; 2019-07-12 09:43:02.420401 ; 42.86 
79 ; Les Fonds ; 25NT ; LF-25NT-2019-DH-C ; 594 ; 2019-07-12 09:43:03.215815 ; 42.63 
80 ; Les Fonds ; 25NT ; LF-25NT-2019-DH-C ; 594 ; 2019-07-12 09:43:04.023938 ; 42.42 
81 ; Les Fonds ; 25NT ; LF-25NT-2019-DH-C ; 594 ; 2019-07-12 09:43:04.819136 ; 42.19 
82 ; Les Fonds ; 25NT ; LF-25NT-2019-DH-C ; 594 ; 2019-07-12 09:43:05.644165 ; 41.91 
83 ; Les Fonds ; 25NT ; LF-25NT-2019-DH-C ; 594 ; 2019-07-12 09:43:06.477883 ; 41.68 
84 ; Les Fonds ; 25NT ; LF-25NT-2019-DH-C ; 594 ; 2019-07-12 09:43:07.268323 ; 41.16 
85 ; Les Fonds ; 25NT ; LF-25NT-2019-DH-C ; 594 ; 2019-07-12 09:43:08.075787 ; 40.73 
86 ; Les Fonds ; 25NT ; LF-25NT-2019-DH-C ; 594 ; 2019-07-12 09:43:08.874256 ; 40.45 
87 ; Les Fonds ; 25NT ; LF-25NT-2019-DH-C ; 594 ; 2019-07-12 09:43:09.677556 ; 40.08 
88 ; Les Fonds ; 25NT ; LF-25NT-2019-DH-C ; 594 ; 2019-07-12 09:43:10.545607 ; 39.64 
89 ; Les Fonds ; 25NT ; LF-25NT-2019-DH-C ; 594 ; 2019-07-12 09:43:11.535418 ; 39.3 
90 ; Les Fonds ; 25NT ; LF-25NT-2019-DH-C ; 594 ; 2019-07-12 09:43:12.340047 ; 39.1 
91 ; Les Fonds ; 25NT ; LF-25NT-2019-DH-C ; 594 ; 2019-07-12 09:43:13.141765 ; 38.92 
92 ; Les Fonds ; 25NT ; LF-25NT-2019-DH-C ; 594 ; 2019-07-12 09:43:13.941755 ; 38.76 
93 ; Les Fonds ; 25NT ; LF-25NT-2019-DH-C ; 594 ; 2019-07-12 09:43:14.764668 ; 38.66 
94 ; Les Fonds ; 25NT ; LF-25NT-2019-DH-C ; 594 ; 2019-07-12 09:43:15.593580 ; 38.51 
95 ; Les Fonds ; 25NT ; LF-25NT-2019-DH-C ; 594 ; 2019-07-12 09:43:16.393652 ; 38.25 
96 ; Les Fonds ; 25NT ; LF-25NT-2019-DH-C ; 594 ; 2019-07-12 09:43:17.188434 ; 38.04 
97 ; Les Fonds ; 25NT ; LF-25NT-2019-DH-C ; 594 ; 2019-07-12 09:43:17.996834 ; 37.93 
98 ; Les Fonds ; 25NT ; LF-25NT-2019-DH-C ; 594 ; 2019-07-12 09:43:18.807332 ; 37.8 
99 ; Les Fonds ; 25NT ; LF-25NT-2019-DH-C ; 594 ; 2019-07-12 09:43:19.669088 ; 37.63 
100 ; Les Fonds ; 25NT ; LF-25NT-2019-DH-C ; 594 ; 2019-07-12 09:43:20.660811 ; 37.51 
101 ; Les Fonds ; 25NT ; LF-25NT-2019-DH-C ; 594 ; 2019-07-12 09:43:21.460335 ; 37.41 
102 ; Les Fonds ; 25NT ; LF-25NT-2019-DH-C ; 594 ; 2019-07-12 09:43:22.256783 ; 37.29 
103 ; Les Fonds ; 25NT ; LF-25NT-2019-DH-C ; 594 ; 2019-07-12 09:43:23.066067 ; 37.19 
104 ; Les Fonds ; 25NT ; LF-25NT-2019-DH-C ; 594 ; 2019-07-12 09:43:23.860791 ; 37.05 
105 ; Les Fonds ; 25NT ; LF-25NT-2019-DH-C ; 594 ; 2019-07-12 09:43:24.747745 ; 36.69 
106 ; Les Fonds ; 25NT ; LF-25NT-2019-DH-C ; 594 ; 2019-07-12 09:43:25.731289 ; 36.14 
107 ; Les Fonds ; 25NT ; LF-25NT-2019-DH-C ; 594 ; 2019-07-12 09:43:26.527240 ; 35.71 
108 ; Les Fonds ; 25NT ; LF-25NT-2019-DH-C ; 594 ; 2019-07-12 09:43:27.324517 ; 35.54 
109 ; Les Fonds ; 25NT ; LF-25NT-2019-DH-C ; 594 ; 2019-07-12 09:43:28.128680 ; 35.45 
110 ; Les Fonds ; 25NT ; LF-25NT-2019-DH-C ; 594 ; 2019-07-12 09:43:28.948284 ; 35.33 
111 ; Les Fonds ; 25NT ; LF-25NT-2019-DH-C ; 594 ; 2019-07-12 09:43:29.782247 ; 35.15 
112 ; Les Fonds ; 25NT ; LF-25NT-2019-DH-C ; 594 ; 2019-07-12 09:43:30.579560 ; 34.95 
113 ; Les Fonds ; 25NT ; LF-25NT-2019-DH-C ; 594 ; 2019-07-12 09:43:31.383679 ; 34.59 
114 ; Les Fonds ; 25NT ; LF-25NT-2019-DH-C ; 594 ; 2019-07-12 09:43:32.179698 ; 33.87 
115 ; Les Fonds ; 25NT ; LF-25NT-2019-DH-C ; 594 ; 2019-07-12 09:43:32.980271 ; 33.37 
116 ; Les Fonds ; 25NT ; LF-25NT-2019-DH-C ; 594 ; 2019-07-12 09:43:33.853806 ; 33.05 
117 ; Les Fonds ; 25NT ; LF-25NT-2019-DH-C ; 594 ; 2019-07-12 09:43:34.850423 ; 32.83 
118 ; Les Fonds ; 25NT ; LF-25NT-2019-DH-C ; 594 ; 2019-07-12 09:43:35.646219 ; 32.58 
119 ; Les Fonds ; 25NT ; LF-25NT-2019-DH-C ; 594 ; 2019-07-12 09:43:36.449323 ; 32.23 
120 ; Les Fonds ; 25NT ; LF-25NT-2019-DH-C ; 594 ; 2019-07-12 09:43:37.243137 ; 31.76 
121 ; Les Fonds ; 25NT ; LF-25NT-2019-DH-C ; 594 ; 2019-07-12 09:43:38.070784 ; 31.35 
122 ; Les Fonds ; 25NT ; LF-25NT-2019-DH-C ; 594 ; 2019-07-12 09:43:38.901482 ; 31.03 
123 ; Les Fonds ; 25NT ; LF-25NT-2019-DH-C ; 594 ; 2019-07-12 09:43:39.706085 ; 30.78 
124 ; Les Fonds ; 25NT ; LF-25NT-2019-DH-C ; 594 ; 2019-07-12 09:43:40.500046 ; 30.55 
125 ; Les Fonds ; 25NT ; LF-25NT-2019-DH-C ; 594 ; 2019-07-12 09:43:41.299862 ; 30.27 
126 ; Les Fonds ; 25NT ; LF-25NT-2019-DH-C ; 594 ; 2019-07-12 09:43:42.101719 ; 29.93 
127 ; Les Fonds ; 25NT ; LF-25NT-2019-DH-C ; 594 ; 2019-07-12 09:43:42.972758 ; 29.46 
128 ; Les Fonds ; 25NT ; LF-25NT-2019-DH-C ; 594 ; 2019-07-12 09:43:43.965381 ; 28.26 
129 ; Les Fonds ; 25NT ; LF-25NT-2019-DH-C ; 594 ; 2019-07-12 09:43:44.769585 ; 27.26 
130 ; Les Fonds ; 25NT ; LF-25NT-2019-DH-C ; 594 ; 2019-07-12 09:43:45.570534 ; 26.76 
131 ; Les Fonds ; 25NT ; LF-25NT-2019-DH-C ; 594 ; 2019-07-12 09:43:46.371132 ; 26.27 
132 ; Les Fonds ; 25NT ; LF-25NT-2019-DH-C ; 594 ; 2019-07-12 09:43:47.183908 ; 25.83 
133 ; Les Fonds ; 25NT ; LF-25NT-2019-DH-C ; 594 ; 2019-07-12 09:43:48.022835 ; 25.63 
134 ; Les Fonds ; 25NT ; LF-25NT-2019-DH-C ; 594 ; 2019-07-12 09:43:48.816492 ; 25.37 
135 ; Les Fonds ; 25NT ; LF-25NT-2019-DH-C ; 594 ; 2019-07-12 09:43:49.624755 ; 25.18 
136 ; Les Fonds ; 25NT ; LF-25NT-2019-DH-C ; 594 ; 2019-07-12 09:43:50.424243 ; 24.94 
137 ; Les Fonds ; 25NT ; LF-25NT-2019-DH-C ; 594 ; 2019-07-12 09:43:51.216528 ; 24.74 
138 ; Les Fonds ; 25NT ; LF-25NT-2019-DH-C ; 594 ; 2019-07-12 09:43:52.095622 ; 24.68 
139 ; Les Fonds ; 25NT ; LF-25NT-2019-DH-C ; 594 ; 2019-07-12 09:43:53.036792 ; 24.6 
140 ; Les Fonds ; 25NT ; LF-25NT-2019-DH-C ; 594 ; 2019-07-12 09:43:53.837456 ; 24.49 
141 ; Les Fonds ; 25NT ; LF-25NT-2019-DH-C ; 594 ; 2019-07-12 09:43:54.637469 ; 24.36 
142 ; Les Fonds ; 25NT ; LF-25NT-2019-DH-C ; 594 ; 2019-07-12 09:43:55.436033 ; 24.2 
143 ; Les Fonds ; 25NT ; LF-25NT-2019-DH-C ; 594 ; 2019-07-12 09:43:56.248781 ; 24.01 
144 ; Les Fonds ; 25NT ; LF-25NT-2019-DH-C ; 594 ; 2019-07-12 09:43:57.033511 ; 23.92 
145 ; Les Fonds ; 25NT ; LF-25NT-2019-DH-C ; 594 ; 2019-07-12 09:43:57.832953 ; 23.89 
146 ; Les Fonds ; 25NT ; LF-25NT-2019-DH-C ; 594 ; 2019-07-12 09:43:58.638838 ; 23.88 
147 ; Les Fonds ; 25NT ; LF-25NT-2019-DH-C ; 594 ; 2019-07-12 09:43:59.491071 ; 23.85 
148 ; Les Fonds ; 25NT ; LF-25NT-2019-DH-C ; 594 ; 2019-07-12 09:44:00.463030 ; 23.81 
149 ; Les Fonds ; 25NT ; LF-25NT-2019-DH-C ; 594 ; 2019-07-12 09:44:01.304387 ; 23.69 
150 ; Les Fonds ; 25NT ; LF-25NT-2019-DH-C ; 594 ; 2019-07-12 09:44:02.099758 ; 23.67 
151 ; Les Fonds ; 25NT ; LF-25NT-2019-DH-C ; 594 ; 2019-07-12 09:44:02.954871 ; 23.66 
152 ; Les Fonds ; 25NT ; LF-25NT-2019-DH-C ; 594 ; 2019-07-12 09:44:03.769991 ; 23.65 
153 ; Les Fonds ; 25NT ; LF-25NT-2019-DH-C ; 594 ; 2019-07-12 09:44:04.606899 ; 23.65 
154 ; Les Fonds ; 25NT ; LF-25NT-2019-DH-C ; 594 ; 2019-07-12 09:44:05.422120 ; 23.62 
155 ; Les Fonds ; 25NT ; LF-25NT-2019-DH-C ; 594 ; 2019-07-12 09:44:06.257013 ; 23.5 
156 ; Les Fonds ; 25NT ; LF-25NT-2019-DH-C ; 594 ; 2019-07-12 09:44:07.166282 ; 23.42 
157 ; Les Fonds ; 25NT ; LF-25NT-2019-DH-C ; 594 ; 2019-07-12 09:44:08.020980 ; 23.4 
158 ; Les Fonds ; 25NT ; LF-25NT-2019-DH-C ; 594 ; 2019-07-12 09:44:08.879983 ; 23.39 
159 ; Les Fonds ; 25NT ; LF-25NT-2019-DH-C ; 594 ; 2019-07-12 09:44:09.763283 ; 23.37 
160 ; Les Fonds ; 25NT ; LF-25NT-2019-DH-C ; 594 ; 2019-07-12 09:44:10.529369 ; 23.33 
161 ; Les Fonds ; 25NT ; LF-25NT-2019-DH-C ; 594 ; 2019-07-12 09:44:11.378937 ; 23.3 
162 ; Les Fonds ; 25NT ; LF-25NT-2019-DH-C ; 594 ; 2019-07-12 09:44:12.233729 ; 23.26 
163 ; Les Fonds ; 25NT ; LF-25NT-2019-DH-C ; 594 ; 2019-07-12 09:44:13.035020 ; 23.17 
164 ; Les Fonds ; 25NT ; LF-25NT-2019-DH-C ; 594 ; 2019-07-12 09:44:13.834528 ; 23.15 
165 ; Les Fonds ; 25NT ; LF-25NT-2019-DH-C ; 594 ; 2019-07-12 09:44:14.713999 ; 23.15 
166 ; Les Fonds ; 25NT ; LF-25NT-2019-DH-C ; 594 ; 2019-07-12 09:44:15.536537 ; 23.13 
167 ; Les Fonds ; 25NT ; LF-25NT-2019-DH-C ; 594 ; 2019-07-12 09:44:16.389669 ; 23.12 
168 ; Les Fonds ; 25NT ; LF-25NT-2019-DH-C ; 594 ; 2019-07-12 09:44:17.247657 ; 23.11 
169 ; Les Fonds ; 25NT ; LF-25NT-2019-DH-C ; 594 ; 2019-07-12 09:44:18.104778 ; 23.08 
170 ; Les Fonds ; 25NT ; LF-25NT-2019-DH-C ; 594 ; 2019-07-12 09:44:19.078913 ; 23.06 
171 ; Les Fonds ; 25NT ; LF-25NT-2019-DH-C ; 594 ; 2019-07-12 09:44:20.078078 ; 23.06 
172 ; Les Fonds ; 25NT ; LF-25NT-2019-DH-C ; 594 ; 2019-07-12 09:44:20.922488 ; 23.05 
173 ; Les Fonds ; 25NT ; LF-25NT-2019-DH-C ; 594 ; 2019-07-12 09:44:21.797939 ; 23.04 
174 ; Les Fonds ; 25NT ; LF-25NT-2019-DH-C ; 594 ; 2019-07-12 09:44:22.636061 ; 23.03 
175 ; Les Fonds ; 25NT ; LF-25NT-2019-DH-C ; 594 ; 2019-07-12 09:44:23.488523 ; 23.03 
176 ; Les Fonds ; 25NT ; LF-25NT-2019-DH-C ; 594 ; 2019-07-12 09:44:24.354402 ; 23.01 
177 ; Les Fonds ; 25NT ; LF-25NT-2019-DH-C ; 594 ; 2019-07-12 09:44:25.194073 ; 22.97 
178 ; Les Fonds ; 25NT ; LF-25NT-2019-DH-C ; 594 ; 2019-07-12 09:44:26.153373 ; 22.95 
179 ; Les Fonds ; 25NT ; LF-25NT-2019-DH-C ; 594 ; 2019-07-12 09:44:27.113631 ; 22.94 
180 ; Les Fonds ; 25NT ; LF-25NT-2019-DH-C ; 594 ; 2019-07-12 09:44:27.968330 ; 22.93 
181 ; Les Fonds ; 25NT ; LF-25NT-2019-DH-C ; 594 ; 2019-07-12 09:44:28.822481 ; 22.92 
182 ; Les Fonds ; 25NT ; LF-25NT-2019-DH-C ; 594 ; 2019-07-12 09:44:29.692624 ; 22.91 
183 ; Les Fonds ; 25NT ; LF-25NT-2019-DH-C ; 594 ; 2019-07-12 09:44:30.528186 ; 22.91 
184 ; Les Fonds ; 25NT ; LF-25NT-2019-DH-C ; 594 ; 2019-07-12 09:44:31.321377 ; 22.89 
185 ; Les Fonds ; 25NT ; LF-25NT-2019-DH-C ; 594 ; 2019-07-12 09:44:32.184692 ; 22.88 
186 ; Les Fonds ; 25NT ; LF-25NT-2019-DH-C ; 594 ; 2019-07-12 09:44:33.091978 ; 22.87 
187 ; Les Fonds ; 25NT ; LF-25NT-2019-DH-C ; 594 ; 2019-07-12 09:44:34.068933 ; 22.88 
188 ; Les Fonds ; 25NT ; LF-25NT-2019-DH-C ; 594 ; 2019-07-12 09:44:34.900547 ; 22.75 
189 ; Les Fonds ; 25NT ; LF-25NT-2019-DH-C ; 594 ; 2019-07-12 09:44:35.754926 ; 22.68 
190 ; Les Fonds ; 25NT ; LF-25NT-2019-DH-C ; 594 ; 2019-07-12 09:44:36.554011 ; 22.67 
191 ; Les Fonds ; 25NT ; LF-25NT-2019-DH-C ; 594 ; 2019-07-12 09:44:37.410534 ; 22.67 
192 ; Les Fonds ; 25NT ; LF-25NT-2019-DH-C ; 594 ; 2019-07-12 09:44:38.148317 ; 22.66 
193 ; Les Fonds ; 25NT ; LF-25NT-2019-DH-C ; 594 ; 2019-07-12 09:44:39.031195 ; 22.66 
194 ; Les Fonds ; 25NT ; LF-25NT-2019-DH-C ; 594 ; 2019-07-12 09:44:39.856140 ; 22.65 
195 ; Les Fonds ; 25NT ; LF-25NT-2019-DH-C ; 594 ; 2019-07-12 09:44:40.714788 ; 22.65 
196 ; Les Fonds ; 25NT ; LF-25NT-2019-DH-C ; 594 ; 2019-07-12 09:44:41.562607 ; 22.64 
197 ; Les Fonds ; 25NT ; LF-25NT-2019-DH-C ; 594 ; 2019-07-12 09:44:42.421809 ; 22.63 
198 ; Les Fonds ; 25NT ; LF-25NT-2019-DH-C ; 594 ; 2019-07-12 09:44:43.271541 ; 22.63 
199 ; Les Fonds ; 25NT ; LF-25NT-2019-DH-C ; 594 ; 2019-07-12 09:44:44.142956 ; 22.62 
200 ; Les Fonds ; 25NT ; LF-25NT-2019-DH-C ; 594 ; 2019-07-12 09:44:44.981777 ; 22.62 
201 ; Les Fonds ; 25NT ; LF-25NT-2019-DH-C ; 594 ; 2019-07-12 09:44:45.829779 ; 22.61 
202 ; Les Fonds ; 25NT ; LF-25NT-2019-DH-C ; 594 ; 2019-07-12 09:44:46.635440 ; 22.6 
203 ; Les Fonds ; 25NT ; LF-25NT-2019-DH-C ; 594 ; 2019-07-12 09:44:47.491122 ; 22.6 
204 ; Les Fonds ; 25NT ; LF-25NT-2019-DH-C ; 594 ; 2019-07-12 09:44:48.352771 ; 22.59 
205 ; Les Fonds ; 25NT ; LF-25NT-2019-DH-C ; 594 ; 2019-07-12 09:44:49.194885 ; 22.59 
206 ; Les Fonds ; 25NT ; LF-25NT-2019-DH-C ; 594 ; 2019-07-12 09:44:50.043588 ; 22.57 
207 ; Les Fonds ; 25NT ; LF-25NT-2019-DH-C ; 594 ; 2019-07-12 09:44:50.903307 ; 22.57 
208 ; Les Fonds ; 25NT ; LF-25NT-2019-DH-C ; 594 ; 2019-07-12 09:44:51.767431 ; 22.57 
209 ; Les Fonds ; 25NT ; LF-25NT-2019-DH-C ; 594 ; 2019-07-12 09:44:52.606803 ; 22.56 
210 ; Les Fonds ; 25NT ; LF-25NT-2019-DH-C ; 594 ; 2019-07-12 09:44:53.480471 ; 22.56 
211 ; Les Fonds ; 25NT ; LF-25NT-2019-DH-C ; 594 ; 2019-07-12 09:44:54.306755 ; 22.56 
212 ; Les Fonds ; 25NT ; LF-25NT-2019-DH-C ; 594 ; 2019-07-12 09:44:55.163114 ; 22.55 
213 ; Les Fonds ; 25NT ; LF-25NT-2019-DH-C ; 594 ; 2019-07-12 09:44:56.019803 ; 22.55 
214 ; Les Fonds ; 25NT ; LF-25NT-2019-DH-C ; 594 ; 2019-07-12 09:44:56.871128 ; 22.55 
215 ; Les Fonds ; 25NT ; LF-25NT-2019-DH-C ; 594 ; 2019-07-12 09:45:07.733224 ; 22.42 
216 ; Les Fonds ; 25NT ; LF-25NT-2019-DH-C ; 594 ; 2019-07-12 09:45:18.583511 ; 21.93 
217 ; Les Fonds ; 25NT ; LF-25NT-2019-DH-C ; 594 ; 2019-07-12 09:45:29.500169 ; 21.86 
218 ; Les Fonds ; 25NT ; LF-25NT-2019-DH-C ; 594 ; 2019-07-12 09:45:40.486829 ; 21.81 
219 ; Les Fonds ; 25NT ; LF-25NT-2019-DH-C ; 594 ; 2019-07-12 09:45:51.312644 ; 21.42 
220 ; Les Fonds ; 25NT ; LF-25NT-2019-DH-C ; 594 ; 2019-07-12 09:46:02.248312 ; 21.15 
221 ; Les Fonds ; 25NT ; LF-25NT-2019-DH-C ; 594 ; 2019-07-12 09:46:13.201026 ; 21.09 
222 ; Les Fonds ; 25NT ; LF-25NT-2019-DH-C ; 594 ; 2019-07-12 09:46:24.115789 ; 21.05 
223 ; Les Fonds ; 25NT ; LF-25NT-2019-DH-C ; 594 ; 2019-07-12 09:46:34.990274 ; 21.02 
224 ; Les Fonds ; 25NT ; LF-25NT-2019-DH-C ; 594 ; 2019-07-12 09:46:45.980832 ; 20.97 
225 ; Les Fonds ; 25NT ; LF-25NT-2019-DH-C ; 594 ; 2019-07-12 09:46:56.804147 ; 20.8 
226 ; Les Fonds ; 25NT ; LF-25NT-2019-DH-C ; 594 ; 2019-07-12 09:47:07.707431 ; 20.68 
227 ; Les Fonds ; 25NT ; LF-25NT-2019-DH-C ; 594 ; 2019-07-12 09:47:18.560937 ; 20.35 
228 ; Les Fonds ; 25NT ; LF-25NT-2019-DH-C ; 594 ; 2019-07-12 09:47:29.394557 ; 20.09 
229 ; Les Fonds ; 25NT ; LF-25NT-2019-DH-C ; 594 ; 2019-07-12 09:47:40.384925 ; 19.61 
230 ; Les Fonds ; 25NT ; LF-25NT-2019-DH-C ; 594 ; 2019-07-12 09:47:51.209940 ; 19.52 
231 ; Les Fonds ; 25NT ; LF-25NT-2019-DH-C ; 594 ; 2019-07-12 09:48:02.215398 ; 19.41 
232 ; Les Fonds ; 25NT ; LF-25NT-2019-DH-C ; 594 ; 2019-07-12 09:48:13.074835 ; 18.79 
233 ; Les Fonds ; 25NT ; LF-25NT-2019-DH-C ; 594 ; 2019-07-12 09:48:24.063159 ; 18.65 
234 ; Les Fonds ; 25NT ; LF-25NT-2019-DH-C ; 594 ; 2019-07-12 09:48:34.831240 ; 18.43 
235 ; Les Fonds ; 25NT ; LF-25NT-2019-DH-C ; 594 ; 2019-07-12 09:48:45.660669 ; 18.15 
236 ; Les Fonds ; 25NT ; LF-25NT-2019-DH-C ; 594 ; 2019-07-12 09:48:56.613234 ; 18.1 
237 ; Les Fonds ; 25NT ; LF-25NT-2019-DH-C ; 594 ; 2019-07-12 09:49:07.580563 ; 17.92 
238 ; Les Fonds ; 25NT ; LF-25NT-2019-DH-C ; 594 ; 2019-07-12 09:49:18.407000 ; 16.79 
239 ; Les Fonds ; 25NT ; LF-25NT-2019-DH-C ; 594 ; 2019-07-12 09:49:29.394059 ; 16.23 
240 ; Les Fonds ; 25NT ; LF-25NT-2019-DH-C ; 594 ; 2019-07-12 09:49:40.274777 ; 15.68 
241 ; Les Fonds ; 25NT ; LF-25NT-2019-DH-C ; 594 ; 2019-07-12 09:49:51.173041 ; 15.64 
242 ; Les Fonds ; 25NT ; LF-25NT-2019-DH-C ; 594 ; 2019-07-12 09:50:02.088008 ; 15.61 
243 ; Les Fonds ; 25NT ; LF-25NT-2019-DH-C ; 594 ; 2019-07-12 09:50:13.020020 ; 15.55 
244 ; Les Fonds ; 25NT ; LF-25NT-2019-DH-C ; 594 ; 2019-07-12 09:50:23.896710 ; 15.48 
245 ; Les Fonds ; 25NT ; LF-25NT-2019-DH-C ; 594 ; 2019-07-12 09:50:34.889362 ; 15.44 
246 ; Les Fonds ; 25NT ; LF-25NT-2019-DH-C ; 594 ; 2019-07-12 09:50:45.745191 ; 15.41 
247 ; Les Fonds ; 25NT ; LF-25NT-2019-DH-C ; 594 ; 2019-07-12 09:50:56.588696 ; 15.38 
248 ; Les Fonds ; 25NT ; LF-25NT-2019-DH-C ; 594 ; 2019-07-12 09:51:07.488246 ; 15.35 
249 ; Les Fonds ; 25NT ; LF-25NT-2019-DH-C ; 594 ; 2019-07-12 09:51:18.302982 ; 15.33 
250 ; Les Fonds ; 25NT ; LF-25NT-2019-DH-C ; 594 ; 2019-07-12 09:51:29.234060 ; 15.32 
251 ; Les Fonds ; 25NT ; LF-25NT-2019-DH-C ; 594 ; 2019-07-12 09:51:40.134335 ; 15.26 
252 ; Les Fonds ; 25NT ; LF-25NT-2019-DH-C ; 594 ; 2019-07-12 09:51:51.098371 ; 15.22 
253 ; Les Fonds ; 25NT ; LF-25NT-2019-DH-C ; 594 ; 2019-07-12 09:52:01.926675 ; 15.18 
254 ; Les Fonds ; 25NT ; LF-25NT-2019-DH-C ; 594 ; 2019-07-12 09:52:32.856178 ; 15.11 
255 ; Les Fonds ; 25NT ; LF-25NT-2019-DH-C ; 594 ; 2019-07-12 09:53:03.685533 ; 15.01 
256 ; Les Fonds ; 25NT ; LF-25NT-2019-DH-C ; 594 ; 2019-07-12 09:53:34.692997 ; 14.28 
257 ; Les Fonds ; 25NT ; LF-25NT-2019-DH-C ; 594 ; 2019-07-12 09:54:05.502285 ; 13.85 
258 ; Les Fonds ; 25NT ; LF-25NT-2019-DH-C ; 594 ; 2019-07-12 09:54:36.486794 ; 13.42 
259 ; Les Fonds ; 25NT ; LF-25NT-2019-DH-C ; 594 ; 2019-07-12 09:55:07.420184 ; 13.12 
260 ; Les Fonds ; 25NT ; LF-25NT-2019-DH-C ; 594 ; 2019-07-12 09:55:38.243685 ; 12.49 
261 ; Les Fonds ; 25NT ; LF-25NT-2019-DH-C ; 594 ; 2019-07-12 09:56:09.148895 ; 12.33 
262 ; Les Fonds ; 25NT ; LF-25NT-2019-DH-C ; 594 ; 2019-07-12 09:56:40.115154 ; 12.21 
263 ; Les Fonds ; 25NT ; LF-25NT-2019-DH-C ; 594 ; 2019-07-12 09:57:11.100091 ; 12.05 
264 ; Les Fonds ; 25NT ; LF-25NT-2019-DH-C ; 594 ; 2019-07-12 09:57:42.088051 ; 11.88 
265 ; Les Fonds ; 25NT ; LF-25NT-2019-DH-C ; 594 ; 2019-07-12 09:58:12.970251 ; 11.86 
266 ; Les Fonds ; 25NT ; LF-25NT-2019-DH-C ; 594 ; 2019-07-12 09:58:43.959029 ; 11.77 
