,essai,parcelle,modalite,essai_b,parcelle_a,parcelle_b,corg,a,cn,hum,xxx_1,xxx_2,xxx_3,xxx_4,xxx_5,xxx_6,xxx_7,bloc
1,Ernage A,2,P1 K1,PK,PK_02,E-2-2019,NA,NA,NA,NA,NA,NA,NA,NA,NA,NA,NA
2,Ernage A,16,P1 K0,PK,PK_16,E-16-2019,NA,NA,NA,NA,NA,NA,NA,NA,NA,NA,NA
3,Ernage A,20,P1 K2,PK,PK_20,E-20-2019,NA,NA,NA,NA,NA,NA,NA,NA,NA,NA,NA
4,Ernage A,35,P2 K1,PK,PK_35,E-35-2019,NA,NA,NA,NA,NA,NA,NA,NA,NA,NA,NA
5,Ernage A,39,P2 K0,PK,PK_39,E-39-2019,NA,NA,NA,NA,NA,NA,NA,NA,NA,NA,NA
6,Ernage A,40,P2 K2,PK,PK_40,E-40-2019,NA,NA,NA,NA,NA,NA,NA,NA,NA,NA,NA
7,Ernage A,41,P1 K2,PK,PK_41,E-41-2019,NA,NA,NA,NA,NA,NA,NA,NA,NA,NA,NA
8,Ernage A,47,P1 K0,PK,PK_47,E-47-2019,NA,NA,NA,NA,NA,NA,NA,NA,NA,NA,NA
9,Ernage A,51,P1 K1,PK,PK_51,E-51-2019,NA,NA,NA,NA,NA,NA,NA,NA,NA,NA,NA
10,Longs Tours,1,T4,MO,LT_01,LT-1-2019,NA,NA,NA,NA,NA,NA,NA,NA,NA,NA,NA
11,Longs Tours,3,T6,MO,LT_03,LT-3-2019,NA,NA,NA,NA,NA,NA,NA,NA,NA,NA,NA
12,Longs Tours,6,T1,MO,LT_06,LT-6-2019,NA,NA,NA,NA,NA,NA,NA,NA,NA,NA,NA
13,Longs Tours,7,T6,MO,LT_07,LT-7-2019,NA,NA,NA,NA,NA,NA,NA,NA,NA,NA,NA
14,Longs Tours,8,T1,MO,LT_08,LT-8-2019,NA,NA,NA,NA,NA,NA,NA,NA,NA,NA,NA
15,Longs Tours,10,T4,MO,LT_10,LT-10-2019,NA,NA,NA,NA,NA,NA,NA,NA,NA,NA,NA
16,Longs Tours,14,T4,MO,LT_14,LT-14-2019,NA,NA,NA,NA,NA,NA,NA,NA,NA,NA,NA
17,Longs Tours,17,T1,MO,LT_17,LT-17-2019,NA,NA,NA,NA,NA,NA,NA,NA,NA,NA,NA
18,Longs Tours,18,T6,MO,LT_18,LT-18-2019,NA,NA,NA,NA,NA,NA,NA,NA,NA,NA,NA
19,Longs Tours,20,T6,MO,LT_20,LT-20-2019,NA,NA,NA,NA,NA,NA,NA,NA,NA,NA,NA
20,Longs Tours,22,T1,MO,LT_22,LT-22-2019,NA,NA,NA,NA,NA,NA,NA,NA,NA,NA,NA
21,Longs Tours,23,T4,MO,LT_23,LT-23-2019,NA,NA,NA,NA,NA,NA,NA,NA,NA,NA,NA
22,Longs Tours,27,T1,MO,LT_27,LT-27-2019,NA,NA,NA,NA,NA,NA,NA,NA,NA,NA,NA
23,Longs Tours,28,T6,MO,LT_28,LT-28-2019,NA,NA,NA,NA,NA,NA,NA,NA,NA,NA,NA
24,Longs Tours,30,T4,MO,LT_30,LT-30-2019,NA,NA,NA,NA,NA,NA,NA,NA,NA,NA,NA
25,Longs Tours,31,T1,MO,LT_31,LT-31-2019,NA,NA,NA,NA,NA,NA,NA,NA,NA,NA,NA
26,Longs Tours,33,T4,MO,LT_33,LT-33-2019,NA,NA,NA,NA,NA,NA,NA,NA,NA,NA,NA
27,Longs Tours,35,T6,MO,LT_35,LT-35-2019,NA,NA,NA,NA,NA,NA,NA,NA,NA,NA,NA
28,Les Fonds,3,Labour,Tvl du sol,NA,NA,NA,NA,NA,NA,NA,NA,NA,NA,NA,NA,NA
29,Les Fonds,7,TCS,Tvl du sol,NA,NA,NA,NA,NA,NA,NA,NA,NA,NA,NA,NA,NA
30,Les Fonds,13,TCS,Tvl du sol,NA,NA,NA,NA,NA,NA,NA,NA,NA,NA,NA,NA,NA
31,Les Fonds,15,Labour,Tvl du sol,NA,NA,NA,NA,NA,NA,NA,NA,NA,NA,NA,NA,NA
32,Les Fonds,17,TCS,Tvl du sol,NA,NA,NA,NA,NA,NA,NA,NA,NA,NA,NA,NA,NA
33,Les Fonds,21,Labour,Tvl du sol,NA,NA,NA,NA,NA,NA,NA,NA,NA,NA,NA,NA,NA
34,Les Fonds,25,Labour,Tvl du sol,NA,NA,NA,NA,NA,NA,NA,NA,NA,NA,NA,NA,NA
35,Les Fonds,27,TCS,Tvl du sol,NA,NA,NA,NA,NA,NA,NA,NA,NA,NA,NA,NA,NA
36,Les Fonds,3NT,Labour,Tvl du sol,LF_03,LF-3NT-2019,NA,NA,NA,NA,NA,NA,NA,NA,NA,NA,NA
37,Les Fonds,7NT,TCS,Tvl du sol,LF_07,LF-7NT-2019,NA,NA,NA,NA,NA,NA,NA,NA,NA,NA,NA
38,Les Fonds,13NT,TCS,Tvl du sol,LF_13,LF-13NT-2019,NA,NA,NA,NA,NA,NA,NA,NA,NA,NA,NA
39,Les Fonds,15NT,Labour,Tvl du sol,LF_15,LF-15NT-2019,NA,NA,NA,NA,NA,NA,NA,NA,NA,NA,NA
40,Les Fonds,17NT,TCS,Tvl du sol,LF_17,LF-17NT-2019,NA,NA,NA,NA,NA,NA,NA,NA,NA,NA,NA
41,Les Fonds,21NT,Labour,Tvl du sol,LF_21,LF-21NT-2019,NA,NA,NA,NA,NA,NA,NA,NA,NA,NA,NA
42,Les Fonds,25NT,Labour,Tvl du sol,LF_25,LF-25NT-2019,NA,NA,NA,NA,NA,NA,NA,NA,NA,NA,NA
43,Les Fonds,27NT,TCS,Tvl du sol,LF_27,LF-27NT-2019,NA,NA,NA,NA,NA,NA,NA,NA,NA,NA,NA
44,Vissac,Pa2,Pâturage > 20 ans,Vissac/prairies,Vissac_Pa2,Pa. 2,NA,NA,NA,NA,NA,NA,NA,NA,NA,NA,NA
45,Vissac,Pa4,Pâturage > 20 ans,Vissac/prairies,Vissac_Pa4,Pa. 4,NA,NA,NA,NA,NA,NA,NA,NA,NA,NA,NA
46,Vissac,Pa8,Fauche/pâture 15-20 ans,Vissac/prairies,Vissac_Pa8,Pa. 8,NA,NA,NA,NA,NA,NA,NA,NA,NA,NA,NA
47,Vissac,Pa10,Fauche/pâture 15-20 ans,Vissac/prairies,Vissac_Pa10,Pa. 10,NA,NA,NA,NA,NA,NA,NA,NA,NA,NA,NA
48,Vissac,Pa13,Fauche,Vissac/prairies,Vissac_Pa13,Pa. 13,NA,NA,NA,NA,NA,NA,NA,NA,NA,NA,NA
49,Vissac,PaPorcD,Fauche/pâture 8 ans,Vissac/prairies,Vissac_PaPorcD,Pa. Porc D,NA,NA,NA,NA,NA,NA,NA,NA,NA,NA,NA
